CIC_OEM_VERS = 2.0
CREATION_DATE = 2023-03-16T10:50:04.733114
ORIGINATOR = ISAE-SUPAERO


META_START
OBJECT_NAME = horus_eye_1
OBJECT_ID = horus_eye_1
CENTER_NAME = Earth
REF_FRAME = EME2000
TIME_SYSTEM = UTC
START_TIME = 2019-12-31T19:00:00.000
USEABLE_START_TIME = 2019-12-31T19:00:00.000
USEABLE_STOP_TIME = 2019-12-31T20:40:50.000
STOP_TIME = 2019-12-31T20:40:50.000
INTERPOLATION = lagrange
INTERPOLATION_DEGREE = 5
META_STOP


58848 68400.0 6216.451599999999 -538.17118 3548.492 -3.7259149000000003 -0.96768066 6.3805109
58848 68410.0 6178.8580999999995 -547.8188100000001 3612.1047000000003 -3.7927082000000003 -0.96182869 6.3419253
58848 68420.0 6140.5988 -557.40741 3675.3282000000004 -3.8590928 -0.95587307 6.3026562
58848 68430.0 6101.6777 -566.9359300000001 3738.1556 -3.9250616000000003 -0.94981443 6.2627079000000005
58848 68440.0 6062.099 -576.4033499999999 3800.5801 -3.9906073 -0.9436534400000001 6.222084700000001
58848 68450.0 6021.867 -585.80866 3862.5950000000003 -4.0557229 -0.9373907400000001 6.1807909
58848 68460.0 5980.986 -595.1508299999999 3924.1937000000003 -4.1204015 -0.93102702 6.138831000000001
58848 68470.0 5939.460400000001 -604.42886 3985.3695000000002 -4.184636 -0.92456297 6.0962096
58848 68480.0 5897.2948 -613.64176 4046.1157000000003 -4.2484195 -0.91799927 6.0529311
58848 68490.0 5854.4935000000005 -622.7885200000001 4106.4259 -4.311745200000001 -0.91133665 6.009000299999999
58848 68500.0 5811.0614000000005 -631.86816 4166.2936 -4.3746062000000006 -0.9045757999999999 5.9644219000000005
58848 68510.0 5767.003 -640.8797099999999 4225.7122 -4.4369958 -0.8977174800000001 5.9192008
58848 68520.0 5722.3231 -649.82219 4284.6754 -4.4989071 -0.8907624 5.8733417
58848 68530.0 5677.0265 -658.69464 4343.1769 -4.5603337 -0.88371133 5.8268496999999995
58848 68540.0 5631.118 -667.4961 4401.2103 -4.6212687 -0.87656502 5.7797297
58848 68550.0 5584.6027 -676.22562 4458.7694 -4.6817058 -0.8693242400000001 5.7319868
58848 68560.0 5537.4856 -684.8822700000001 4515.848 -4.741638200000001 -0.86198977 5.6836262
58848 68570.0 5489.7717 -693.46511 4572.4399 -4.8010597 -0.85456241 5.634653
58848 68580.0 5441.4661 -701.97321 4628.5391 -4.859963800000001 -0.8470429500000001 5.5850726
58848 68590.0 5392.5742 -710.4056700000001 4684.1394 -4.9183441000000006 -0.8394322100000001 5.5348904
58848 68600.0 5343.101 -718.76156 4739.2349 -4.9761943 -0.831731 5.4841116
58848 68610.0 5293.0521 -727.03999 4793.8196 -5.0335083 -0.82394015 5.432741699999999
58848 68620.0 5242.4327 -735.2400600000001 4847.8877999999995 -5.0902798 -0.81606051 5.3807865
58848 68630.0 5191.2483 -743.3609 4901.433400000001 -5.1465027 -0.80809293 5.3282513
58848 68640.0 5139.5045 -751.4016300000001 4954.450900000001 -5.202171000000001 -0.80003825 5.2751418999999995
58848 68650.0 5087.206700000001 -759.36138 5006.9344 -5.2572787 -0.7918973499999999 5.2214639
58848 68660.0 5034.3607999999995 -767.2392900000001 5058.8783 -5.3118197 -0.78367111 5.1672233
58848 68670.0 4980.9723 -775.03452 5110.277 -5.3657884000000005 -0.7753604199999999 5.1124258000000005
58848 68680.0 4927.0469 -782.74622 5161.124900000001 -5.419178700000001 -0.76696616 5.0570773
58848 68690.0 4872.5905999999995 -790.37357 5211.416700000001 -5.471985 -0.75848925 5.0011839
58848 68700.0 4817.6092 -797.91574 5261.1467999999995 -5.5242016000000005 -0.7499305900000001 4.9447514
58848 68710.0 4762.1086 -805.3719100000001 5310.31 -5.5758229 -0.74129112 4.8877861000000005
58848 68720.0 4706.094700000001 -812.74129 5358.9008 -5.626843300000001 -0.73257175 4.830294
58848 68730.0 4649.5737 -820.0230799999999 5406.9141 -5.677257200000001 -0.7237734400000001 4.7722812999999995
58848 68740.0 4592.5516 -827.2165 5454.344700000001 -5.7270593 -0.71489713 4.7137543
58848 68750.0 4535.0346 -834.32077 5501.1875 -5.7762442 -0.70594377 4.6547193
58848 68760.0 4477.0288 -841.33512 5547.437400000001 -5.8248066 -0.6969143299999999 4.5951827000000005
58848 68770.0 4418.540599999999 -848.25881 5593.0895 -5.8727412999999995 -0.68780978 4.5351509
58848 68780.0 4359.576099999999 -855.09107 5638.1388 -5.920043 -0.6786311100000001 4.4746303
58848 68790.0 4300.1418 -861.83118 5682.5805 -5.9667068 -0.6693793100000001 4.4136275
58848 68800.0 4240.2441 -868.47842 5726.4098 -6.0127275000000004 -0.66005536 4.352149000000001
58848 68810.0 4179.8894 -875.03205 5769.6219 -6.0581002 -0.65066028 4.2902015
58848 68820.0 4119.0842999999995 -881.49139 5812.2123 -6.1028201 -0.64119508 4.2277916
58848 68830.0 4057.8352000000004 -887.85573 5854.1762 -6.1468822 -0.63166078 4.1649261
58848 68840.0 3996.1489 -894.12438 5895.5093 -6.1902819000000004 -0.6220584 4.1016118
58848 68850.0 3934.0317999999997 -900.2966700000001 5936.207 -6.2330145 -0.61238899 4.0378554
58848 68860.0 3871.4908 -906.37194 5976.2649 -6.2750753 -0.60265357 3.9736639
58848 68870.0 3808.5326 -912.3495300000001 6015.6788 -6.3164599 -0.59285321 3.9090441
58848 68880.0 3745.1639 -918.22879 6054.4444 -6.3571637 -0.58298896 3.8440030000000003
58848 68890.0 3681.3916000000004 -924.00909 6092.5575 -6.3971825 -0.57306188 3.7785477000000003
58848 68900.0 3617.2225 -929.6898199999999 6130.014 -6.436511800000001 -0.56307304 3.7126852
58848 68910.0 3552.6636000000003 -935.27035 6166.8099 -6.4751474 -0.55302351 3.6464225000000003
58848 68920.0 3487.7219 -940.75009 6202.9412 -6.513085200000001 -0.5429143900000001 3.5797669
58848 68930.0 3422.4042999999997 -946.1284499999999 6238.4039 -6.550321100000001 -0.53274676 3.5127254
58848 68940.0 3356.7178 -951.40484 6273.1944 -6.5868511 -0.52252171 3.4453055
58848 68950.0 3290.6696 -956.5786899999999 6307.3088 -6.6226712 -0.51224035 3.3775142000000002
58848 68960.0 3224.2668 -961.64946 6340.7435000000005 -6.6577776 -0.5019037900000001 3.3093589000000003
58848 68970.0 3157.5165 -966.61659 6373.4948 -6.692166500000001 -0.49151313 3.2408469
58848 68980.0 3090.4259 -971.47954 6405.5593 -6.7258341 -0.48106951 3.1719857000000005
58848 68990.0 3023.0022000000004 -976.2378100000001 6436.933400000001 -6.7587769 -0.47057404 3.1027827
58848 69000.0 2955.2527999999998 -980.89086 6467.6138 -6.7909914 -0.46002786 3.0332452
58848 69010.0 2887.1848 -985.4381999999999 6497.5972 -6.8224739 -0.4494321 2.9633809
58848 69020.0 2818.8057000000003 -989.87934 6526.8803 -6.8532212 -0.43878791 2.8931972
58848 69030.0 2750.1229 -994.2138000000001 6555.460099999999 -6.883229900000001 -0.42809642000000003 2.8227017
58848 69040.0 2681.1436000000003 -998.44111 6583.3334 -6.9124969 -0.4173588 2.7519020000000003
58848 69050.0 2611.8754 -1002.5608000000001 6610.4971 -6.9410188 -0.40657621 2.6808058000000003
58848 69060.0 2542.3257000000003 -1006.5725 6636.9485 -6.9687927 -0.39574979000000005 2.6094206
58848 69070.0 2472.502 -1010.4757 6662.6846 -6.9958156 -0.38488073000000006 2.5377541999999997
58848 69080.0 2402.4119 -1014.27 6687.702700000001 -7.0220846 -0.37397018000000004 2.4658143
58848 69090.0 2332.0629 -1017.9549000000001 6712.0 -7.0475968 -0.36301934 2.3936087
58848 69100.0 2261.4625 -1021.5301999999999 6735.5740000000005 -7.0723495000000005 -0.35202936999999995 2.3211451000000003
58848 69110.0 2190.6184 -1024.9954 6758.4221 -7.0963399 -0.34100146000000003 2.2484314
58848 69120.0 2119.5382999999997 -1028.3501 6780.5418 -7.1195657 -0.32993680000000003 2.1754753
58848 69130.0 2048.2297 -1031.594 6801.9308 -7.1420240999999995 -0.31883659000000003 2.1022848
58848 69140.0 1976.7003000000002 -1034.7267 6822.5868 -7.163712800000001 -0.30770202 2.0288677
58848 69150.0 1904.958 -1037.748 6842.5074 -7.1846295 -0.29653428000000004 1.955232
58848 69160.0 1833.0103000000001 -1040.6573 6861.6907 -7.2047719 -0.28533459 1.8813856000000002
58848 69170.0 1760.8651000000002 -1043.4545 6880.1345 -7.2241379 -0.27410414 1.8073363999999998
58848 69180.0 1688.5302 -1046.1393 6897.8368 -7.2427253 -0.26284416 1.7330924
58848 69190.0 1616.0132 -1048.7113000000002 6914.795700000001 -7.2605322 -0.25155585 1.6586617000000001
58848 69200.0 1543.3221 -1051.1703 6931.009400000001 -7.2775566 -0.24024043 1.5840522000000001
58848 69210.0 1470.4647 -1053.5161 6946.4762 -7.293796599999999 -0.22889911000000002 1.509272
58848 69220.0 1397.4488000000001 -1055.7482 6961.1943 -7.3092507 -0.21753313 1.4343291
58848 69230.0 1324.2823 -1057.8666 6975.162200000001 -7.323917000000001 -0.20614371 1.3592317
58848 69240.0 1250.9731000000002 -1059.871 6988.3785 -7.337794 -0.19473207 1.2839877
58848 69250.0 1177.5291000000002 -1061.7612 7000.8415 -7.3508802 -0.18329944 1.2086054
58848 69260.0 1103.9582 -1063.537 7012.5500999999995 -7.3631743 -0.17184706 1.1330929
58848 69270.0 1030.2682 -1065.1981 7023.503 -7.3746748 -0.16037616 1.0574582000000001
58848 69280.0 956.4673100000001 -1066.7444 7033.6989 -7.3853805 -0.14888798 0.98170957
58848 69290.0 882.56329 -1068.1758 7043.1368 -7.3952903 -0.13738375 0.90585514
58848 69300.0 808.56416 -1069.4921000000002 7051.8157 -7.404403100000001 -0.12586471000000002 0.8299030900000001
58848 69310.0 734.47789 -1070.693 7059.7346 -7.4127179 -0.11433211 0.7538616
58848 69320.0 660.31246 -1071.7787 7066.8927 -7.4202339 -0.10278719 0.67773886
58848 69330.0 586.07587 -1072.7488 7073.2891 -7.4269502 -0.09123119199999999 0.6015430900000001
58848 69340.0 511.77613 -1073.6032 7078.9233 -7.4328661 -0.079665361 0.52528248
58848 69350.0 437.42122 -1074.342 7083.7946 -7.4379808999999995 -0.068090944 0.44896526999999997
58848 69360.0 363.01918 -1074.965 7087.902400000001 -7.4422942 -0.056509189 0.37259967
58848 69370.0 288.57801 -1075.4722 7091.246400000001 -7.4458054 -0.044921344 0.29619392
58848 69380.0 214.10575 -1075.8634 7093.8262 -7.448514100000001 -0.033328658 0.21975624
58848 69390.0 139.61041 -1076.1388000000002 7095.6415 -7.4504201000000005 -0.02173238 0.14329489
58848 69400.0 65.100021 -1076.2981000000002 7096.6921 -7.4515233 -0.01013376 0.066818085
58848 69410.0 -9.4173811 -1076.3414 7096.9778 -7.4518233 0.0014659517 -0.0096659166
58848 69420.0 -83.933768 -1076.2688 7096.4988 -7.451320300000001 0.013065506 -0.086148876
58848 69430.0 -158.44110999999998 -1076.0801000000001 7095.254900000001 -7.4500142 0.024663652 -0.16262255
58848 69440.0 -232.93138000000002 -1075.7755 7093.246400000001 -7.4479053 0.03625914 -0.2390787
58848 69450.0 -307.39653999999996 -1075.355 7090.473400000001 -7.4449937 0.047850720000000006 -0.31550909000000005
58848 69460.0 -381.82857 -1074.8185 7086.9363 -7.4412797 0.059437143 -0.39190547
58848 69470.0 -456.21946 -1074.1662 7082.6354 -7.4367638 0.071017162 -0.46825961
58848 69480.0 -530.56118 -1073.3982 7077.5713 -7.4314464 0.08258952600000001 -0.54456329
58848 69490.0 -604.84572 -1072.5145 7071.7444000000005 -7.4253282 0.09415299 -0.62080829
58848 69500.0 -679.06507 -1071.5152 7065.1553 -7.418409700000001 0.10570631 -0.69698638
58848 69510.0 -753.2112500000001 -1070.4004 7057.8049 -7.4106917 0.11724823000000001 -0.77308935
58848 69520.0 -827.27625 -1069.1702 7049.6938 -7.402175100000001 0.12877752 -0.84910901
58848 69530.0 -901.25209 -1067.8248999999998 7040.823 -7.3928608 0.14029293 -0.92503716
58848 69540.0 -975.1308100000001 -1066.3644 7031.1934 -7.382749700000001 0.15179322 -1.0008656
58848 69550.0 -1048.9044 -1064.7891000000002 7020.8061 -7.371843 0.16327715 -1.0765862
58848 69560.0 -1122.565 -1063.0989 7009.6621 -7.3601418 0.17474349 -1.1521908
58848 69570.0 -1196.1046000000001 -1061.2943 6997.7626 -7.3476474 0.18619099 -1.2276712
58848 69580.0 -1269.5153 -1059.3752 6985.1091 -7.3343612 0.19761842999999998 -1.3030192999999999
58848 69590.0 -1342.7892 -1057.342 6971.702700000001 -7.3202845 0.20902457000000002 -1.378227
58848 69600.0 -1415.9184 -1055.1948 6957.545 -7.305418899999999 0.22040819 -1.4532861000000001
58848 69610.0 -1488.895 -1052.9339 6942.6375 -7.2897661 0.23176805 -1.5281886
58848 69620.0 -1561.7111000000002 -1050.5595 6926.9818 -7.2733276 0.24310293 -1.6029264
58848 69630.0 -1634.3589 -1048.0719000000001 6910.5796 -7.2561052 0.25441162 -1.6774915000000001
58848 69640.0 -1706.8306000000002 -1045.4714000000001 6893.4326 -7.238100900000001 0.26569288 -1.7518758
58848 69650.0 -1779.1183 -1042.7581 6875.5427 -7.2193165 0.27694551 -1.8260713000000002
58848 69660.0 -1851.2143 -1039.9326 6856.9118 -7.1997541 0.2881683 -1.90007
58848 69670.0 -1923.1108000000002 -1036.9949000000001 6837.542 -7.1794158 0.29936003 -1.9738639
58848 69680.0 -1994.8001000000002 -1033.9455 6817.4352 -7.1583037 0.3105195 -2.0474451
58848 69690.0 -2066.2743 -1030.7846 6796.5938 -7.1364202 0.32164550000000003 -2.1208057
58848 69700.0 -2137.5259 -1027.5127 6775.0199 -7.1137676 0.33273684 -2.1939377
58848 69710.0 -2208.5471000000002 -1024.13 6752.7158 -7.0903484 0.34379232000000004 -2.2668332
58848 69720.0 -2279.3303 -1020.6369000000001 6729.684 -7.066165 0.35481075 -2.3394845
58848 69730.0 -2349.8678999999997 -1017.0339 6705.927000000001 -7.041220099999999 0.36579094 -2.4118836000000003
58848 69740.0 -2420.1522000000004 -1013.3213000000001 6681.4472000000005 -7.015516400000001 0.37673171000000005 -2.4840228000000004
58848 69750.0 -2490.1757000000002 -1009.4994 6656.2474 -6.9890566 0.38763188000000004 -2.5558943
58848 69760.0 -2559.9308 -1005.5688000000001 6630.3303 -6.9618436 0.39849028 -2.6274903
58848 69770.0 -2629.4101 -1001.5296999999999 6603.6986 -6.9338803 0.40930573 -2.6988032
58848 69780.0 -2698.6059 -997.3827900000001 6576.3552 -6.9051697999999995 0.42007707 -2.7698252
58848 69790.0 -2767.511 -993.12835 6548.3031 -6.875715100000001 0.43080314 -2.8405488
58848 69800.0 -2836.1178 -988.76688 6519.5452000000005 -6.8455193 0.44148277 -2.9109662
58848 69810.0 -2904.4189 -984.29885 6490.0848 -6.8145859 0.45211484 -2.9810698
58848 69820.0 -2972.407 -979.72474 6459.924900000001 -6.782918 0.46269817 -3.0508523000000003
58848 69830.0 -3040.0748 -975.0450500000001 6429.0688 -6.7505192 0.47323164000000006 -3.1203059
58848 69840.0 -3107.415 -970.2602800000001 6397.5199 -6.7173928 0.48371411000000003 -3.1894232000000002
58848 69850.0 -3174.4202999999998 -965.37094 6365.2815 -6.6835425 0.49414446 -3.2581968000000003
58848 69860.0 -3241.0834 -960.37757 6332.3571 -6.648971899999999 0.50452154 -3.3266193
58848 69870.0 -3307.3973 -955.2807 6298.7503 -6.6136848 0.5148442599999999 -3.3946833
58848 69880.0 -3373.3548 -950.08087 6264.4647 -6.5776849 0.52511149 -3.4623814000000004
58848 69890.0 -3438.9487000000004 -944.7786500000001 6229.503900000001 -6.5409761 0.5353221300000001 -3.5297064000000002
58848 69900.0 -3504.1719 -939.37462 6193.8718 -6.5035624 0.54547507 -3.596651
58848 69910.0 -3569.0176 -933.8693499999999 6157.5722000000005 -6.4654479 0.5555692400000001 -3.663208
58848 69920.0 -3633.4786000000004 -928.2634300000001 6120.609 -6.4266365 0.56560352 -3.7293702
58848 69930.0 -3697.5480000000002 -922.55748 6082.9861 -6.3871325 0.57557686 -3.7951305000000004
58848 69940.0 -3761.2189 -916.7521 6044.7077 -6.3469402 0.58548816 -3.8604818
58848 69950.0 -3824.4845 -910.84793 6005.7779 -6.3060639 0.59533636 -3.925417
58848 69960.0 -3887.3379 -904.84559 5966.2008 -6.264508 0.60512041 -3.9899292
58848 69970.0 -3949.7724 -898.74574 5925.9807 -6.2222769 0.61483924 -4.0540114
58848 69980.0 -4011.7812000000004 -892.54903 5885.122 -6.1793753 0.62449181 -4.1176566999999995
58848 69990.0 -4073.3577000000005 -886.25613 5843.6291 -6.135807700000001 0.6340770800000001 -4.1808583
58848 70000.0 -4134.4952 -879.86771 5801.5064 -6.091578900000001 0.64359401 -4.2436092
58848 70010.0 -4195.1871 -873.38448 5758.758400000001 -6.046693599999999 0.6530415900000001 -4.3059029
58848 70020.0 -4255.4269 -866.80712 5715.3899 -6.001156600000001 0.66241878 -4.3677325
58848 70030.0 -4315.2081 -860.13634 5671.4053 -5.9549729 0.6717245900000001 -4.4290913000000005
58848 70040.0 -4374.5242 -853.37287 5626.8096 -5.9081474 0.680958 -4.4899729
58848 70050.0 -4433.3689 -846.51742 5581.6075 -5.8606852 0.6901180299999999 -4.5503706
58848 70060.0 -4491.7357999999995 -839.57075 5535.8038 -5.8125914000000005 0.69920368 -4.6102777999999995
58848 70070.0 -4549.6186 -832.5336 5489.4036 -5.7638711 0.70821398 -4.6696883
58848 70080.0 -4607.0112 -825.40673 5442.4118 -5.7145297 0.71714796 -4.728595400000001
58848 70090.0 -4663.907200000001 -818.1909 5394.8334 -5.6645725 0.72600465 -4.786993000000001
58848 70100.0 -4720.3006 -810.8869000000001 5346.6736 -5.614004700000001 0.7347831 -4.8448747
58848 70110.0 -4776.1853 -803.4955 5297.937599999999 -5.562832 0.74348236 -4.9022342
58848 70120.0 -4831.555200000001 -796.01752 5248.630700000001 -5.5110597 0.75210149 -4.9590654999999995
58848 70130.0 -4886.404500000001 -788.45374 5198.7581 -5.458693500000001 0.76063957 -5.0153623
58848 70140.0 -4940.7271 -780.8050000000001 5148.3252999999995 -5.405739 0.7690956800000001 -5.0711186
58848 70150.0 -4994.5172999999995 -773.0721 5097.3376 -5.352202 0.7774689 -5.1263283
58848 70160.0 -5047.769200000001 -765.2559 5045.8005 -5.2980881 0.7857583300000001 -5.1809856000000005
58848 70170.0 -5100.4772 -757.35722 4993.719700000001 -5.2434033 0.79396309 -5.2350846
58848 70180.0 -5152.6354 -749.37692 4941.1007 -5.1881534 0.80208227 -5.2886194
58848 70190.0 -5204.2384 -741.31586 4887.9492 -5.1323443 0.81011502 -5.341584200000001
58848 70200.0 -5255.2805 -733.1749100000001 4834.271 -5.0759822 0.8180604600000001 -5.3939733
58848 70210.0 -5305.756200000001 -724.9549499999999 4780.0717 -5.019073000000001 0.82591774 -5.445781200000001
58848 70220.0 -5355.6601 -716.65685 4725.3573 -4.9616229 0.83368601 -5.4970021
58848 70230.0 -5404.986900000001 -708.2815300000001 4670.1336 -4.9036381 0.8413644299999999 -5.5476307
58848 70240.0 -5453.7311 -699.82987 4614.4067000000005 -4.8451248 0.8489521800000001 -5.5976612999999995
58848 70250.0 -5501.8876 -691.3027900000001 4558.182400000001 -4.7860892999999995 0.85644843 -5.6470887
58848 70260.0 -5549.4512 -682.70121 4501.4669 -4.7265381 0.86385239 -5.695907500000001
58848 70270.0 -5596.416700000001 -674.02605 4444.2663 -4.6664775 0.87116325 -5.7441125
58848 70280.0 -5642.7791 -665.27825 4386.5867 -4.605914 0.87838022 -5.791698500000001
58848 70290.0 -5688.5333 -656.45876 4328.4344 -4.544854099999999 0.88550254 -5.8386602000000005
58848 70300.0 -5733.6745 -647.56852 4269.8156 -4.4833044 0.89252942 -5.8849927
58848 70310.0 -5778.1978 -638.60849 4210.7367 -4.4212715 0.89946011 -5.9306909999999995
58848 70320.0 -5822.098400000001 -629.57964 4151.2039 -4.3587621 0.90629387 -5.9757502
58848 70330.0 -5865.3715 -620.48294 4091.2237999999998 -4.295783 0.91302995 -6.0201652999999995
58848 70340.0 -5908.0125 -611.31937 4030.8028 -4.232341000000001 0.91966764 -6.0639317
58848 70350.0 -5950.0168 -602.08992 3969.9474 -4.1684428 0.9262062200000001 -6.1070445
58848 70360.0 -5991.3798 -592.79558 3908.6641 -4.1040954 0.9326449800000001 -6.1494992
58848 70370.0 -6032.0972 -583.43736 3846.9596 -4.0393057 0.9389832300000001 -6.191291100000001
58848 70380.0 -6072.1645 -574.01625 3784.8405000000002 -3.9740807 0.94522028 -6.2324159
58848 70390.0 -6111.5774 -564.5332900000001 3722.3135 -3.9084274000000003 0.95135547 -6.272868900000001
58848 70400.0 -6150.3315999999995 -554.98949 3659.3854 -3.8423529 0.9573881300000001 -6.312645900000001
58848 70410.0 -6188.4231 -545.38587 3596.0629 -3.7758643000000003 0.9633176099999999 -6.3517426
58848 70420.0 -6225.8476 -535.72348 3532.3527999999997 -3.7089687 0.96914328 -6.3901548
58848 70430.0 -6262.6011 -526.00335 3468.2621000000004 -3.6416735 0.9748645 -6.427878300000001
58848 70440.0 -6298.679700000001 -516.22654 3403.7975 -3.5739858 0.98048066 -6.4649091
58848 70450.0 -6334.0795 -506.39409000000006 3338.9662000000003 -3.5059128999999998 0.9859911499999999 -6.5012431
58848 70460.0 -6368.7967 -496.50707 3273.775 -3.4374622 0.99139538 -6.536876500000001
58848 70470.0 -6402.8275 -486.56654 3208.231 -3.368641 0.99669277 -6.571805500000001
58848 70480.0 -6436.1683 -476.57357 3142.3413 -3.2994568 1.0018827000000001 -6.6060262000000005
58848 70490.0 -6468.8155 -466.52925 3076.1129 -3.229917 1.0069648 -6.6395349
58848 70500.0 -6500.7655 -456.43464 3009.553 -3.1600292 1.0119382000000001 -6.6723281
58848 70510.0 -6532.0149 -446.29084000000006 2942.6687 -3.0898006999999996 1.0168027 -6.7044023
58848 70520.0 -6562.5604 -436.09895 2875.4673 -3.0192393 1.0215575000000001 -6.7357539
58848 70530.0 -6592.3985999999995 -425.86006000000003 2807.956 -2.9483525 1.0262023 -6.7663796000000005
58848 70540.0 -6621.526400000001 -415.57528 2740.1422000000002 -2.8771479 1.0307364 -6.7962761
58848 70550.0 -6649.9406 -405.2457 2672.033 -2.8056333 1.0351595 -6.8254401
58848 70560.0 -6677.6381 -394.87246000000005 2603.6358 -2.7338163 1.039471 -6.8538686
58848 70570.0 -6704.615900000001 -384.45666 2534.9581000000003 -2.6617047 1.0436705 -6.8815584
58848 70580.0 -6730.8712000000005 -373.99942 2466.0071000000003 -2.5893063 1.0477575 -6.9085066
58848 70590.0 -6756.4011 -363.50188 2396.7904 -2.5166288 1.0517316 -6.9347103
58848 70600.0 -6781.2029 -352.96517 2327.3154 -2.44368 1.0555924 -6.9601666
58848 70610.0 -6805.2738 -342.39042 2257.5896000000002 -2.370468 1.0593394 -6.984872800000001
58848 70620.0 -6828.611400000001 -331.77876000000003 2187.6204 -2.2970004 1.0629722 -7.008826200000001
58848 70630.0 -6851.213 -321.13135 2117.4156000000003 -2.2232853 1.0664905000000002 -7.0320244
58848 70640.0 -6873.0763 -310.44934 2046.9825 -2.1493306 1.0698938 -7.0544646
58848 70650.0 -6894.1989 -299.73386 1976.3288 -2.0751443 1.0731818000000002 -7.0761446
58848 70660.0 -6914.5784 -288.98608 1905.4621000000002 -2.0007343 1.0763542 -7.0970621000000005
58848 70670.0 -6934.2128 -278.20716 1834.3901 -1.9261087000000001 1.0794105999999999 -7.1172146000000005
58848 70680.0 -6953.0999 -267.39826 1763.1204 -1.8512756 1.0823506 -7.1366002
58848 70690.0 -6971.237700000001 -256.56054 1691.6607 -1.7762429 1.085174 -7.1552166
58848 70700.0 -6988.6241 -245.69517000000002 1620.0186 -1.7010188000000002 1.0878805 -7.1730618999999995
58848 70710.0 -7005.2574 -234.80332 1548.202 -1.6256114 1.0904697 -7.1901342
58848 70720.0 -7021.1358 -223.88617000000002 1476.2185 -1.5500288 1.0929414 -7.2064316
58848 70730.0 -7036.2575 -212.94489000000002 1404.076 -1.4742791 1.0952953 -7.2219523
58848 70740.0 -7050.6208 -201.98066 1331.7821000000001 -1.3983706 1.0975312 -7.2366948
58848 70750.0 -7064.224400000001 -190.99466 1259.3446999999999 -1.3223113000000002 1.0996488 -7.2506573
58848 70760.0 -7077.0666 -179.98808 1186.7715 -1.2461096 1.1016478 -7.2638385
58848 70770.0 -7089.1461 -168.96210000000002 1114.0705 -1.1697735 1.1035282 -7.2762367999999995
58848 70780.0 -7100.4616 -157.91791 1041.2494000000002 -1.0933114000000002 1.1052896 -7.2878509000000005
58848 70790.0 -7111.0119 -146.85670000000002 968.3161200000001 -1.0167315 1.1069319 -7.2986797
58848 70800.0 -7120.7959 -135.77967 895.27845 -0.94004194 1.1084549 -7.308721800000001
58848 70810.0 -7129.812400000001 -124.688 822.1443 -0.86325112 1.1098585 -7.317976300000001
58848 70820.0 -7138.0606 -113.5829 748.92155 -0.78636727 1.1111424 -7.326442200000001
58848 70830.0 -7145.5395 -102.46555000000001 675.6180899999999 -0.70939867 1.1123066 -7.3341185
58848 70840.0 -7152.2483 -91.337163 602.24182 -0.63235362 1.1133510000000002 -7.3410043
58848 70850.0 -7158.1864000000005 -80.198932 528.80064 -0.55524042 1.1142753 -7.3470991
58848 70860.0 -7163.352900000001 -69.052057 455.30248 -0.47806738000000004 1.1150796 -7.3524020000000005
58848 70870.0 -7167.7475 -57.897741 381.75524 -0.40084282000000004 1.1157636 -7.3569126
58848 70880.0 -7171.3697 -46.737185 308.16687 -0.32357506 1.1163275000000001 -7.3606303
58848 70890.0 -7174.218900000001 -35.571593 234.54528 -0.24627243000000001 1.116771 -7.3635547
58848 70900.0 -7176.295 -24.402166 160.89842000000002 -0.16894326 1.1170942 -7.3656856
58848 70910.0 -7177.5977 -13.230110000000002 87.234216 -0.091595885 1.117297 -7.367022700000001
58848 70920.0 -7178.1269 -2.0566286000000003 13.560611000000002 -0.014238635000000001 1.1173793 -7.3675659
58848 70930.0 -7177.8825 9.1170749 -60.114455 0.063120149 1.1173413 -7.367315
58848 70940.0 -7176.864500000001 20.289796 -133.78304 0.14047213 1.1171828000000001 -7.3662702
58848 70950.0 -7175.0731 31.460330000000003 -207.43721 0.21780897 1.1169040000000001 -7.3644315
58848 70960.0 -7172.508400000001 42.627474 -281.06903000000005 0.29512234000000004 1.1165047 -7.361799100000001
58848 70970.0 -7169.1708 53.790023999999995 -354.67055 0.37240391 1.1159852000000001 -7.3583734000000005
58848 70980.0 -7165.0605000000005 64.946777 -428.23384999999996 0.44964534 1.1153454 -7.3541546
58848 70990.0 -7160.178 76.09653 -501.75100000000003 0.52683831 1.1145853 -7.3491433
58848 71000.0 -7154.5239 87.238083 -575.21408 0.6039745000000001 1.1137052 -7.34334
58848 71010.0 -7148.0987000000005 98.370234 -648.6151600000001 0.6810456100000001 1.112705 -7.3367452
58848 71020.0 -7140.903200000001 109.49178 -721.94634 0.75804331 1.1115849 -7.329359800000001
58848 71030.0 -7132.938099999999 120.60153 -795.19972 0.83495933 1.1103451 -7.3211845
58848 71040.0 -7124.2043 131.69829000000001 -868.3674100000001 0.91178536 1.1089855 -7.3122202
58848 71050.0 -7114.7028 142.78084 -941.4415 0.98851312 1.1075065 -7.3024679
58848 71060.0 -7104.4344 153.84802 -1014.4141 1.0651344 1.105908 -7.2919286
58848 71070.0 -7093.4005 164.89861 -1087.2775 1.1416408 1.1041904 -7.2806034
58848 71080.0 -7081.602 175.93143 -1160.0236000000002 1.2180242000000001 1.1023538000000002 -7.2684936
58848 71090.0 -7069.040400000001 186.94529 -1232.6447 1.2942764 1.1003984 -7.2556005
58848 71100.0 -7055.717000000001 197.939 -1305.133 1.3703889999999999 1.0983245 -7.2419254
58848 71110.0 -7041.6331 208.91138 -1377.4806 1.4463540000000001 1.0961321000000002 -7.2274699
58848 71120.0 -7026.790400000001 219.86125 -1449.6798000000001 1.5221631 1.0938216 -7.2122354
58848 71130.0 -7011.1904 230.78742000000003 -1521.7227 1.5978081 1.0913933 -7.1962237
58848 71140.0 -6994.8348 241.68872000000002 -1593.6017 1.673281 1.0888472999999999 -7.1794364999999996
58848 71150.0 -6977.7254 252.56398000000002 -1665.3089 1.7485735 1.0861839 -7.1618755
58848 71160.0 -6959.8640000000005 263.41201 -1736.8366 1.8236776000000001 1.0834036 -7.1435427
58848 71170.0 -6941.2525000000005 274.23166 -1808.1772 1.8985852 1.0805064 -7.1244401
58848 71180.0 -6921.893 285.02175 -1879.3229 1.9732881 1.0774928 -7.1045696
58848 71190.0 -6901.7874 295.78113 -1950.266 2.0477784 1.0743631 -7.0839335000000005
58848 71200.0 -6880.938099999999 306.50863000000004 -2020.999 2.122048 1.0711176 -7.062533900000001
58848 71210.0 -6859.3472 317.2031 -2091.5142 2.1960889000000003 1.0677567 -7.040373300000001
58848 71220.0 -6837.0171 327.86338 -2161.8039 2.2698931 1.0642807 -7.0174538
58848 71230.0 -6813.9502 338.48833 -2231.8607 2.3434527 1.0606900000000001 -6.993778100000001
58848 71240.0 -6790.1489 349.0768 -2301.677 2.4167597 1.0569849 -6.969348699999999
58848 71250.0 -6765.615900000001 359.62765 -2371.2452000000003 2.4898063 1.053166 -6.9441682
58848 71260.0 -6740.353700000001 370.13974 -2440.5578 2.5625846 1.0492336 -6.918239300000001
58848 71270.0 -6714.3651 380.61194 -2509.6075 2.6350867 1.0451881 -6.8915649000000005
58848 71280.0 -6687.652900000001 391.04312 -2578.3867 2.7073047999999997 1.04103 -6.8641477
58848 71290.0 -6660.22 401.43217 -2646.888 2.7792311 1.0367596000000001 -6.835990799999999
58848 71300.0 -6632.0693 411.77795000000003 -2715.1040000000003 2.8508579 1.0323776 -6.8070972
58848 71310.0 -6603.2038 422.07935 -2783.0275 2.9221774999999997 1.0278842 -6.7774699
58848 71320.0 -6573.6268 432.33526 -2850.651 2.9931822 1.0232801 -6.7471122999999995
58848 71330.0 -6543.3413 442.54458000000005 -2917.9673 3.0638643 1.0185658 -6.7160275
58848 71340.0 -6512.3506 452.70621000000006 -2984.9691000000003 3.1342161 1.0137416 -6.684219000000001
58848 71350.0 -6480.6581 462.81905 -3051.6493 3.2042303000000003 1.0088082 -6.651689999999999
58848 71360.0 -6448.2671 472.88201000000004 -3118.0005 3.2738991 1.0037661 -6.6184443
58848 71370.0 -6415.1813 482.89401000000004 -3184.0157999999997 3.3432150000000003 0.99861581 -6.5844852000000005
58848 71380.0 -6381.404 492.85397 -3249.6879 3.4121707000000003 0.99335789 -6.549816600000001
58848 71390.0 -6346.9391 502.76081 -3315.0098 3.4807587 0.98799292 -6.5144421
58848 71400.0 -6311.7901 512.61347 -3379.9744 3.5489715000000004 0.9825214800000001 -6.4783655
58848 71410.0 -6275.960900000001 522.41089 -3444.5747 3.6168018 0.97694415 -6.4415907
58848 71420.0 -6239.455400000001 532.152 -3508.8039 3.6842424 0.97126153 -6.4041217
58848 71430.0 -6202.277400000001 541.83577 -3572.6549 3.7512859 0.96547424 -6.3659626
58848 71440.0 -6164.4310000000005 551.46114 -3636.1207999999997 3.8179251 0.9595829 -6.327117400000001
58848 71450.0 -6125.9203 561.02708 -3699.195 3.8841529 0.9535881500000001 -6.2875903
58848 71460.0 -6086.7492999999995 570.5325600000001 -3761.8704 3.9499621000000005 0.9474906200000001 -6.247385599999999
58848 71470.0 -6046.9224 579.9765600000001 -3824.1403999999998 4.0153456 0.9412909899999999 -6.2065076
58848 71480.0 -6006.4439 589.3580400000001 -3885.9982999999997 4.0802964 0.93498992 -6.1649608
58848 71490.0 -5965.318 598.67602 -3947.4374 4.1448073999999995 0.92858808 -6.1227495
58848 71500.0 -5923.5492 607.92947 -4008.4511 4.2088716999999995 0.92208616 -6.0798784
58848 71510.0 -5881.1421 617.1174100000001 -4069.0328 4.2724825 0.91548488 -6.0363521
58848 71520.0 -5838.1011 626.23884 -4129.176 4.335632800000001 0.90878493 -5.9921753
58848 71530.0 -5794.4310000000005 635.29278 -4188.8742 4.398315800000001 0.90198704 -5.9473526
58848 71540.0 -5750.1364 644.27826 -4248.120900000001 4.4605249 0.89509194 -5.901889000000001
58848 71550.0 -5705.2221 653.1943000000001 -4306.909799999999 4.522253200000001 0.88810038 -5.8557894
58848 71560.0 -5659.692900000001 662.03995 -4365.2346 4.5834942000000005 0.88101311 -5.8090587
58848 71570.0 -5613.5538 670.81425 -4423.088900000001 4.644241200000001 0.87383089 -5.7617019
58848 71580.0 -5566.8098 679.51625 -4480.4666 4.7044877 0.8665545 -5.7137242
58848 71590.0 -5519.4658 688.14502 -4537.3613 4.7642272000000006 0.85918473 -5.6651308
58848 71600.0 -5471.526900000001 696.69964 -4593.7671 4.823453300000001 0.8517223500000001 -5.6159268
58848 71610.0 -5422.9984 705.1791700000001 -4649.677900000001 4.8821595 0.84416819 -5.5661176
58848 71620.0 -5373.8855 713.5826999999999 -4705.087500000001 4.940339600000001 0.83652305 -5.5157085
58848 71630.0 -5324.1934 721.90933 -4759.99 4.9979873 0.8287877600000001 -5.464705
58848 71640.0 -5273.9275 730.1581500000001 -4814.379599999999 5.055096300000001 0.8209631500000001 -5.4131125
58848 71650.0 -5223.0932999999995 738.32829 -4868.250400000001 5.1116605 0.81305006 -5.3609367
58848 71660.0 -5171.6962 746.41886 -4921.5964 5.1676739 0.80504936 -5.3081831
58848 71670.0 -5119.7417000000005 754.42899 -4974.4121 5.2231303 0.7969618900000001 -5.2548575
58848 71680.0 -5067.2354000000005 762.35782 -5026.6917 5.2780239 0.78878853 -5.200965600000001
58848 71690.0 -5014.183099999999 770.20448 -5078.4295 5.3323486 0.78053017 -5.1465131
58848 71700.0 -4960.5904 777.9681400000001 -5129.6201 5.3860986 0.77218768 -5.091506000000001
58848 71710.0 -4906.4631 785.64796 -5180.2578 5.439268200000001 0.7637619800000001 -5.0359502
58848 71720.0 -4851.807 793.2431 -5230.3373 5.4918516 0.75525397 -4.9798517
58848 71730.0 -4796.628 800.7527600000001 -5279.853099999999 5.5438432 0.7466645700000001 -4.9232165000000006
58848 71740.0 -4740.9321 808.1761300000001 -5328.799900000001 5.5952373 0.73799469 -4.8660507
58848 71750.0 -4684.7253 815.51239 -5377.1724 5.6460284000000005 0.7292452899999999 -4.8083605
58848 71760.0 -4628.013599999999 822.76077 -5424.9653 5.696211000000001 0.72041729 -4.7501521
58848 71770.0 -4570.8031 829.92048 -5472.1737 5.7457797 0.71151165 -4.6914318
58848 71780.0 -4513.1 836.99075 -5518.7923 5.7947293 0.7025293400000001 -4.6322059
58848 71790.0 -4454.9106 843.97081 -5564.8161 5.8430542999999995 0.6934713100000001 -4.5724808
58848 71800.0 -4396.241 850.8599200000001 -5610.2402999999995 5.8907496 0.6843385399999999 -4.5122629
58848 71810.0 -4337.0977 857.65734 -5655.0598 5.937810000000001 0.67513203 -4.4515587
58848 71820.0 -4277.487 864.36232 -5699.2698 5.9842306 0.66585275 -4.3903748
58848 71830.0 -4217.4153 870.97415 -5742.8657 6.0300062 0.65650172 -4.3287177
58848 71840.0 -4156.889 877.49212 -5785.8426 6.075132 0.64707994 -4.266594100000001
58848 71850.0 -4095.9148 883.91552 -5828.196 6.119603000000001 0.63758842 -4.2040106999999995
58848 71860.0 -4034.4992 890.2436600000001 -5869.9213 6.1634146 0.62802818 -4.1409742
58848 71870.0 -3972.6487 896.47586 -5911.014 6.2065619 0.61840027 -4.0774915
58848 71880.0 -3910.3702000000003 902.61144 -5951.469700000001 6.2490403 0.60870571 -4.0135693
58848 71890.0 -3847.6702000000005 908.64975 -5991.284000000001 6.2908453 0.5989455400000001 -3.9492146
58848 71900.0 -3784.5555 914.59014 -6030.4526 6.3319723 0.5891208400000001 -3.8844343
58848 71910.0 -3721.033 920.43196 -6068.9713 6.3724169 0.57923264 -3.8192353
58848 71920.0 -3657.1095 926.17458 -6106.835900000001 6.4121748 0.56928201 -3.7536248000000003
58848 71930.0 -3592.7918 931.8174 -6144.0424 6.4512416 0.55927004 -3.6876097
58848 71940.0 -3528.0869 937.35978 -6180.5868 6.4896131 0.54919779 -3.6211972
58848 71950.0 -3463.0019 942.80115 -6216.465099999999 6.5272853 0.5390663600000001 -3.5543944
58848 71960.0 -3397.5436 948.14092 -6251.673400000001 6.5642541 0.5288768300000001 -3.4872086
58848 71970.0 -3331.7191000000003 953.3785 -6286.2080000000005 6.6005154 0.5186303000000001 -3.419647
58848 71980.0 -3265.5356 958.51334 -6320.0651 6.6360653 0.50832788 -3.3517169
58848 71990.0 -3199.0002000000004 963.54488 -6353.2411 6.6709001 0.49797068 -3.2834255
58848 72000.0 -3132.12 968.47257 -6385.732400000001 6.705016 0.48755981000000004 -3.2147803
58848 72010.0 -3064.9022999999997 973.2959000000001 -6417.5356 6.738409300000001 0.47709640000000003 -3.1457886
58848 72020.0 -2997.3543 978.01433 -6448.6471 6.7710763 0.46658157 -3.0764579
58848 72030.0 -2929.4832 982.62736 -6479.0635999999995 6.8030137 0.45601646 -3.0067956
58848 72040.0 -2861.2964 987.13449 -6508.781900000001 6.8342179 0.4454022 -2.9368092999999997
58848 72050.0 -2792.8013 991.53524 -6537.7988 6.864685499999999 0.43473994 -2.8665065
58848 72060.0 -2724.0052 995.82914 -6566.111 6.8944134 0.42403082999999997 -2.7958948
58848 72070.0 -2654.9155 1000.0156999999999 -6593.7155999999995 6.9233983 0.41327602 -2.7249818
58848 72080.0 -2585.5397000000003 1004.0945 -6620.6097 6.951637 0.40247668 -2.6537751
58848 72090.0 -2515.8853 1008.0651 -6646.7902 6.9791265000000005 0.39163395 -2.5822824
58848 72100.0 -2445.9597000000003 1011.927 -6672.254400000001 7.0058639000000005 0.38074903 -2.5105114
58848 72110.0 -2375.7705 1015.6799000000001 -6696.9995 7.031846300000001 0.36982306 -2.4384698
58848 72120.0 -2305.3253 1019.3234 -6721.022900000001 7.057070800000001 0.35885725 -2.3661655
58848 72130.0 -2234.6316 1022.857 -6744.322 7.081534800000001 0.34785275000000004 -2.2936061
58848 72140.0 -2163.6971000000003 1026.2803000000001 -6766.894200000001 7.105235700000001 0.33681077 -2.2207996
58848 72150.0 -2092.5295 1029.5931 -6788.7372000000005 7.1281708 0.32573250000000004 -2.1477537000000004
58848 72160.0 -2021.1363000000001 1032.7948000000001 -6809.8485 7.150337700000001 0.31461911 -2.0744764
58848 72170.0 -1949.5253 1035.8853000000001 -6830.226000000001 7.171734000000001 0.30347183 -2.0009755
58848 72180.0 -1877.7042 1038.8642 -6849.8673 7.1923574 0.29229183000000003 -1.9272589
58848 72190.0 -1805.6807 1041.7311 -6868.7704 7.2122057 0.28108034 -1.8533347000000002
58848 72200.0 -1733.4627 1044.4857 -6886.9333 7.2312767000000004 0.26983855 -1.7792107000000001
58848 72210.0 -1661.0578 1047.1277 -6904.354 7.2495684 0.25856768 -1.704895
58848 72220.0 -1588.4739 1049.6569 -6921.0306 7.2670788 0.24726895 -1.6303955
58848 72230.0 -1515.7188 1052.073 -6936.9613 7.2838061 0.23594357 -1.5557204
58848 72240.0 -1442.8003999999999 1054.3757 -6952.1445 7.2997483 0.22459276 -1.4808776000000001
58848 72250.0 -1369.7265 1056.5648 -6966.5784 7.3149039 0.21321775 -1.4058751
58848 72260.0 -1296.5049 1058.64 -6980.2615000000005 7.3292712 0.20181976000000001 -1.3307212
58848 72270.0 -1223.1437 1060.6011 -6993.1923 7.342848600000001 0.19040002 -1.2554239
58848 72280.0 -1149.6506000000002 1062.4479 -7005.3695 7.3556346 0.17895976 -1.1799912
58848 72290.0 -1076.0336000000002 1064.1802 -7016.791700000001 7.3676279000000005 0.16750021 -1.1044314
58848 72300.0 -1002.3007 1065.7979 -7027.4577 7.3788272 0.15602260999999998 -1.0287526
58848 72310.0 -928.45975 1067.3006 -7037.366400000001 7.3892313000000005 0.1445282 -0.95296286
58848 72320.0 -854.51873 1068.6884 -7046.5166 7.3988391 0.13301821000000003 -0.87707046
58848 72330.0 -780.48562 1069.961 -7054.9075 7.407649500000001 0.12149388000000001 -0.80108353
58848 72340.0 -706.3684000000001 1071.1182 -7062.5380000000005 7.415661500000001 0.10995646 -0.72501027
58848 72350.0 -632.17506 1072.16 -7069.407400000001 7.4228743999999995 0.098407197 -0.64885888
58848 72360.0 -557.91358 1073.0863000000002 -7075.515 7.4292873 0.086847323 -0.57263756
58848 72370.0 -483.59198 1073.897 -7080.860000000001 7.4348996 0.07527809 -0.49635453
58848 72380.0 -409.21826000000004 1074.5919 -7085.441900000001 7.439710600000001 0.063700745 -0.420018
58848 72390.0 -334.80044000000004 1075.171 -7089.260200000001 7.4437198 0.052116534000000006 -0.34363621
58848 72400.0 -260.34654 1075.6342 -7092.3145 7.4469268 0.040526707 -0.26721738
58848 72410.0 -185.86458 1075.9815 -7094.6044 7.4493312 0.028932512 -0.19076975999999998
58848 72420.0 -111.36259 1076.2128 -7096.1298 7.4509329 0.017335199 -0.11430158
58848 72430.0 -36.8486 1076.3282 -7096.8904 7.4517315 0.0057360179 -0.037821077
58848 72440.0 37.669362 1076.3275 -7096.8862 7.4517271 -0.0058637813999999995 0.038663499999999996
58848 72450.0 112.18327000000001 1076.2109 -7096.117200000001 7.450919600000001 -0.017462949 0.11514391
58848 72460.0 186.68508 1075.9783 -7094.5834 7.449309100000001 -0.029060234 0.19161191
58848 72470.0 261.16677 1075.6297 -7092.285 7.4468958 -0.040654388 0.26805926
58848 72480.0 335.62032 1075.1652 -7089.2223 7.4436800000000005 -0.052244160000000005 0.34447772
58848 72490.0 410.03770000000003 1074.5848 -7085.3956 7.4396619 -0.063828302 0.42085906
58848 72500.0 484.41089000000005 1073.8887 -7080.8053 7.4348421 -0.075405565 0.49719504000000003
58848 72510.0 558.73187 1073.0768 -7075.4518 7.429221 -0.086974701 0.57347744
58848 72520.0 632.99264 1072.1492 -7069.335900000001 7.422799299999999 -0.098534465 0.64969804
58848 72530.0 707.1851899999999 1071.1061000000002 -7062.4581 7.4155776 -0.11008361 0.72584861
58848 72540.0 781.3015300000001 1069.9476000000002 -7054.8192 7.4075568 -0.12162089000000001 0.8019209700000001
58848 72550.0 855.33366 1068.6737 -7046.42 7.3987376000000005 -0.13314506 0.8779068999999999
58848 72560.0 929.27362 1067.2847 -7037.2614 7.3891211000000006 -0.14465489 0.9537982100000001
58848 72570.0 1003.1134000000001 1065.7807 -7027.344400000001 7.3787082 -0.15614912 1.0295867
58848 72580.0 1076.8451 1064.1618 -7016.67 7.3675001 -0.16762653 1.1052643
58848 72590.0 1150.4608 1062.4282 -7005.239500000001 7.3554981 -0.17908587 1.1808227999999998
58848 72600.0 1223.9525 1060.5801000000001 -6993.054 7.3427033 -0.19052591000000002 1.256254
58848 72610.0 1297.3122 1058.6178 -6980.1148 7.3291172 -0.20194542000000001 1.3315498000000001
58848 72620.0 1370.5321999999999 1056.5413 -6966.4235 7.3147413 -0.21334317 1.4067021
58848 72630.0 1443.6044 1054.351 -6951.9813 7.299577 -0.22471792 1.4817028
58848 72640.0 1516.5211000000002 1052.047 -6936.789900000001 7.2836261 -0.23606845 1.5565438
58848 72650.0 1589.2743 1049.6297 -6920.851000000001 7.2668902 -0.24739355000000002 1.6312171000000002
58848 72660.0 1661.8563000000001 1047.0991999999999 -6904.166200000001 7.2493712 -0.25869198 1.7057146
58848 72670.0 1734.2591000000002 1044.4559000000002 -6886.7373 7.2310709 -0.26996253000000003 1.7800282
58848 72680.0 1806.4751 1041.7001 -6868.5663 7.2119913 -0.28120398999999996 1.8541500000000002
58848 72690.0 1878.4964 1038.832 -6849.655 7.1921344000000005 -0.29241515 1.928072
58848 72700.0 1950.3152 1035.8519000000001 -6830.0055 7.1715025 -0.30359479 2.0017862
58848 72710.0 2021.9238 1032.7602 -6809.62 7.150097700000001 -0.31474171 2.0752847
58848 72720.0 2093.3146 1029.5572 -6788.500599999999 7.127922300000001 -0.32585471 2.1485596
58848 72730.0 2164.4797000000003 1026.2432 -6766.6496 7.1049788 -0.33693259000000003 2.2216028000000003
58848 72740.0 2235.4116000000004 1022.8186 -6744.0693 7.0812695 -0.34797417 2.2944067
58848 72750.0 2306.1026 1019.2838 -6720.7622 7.0567971 -0.35897824000000006 2.3669633
58848 72760.0 2376.545 1015.6392 -6696.7309000000005 7.0315642 -0.36994362999999997 2.4392648
58848 72770.0 2446.7313 1011.8851 -6671.9778 7.005573500000001 -0.38086914000000005 2.5113033999999996
58848 72780.0 2516.654 1008.022 -6646.505700000001 6.9788278 -0.39175361 2.5830713000000003
58848 72790.0 2586.3053999999997 1004.0502 -6620.3173 6.9513300000000005 -0.40259586 2.6545609
58848 72800.0 2655.6781 999.97018 -6593.4155 6.9230831 -0.41339473 2.7257645000000004
58848 72810.0 2724.7646 995.7824300000001 -6565.803 6.89409 -0.42414904000000003 2.7966742
58848 72820.0 2793.5574 991.48735 -6537.483 6.8643540000000005 -0.43485764 2.8672826000000002
58848 72830.0 2862.0492000000004 987.0854300000001 -6508.4584 6.8338782 -0.44551936999999997 2.9375819
58848 72840.0 2930.2325 982.57713 -6478.732400000001 6.8026659 -0.4561331 3.0075647
58848 72850.0 2998.1 977.96293 -6448.3082 6.7707205 -0.46669766 3.0772233
58848 72860.0 3065.6445 973.24334 -6417.189 6.7380454 -0.47721193 3.1465503
58848 72870.0 3132.8585000000003 968.41886 -6385.3783 6.7046442 -0.48767477000000004 3.2155383000000004
58848 72880.0 3199.735 963.4900200000001 -6352.879400000001 6.670520300000001 -0.49808505000000003 3.2841796
58848 72890.0 3266.2665 958.4573399999999 -6319.695900000001 6.6356776 -0.50844166 3.3524670999999997
58848 72900.0 3332.4461 953.32137 -6285.8313 6.600119800000001 -0.51874347 3.4203932
58848 72910.0 3398.2666000000004 948.08266 -6251.2893 6.5638507 -0.52898937 3.4879507
58848 72920.0 3463.7208 942.7417700000001 -6216.0735 6.5268742 -0.53917827 3.5551323000000004
58848 72930.0 3528.8017000000004 937.29929 -6180.187900000001 6.4891943 -0.54930906 3.6219308000000003
58848 72940.0 3593.5023 931.75579 -6143.6362 6.4508151 -0.55938064 3.688339
58848 72950.0 3657.8157 926.11188 -6106.4224 6.4117406 -0.56939195 3.7543496000000003
58848 72960.0 3721.7347999999997 920.36815 -6068.5506 6.3719752 -0.57934189 3.8199557
58848 72970.0 3785.2529 914.52525 -6030.0247 6.331523000000001 -0.5892294 3.8851500999999997
58848 72980.0 3848.3630000000003 908.58378 -5990.849 6.2903885 -0.5990534000000001 3.9499256999999997
58848 72990.0 3911.0584 902.54439 -5951.027599999999 6.2485761 -0.60881284 4.014275700000001
58848 73000.0 3973.3323 896.40774 -5910.5649 6.2060903 -0.61850668 4.0781931
58848 73010.0 4035.178 890.17448 -5869.465200000001 6.1629356 -0.6281338500000001 4.1416710000000005
58848 73020.0 4096.5887999999995 883.8452900000001 -5827.733 6.1191168 -0.63769334 4.204702500000001
58848 73030.0 4157.5581 877.42084 -5785.3727 6.0746385 -0.64718409 4.267280800000001
58848 73040.0 4218.0794000000005 870.90184 -5742.388900000001 6.0295056 -0.6566051 4.3293993
58848 73050.0 4278.1461 864.28898 -5698.7862000000005 5.9837228 -0.66595535 4.3910512
58848 73060.0 4337.751700000001 857.58297 -5654.5694 5.937295199999999 -0.67523383 4.452229900000001
58848 73070.0 4396.8899 850.7845400000001 -5609.7432 5.8902277000000005 -0.68443954 4.5129288
58848 73080.0 4455.554099999999 843.89443 -5564.3125 5.8425254 -0.69357148 4.5731413000000005
58848 73090.0 4513.7383 836.91336 -5518.282099999999 5.7941935 -0.70262868 4.632861
58848 73100.0 4571.4359 829.84211 -5471.656900000001 5.745237100000001 -0.71161016 4.6920813
58848 73110.0 4628.6409 822.68142 -5424.442099999999 5.6956616 -0.72051495 4.7507961
58848 73120.0 4685.3471 815.43207 -5376.6427 5.645472300000001 -0.72934209 4.8089988
58848 73130.0 4741.548400000001 808.09484 -5328.263900000001 5.5946745 -0.7380906199999999 4.866683200000001
58848 73140.0 4797.2386 800.67052 -5279.3108 5.5432738 -0.74675961 4.9238432
58848 73150.0 4852.4118 793.1599100000001 -5229.7888 5.4912757 -0.75534813 4.9804725
58848 73160.0 4907.0621 785.5638299999999 -5179.7031 5.4386858 -0.76385524 5.0365651
58848 73170.0 4961.183599999999 777.88308 -5129.0593 5.3855098 -0.77228003 5.0921148999999994
58848 73180.0 5014.7704 770.1185 -5077.862700000001 5.331753300000001 -0.78062159 5.1471159
58848 73190.0 5067.8168 762.27093 -5026.1188 5.2774223000000005 -0.78887902 5.201562200000001
58848 73200.0 5120.317 754.3412099999999 -4973.8333 5.2225226000000005 -0.7970514399999999 5.255448
58848 73210.0 5172.2653 746.33019 -4921.0117 5.16706 -0.8051379500000001 5.3087673
58848 73220.0 5223.6563 738.23874 -4867.6598 5.1110405000000005 -0.8131377 5.3615146000000005
58848 73230.0 5274.4843 730.06773 -4813.7834 5.0544702 -0.8210498199999999 5.413684
58848 73240.0 5324.7439 721.81804 -4759.3881 4.9973552 -0.82887345 5.46527
58848 73250.0 5374.4295999999995 713.4905500000001 -4704.4799 4.9397017 -0.83660775 5.516267
58848 73260.0 5423.536099999999 705.08618 -4649.0648 4.8815158 -0.84425189 5.5666695
58848 73270.0 5472.0582 696.60582 -4593.1485 4.8228038 -0.8518050500000001 5.616472
58848 73280.0 5519.9905 688.05039 -4536.7373 4.763572 -0.8592664099999999 5.665669299999999
58848 73290.0 5567.3279 679.4208000000001 -4479.8372 4.7038269 -0.8666351600000001 5.714256000000001
58848 73300.0 5614.0653 670.71799 -4422.4543 4.643574800000001 -0.87391052 5.7622269
58848 73310.0 5660.197700000001 661.9429 -4364.594700000001 4.5828224 -0.88109169 5.8095768
58848 73320.0 5705.7201 653.09648 -4306.2648 4.5215760000000005 -0.88817791 5.8563006
58848 73330.0 5750.6276 644.1796700000001 -4247.4708 4.4598423 -0.89516841 5.9023933
58848 73340.0 5794.915400000001 635.19343 -4188.2191 4.397628 -0.90206244 5.9478498
58848 73350.0 5838.5786 626.13874 -4128.5160000000005 4.3349398 -0.90885926 5.9926654
58848 73360.0 5881.6125999999995 617.01657 -4068.3679 4.2717843 -0.91555812 6.0368351
58848 73370.0 5924.0127999999995 607.8279100000001 -4007.7814 4.2081686000000005 -0.92215832 6.0803541999999995
58848 73380.0 5965.7745 598.57374 -3946.763 4.1440993 -0.92865913 6.1232181
58848 73390.0 6006.8933 589.2550600000001 -3885.3193 4.0795834 -0.93505987 6.1654219999999995
58848 73400.0 6047.3647 579.87287 -3823.4568 4.0146278 -0.94135983 6.2069615
58848 73410.0 6087.1844 570.4282 -3761.1823 3.9492396 -0.94755834 6.2478321
58848 73420.0 6126.348 560.92205 -3698.5024 3.8834256999999996 -0.95365474 6.2880294
58848 73430.0 6164.8515 551.35545 -3635.4239 3.8171934000000003 -0.95964835 6.327549
58848 73440.0 6202.6905 541.7294300000001 -3571.9537000000005 3.7505496 -0.96553855 6.3663866
58848 73450.0 6239.8611 532.04502 -3508.0985 3.6835017 -0.9713246900000001 6.4045382
58848 73460.0 6276.3593 522.3032800000001 -3443.8652 3.6160568 -0.97700615 6.4419995
58848 73470.0 6312.1810000000005 512.50525 -3379.2608 3.5482222 -0.98258232 6.4787666
58848 73480.0 6347.322400000001 502.65199 -3314.2922000000003 3.4800052 -0.9880526000000001 6.5148355
58848 73490.0 6381.7798 492.74455 -3248.9664 3.4114132 -0.99341639 6.5502023000000005
58848 73500.0 6415.5495 482.78402000000006 -3183.2905 3.3424535 -0.9986731200000001 6.5848631
58848 73510.0 6448.6277 472.77145 -3117.2715000000003 3.2731336 -1.0038221999999999 6.6188143
58848 73520.0 6481.011 462.70793 -3050.9166 3.203461 -1.0088632 6.6520522
58848 73530.0 6512.6957999999995 452.59454999999997 -2984.2329 3.1334431 -1.0137953 6.6845732
58848 73540.0 6543.6787 442.43239 -2917.2275 3.0630875 -1.0186183 6.7163739
58848 73550.0 6573.956400000001 432.22255 -2849.9078 2.9924018 -1.0233315 6.7474506000000005
58848 73560.0 6603.5257 421.96613 -2782.281 2.9213937000000003 -1.0279342999999999 6.7778002
58848 73570.0 6632.3832 411.66423 -2714.3543 2.8500707000000003 -1.0324264 6.8074194
58848 73580.0 6660.526 401.31797 -2646.135 2.7784405000000003 -1.0368073 6.8363049
58848 73590.0 6687.951099999999 390.92846000000003 -2577.6306 2.7065109000000005 -1.0410764 6.8644537
58848 73600.0 6714.6553 380.49682 -2508.8484 2.6342896000000002 -1.0452333 6.8918627
58848 73610.0 6740.6359 370.02416999999997 -2439.7958 2.5617844 -1.0492774999999999 6.918529
58848 73620.0 6765.8901 359.51164 -2370.4802999999997 2.4890032 -1.0532086999999999 6.9444496000000004
58848 73630.0 6790.4151 348.96037 -2300.9093 2.4159537 -1.0570264 6.9696219
58848 73640.0 6814.2083 338.3715 -2231.0904 2.3426438 -1.0607301 6.994043
58848 73650.0 6837.2671 327.74615000000006 -2161.031 2.2690815 -1.0643196000000001 7.0177104
58848 73660.0 6859.5891 317.08549 -2090.7387 2.1952746000000003 -1.0677943 7.0406215
58848 73670.0 6881.1718 306.39065000000005 -2020.2211000000002 2.1212312000000004 -1.071154 7.0627738
58848 73680.0 6902.012900000001 295.66279 -1949.4858000000002 2.0469591 -1.0743982 7.0841650000000005
58848 73690.0 6922.1103 284.90307 -1878.5403000000001 1.9724664 -1.0775266 7.1047927
58848 73700.0 6941.4616 274.11265000000003 -1807.3925 1.8977612 -1.080539 7.1246547
58848 73710.0 6960.0648 263.29268 -1736.0498 1.8228514 -1.0834348 7.143748899999999
58848 73720.0 6977.9179 252.44434 -1664.52 1.7477452 -1.0862139 7.1620732
58848 73730.0 6995.0190999999995 241.56879 -1592.8109 1.6724507000000002 -1.088876 7.1796256000000005
58848 73740.0 7011.366400000001 230.66720999999998 -1520.9301 1.5969759 -1.0914206 7.1964043
58848 73750.0 7026.9580000000005 219.74077 -1448.8854 1.521329 -1.0938477 7.2124075
58848 73760.0 7041.7924 208.79065 -1376.6846 1.4455181000000001 -1.0961569 7.227633300000001
58848 73770.0 7055.8679 197.81803 -1304.3353 1.3695515 -1.0983479 7.2420803
58848 73780.0 7069.182900000001 186.82409 -1231.8455000000001 1.2934372 -1.1004205999999999 7.2557466999999995
58848 73790.0 7081.7361 175.81001 -1159.223 1.2171836 -1.1023747000000002 7.2686312
58848 73800.0 7093.5262 164.77698999999998 -1086.4755 1.1407988 -1.1042100000000001 7.2807324
58848 73810.0 7104.5517 153.72621 -1013.611 1.0642909999999999 -1.1059263000000001 7.2920489
58848 73820.0 7114.8116 142.65885999999998 -940.6371700000001 0.98766858 -1.1075234 7.3025796000000005
58848 73830.0 7124.304700000001 131.57614 -867.562 0.9109396900000001 -1.1090011 7.3123233
58848 73840.0 7133.0301 120.47923 -794.39334 0.83411262 -1.1103594 7.3212789
58848 73850.0 7140.9867 109.36935000000001 -721.1390600000001 0.7571956599999999 -1.1115979 7.3294455
58848 73860.0 7148.1737 98.24767600000001 -647.8070600000001 0.6801971 -1.1127167 7.336822199999999
58848 73870.0 7154.590400000001 87.115414 -574.40525 0.60312523 -1.1137155 7.3434082
58848 73880.0 7160.236 75.973765 -500.94153000000006 0.5259883700000001 -1.1145943999999999 7.3492028000000005
58848 73890.0 7165.1099 64.823928 -427.42383 0.44879482000000004 -1.1153531 7.3542054
58848 73900.0 7169.211700000001 53.667104 -353.86007 0.3715529 -1.1159916 7.3584154
58848 73910.0 7172.540900000001 42.504497 -280.25817 0.29427094 -1.1165098 7.361832400000001
58848 73920.0 7175.097 31.337310000000002 -206.62606 0.21695727 -1.1169077 7.364456000000001
58848 73930.0 7176.879900000001 20.166745 -132.97169 0.13962021 -1.1171852 7.3662860000000006
58848 73940.0 7177.889400000001 8.9940065 -59.30299 0.062268111 -1.1173424 7.367322100000001
58848 73950.0 7178.1253 -2.1797011000000004 14.372103 -0.015090702000000001 -1.1173791000000002 7.3675642
58848 73960.0 7177.5876 -13.353174000000001 88.045648 -0.092447888 -1.1172954 7.367012300000001
58848 73970.0 7176.276400000001 -24.525206999999998 161.70970000000003 -0.16979511 -1.1170913 7.365666500000001
58848 73980.0 7174.1917 -35.694598 235.35632999999999 -0.24712403000000002 -1.1167668000000002 7.3635269
58848 73990.0 7171.334 -46.860142 308.9776 -0.32442633000000004 -1.1163219 7.360593700000001
58848 74000.0 7167.7033 -58.020635000000006 382.56556 -0.40169365 -1.1157568000000002 7.3568672
58848 74010.0 7163.300200000001 -69.17487600000001 456.1123 -0.47891769 -1.1150714000000002 7.3523479
58848 74020.0 7158.1252 -80.321662 529.60988 -0.55609012 -1.1142657999999999 7.3470363
58848 74030.0 7152.1786 -91.459791 603.05038 -0.6332026100000001 -1.1133400999999998 7.3409328
58848 74040.0 7145.4613 -102.58806 676.4259000000001 -0.71024687 -1.1122945 7.3340382
58848 74050.0 7137.974 -113.70528 749.72851 -0.78721458 -1.1111289 7.3263532
58848 74060.0 7129.7173 -124.81024000000001 822.95033 -0.86409745 -1.1098436999999999 7.3178787000000005
58848 74070.0 7120.6923 -135.90176000000002 896.08346 -0.9408872 -1.1084387999999998 7.3086155
58848 74080.0 7110.8999 -146.97862 969.12001 -1.0175755 -1.1069145 7.2985647
58848 74090.0 7100.341200000001 -158.03965 1042.0521 -1.0941542 -1.1052709 7.287727299999999
58848 74100.0 7089.0172 -169.08364000000003 1114.8718999999999 -1.170615 -1.1035081 7.276104500000001
58848 74110.0 7076.9293 -180.10941 1187.5716000000002 -1.2469496 -1.1016265 7.2636975
58848 74120.0 7064.0787 -191.11578 1260.1433000000002 -1.3231498 -1.0996261 7.2505078
58848 74130.0 7050.4668 -202.10154 1332.5792 -1.3992075 -1.0975072000000001 7.236536600000001
58848 74140.0 7036.095 -213.06552 1404.8714 -1.4751143 -1.09527 7.2217856000000005
58848 74150.0 7020.965 -224.00655 1477.0123 -1.5508622 -1.0929148 7.2062563
58848 74160.0 7005.0783 -234.92343 1548.9940000000001 -1.6264429 -1.0904418 7.1899504
58848 74170.0 6988.4367 -245.81499 1620.8087 -1.7018484 -1.0878513 7.1728696
58848 74180.0 6971.042 -256.68006 1692.4488000000001 -1.7770704000000002 -1.0851436 7.1550157
58848 74190.0 6952.896 -267.51747 1763.9063999999998 -1.8521009 -1.0823189 7.1363908
58848 74200.0 6934.000599999999 -278.32605 1835.174 -1.9269318000000002 -1.0793775 7.1169968
58848 74210.0 6914.358 -289.10464 1906.2438000000002 -2.0015551 -1.0763198999999999 7.0968358
58848 74220.0 6893.9703 -299.85206 1977.1082 -2.0759626 -1.0731461999999998 7.07591
58848 74230.0 6872.8395 -310.56718 2047.7595000000001 -2.1501465 -1.0698569 7.0542216
58848 74240.0 6850.9681 -321.24882 2118.1901000000003 -2.2240986 -1.0664523 7.031773
58848 74250.0 6828.3583 -331.89584 2188.3924 -2.2978110000000003 -1.0629328 7.0085665
58848 74260.0 6805.0127 -342.50709 2258.3589 -2.3712758 -1.0592987 6.9846048000000005
58848 74270.0 6780.9337000000005 -353.08143 2328.082 -2.4444850000000002 -1.0555505 6.9598903000000005
58848 74280.0 6756.1239000000005 -363.61771999999996 2397.5542 -2.5174308 -1.0516885 6.9344257
58848 74290.0 6730.586 -374.11482 2466.768 -2.5901052 -1.0477131 6.9082138
58848 74300.0 6704.322700000001 -384.57161 2535.716 -2.6625006 -1.0436249 6.881257400000001
58848 74310.0 6677.3369 -394.98695000000004 2604.3907000000004 -2.734609 -1.0394241 6.8535595
58848 74320.0 6649.6315 -405.35972 2672.7847 -2.8064227 -1.0351114000000001 6.8251229
58848 74330.0 6621.2095 -415.6888 2740.8907000000004 -2.8779339 -1.0306871000000002 6.7959508
58848 74340.0 6592.0739 -425.97309 2808.7012999999997 -2.949135 -1.0261517 6.7660462
58848 74350.0 6562.2278 -436.21146999999996 2876.2092000000002 -3.0200183000000003 -1.0215057 6.735412500000001
58848 74360.0 6531.674599999999 -446.40284 2943.4071000000004 -3.0905761000000003 -1.0167497 6.7040529
58848 74370.0 6500.4174 -456.54609999999997 3010.2879 -3.1608008 -1.011884 6.671970900000001
58848 74380.0 6468.4597 -466.64015 3076.8442000000005 -3.2306849000000004 -1.0069094 6.639169700000001
58848 74390.0 6435.8049 -476.68392 3143.0688999999998 -3.3002208 -1.0018262 6.6056531000000005
58848 74400.0 6402.4565 -486.67632000000003 3208.9548 -3.369401 -0.99663501 6.5714246
58848 74410.0 6368.4181 -496.61626 3274.495 -3.4382181999999997 -0.9913364400000001 6.5364879
58848 74420.0 6333.6933 -506.50269000000003 3339.6823 -3.5066648000000002 -0.9859310299999999 6.5008467
58848 74430.0 6298.286 -516.3345300000001 3404.5096000000003 -3.5747334 -0.98041937 6.464505
58848 74440.0 6262.2 -526.11073 3468.9700000000003 -3.6424169 -0.97480205 6.4274666
58848 74450.0 6225.439 -535.8302199999999 3533.0566000000003 -3.7097077 -0.9690796800000001 6.3897355

