CIC_MEM_VERS = 1.0
CREATION_DATE = 2023-03-16T10:50:07.481703
ORIGINATOR = CS Group

META_START
OBJECT_NAME = horus_eye_19
OBJECT_ID = horus_eye_19
USER_DEFINED_PROTOCOL = NONE
USER_DEFINED_CONTENT = LLA
USER_DEFINED_SIZE = 3.0
USER_DEFINED_TYPE = REAL
USER_DEFINED_UNIT = [deg] [km]
TIME_SYSTEM = UTC
META_STOP

58848 68400.0 -51.91990953778282 -170.63844674579406 813.2145176679268
58848 68410.0 -52.49624145409457 -170.91387988424333 813.4232414724312
58848 68420.0 -53.072034326961926 -171.1954889392638 813.63068087607
58848 68430.0 -53.64726587094973 -171.4835671012135 813.8367467887913
58848 68440.0 -54.22191240148485 -171.77842550267496 814.0413507323416
58848 68450.0 -54.79594872158702 -172.08039459186145 814.2444048777897
58848 68460.0 -55.36934799789295 -172.38982563036825 814.445822082732
58848 68470.0 -55.94208162479527 -172.7070923282189 814.6455159282087
58848 68480.0 -56.514119075374495 -173.0325926305452 814.8434007552084
58848 68490.0 -57.08542773763217 -173.36675067199982 815.0393917009178
58848 68500.0 -57.65597273434463 -173.7100189168366 815.2334047344896
58848 68510.0 -58.225716724637216 -174.0628805047197 815.4253566925244
58848 68520.0 -58.7946196851319 -174.42585182470086 815.6151653140654
58848 68530.0 -59.36263866823331 -174.79948534247737 815.8027492752774
58848 68540.0 -59.929727534794594 -175.1843727090389 815.9880282235761
58848 68550.0 -60.49583665802602 -175.58114818222973 816.170922811458
58848 68560.0 -61.06091259508082 -175.99049239645424 816.3513547297679
58848 68570.0 -61.62489772225423 -176.41313652011115 816.529246740534
58848 68580.0 -62.18772982916282 -176.84986684500333 816.704522709381
58848 68590.0 -62.74934166660932 -177.3015298573026 816.8771076373502
58848 68600.0 -63.309660442080975 -177.7690378455765 817.0469276922984
58848 68610.0 -63.86860725594873 -178.25337510780903 817.213910239759
58848 68620.0 -64.42609647042241 -178.75560482669397 817.3779838732764
58848 68630.0 -64.9820350021421 -179.2768766901544 817.5390784441865
58848 68640.0 -65.53632152793297 -179.8184353426971 817.6971250908632
58848 68650.0 -66.08884559168088 179.6183702377775 817.8520562674323
58848 68660.0 -66.63948659847973 179.0320763335606 818.0038057718749
58848 68670.0 -67.18811268011021 178.42109293716965 818.1523087735484
58848 68680.0 -67.73457941350735 177.78369093435745 818.297501840161
58848 68690.0 -68.27872837110789 177.1179878877084 818.4393229641266
58848 68700.0 -68.8203854788071 176.4219322812326 818.5777115882404
58848 68710.0 -69.3593591536463 175.69328608195838 818.7126086308688
58848 68720.0 -69.89543818927316 174.92960547475866 818.843956510419
58848 68730.0 -70.42838935263389 174.12821963427203 818.9716991691464
58848 68740.0 -70.95795465028104 173.28620741599593 819.095782096419
58848 68750.0 -71.48384821714579 172.4003718830881 819.2161523512357
58848 68760.0 -72.00575277473921 171.4672126423772 819.332758584134
58848 68770.0 -72.52331559971027 170.4828960525932 819.4455510583543
58848 68780.0 -73.0361439378592 169.4432235024943 819.5544816704669
58848 68790.0 -73.54379979364388 168.34359815345513 819.6595039701523
58848 68800.0 -74.04579402183457 167.17899082318715 819.7605731793965
58848 68810.0 -74.54157964760648 165.94390608365563 819.857646210936
58848 68820.0 -75.03054434603065 164.6323501943359 819.9506816860322
58848 68830.0 -75.5120020245037 163.23780323728013 820.0396399514768
58848 68840.0 -75.98518347624236 161.75319881637287 820.1244830959778
58848 68850.0 -76.44922611515396 160.17091598736124 820.2051749657047
58848 68860.0 -76.90316286968954 158.4827897516934 820.2816811791749
58848 68870.0 -77.34591041530261 156.680148509913 820.3539691414252
58848 68880.0 -77.77625707361128 154.7538893143509 820.4220080573623
58848 68890.0 -78.19285091442164 152.69460447460756 820.4857689444253
58848 68900.0 -78.5941888771001 150.49277577301478 820.5452246445044
58848 68910.0 -78.97860808872348 148.13905469453658 820.6003498350963
58848 68920.0 -79.34428099512621 145.6246477395497 820.6511210396702
58848 68930.0 -79.68921641261863 142.9418236617245 820.6975166373327
58848 68940.0 -80.01126909150855 140.08455246351468 820.7395168716833
58848 68950.0 -80.30816074380594 137.04927202193045 820.7771038589115
58848 68960.0 -80.57751554930171 133.83575547703333 820.8102615951342
58848 68970.0 -80.81691268254892 130.44802066112135 820.8389759629705
58848 68980.0 -81.02395714978596 126.89518469601839 820.8632347373
58848 68990.0 -81.19636802040468 123.19213005566871 820.8830275903157
58848 69000.0 -81.33208003356893 119.35982574741259 820.8983460957345
58848 69010.0 -81.42935097366018 115.4251545813947 820.9091837322053
58848 69020.0 -81.48686397437031 111.4201473322734 820.9155358860772
58848 69030.0 -81.50381213893367 107.38061771952397 820.9173998531975
58848 69040.0 -81.4799535454935 103.34431107304306 820.9147748400712
58848 69050.0 -81.4156282104665 99.34879028163053 820.9076619641803
58848 69060.0 -81.31173430906384 95.42934696307182 820.8960642535001
58848 69070.0 -81.16966742569 91.61721948953621 820.8799866453058
58848 69080.0 -80.99123204119725 87.93832498610405 820.8594359840864
58848 69090.0 -80.77853750329095 84.4125975027207 820.8344210187975
58848 69100.0 -80.53389094272217 81.05390795550102 820.8049523992388
58848 69110.0 -80.25969749842251 77.87045495783211 820.771042671736
58848 69120.0 -79.95837484681256 74.86547352210158 820.7327062739254
58848 69130.0 -79.63228547761528 72.03810745086649 820.6899595288984
58848 69140.0 -79.28368718919153 69.38431737201027 820.6428206384917
58848 69150.0 -78.91470023762349 66.89773419830111 820.5913096758018
58848 69160.0 -78.52728846848663 64.57040526313101 820.5354485769965
58848 69170.0 -78.12325139699485 62.393410782508745 820.4752611322551
58848 69180.0 -77.7042243299909 60.35734946151496 820.4107729760618
58848 69190.0 -77.27168401589154 58.452704695682314 820.3420115766471
58848 69200.0 -76.82695779984243 56.67010886633924 820.2690062247242
58848 69210.0 -76.37123474711852 55.00052484413868 820.1917880214642
58848 69220.0 -75.90557762429499 53.43536281463404 820.1103898656805
58848 69230.0 -75.43093497476775 51.966548244662356 820.0248464403568
58848 69240.0 -74.94815279250861 50.58655407325448 819.9351941983512
58848 69250.0 -74.45798549495484 49.288407528733806 819.841471347424
58848 69260.0 -73.96110603563147 48.0656795898775 819.7437178344817
58848 69270.0 -73.45811509246195 46.912463114284904 819.6419753291563
58848 69280.0 -72.94954933014373 45.82334405523221 819.5362872066233
58848 69290.0 -72.43588877369507 44.79336894046027 819.4266985297595
58848 69300.0 -71.91756335248036 43.81801083689998 819.3132560305095
58848 69310.0 -71.3949586850107 42.89313531701581 819.196008090661
58848 69320.0 -70.86842117845723 42.01496742311815 819.075004721837
58848 69330.0 -70.33826251581786 41.18006025124499 818.9502975448652
58848 69340.0 -69.80476359992872 40.38526551062924 818.8219397684052
58848 69350.0 -69.26817801826986 39.62770622963914 818.6899861670022
58848 69360.0 -68.72873508661594 38.904751653279654 818.5544930584114
58848 69370.0 -68.18664252355195 38.21399429416682 818.4155182802499
58848 69380.0 -67.64208880203823 37.553229046187376 818.2731211660549
58848 69390.0 -67.09524521874667 36.92043423896377 818.1273625207106
58848 69400.0 -66.54626771689638 36.313754494981836 817.9783045952017
58848 69410.0 -65.99529849382111 35.73148524517003 817.8260110607545
58848 69420.0 -65.44246742050154 35.17205875942558 817.6705469824293
58848 69430.0 -64.88789329676794 34.634031553514696 817.5119787920528
58848 69440.0 -64.33168496278535 34.11607304143244 817.3503742605702
58848 69450.0 -63.77394228473349 33.616955311290035 817.1858024698369
58848 69460.0 -63.21475703024407 33.1355439124923 817.018333783843
58848 69470.0 -62.65421364712254 32.670789551645726 816.8480398193647
58848 69480.0 -62.09238995711133 32.22172060415256 816.6749934160722
58848 69490.0 -61.5293577749271 31.787436357444395 816.4992686061181
58848 69500.0 -60.965183461477466 31.36710091015697 816.3209405831859
58848 69510.0 -60.399928419022665 30.959937659351343 816.1400856710167
58848 69520.0 -59.833649535053944 30.56522431492303 815.9567812914804
58848 69530.0 -59.26639958080697 30.182288386763254 815.7711059321014
58848 69540.0 -58.698227569583466 29.810503096056472 815.5831391131534
58848 69550.0 -58.12917907941432 29.449283667235033 815.3929613542631
58848 69560.0 -57.55929654403646 29.098083961875012 815.2006541405755
58848 69570.0 -56.98861951567403 28.75639341984743 815.0062998884995
58848 69580.0 -56.41718490269091 28.423734276913567 814.8099819109779
58848 69590.0 -55.84502718481765 28.09965903111608 814.6117843824171
58848 69600.0 -55.272178608333434 27.78374813335536 814.4117923031564
58848 69610.0 -54.6986693633086 27.47560788014915 814.210091463599
58848 69620.0 -54.12452774476592 27.17486848886134 814.0067684079493
58848 69630.0 -53.54978029941024 26.88118233780456 813.8019103976093
58848 69640.0 -52.974451959384695 26.5942223554633 813.5956053742221
58848 69650.0 -52.39856616435317 26.31368054467016 813.3879419224456
58848 69660.0 -51.822144973060205 26.03926662911374 813.1790092322668
58848 69670.0 -51.245209165397505 25.770706810755513 812.9688970612519
58848 69680.0 -50.66777833589102 25.507742628000656 812.7576956962979
58848 69690.0 -50.08987097942762 25.250129905363394 812.5454959152618
58848 69700.0 -49.51150456995181 24.997637786444198 812.332388948267
58848 69710.0 -48.932695632786505 24.750047842709016 812.1184664388264
58848 69720.0 -48.35345981116487 24.507153251383773 811.9038204046936
58848 69730.0 -47.77381192749955 24.26875803642019 811.688543198584
58848 69740.0 -47.19376603986186 24.034676367031096 811.4727274686499
58848 69750.0 -46.613335494096724 23.80473190886213 811.2564661188253
58848 69760.0 -46.032532971956115 23.578757223339064 811.039852268988
58848 69770.0 -45.45137053559738 23.356593211093216 810.8229792150408
58848 69780.0 -44.86985966875781 23.13808859583619 810.6059403888164
58848 69790.0 -44.28801131488758 22.92309944530486 810.388829317907
58848 69800.0 -43.70583591249608 22.71148872626074 810.1717395854262
58848 69810.0 -43.12334342794338 22.50312589080296 809.9547647896711
58848 69820.0 -42.54054338588607 22.29788649144451 809.7379985037958
58848 69830.0 -41.95744489756712 22.095651822714935 809.5215342353606
58848 69840.0 -41.374056687124096 21.89630858716479 809.3054653859384
58848 69850.0 -40.79038711607164 21.699748583886464 809.0898852107322
58848 69860.0 -40.20644420610276 21.50586841783051 808.8748867781409
58848 69870.0 -39.62223566033815 21.314569228289056 808.6605629294658
58848 69880.0 -39.03776888314384 21.125756435142225 808.4470062385703
58848 69890.0 -38.45305099862532 20.939339501496992 808.2343089716842
58848 69900.0 -37.86808886789807 20.75523171151359 808.0225630472958
58848 69910.0 -37.28288910522516 20.573349962327498 807.8118599961218
58848 69920.0 -36.69745809310511 20.39361456897676 807.602290921199
58848 69930.0 -36.11180199638722 20.215949081463773 807.3939464582079
58848 69940.0 -35.52592677548397 20.040280113042844 807.1869167358233
58848 69950.0 -34.93983819874429 19.86653717893009 806.9812913363836
58848 69960.0 -34.35354185404858 19.69465254473774 806.7771592566577
58848 69970.0 -33.76704315967772 19.52456108391661 806.5746088688948
58848 69980.0 -33.18034737450839 19.35620014360059 806.3737278820713
58848 69990.0 -32.59345960757907 19.189509418280963 806.1746033033986
58848 70000.0 -32.00638482707079 19.024430830772204 805.9773214001295
58848 70010.0 -31.41912786874063 18.860908419970002 805.7819676616168
58848 70020.0 -30.831693443845722 18.698888234951532 805.5886267616914
58848 70030.0 -30.244086146589833 18.538318235012476 805.3973825213728
58848 70040.0 -29.656310461125088 18.37914819522147 805.2083178719183
58848 70050.0 -29.068370768136266 18.221329617144097 805.0215148181957
58848 70060.0 -28.48027135103564 18.06481564441776 804.8370544025238
58848 70070.0 -27.892016401791803 17.909560982824154 804.6550166687874
58848 70080.0 -27.303610026416735 17.75552182462107 804.4754806270345
58848 70090.0 -26.715056250131234 17.602655776811652 804.2985242185331
58848 70100.0 -26.126359022229764 17.45092179315152 804.1242242811335
58848 70110.0 -25.537522220661856 17.300280109619848 803.9526565152701
58848 70120.0 -24.94854965634885 17.150692183153815 803.7838954503054
58848 70130.0 -24.35944507725012 17.002120633459615 803.6180144114043
58848 70140.0 -23.77021217219573 16.854529187671456 803.4550854869748
58848 70150.0 -23.180854574497662 16.707882627733614 803.2951794965234
58848 70160.0 -22.591375865354184 16.56214674027952 803.1383659591593
58848 70170.0 -22.001779577058226 16.417288268927013 802.984713062575
58848 70180.0 -21.41206919602235 16.273274868784064 802.8342876326221
58848 70190.0 -20.822248165630217 16.130075063036738 802.687155103528
58848 70200.0 -20.2323198889247 15.987658201554469 802.5433794886061
58848 70210.0 -19.642287731143217 15.845994421310431 802.4030233516762
58848 70220.0 -19.052155022105893 15.705054608558882 802.2661477790336
58848 70230.0 -18.46192505846955 15.564810362653624 802.1328123521616
58848 70240.0 -17.87160110585156 15.42523396139646 802.0030751209865
58848 70250.0 -17.28118640083232 15.286298327852904 801.876992577874
58848 70260.0 -16.690684152843634 15.147976998505335 801.7546196322983
58848 70270.0 -16.100097545949023 15.010244092712073 801.6360095861941
58848 70280.0 -15.509429740522254 14.8730742833455 801.521214110024
58848 70290.0 -14.918683874829965 14.736442768576556 801.4102832195392
58848 70300.0 -14.327863066524266 14.600325244721565 801.3032652533102
58848 70310.0 -13.736970414050369 14.464697880069245 801.2002068509944
58848 70320.0 -13.146008997973892 14.329537289667767 801.1011529323185
58848 70330.0 -12.55498188223327 14.194820510962964 801.0061466768842
58848 70340.0 -11.963892115321363 14.06052498028291 800.9152295046559
58848 70350.0 -11.372742731401027 13.926628510075693 800.828441057389
58848 70360.0 -10.781536751358056 13.793109266868246 800.745819180643
58848 70370.0 -10.190277183796054 13.659945749905582 800.6673999068134
58848 70380.0 -9.598967025976982 13.527116770408163 800.5932174387993
58848 70390.0 -9.00760926471092 13.394601431420954 800.5233041345675
58848 70400.0 -8.416206877198317 13.262379108196317 800.4576904926031
58848 70410.0 -7.82476283182825 13.130429429078626 800.3964051380465
58848 70420.0 -7.233280088936242 12.998732256861587 800.3394748098208
58848 70430.0 -6.641761601524488 12.867267670564239 800.286924348501
58848 70440.0 -6.050210315947341 12.736015947607493 800.2387766851192
58848 70450.0 -5.4586291725652085 12.604957546340033 800.1950528307581
58848 70460.0 -4.867021106369975 12.474073088887716 800.1557718670834
58848 70470.0 -4.275389047584442 12.343343344311823 800.1209509376434
58848 70480.0 -3.6837359222383634 12.212749212006315 800.0906052402125
58848 70490.0 -3.0920646527240017 12.082271705342412 800.0647480198033
58848 70500.0 -2.500378158333911 11.9518919355151 800.0433905627591
58848 70510.0 -1.9086793557831716 11.821591095545632 800.0265421915714
58848 70520.0 -1.3169711597190201 11.691350444452695 800.014210260711
58848 70530.0 -0.7252564832198797 11.561151291515028 800.0064001532699
58848 70540.0 -0.13353823828652867 11.430974980640116 800.0031152785341
58848 70550.0 0.45818066367194366 11.300802874783612 800.0043570704353
58848 70560.0 1.0498973113551626 11.1706163404106 800.0101249868926
58848 70570.0 1.6416087930892456 11.040396731956283 800.0204165100812
58848 70580.0 2.233312196342695 10.91012537625579 800.0352271475508
58848 70590.0 2.825004607237777 10.77978355695824 800.0545504342683
58848 70600.0 3.416683110055139 10.649352498824603 800.0783779355572
58848 70610.0 4.008344786729404 10.51881335195434 800.10669925088
58848 70620.0 4.599986716333065 10.38814717586494 800.1395020186005
58848 70630.0 5.191605974545964 10.257334923403231 800.1767719215449
58848 70640.0 5.783199633107971 10.126357424501148 800.2184926934924
58848 70650.0 6.374764759252582 9.995195369672912 800.2646461265444
58848 70660.0 6.966298415118393 9.863829293298284 800.3152120793463
58848 70670.0 7.557797657135821 9.732239556601545 800.3701684862102
58848 70680.0 8.149259535386285 9.600406330336474 800.4294913671216
58848 70690.0 8.74068109293131 9.468309577128139 800.4931548385404
58848 70700.0 9.33205936510846 9.335929033422273 800.5611311251246
58848 70710.0 9.923391378790935 9.203244191047883 800.633390572293
58848 70720.0 10.514674151607768 9.070234278307995 800.7099016596077
58848 70730.0 11.10590469112189 8.936878240602052 800.7906310150227
58848 70740.0 11.697079993962353 8.803154720526116 800.8755434299375
58848 70750.0 12.288197044907097 8.669042037384273 800.964601875118
58848 70760.0 12.879252815912977 8.534518166133978 801.0577675173679
58848 70770.0 13.470244265089546 8.399560715637795 801.1549997370554
58848 70780.0 14.061168335612317 8.264146906251373 801.256256146443
58848 70790.0 14.652021954571499 8.128253546639035 801.361492608779
58848 70800.0 15.242802031751943 7.991857009807415 801.4706632581544
58848 70810.0 15.833505458340342 7.854933208287284 801.583720520147
58848 70820.0 16.424129105554435 7.717457568392185 801.7006151332893
58848 70830.0 17.014669823189458 7.579405003522652 801.8212961711534
58848 70840.0 17.605124438076697 7.440749886438303 801.9457110652463
58848 70850.0 18.195489752449 7.3014660204152255 802.073805628681
58848 70860.0 18.785762542207205 7.161526609258709 802.2055240804355
58848 70870.0 19.375939555081338 7.020904226037711 802.3408090704055
58848 70880.0 19.966017508680405 6.879570780536829 802.4796017051409
58848 70890.0 20.555993088424053 6.73749748525902 802.6218415741943
58848 70900.0 21.14586294534875 6.5946548199542585 802.7674667772083
58848 70910.0 21.735623693780965 6.4510124945529075 802.9164139516172
58848 70920.0 22.325271908868846 6.306539410389568 803.0686183009378
58848 70930.0 22.914804123964757 6.161203619638544 803.2240136237849
58848 70940.0 23.504216827848577 6.014972282831583 803.3825323434073
58848 70950.0 24.093506461782418 5.867811624320176 803.5441055378462
58848 70960.0 24.682669416386123 5.719686885583321 803.70866297065
58848 70970.0 25.271702028323254 5.5705622762140745 803.8761331222119
58848 70980.0 25.86060057678429 5.420400922457409 804.0464432215738
58848 70990.0 26.449361279756047 5.269164813101947 804.2195192788255
58848 71000.0 27.037980290062457 5.116814742621436 804.3952861179647
58848 71010.0 27.62645369116272 4.963310251301844 804.5736674103456
58848 71020.0 28.2147774926915 4.8086095622225695 804.7545857084705
58848 71030.0 28.802947625724443 4.652669514855834 804.9379624804002
58848 71040.0 29.39095993775049 4.495445495045192 805.1237181444983
58848 71050.0 29.978810187332584 4.336891361150406 805.3117721047049
58848 71060.0 30.566494038435913 4.176959366083179 805.5020427861413
58848 71070.0 31.154007054401294 4.015600074938931 805.6944476711624
58848 71080.0 31.741344691539748 3.8527622779545867 805.888903335803
58848 71090.0 32.3285022923226 3.6883928984427494 806.0853254865534
58848 71100.0 32.91547507813938 3.522436895360834 806.2836289975105
58848 71110.0 33.50225814159349 3.3548371601459905 806.4837279478594
58848 71120.0 34.08884643830285 3.1855344073842806 806.6855356596575
58848 71130.0 34.67523477817084 3.0144670589071185 806.8889647359268
58848 71140.0 35.261417816089484 2.8415711208150065 807.093927099
58848 71150.0 35.84739004203389 2.6667800529252945 807.3003340291926
58848 71160.0 36.43314577050312 2.490024630083527 807.5080962036164
58848 71170.0 37.0186791292593 2.3112327947471853 807.7171237353214
58848 71180.0 37.60398404731272 2.130329500163038 807.9273262125799
58848 71190.0 38.18905424209581 1.947236543463884 808.1386127383975
58848 71200.0 38.77388320576385 1.7618723878908964 808.3508919701404
58848 71210.0 39.3584641905549 1.5741519733165001 808.5640721594309
58848 71220.0 39.94279019313588 1.3839865141562135 808.7780611920006
58848 71230.0 40.526853937854476 1.1912832836923255 808.9927666278832
58848 71240.0 41.110647858808946 0.9959453837079575 809.2080957414965
58848 71250.0 41.69416408064063 0.797871498292855 809.4239555619426
58848 71260.0 42.27739439794502 0.5969556305151308 809.6402529133511
58848 71270.0 42.86033025318651 0.3930868205833529 809.8568944552018
58848 71280.0 43.44296271299168 0.1861488439468282 810.0737867227571
58848 71290.0 44.02528244268353 -0.02398011230010842 810.2908361674779
58848 71300.0 44.607279678906735 -0.23742779656050902 810.5079491974255
58848 71310.0 45.18894420017731 -0.4543282654133659 810.7250322176185
58848 71320.0 45.770265295174624 -0.6748222840230479 810.9419916704308
58848 71330.0 46.35123172857558 -0.8990577566749814 811.1587340758055
58848 71340.0 46.93183170420928 -1.1271901901143557 811.3751660715394
58848 71350.0 47.512052825288876 -1.3593831925266682 811.5911944533563
58848 71360.0 48.09188205145011 -1.5958090114369359 811.8067262148841
58848 71370.0 48.67130565229925 -1.8366491139791177 812.0216685876321
58848 71380.0 49.25030915714025 -2.0820948134643817 812.2359290806191
58848 71390.0 49.828877300515686 -2.3323479464832744 812.449415520029
58848 71400.0 50.40699396315503 -2.587621605330384 812.6620360885668
58848 71410.0 50.984642107879836 -2.8481409309236834 812.8736993647083
58848 71420.0 51.56180370996488 -3.1141439720272195 813.084314361658
58848 71430.0 52.13845968139587 -3.385882617208918 813.2937905661339
58848 71440.0 52.71458978840184 -3.6636236065724472 813.5020379769229
58848 71450.0 53.29017256156618 -3.9476496312266507 813.7089671431528
58848 71460.0 53.86518519774004 -4.238260529193329 813.9144892022559
58848 71470.0 54.43960345288734 -4.535774587489789 814.1185159177481
58848 71480.0 55.01340152488694 -4.840529961265128 814.3209597165909
58848 71490.0 55.586551925196744 -5.152886222000815 814.5217337263099
58848 71500.0 56.159025338150435 -5.473226048247585 814.7207518117618
58848 71510.0 56.73079046650217 -5.801957073926159 814.9179286115336
58848 71520.0 57.30181386165962 -6.139513910888123 815.1131795740235
58848 71530.0 57.872059736844115 -6.486360364514673 815.3064209930772
58848 71540.0 58.44148976118841 -6.842991863235846 815.497570043307
58848 71550.0 59.01006283252073 -7.209938125433481 815.6865448149712
58848 71560.0 59.57773482628244 -7.587766089870129 815.8732643484295
58848 71570.0 60.14445831768289 -7.977083139075215 816.057648668189
58848 71580.0 60.71018227379952 -8.378540648513153 816.2396188164704
58848 71590.0 61.27485171187685 -8.792837898371687 816.4190968863671
58848 71600.0 61.83840731955424 -9.220726389284335 816.5960060545098
58848 71610.0 62.40078503214887 -9.663014608152848 816.7702706132259
58848 71620.0 62.96191556142565 -10.120573295844887 816.9418160022359
58848 71630.0 63.52172386948281 -10.594341274627398 817.1105688398336
58848 71640.0 64.08012858045387 -11.085331899983206 817.276456953542
58848 71650.0 64.63704132165562 -11.594640208897799 817.4394094102645
58848 71660.0 65.19236598457206 -12.123450844812563 817.5993565458375
58848 71670.0 65.7459978946337 -12.673046848163183 817.7562299940972
58848 71680.0 66.29782287709452 -13.24481941074346 817.909962715334
58848 71690.0 66.84771620439966 -13.840278701693444 818.0604890242176
58848 71700.0 67.39554140823225 -14.461065882765809 818.2077446170892
58848 71710.0 67.94114893689282 -15.108966439825027 818.3516665986838
58848 71720.0 68.48437463575301 -15.785924965931597 818.4921935082549
58848 71730.0 69.02503802519927 -16.494061537740766 818.6292653450781
58848 71740.0 69.5629403466989 -17.235689829716385 818.7628235933253
58848 71750.0 70.09786234335266 -18.01333710815149 818.8928112463304
58848 71760.0 70.62956173652636 -18.829766235660887 819.0191728301586
58848 71770.0 71.15777035489602 -19.68799979325023 819.1418544266113
58848 71780.0 71.68219086655824 -20.59134638495846 819.2608036954999
58848 71790.0 72.20249305888422 -21.54342912205531 819.3759698962745
58848 71800.0 72.71830960478614 -22.548216178867243 819.4873039089962
58848 71810.0 73.22923124844424 -23.610053156353484 819.5947582546186
58848 71820.0 73.73480133899216 -24.733696763361646 819.6982871145926
58848 71830.0 74.23450963822918 -25.924349003911253 819.7978463497217
58848 71840.0 74.72778532969409 -27.187690609797208 819.8933935183917
58848 71850.0 75.2139891637059 -28.529911840767653 819.9848878940505
58848 71860.0 75.6924046895557 -29.957737940820138 820.0722904819696
58848 71870.0 76.16222855653345 -31.478445433254702 820.1555640353075
58848 71880.0 76.62255991618663 -33.099864001234046 820.2346730704342
58848 71890.0 77.07238903741194 -34.830356886181896 820.3095838815076
58848 71900.0 77.51058536413112 -36.67877052333693 820.3802645543542
58848 71910.0 77.93588541478593 -38.65434156708831 820.4466849795583
58848 71920.0 78.34688115697462 -40.76654670393545 820.5088168648601
58848 71930.0 78.74200980088098 -43.02487807574327 820.5666337467601
58848 71940.0 79.11954634680563 -45.43852541763816 820.620111001367
58848 71950.0 79.47760068541743 -48.0159462532738 820.6692258545443
58848 71960.0 79.8141215475648 -50.764309284285176 820.7139573912215
58848 71970.0 80.12691005425678 -53.688805499768684 820.7542865639765
58848 71980.0 80.41364588952672 -56.7918386541857 820.7901962008647
58848 71990.0 80.67192900819327 -60.07213304888948 820.8216710124487
58848 72000.0 80.89933905005672 -63.523831354523466 820.8486975980651
58848 72010.0 81.09351302949686 -67.13569405386741 820.8712644513179
58848 72020.0 81.25223930092162 -70.89054529806721 820.889361964816
58848 72030.0 81.37356244126053 -74.76512311057016 820.9029824340552
58848 72040.0 81.45589011863797 -78.73046947190285 820.912120060648
58848 72050.0 81.49809020164612 -82.7529287593159 820.9167709546342
58848 72060.0 81.49956542757663 -86.79571700213182 820.9169331361115
58848 72070.0 81.46029470453612 -90.82090398310908 820.9126065360433
58848 72080.0 81.38083459429718 -94.79155293515973 820.903792996282
58848 72090.0 81.26228073894805 -98.67372345676834 820.8904962687966
58848 72100.0 81.10619527646143 -102.43807728839282 820.872722014159
58848 72110.0 80.91451093217655 -106.06092069552318 820.8504777992431
58848 72120.0 80.68942443697827 -109.52463729768199 820.8237730940613
58848 72130.0 80.433291161158 -112.81757327732267 820.7926192679563
58848 72140.0 80.14853013704055 -115.93350718847877 820.7570295848717
58848 72150.0 79.83754508978603 -118.87086203927593 820.7170191979812
58848 72160.0 79.5026636965461 -121.63180625687389 820.6726051434343
58848 72170.0 79.14609465833684 -124.22135785274592 820.6238063333898
58848 72180.0 78.76990049766876 -126.64656728067492 820.5706435482398
58848 72190.0 78.37598319923775 -128.91581917917082 820.5131394280984
58848 72200.0 77.96607966335219 -131.03826623065396 820.4513184635283
58848 72210.0 77.54176419368925 -133.02339061751593 820.3852069854581
58848 72220.0 77.10445568698532 -134.88067867632768 820.3148331544008
58848 72230.0 76.65542769054814 -136.61939022565377 820.2402269488599
58848 72240.0 76.19581996095573 -138.24840360724178 820.1614201530442
58848 72250.0 75.72665055471124 -139.7761190999396 820.0784463437875
58848 72260.0 75.24882779777786 -141.21040590599495 819.9913408767401
58848 72270.0 74.76316172016737 -142.5585806666275 819.9001408718548
58848 72280.0 74.27037471546191 -143.8274080515043 819.8048851980807
58848 72290.0 73.77111130657764 -145.02311620776757 819.7056144574121
58848 72300.0 73.26594698071419 -146.15142169749336 819.6023709680784
58848 72310.0 72.75539610890885 -147.2175600141645 819.4951987472374
58848 72320.0 72.23991899733856 -148.2263188966024 819.3841434927232
58848 72330.0 71.71992813492425 -149.18207251030086 819.2692525642527
58848 72340.0 71.19579370961274 -150.08881519699761 819.1505749638602
58848 72350.0 70.6678484673233 -150.95019395312818 819.0281613156839
58848 72360.0 70.13639198532094 -151.7695391273716 818.9020638450498
58848 72370.0 69.60169442734727 -152.54989305967518 818.7723363568826
58848 72380.0 69.06399984226047 -153.29403654451468 818.639034213459
58848 72390.0 68.52352906194712 -154.0045131091131 818.5022143114978
58848 72400.0 67.98048224827666 -154.68365116775536 818.3619350585574
58848 72410.0 67.43504113316125 -155.33358415688113 818.2182563489104
58848 72420.0 66.88737099049293 -155.9562687804495 818.0712395386589
58848 72430.0 66.33762237392243 -156.5535015070616 817.9209474202689
58848 72440.0 65.78593265013681 -157.12693346335337 817.7674441965308
58848 72450.0 65.23242735348234 -157.6780838657607 817.6107954538451
58848 72460.0 64.67722138441074 -158.20835212651937 817.4510681349991
58848 72470.0 64.1204200712982 -158.71902876154138 817.2883305112508
58848 72480.0 63.562120112617116 -159.2113052184701 817.1226521539306
58848 72490.0 63.00241041421748 -159.6862827334513 816.9541039054615
58848 72500.0 62.44137283454424 -160.14498031555274 816.7827578497443
58848 72510.0 61.87908284894423 -160.58834194836945 816.608687282137
58848 72520.0 61.31561014276667 -161.0172430896622 816.4319666788057
58848 72530.0 60.7510191417156 -161.43249654165174 816.2526716655641
58848 72540.0 60.18536948682064 -161.83485775714163 816.0708789862541
58848 72550.0 59.61871646046406 -162.22502963981364 815.886666470572
58848 72560.0 59.051111369085376 -162.6036668908366 815.7001130014675
58848 72570.0 58.482601887482836 -162.971379948421 815.5112984820136
58848 72580.0 57.91323236902444 -163.3287385619032 815.3203038018771
58848 72590.0 57.34304412554973 -163.67627503750768 815.1272108033111
58848 72600.0 56.77207568028316 -164.01448718894704 814.9321022466966
58848 72610.0 56.20036299668683 -164.34384102242674 814.7350617757252
58848 72620.0 55.62793968582272 -164.66477318251398 814.536173882104
58848 72630.0 55.05483719450048 -164.97769318245983 814.3355238699437
58848 72640.0 54.48108497621709 -165.2829854400589 814.1331978196921
58848 72650.0 53.906710646662816 -165.58101113795888 813.9292825517673
58848 72660.0 53.331740125371205 -165.87210992524442 813.7238655898357
58848 72670.0 52.75619776490435 -166.15660147549835 813.517035123699
58848 72680.0 52.18010646881795 -166.43478691481084 813.3088799719371
58848 72690.0 51.60348779950802 -166.70695013196152 813.0994895441991
58848 72700.0 51.02636207692212 -166.9733589816666 812.8889538032009
58848 72710.0 50.44874846901352 -167.23426639068526 812.6773632265165
58848 72720.0 49.87066507472127 -167.48991137565005 812.4648087680151
58848 72730.0 49.29212900017571 -167.74051998051576 812.2513818191434
58848 72740.0 48.7131564287604 -167.98630614082572 812.0371741698842
58848 72750.0 48.133762685588955 -168.22747248122658 811.8222779696267
58848 72760.0 47.55396229690557 -168.46421105206565 811.6067856877554
58848 72770.0 46.973769044862465 -168.69670401034722 811.3907900740443
58848 72780.0 46.393196018081824 -168.92512424978557 811.1743841190026
58848 72790.0 45.81225565837277 -169.1496359842987 810.9576610139579
58848 72800.0 45.230959803934894 -169.37039528883568 810.7407141110542
58848 72810.0 44.64931972934695 -169.58755060106733 810.5236368831505
58848 72820.0 44.067346182616156 -169.80124318719723 810.3065228836556
58848 72830.0 43.48504941952902 -170.0116075747693 810.0894657061857
58848 72840.0 42.902439235530146 -170.21877195518354 809.8725589442455
58848 72850.0 42.319524995329736 -170.42285855828993 809.6558961508903
58848 72860.0 41.73631566042209 -170.62398400131238 809.4395707982511
58848 72870.0 41.15281981468434 -170.82225961408523 809.2236762371729
58848 72880.0 40.56904568820579 -171.01779174246062 809.0083056567956
58848 72890.0 39.98500117948501 -171.21068203153925 808.7935520441762
58848 72900.0 39.400693876124244 -171.40102769029127 808.5795081439674
58848 72910.0 38.81613107413224 -171.5889217389473 808.3662664181353
58848 72920.0 38.231319795943456 -171.77445324046522 808.1539190058108
58848 72930.0 37.64626680724898 -171.95770751722475 807.9425576831682
58848 72940.0 37.060978632726474 -172.13876635407536 807.7322738234828
58848 72950.0 36.47546157075073 -172.31770818868162 807.5231583572968
58848 72960.0 35.889721707159374 -172.49460829012094 807.3153017327152
58848 72970.0 35.30376492813853 -172.6695389265568 807.1087938759388
58848 72980.0 34.717596932295955 -172.8425695227453 806.9037241519177
58848 72990.0 34.131223241973494 -173.01376680812683 806.7001813252438
58848 73000.0 33.544649213855344 -173.18319495611092 806.4982535212523
58848 73010.0 32.95788004891995 -173.3509157152097 806.298028187419
58848 73020.0 32.37092080177866 -173.51698853253114 806.0995920549014
58848 73030.0 31.78377638944484 -173.68147067018816 805.9030311005162
58848 73040.0 31.196451599570597 -173.8444173150852 805.7084305088403
58848 73050.0 30.608951098184654 -174.00588168250923 805.5158746348106
58848 73060.0 30.02127943696842 -174.16591511397363 805.3254469664356
58848 73070.0 29.433441060094896 -174.3245671696465 805.1372300880834
58848 73080.0 28.845440310662813 -174.48188571575596 804.9513056439548
58848 73090.0 28.257281436750226 -174.63791700728137 804.7677543020698
58848 73100.0 27.668968597110123 -174.79270576621917 804.5866557185279
58848 73110.0 27.080505866534462 -174.94629525574356 804.4080885022987
58848 73120.0 26.491897240902343 -175.09872735047503 804.2321301803725
58848 73130.0 25.90314664193573 -175.25004260315174 804.0588571634114
58848 73140.0 25.31425792167879 -175.40028030788025 803.8883447118154
58848 73150.0 24.7252348667172 -175.54947856021786 803.7206669023146
58848 73160.0 24.13608120215458 -175.69767431426752 803.5558965950262
58848 73170.0 23.5468005953598 -175.84490343695228 803.3941054010705
58848 73180.0 22.95739665949746 -175.99120075968278 803.235363650644
58848 73190.0 22.367872956857664 -176.13660012752672 803.0797403617347
58848 73200.0 21.778233001992742 -176.2811344460831 802.9273032093296
58848 73210.0 21.188480264675462 -176.42483572615092 802.778118495182
58848 73220.0 20.598618172687775 -176.56773512636477 802.6322511182593
58848 73230.0 20.008650114449207 -176.70986299390168 802.4897645457031
58848 73240.0 19.418579441495677 -176.851248903373 802.3507207844623
58848 73250.0 18.82840947081673 -176.99192169400283 802.2151803535614
58848 73260.0 18.23814348705754 -177.13190950523813 802.0832022569482
58848 73270.0 17.647784744597683 -177.27123981081942 801.9548439571239
58848 73280.0 17.057336469508403 -177.40993945145598 801.8301613493138
58848 73290.0 16.46680186139958 -177.54803466615823 801.7092087364481
58848 73300.0 15.87618409516105 -177.68555112233798 801.592038804734
58848 73310.0 15.28548632260357 -177.8225139447109 801.4787026000453
58848 73320.0 14.694711674007033 -177.95894774311114 801.3692495048964
58848 73330.0 14.103863259580478 -178.09487663926905 801.2637272163408
58848 73340.0 13.512944170837653 -178.23032429259965 801.1621817244343
58848 73350.0 12.92195748189688 -178.36531392510233 801.0646572915442
58848 73360.0 12.330906250704908 -178.4998683453803 800.9711964324567
58848 73370.0 11.739793520193412 -178.63400997187455 800.8818398951774
58848 73380.0 11.148622319370562 -178.76776085534595 800.7966266425587
58848 73390.0 10.557395664351011 -178.90114270064794 800.7155938347827
58848 73400.0 9.966116559330047 -179.0341768878528 800.6387768125288
58848 73410.0 9.374787997504784 -179.16688449275995 800.5662090810665
58848 73420.0 8.78341296194435 -179.29928630684466 800.4979222951142
58848 73430.0 8.191994426416583 -179.43140285668065 800.4339462445322
58848 73440.0 7.600535356169558 -179.56325442286803 800.3743088408834
58848 73450.0 7.009038708675014 -179.69486105851183 800.3190361047922
58848 73460.0 6.417507434335367 -179.82624260729318 800.2681521542145
58848 73470.0 5.825944477156392 -179.95741872116122 800.2216791934883
58848 73480.0 5.2343527753902785 179.9115911223263 800.1796375033215
58848 73490.0 4.6427352621511995 179.78076760297688 800.1420454316263
58848 73500.0 4.05109486600445 179.6500915412013 800.1089193851609
58848 73510.0 3.4594345115358887 179.519543881527 800.0802738221755
58848 73520.0 2.8677571198993466 179.38910567630575 800.0561212458011
58848 73530.0 2.276065609348599 179.25875806962944 800.036472198434
58848 73540.0 1.6843628957548853 179.12848228140643 800.021335256942
58848 73550.0 1.0926518931110958 178.99825959155584 800.0107170287841
58848 73560.0 0.5009355140290318 178.868071324331 800.00462214903
58848 73570.0 -0.09078332977277197 178.73789883269492 800.0030532782334
58848 73580.0 -0.6825017269842085 178.60772348277203 800.0060111012416
58848 73590.0 -1.2742167662209178 178.47752663829846 800.0134943268927
58848 73600.0 -1.8659255355421382 178.34728964508457 800.0254996886001
58848 73610.0 -2.4576251219648517 178.2169938154459 800.0420219458202
58848 73620.0 -3.049312610972586 178.08662041255934 800.063053886428
58848 73630.0 -3.6409850860180333 177.95615063475734 800.0885863299814
58848 73640.0 -4.232639628012998 177.82556559968398 800.1186081318991
58848 73650.0 -4.824273314808204 177.69484632832544 800.1531061884986
58848 73660.0 -5.4158832206564105 177.56397372886923 800.1920654428869
58848 73670.0 -6.007466415657873 177.4329285803489 800.2354688918514
58848 73680.0 -6.59901996518639 177.30169151608283 800.2832975934979
58848 73690.0 -7.190540929291398 177.17024300682834 800.3355306758351
58848 73700.0 -7.782026362074235 177.03856334367106 800.3921453462304
58848 73710.0 -8.373473311037426 176.9066326205672 800.4531169017166
58848 73720.0 -8.96487881640006 176.77443071654736 800.5184187401478
58848 73730.0 -9.556239910381349 176.6419372775315 800.588022372241
58848 73740.0 -10.147553616445384 176.5091316976957 800.6618974344311
58848 73750.0 -10.738816948505471 176.3759931004161 800.7400117026164
58848 73760.0 -11.330026910085712 176.2425003186811 800.8223311066931
58848 73770.0 -11.92118049343451 176.1086318749728 800.9088197459536
58848 73780.0 -12.512274678587586 175.97436596058256 800.9994399052385
58848 73790.0 -13.103306432378178 175.8396804142811 801.0941520720374
58848 73800.0 -13.694272707387666 175.70455270033796 801.1929149542095
58848 73810.0 -14.285170440832662 175.56895988581005 801.2956854986884
58848 73820.0 -14.875996553392845 175.43287861708566 801.4024189107903
58848 73830.0 -15.466747947960245 175.29628509558268 801.5130686744662
58848 73840.0 -16.057421508318814 175.1591550525935 801.6275865731509
58848 73850.0 -16.648014097742475 175.02146372319856 801.745922711541
58848 73860.0 -17.23852255750862 174.8831858191707 801.8680255379744
58848 73870.0 -17.82894370532312 174.74429550084668 801.9938418676008
58848 73880.0 -18.41927433364754 174.60476634784962 802.1233169062784
58848 73890.0 -19.00951120792744 174.4645713286295 802.2563942751751
58848 73900.0 -19.59965106471176 174.32368276872913 802.3930160360491
58848 73910.0 -20.189690609658502 174.18207231767997 802.533122717171
58848 73920.0 -20.779626515420087 174.0397109144722 802.6766533400892
58848 73930.0 -21.369455419399756 173.89656875148052 802.8235454467955
58848 73940.0 -21.959173921371764 173.75261523676954 802.9737351277578
58848 73950.0 -22.548778580958736 173.6078189546467 803.1271570504695
58848 73960.0 -23.13826591495335 173.46214762438484 803.2837444886114
58848 73970.0 -23.72763239448015 173.31556805698284 803.4434293518844
58848 73980.0 -24.316874441983146 173.16804610981262 803.6061422163447
58848 73990.0 -24.905988428030426 173.01954663908225 803.7718123553924
58848 74000.0 -25.494970667925795 172.87003344990154 803.9403677712525
58848 74010.0 -26.08381741811106 172.71946924382806 804.1117352270115
58848 74020.0 -26.67252487235154 172.56781556376077 804.2858402792162
58848 74030.0 -27.26108915768621 172.41503273593406 804.4626073109437
58848 74040.0 -27.849506330129717 172.2610798088992 804.6419595653597
58848 74050.0 -28.43777237011099 172.10591448923208 804.823819179794
58848 74060.0 -29.025883177629456 171.94949307379275 805.0081072202414
58848 74070.0 -29.613834567111304 171.79177037828936 805.194743716332
58848 74080.0 -30.20162226194769 171.63269966188196 805.3836476967034
58848 74090.0 -30.789241888689777 171.47223254759055 805.5747372248173
58848 74100.0 -31.3766889708824 171.3103189381915 805.7679294351261
58848 74110.0 -31.963958922508272 171.14690692731372 805.9631405696565
58848 74120.0 -32.55104704101726 170.98194270537363 806.1602860149661
58848 74130.0 -33.13794849991331 170.81537046001947 806.3592803393581
58848 74140.0 -33.72465834086591 170.64713227068492 806.5600373305267
58848 74150.0 -34.311171465314175 170.47716799680575 806.7624700334337
58848 74160.0 -34.89748262552808 170.3054151593123 806.9664907885245
58848 74170.0 -35.48358641508452 170.13180881482717 807.1720112701755
58848 74180.0 -36.0694772587205 169.95628142210322 807.3789425254337
58848 74190.0 -36.65514940151348 169.77876270010515 807.587195012971
58848 74200.0 -37.24059689734092 169.59917947708857 807.7966786422351
58848 74210.0 -37.82581359656531 169.41745553006888 808.0073028128934
58848 74220.0 -38.41079313288432 169.23351141386806 808.218976454311
58848 74230.0 -38.995528909282775 169.0472642790115 808.4316080653452
58848 74240.0 -39.58001408301862 168.85862767758803 808.6451057541949
58848 74250.0 -40.16424154956225 168.66751135611221 808.8593772784053
58848 74260.0 -40.74820392541218 168.47382103443326 809.0743300849675
58848 74270.0 -41.331893529692124 168.27745816949778 809.2898713505841
58848 74280.0 -41.915302364432286 168.0783197028205 809.5059080218917
58848 74290.0 -42.498422093427685 167.8762977903144 809.7223468558309
58848 74300.0 -43.081244019553324 167.67127951302433 809.9390944600451
58848 74310.0 -43.663759060407294 167.46314656721708 810.1560573332624
58848 74320.0 -44.245957722140744 167.2517749320775 810.3731419057361
58848 74330.0 -44.82783007131535 167.0370345131307 810.5902545796165
58848 74340.0 -45.40936570462058 166.8187887593268 810.8073017693338
58848 74350.0 -45.99055371625828 166.59689425149384 811.0241899419254
58848 74360.0 -46.571382662788004 166.3712002597 811.2408256572958
58848 74370.0 -47.151840525204406 166.1415482667604 811.457115608382
58848 74380.0 -47.73191466799107 165.90777145488826 811.6729666612205
58848 74390.0 -48.311591794872484 165.669694152174 811.8882858949459
58848 74400.0 -48.89085790095528 165.42713123523646 812.1029806415838
58848 74410.0 -49.46969822091205 165.17988748403357 812.3169585257564
58848 74420.0 -50.04809717283237 164.9277568843472 812.5301275041686
58848 74430.0 -50.62603829731465 164.67052187309983 812.7423959049488
58848 74440.0 -51.20350419133138 164.40795252098835 812.9536724667877
58848 74450.0 -51.78047643634604 164.1398056464867 813.1638663778717
