CIC_OEM_VERS = 2.0
CREATION_DATE = 2023-03-16T10:50:07.449741
ORIGINATOR = ISAE-SUPAERO


META_START
OBJECT_NAME = horus_eye_19
OBJECT_ID = horus_eye_19
CENTER_NAME = Earth
REF_FRAME = EME2000
TIME_SYSTEM = UTC
START_TIME = 2019-12-31T19:00:00.000
USEABLE_START_TIME = 2019-12-31T19:00:00.000
USEABLE_STOP_TIME = 2019-12-31T20:40:50.000
STOP_TIME = 2019-12-31T20:40:50.000
INTERPOLATION = lagrange
INTERPOLATION_DEGREE = 5
META_STOP


58848 68400.0 -3693.7099 -2486.0849 -5630.415900000001 3.6993814000000005 4.661355899999999 -4.4850981
58848 68410.0 -3656.5177000000003 -2439.3382 -5674.9627 3.7389888 4.687897 -4.424178
58848 68420.0 -3618.9314 -2392.3286000000003 -5718.897900000001 3.7781933 4.7139329 -4.362781
58848 68430.0 -3580.9552000000003 -2345.0612 -5762.2167 3.8169906 4.7394608 -4.300913899999999
58848 68440.0 -3542.593 -2297.5411 -5804.9146 3.8553764999999998 4.7644779 -4.2385832
58848 68450.0 -3503.849 -2249.7734 -5846.986900000001 3.8933470000000003 4.7889816000000005 -4.1757958
58848 68460.0 -3464.7273999999998 -2201.7632000000003 -5888.429 3.9308979 4.8129691 -4.1125584
58848 68470.0 -3425.2325 -2153.5157000000004 -5929.2366 3.9680250999999997 4.836438 -4.0488777
58848 68480.0 -3385.3684 -2105.0362 -5969.4051 4.004724700000001 4.8593855999999995 -3.9847607
58848 68490.0 -3345.1394 -2056.3298 -6008.9304 4.040992699999999 4.8818095999999995 -3.9202141999999998
58848 68500.0 -3304.55 -2007.4017 -6047.808 4.0768252 4.9037074 -3.8552453
58848 68510.0 -3263.6044 -1958.2574 -6086.0339 4.1122184 4.9250767 -3.7898609000000003
58848 68520.0 -3222.3071 -1908.902 -6123.6039 4.147168300000001 4.945915299999999 -3.7240680000000004
58848 68530.0 -3180.6625 -1859.3409 -6160.513900000001 4.1816714 4.9662208 -3.6578738
58848 68540.0 -3138.6751000000004 -1809.5793 -6196.76 4.2157238 4.985991200000001 -3.5912854000000003
58848 68550.0 -3096.3495000000003 -1759.6228 -6232.3383 4.2493218 5.0052242 -3.52431
58848 68560.0 -3053.6902000000005 -1709.4767 -6267.245 4.2824619 5.0239178 -3.4569548
58848 68570.0 -3010.7018 -1659.1463 -6301.4762 4.315140500000001 5.0420699 -3.389227
58848 68580.0 -2967.389 -1608.6371000000001 -6335.0283 4.347354 5.0596787 -3.3211339
58848 68590.0 -2923.7563 -1557.9545 -6367.8977 4.3790991 5.0767422 -3.2526829
58848 68600.0 -2879.8086000000003 -1507.1041 -6400.0808 4.4103721 5.0932586 -3.1838814
58848 68610.0 -2835.5505000000003 -1456.0912 -6431.5741 4.4411699 5.1092261 -3.1147367
58848 68620.0 -2790.9867999999997 -1404.9214 -6462.374400000001 4.471489099999999 5.1246429 -3.0452564000000004
58848 68630.0 -2746.1223 -1353.6002 -6492.4782000000005 4.5013263 5.1395075 -2.9754479000000003
58848 68640.0 -2700.9619 -1302.1331 -6521.8823 4.5306785000000005 5.1538182 -2.9053187
58848 68650.0 -2655.5103 -1250.5256000000002 -6550.5835 4.559542400000001 5.1675734 -2.8348765
58848 68660.0 -2609.7726000000002 -1198.7835 -6578.5788 4.5879148999999995 5.1807718000000005 -2.7641287
58848 68670.0 -2563.7537 -1146.9121 -6605.8651 4.615792900000001 5.1934118 -2.693083
58848 68680.0 -2517.4584 -1094.9171000000001 -6632.4395 4.6431736 5.205492100000001 -2.6217471
58848 68690.0 -2470.8919 -1042.8041 -6658.2991 4.6700538 5.2170114000000005 -2.5501286
58848 68700.0 -2424.059 -990.57873 -6683.4411 4.6964307 5.2279685 -2.4782352999999997
58848 68710.0 -2376.965 -938.24661 -6707.8629 4.7223014999999995 5.2383622 -2.4060749
58848 68720.0 -2329.6147 -885.81337 -6731.5618 4.7476634 5.2481913 -2.3336552000000004
58848 68730.0 -2282.0134 -833.28467 -6754.5352 4.7725136 5.2574548000000005 -2.2609841000000004
58848 68740.0 -2234.1662 -780.6661600000001 -6776.7806 4.7968495 5.266151799999999 -2.1880692
58848 68750.0 -2186.0781 -727.96352 -6798.2958 4.8206684 5.274281200000001 -2.1149186
58848 68760.0 -2137.7545 -675.1824300000001 -6819.0782 4.843967800000001 5.2818420999999995 -2.04154
58848 68770.0 -2089.2005 -622.32858 -6839.1258 4.8667452 5.288833899999999 -1.9679414
58848 68780.0 -2040.4214 -569.40765 -6858.4364000000005 4.888998 5.2952557 -1.8941307
58848 68790.0 -1991.4223000000002 -516.42536 -6877.0078 4.910724 5.3011067999999995 -1.8201159
58848 68800.0 -1942.2086000000002 -463.38742 -6894.838 4.9319208 5.3063866 -1.745905
58848 68810.0 -1892.7857 -410.29954 -6911.925200000001 4.952586 5.3110946000000006 -1.6715059
58848 68820.0 -1843.1587 -357.16744 -6928.2676 4.9727176 5.3152302 -1.5969266
58848 68830.0 -1793.3331 -303.99684 -6943.863200000001 4.9923132 5.3187929 -1.5221752
58848 68840.0 -1743.3142 -250.79349 -6958.7105 5.0113707000000005 5.3217825 -1.4472598
58848 68850.0 -1693.1075 -197.56311 -6972.807900000001 5.0298882 5.3241985000000005 -1.3721885
58848 68860.0 -1642.7183 -144.31143 -6986.1538 5.0478637 5.3260407 -1.2969692
58848 68870.0 -1592.152 -91.044206 -6998.7468 5.0652951 5.3273089 -1.2216102000000002
58848 68880.0 -1541.4142 -37.767168 -7010.585599999999 5.0821806 5.328003 -1.1461195
58848 68890.0 -1490.5102 15.513940000000002 -7021.6688 5.0985184 5.328123 -1.0705053
58848 68900.0 -1439.4457 68.79337699999999 -7031.9953 5.1143068000000005 5.3276687 -0.9947757500000001
58848 68910.0 -1388.2259 122.0654 -7041.5639 5.129544 5.3266402 -0.9189389800000001
58848 68920.0 -1336.8566 175.32426999999998 -7050.3737 5.1442284 5.3250377 -0.84300317
58848 68930.0 -1285.3432 228.56423999999998 -7058.4237 5.1583583 5.3228613 -0.76697651
58848 68940.0 -1233.6913000000002 281.77958 -7065.713 5.1719324 5.3201113 -0.6908672
58848 68950.0 -1181.9063999999998 334.96455 -7072.2408 5.1849491 5.3167879000000005 -0.61468343
58848 68960.0 -1129.9941999999999 388.11343 -7078.0064 5.197407 5.3128915 -0.53843341
58848 68970.0 -1077.9602 441.22048 -7083.0093 5.2093048 5.3084225 -0.46212537
58848 68980.0 -1025.81 494.27997 -7087.2488 5.2206412 5.3033815 -0.38576753
58848 68990.0 -973.54921 547.2862 -7090.7245 5.2314149 5.2977689 -0.30936811000000003
58848 69000.0 -921.1835400000001 600.23345 -7093.436 5.2416249 5.2915854 -0.23293535
58848 69010.0 -868.7186 653.1160100000001 -7095.3831 5.2512699000000005 5.2848316 -0.15647749
58848 69020.0 -816.16003 705.9281800000001 -7096.5655 5.260349100000001 5.277508300000001 -0.080002763
58848 69030.0 -763.5135 758.6642800000001 -7096.9830999999995 5.268861299999999 5.269616200000001 -0.0035194153
58848 69040.0 -710.7846999999999 811.31861 -7096.6359 5.2768057 5.2611561 0.072964312
58848 69050.0 -657.9792900000001 863.8855100000001 -7095.5239 5.2841814000000005 5.2521291 0.14944018
58848 69060.0 -605.10297 916.35931 -7093.6471 5.2909877 5.242536100000001 0.22589993000000003
58848 69070.0 -552.1614300000001 968.73435 -7091.0059 5.2972237 5.2323781 0.30233535
58848 69080.0 -499.16039 1021.005 -7087.6006 5.3028889 5.221656200000001 0.37873818000000004
58848 69090.0 -446.10556 1073.1656 -7083.4313 5.3079825000000005 5.2103715 0.45510019
58848 69100.0 -393.00265 1125.2105 -7078.4987 5.3125041 5.1985254 0.5314131599999999
58848 69110.0 -339.85739 1177.1342 -7072.8032 5.3164532 5.186119 0.60766886
58848 69120.0 -286.6755 1228.9311 -7066.3456 5.3198294 5.1731536 0.68385907
58848 69130.0 -233.46271 1280.5955000000001 -7059.1263 5.3226322 5.1596308 0.7599755800000001
58848 69140.0 -180.22477 1332.1218000000001 -7051.1463 5.3248614 5.1455519 0.83601018
58848 69150.0 -126.9674 1383.5046000000002 -7042.406400000001 5.3265167 5.1309185 0.9119546900000001
58848 69160.0 -73.69634500000001 1434.7384 -7032.9075 5.327598 5.115732100000001 0.9878009200000001
58848 69170.0 -20.417351 1485.8174 -7022.6507 5.3281051 5.0999944 1.0635407000000001
58848 69180.0 32.863844 1536.7364 -7011.6371 5.3280381 5.0837071 1.1391659
58848 69190.0 86.141496 1587.4898 -6999.8678 5.327396800000001 5.0668719 1.2146682000000002
58848 69200.0 139.40987 1638.0720000000001 -6987.3442000000005 5.3261814 5.0494906 1.2900397000000001
58848 69210.0 192.66321 1688.4778000000001 -6974.0675 5.324392 5.0315652 1.3652722000000002
58848 69220.0 245.89579 1738.7015000000001 -6960.0392 5.3220288 5.0130975 1.4403575000000002
58848 69230.0 299.10187 1788.7378999999999 -6945.2609 5.3190919999999995 4.9940895 1.5152876000000002
58848 69240.0 352.27572 1838.5815 -6929.734 5.315582 4.974543300000001 1.5900544
58848 69250.0 405.41159999999996 1888.227 -6913.460400000001 5.3114991 4.9544611000000005 1.6646497999999998
58848 69260.0 458.5038 1937.669 -6896.4416 5.306843799999999 4.9338448 1.7390658
58848 69270.0 511.54657000000003 1986.9021000000002 -6878.679700000001 5.3016166 4.9126969 1.8132944
58848 69280.0 564.53422 2035.9211 -6860.1764 5.295818000000001 4.8910195000000005 1.8873276
58848 69290.0 617.46103 2084.7207 -6840.9338 5.2894487 4.868815 1.9611574
58848 69300.0 670.3213000000001 2133.2957 -6820.9539 5.2825094 4.8460858 2.0347759
58848 69310.0 723.1093199999999 2181.6407000000004 -6800.2390000000005 5.2750007 4.8228344 2.108175
58848 69320.0 775.81942 2229.7506000000003 -6778.791200000001 5.2669236 4.799063100000001 2.181347
58848 69330.0 828.4459 2277.6203 -6756.6128 5.2582789000000005 4.7747747 2.2542839
58848 69340.0 880.98311 2325.2444 -6733.7063 5.2490674 4.749971700000001 2.3269778000000003
58848 69350.0 933.42537 2372.618 -6710.0741 5.2392902999999995 4.7246568 2.3994209
58848 69360.0 985.7670300000001 2419.7359 -6685.7188 5.2289486 4.6988328 2.4716055000000003
58848 69370.0 1038.0025 2466.593 -6660.642900000001 5.218043300000001 4.6725023000000006 2.5435237
58848 69380.0 1090.126 2513.1842 -6634.849200000001 5.2065757 4.6456683000000005 2.6151678
58848 69390.0 1142.1321 2559.5047000000004 -6608.3405 5.194546900000001 4.6183336 2.6865300000000003
58848 69400.0 1194.0151 2605.5492000000004 -6581.1196 5.181958300000001 4.590501199999999 2.7576027
58848 69410.0 1245.7694 2651.313 -6553.1894 5.168811300000001 4.562174 2.8283783
58848 69420.0 1297.3895 2696.7911000000004 -6524.553 5.1551073 4.5333553 2.8988490000000002
58848 69430.0 1348.8697 2741.9785 -6495.2135 5.1408476 4.5040479 2.9690073000000003
58848 69440.0 1400.2046 2786.8704 -6465.174 5.126034 4.4742552 3.0388456
58848 69450.0 1451.3885 2831.462 -6434.4377 5.1106679 4.4439802 3.1083564999999997
58848 69460.0 1502.4161000000001 2875.7484 -6403.0079000000005 5.0947510000000005 4.413226300000001 3.1775322999999998
58848 69470.0 1553.2817 2919.7249 -6370.8882 5.0782851 4.3819969 3.2463656999999997
58848 69480.0 1603.98 2963.3867999999998 -6338.0818 5.0612718999999995 4.3502951 3.3148493
58848 69490.0 1654.5053 3006.7293 -6304.5924 5.0437132 4.3181246 3.3829756000000004
58848 69500.0 1704.8524 3049.7477000000003 -6270.4235 5.025611 4.2854886 3.4507372999999997
58848 69510.0 1755.0158000000001 3092.4375 -6235.5789 5.0069671 4.2523909 3.5181271
58848 69520.0 1804.99 3134.794 -6200.0622 4.9877837000000005 4.2188348 3.5851378
58848 69530.0 1854.7696 3176.8127000000004 -6163.8774 4.968062700000001 4.1848241 3.6517621
58848 69540.0 1904.3494 3218.489 -6127.0283 4.9478063 4.1503624 3.7179929000000005
58848 69550.0 1953.724 3259.8184 -6089.518900000001 4.9270167 4.115453400000001 3.783823
58848 69560.0 2002.8880000000001 3300.7966 -6051.3532000000005 4.9056961 4.0801008 3.8492453
58848 69570.0 2051.8362 3341.419 -6012.535400000001 4.883846800000001 4.0443086 3.9142527
58848 69580.0 2100.5632 3381.6812999999997 -5973.0695000000005 4.8614712 4.0080805 3.9788384000000003
58848 69590.0 2149.0638 3421.5792 -5932.96 4.8385717 3.9714204 4.0429952
58848 69600.0 2197.3329 3461.1083 -5892.2110999999995 4.8151507 3.9343323999999997 4.1067163
58848 69610.0 2245.3651 3500.2644 -5850.827200000001 4.7912107 3.8968204 4.1699948000000004
58848 69620.0 2293.1554 3539.0433 -5808.8127 4.7667545 3.8588883000000003 4.232824
58848 69630.0 2340.6985 3577.4408 -5766.1722 4.7417845 3.8205405000000003 4.2951969
58848 69640.0 2387.9894 3615.4527000000003 -5722.9103 4.7163035 3.7817808 4.357107
58848 69650.0 2435.0229 3653.0750000000003 -5679.031599999999 4.6903141999999995 3.7426137 4.4185475
58848 69660.0 2481.794 3690.3037000000004 -5634.540900000001 4.6638194 3.7030431 4.4795118
58848 69670.0 2528.2976000000003 3727.1346000000003 -5589.443 4.636822100000001 3.6630735 4.5399933
58848 69680.0 2574.5287000000003 3763.5638 -5543.742700000001 4.609325 3.6227092 4.5999856
58848 69690.0 2620.4824 3799.5875 -5497.4449 4.5813312 3.5819544000000003 4.6594822
58848 69700.0 2666.1537000000003 3835.2016000000003 -5450.554700000001 4.5528436 3.5408135 4.7184764999999995
58848 69710.0 2711.5377000000003 3870.4025 -5403.0770999999995 4.5238654 3.4992911 4.7769624
58848 69720.0 2756.6294 3905.1862 -5355.0172 4.4943995999999995 3.4573916 4.8349335
58848 69730.0 2801.424 3939.549 -5306.3802000000005 4.4644495 3.4151195 4.8923835
58848 69740.0 2845.9168 3973.4873 -5257.1713 4.434018200000001 3.3724793 4.9493062
58848 69750.0 2890.1027999999997 4006.9974 -5207.3958 4.4031091 3.3294756000000003 5.0056956
58848 69760.0 2933.9773999999998 4040.0757000000003 -5157.059200000001 4.371725499999999 3.2861132 5.0615455
58848 69770.0 2977.5357000000004 4072.7185 -5106.166700000001 4.3398707000000005 3.2423966 5.1168499
58848 69780.0 3020.7732 4104.9224 -5054.724 4.3075482 3.1983306 5.1716029
58848 69790.0 3063.6852000000003 4136.684 -5002.7365 4.274761499999999 3.1539198 5.2257985
58848 69800.0 3106.2669 4167.9997 -4950.209900000001 4.241514100000001 3.1091691999999997 5.2794309
58848 69810.0 3148.5139 4198.8662 -4897.1498 4.2078096 3.0640835 5.3324944
58848 69820.0 3190.4216 4229.2803 -4843.561900000001 4.1736516 3.0186676 5.3849832
58848 69830.0 3231.9855000000002 4259.2385 -4789.4520999999995 4.1390438000000005 2.9729264 5.4368917
58848 69840.0 3273.201 4288.737700000001 -4734.826099999999 4.10399 2.9268647999999997 5.488214200000001
58848 69850.0 3314.0638 4317.7747 -4679.6898 4.0684939 2.8804877 5.538945200000001
58848 69860.0 3354.5694 4346.3464 -4624.0492 4.0325593 2.8338003 5.5890794
58848 69870.0 3394.7135000000003 4374.4497 -4567.9102 3.9961900999999997 2.7868074000000003 5.6386111
58848 69880.0 3434.4918 4402.0815999999995 -4511.279 3.9593902 2.7395142000000003 5.6875352999999995
58848 69890.0 3473.8999 4429.2390000000005 -4454.1615 3.9221637 2.6919256999999996 5.735846400000001
58848 69900.0 3512.9336000000003 4455.9191 -4396.5641 3.8845144 2.6440472 5.7835393999999996
58848 69910.0 3551.5888 4482.119 -4338.4928 3.8464465 2.5958837 5.8306092
58848 69920.0 3589.8612000000003 4507.8359 -4279.954 3.8079641000000004 2.5474404 5.8770505
58848 69930.0 3627.7467 4533.066900000001 -4220.9539 3.7690713000000002 2.4987226000000002 5.9228585
58848 69940.0 3665.2412999999997 4557.8094 -4161.499 3.7297723 2.4497354999999996 5.9680282
58848 69950.0 3702.3408 4582.0607 -4101.5955 3.6900714 2.4004844 6.0125547
58848 69960.0 3739.0414 4605.8183 -4041.25 3.6499728 2.3509746000000002 6.056433200000001
58848 69970.0 3775.339 4629.0794000000005 -3980.469 3.6094808 2.3012114 6.0996591
58848 69980.0 3811.2297000000003 4651.8417 -3919.259 3.5685998 2.2512003 6.1422275
58848 69990.0 3846.7097000000003 4674.1026 -3857.6267000000003 3.5273342 2.2009465 6.184134
58848 70000.0 3881.7751000000003 4695.8598 -3795.5786000000003 3.4856885 2.1504555 6.2253741
58848 70010.0 3916.4222000000004 4717.110900000001 -3733.1214 3.4436672 2.0997328000000004 6.2659432
58848 70020.0 3950.6472000000003 4737.853700000001 -3670.262 3.4012747 2.0487838000000003 6.3058371
58848 70030.0 3984.4465 4758.0859 -3607.0069 3.3585156 1.997614 6.3450514
58848 70040.0 4017.8163 4777.8053 -3543.3632000000002 3.3153946000000003 1.9462289000000002 6.3835819
58848 70050.0 4050.7532 4797.0097000000005 -3479.3376000000003 3.2719164000000003 1.8946340000000002 6.4214244
58848 70060.0 4083.2535000000003 4815.6973 -3414.937 3.2280855 1.842835 6.4585748999999995
58848 70070.0 4115.313700000001 4833.8658 -3350.1684 3.1839067 1.7908374 6.495029300000001
58848 70080.0 4146.9305 4851.513400000001 -3285.0388 3.1393847 1.7386467 6.5307838
58848 70090.0 4178.1003 4868.6381 -3219.5551 3.0945245 1.6862687 6.5658345
58848 70100.0 4208.8198 4885.2381 -3153.7244 3.0493307 1.633709 6.6001775
58848 70110.0 4239.0858 4901.3117 -3087.5539 3.0038084 1.5809731999999999 6.6338093
58848 70120.0 4268.8949 4916.857 -3021.0506 2.9579623 1.528067 6.6667261
58848 70130.0 4298.244 4931.8725 -2954.2218 2.9117974 1.4749962 6.6989244
58848 70140.0 4327.1298 4946.356400000001 -2887.0746000000004 2.8653187 1.4217663 6.730400800000001
58848 70150.0 4355.5493 4960.3072999999995 -2819.6162000000004 2.8185312 1.3683833 6.7611519
58848 70160.0 4383.499400000001 4973.723599999999 -2751.8540000000003 2.77144 1.3148528 6.7911743
58848 70170.0 4410.9771 4986.6039 -2683.7951000000003 2.7240501 1.2611805999999999 6.8204649
58848 70180.0 4437.9795 4998.9468 -2615.4471000000003 2.6763665999999997 1.2073724 6.849020400000001
58848 70190.0 4464.5035 5010.750900000001 -2546.8172000000004 2.6283947 1.1534342 6.8768377
58848 70200.0 4490.5464 5022.015 -2477.9128 2.5801395000000005 1.0993716 6.903914
58848 70210.0 4516.1054 5032.7379 -2408.7414 2.5316063 1.0451906 6.9302462
58848 70220.0 4541.1776 5042.9185 -2339.3104 2.4828002000000002 0.9908969200000001 6.955831600000001
58848 70230.0 4565.7605 5052.5555 -2269.6272999999997 2.4337265 0.93649646 6.9806673
58848 70240.0 4589.8513 5061.648099999999 -2199.6995 2.3843906 0.8819950700000001 7.0047507
58848 70250.0 4613.4474 5070.1951 -2129.5348 2.3347977 0.8273986200000001 7.0280792000000005
58848 70260.0 4636.5464 5078.1957 -2059.1405 2.2849532 0.77271301 7.0506503
58848 70270.0 4659.1457 5085.6491 -1988.5243 2.2348625 0.71794412 7.0724615
58848 70280.0 4681.2428 5092.554400000001 -1917.6938 2.1845308 0.6630978599999999 7.0935106
58848 70290.0 4702.8355 5098.9108 -1846.6566 2.1339638 0.6081801400000001 7.113795199999999
58848 70300.0 4723.9213 5104.7177 -1775.4204 2.0831668 0.55319687 7.1333131000000005
58848 70310.0 4744.4981 5109.9745 -1703.9929 2.0321453 0.49815398 7.1520622000000005
58848 70320.0 4764.5635 5114.6806 -1632.3818 1.9809047000000002 0.44305741000000004 7.1700406
58848 70330.0 4784.1155 5118.8355 -1560.5946999999999 1.9294507 0.38791309 7.1872463
58848 70340.0 4803.1518 5122.4388 -1488.6394 1.8777888 0.33272697 7.2036774
58848 70350.0 4821.6705999999995 5125.4899000000005 -1416.5237 1.8259245000000002 0.27750499 7.2193322
58848 70360.0 4839.6697 5127.9888 -1344.2554 1.7738634 0.22225309999999998 7.2342089
58848 70370.0 4857.1472 5129.9349 -1271.8422 1.7216111 0.16697726000000002 7.2483059999999995
58848 70380.0 4874.1013 5131.3282 -1199.2919 1.6691733 0.11168342 7.261622
58848 70390.0 4890.5301 5132.1686 -1126.6123 1.6165555999999999 0.056377545 7.2741553
58848 70400.0 4906.4318 5132.4558 -1053.8113999999998 1.5637637 0.0010655965 7.285904700000001
58848 70410.0 4921.8048 5132.1899 -980.89685 1.5108033 -0.05424646700000001 7.296869
58848 70420.0 4936.6473 5131.370900000001 -907.87661 1.4576801000000001 -0.10955268 7.3070468
58848 70430.0 4950.9579 5129.9989000000005 -834.75854 1.4043997 -0.16484710000000002 7.3164372
58848 70440.0 4964.7348 5128.0740000000005 -761.5505 1.3509680000000002 -0.22012374 7.3250391
58848 70450.0 4977.9767 5125.596500000001 -688.26039 1.2973907 -0.27537666 7.3328515
58848 70460.0 4990.6822 5122.5666 -614.8960999999999 1.2436736000000002 -0.33059991000000005 7.3398737
58848 70470.0 5002.8498 5118.9846 -541.46555 1.1898225 -0.38578753 7.3461049
58848 70480.0 5014.4782000000005 5114.8509 -467.97664000000003 1.1358431 -0.44093357 7.3515443
58848 70490.0 5025.5662 5110.1660999999995 -394.4373 1.0817413 -0.49603209 7.3561915
58848 70500.0 5036.1125999999995 5104.9305 -320.85545 1.027523 -0.55107715 7.3600460000000005
58848 70510.0 5046.1163 5099.144700000001 -247.23903 0.9731938800000001 -0.60606282 7.363107200000001
58848 70520.0 5055.5762 5092.8094 -173.59596 0.91875991 -0.66098318 7.3653749
58848 70530.0 5064.4912 5085.9253 -99.93417600000001 0.86422692 -0.71583231 7.3668489
58848 70540.0 5072.8604000000005 5078.493 -26.261625000000002 0.80960079 -0.77060428 7.367528900000001
58848 70550.0 5080.682900000001 5070.5135 47.413755 0.75488741 -0.82529322 7.3674149
58848 70560.0 5087.9579 5061.9875 121.08403 0.70009268 -0.8798932 7.3665069
58848 70570.0 5094.6845 5052.915900000001 194.74125 0.6452225 -0.93439837 7.3648051
58848 70580.0 5100.862099999999 5043.2998 268.37748 0.59028278 -0.98880283 7.3623095
58848 70590.0 5106.4899000000005 5033.140200000001 341.98479 0.53527945 -1.0431006999999999 7.3590205
58848 70600.0 5111.5675 5022.4382000000005 415.55525 0.48021843000000003 -1.0972862 7.3549384
58848 70610.0 5116.094099999999 5011.1949 489.08092 0.42510566 -1.1513534 7.3500637
58848 70620.0 5120.0694 4999.411599999999 562.55388 0.36994708000000004 -1.2052965999999998 7.3443969
58848 70630.0 5123.493 4987.089400000001 635.96622 0.31474862000000003 -1.2591098 7.3379385
58848 70640.0 5126.3643 4974.2298 709.31002 0.25951625 -1.3127874 7.330689400000001
58848 70650.0 5128.6832 4960.8341 782.57737 0.20425591 -1.3663235 7.3226502
58848 70660.0 5130.4493 4946.9038 855.76039 0.14897354999999998 -1.4197123 7.3138217999999995
58848 70670.0 5131.6626 4932.4404 928.8511800000001 0.093675139 -1.4729481000000002 7.3042053
58848 70680.0 5132.3228 4917.4454000000005 1001.8419 0.038366633000000004 -1.5260252 7.2938016
58848 70690.0 5132.4299 4901.920400000001 1074.7246 -0.016946008 -1.5789379 7.2826118
58848 70700.0 5131.9839 4885.867200000001 1147.4915 -0.072256822 -1.6316803 7.2706371
58848 70710.0 5130.9848 4869.2874 1220.1347 -0.12755985 -1.6842469000000002 7.2578789
58848 70720.0 5129.4328 4852.182900000001 1292.6465 -0.18284913 -1.7366321 7.2443386
58848 70730.0 5127.3279 4834.5554 1365.0189 -0.2381187 -1.78883 7.2300175
58848 70740.0 5124.6705 4816.406900000001 1437.2442 -0.29336262 -1.8408352000000001 7.2149172
58848 70750.0 5121.4607000000005 4797.7394 1509.3146000000002 -0.34857491 -1.8926420000000002 7.1990394
58848 70760.0 5117.6991 4778.5548 1581.2223999999999 -0.40374964 -1.9442447999999999 7.1823857
58848 70770.0 5113.3859 4758.8552 1652.9598 -0.45888086 -1.9956380999999999 7.1649579999999995
58848 70780.0 5108.5216 4738.6427 1724.519 -0.51396263 -2.0468163 7.1467581000000004
58848 70790.0 5103.1068 4717.9196 1795.8924 -0.5689890000000001 -2.0977739 7.127788
58848 70800.0 5097.1421 4696.688 1867.0722 -0.6239540600000001 -2.1485054 7.1080498
58848 70810.0 5090.628 4674.9502 1938.0508 -0.67885187 -2.1990054 7.0875455
58848 70820.0 5083.5653 4652.7087 2008.8206000000002 -0.7336765199999999 -2.2492685000000003 7.0662774
58848 70830.0 5075.9547 4629.965700000001 2079.3738000000003 -0.78842211 -2.2992891 7.0442478
58848 70840.0 5067.7971 4606.7237000000005 2149.703 -0.8430827200000001 -2.3490619 7.021459
58848 70850.0 5059.093400000001 4582.9853 2219.8005 -0.89765248 -2.3985816 6.9979135
58848 70860.0 5049.844400000001 4558.7529 2289.6587000000004 -0.95212549 -2.4478427000000003 6.9736138
58848 70870.0 5040.0512 4534.0293 2359.2702999999997 -1.0064959 -2.4968401 6.948562600000001
58848 70880.0 5029.7148 4508.817 2428.6275 -1.0607578000000002 -2.5455684 6.9227625
58848 70890.0 5018.8364 4483.1189 2497.723 -1.1149055 -2.5940223000000002 6.8962164
58848 70900.0 5007.4171 4456.9375 2566.5494 -1.1689329 -2.6421967 6.868927
58848 70910.0 4995.4582 4430.275900000001 2635.0991000000004 -1.2228344 -2.6900863 6.8408974
58848 70920.0 4982.9609 4403.1368 2703.3648 -1.2766041000000001 -2.737686 6.812130600000001
58848 70930.0 4969.9266 4375.523099999999 2771.3393 -1.3302362 -2.7849907 6.7826296
58848 70940.0 4956.3566 4347.437900000001 2839.015 -1.3837249999999999 -2.8319953 6.7523977
58848 70950.0 4942.2525000000005 4318.8842 2906.3848 -1.4370646 -2.8786945999999998 6.721438
58848 70960.0 4927.6158 4289.8651 2973.4413 -1.4902494 -2.9250837 6.689754
58848 70970.0 4912.4481 4260.3836 3040.1775000000002 -1.5432736 -2.9711576 6.657349
58848 70980.0 4896.750900000001 4230.443 3106.5859 -1.5961314 -3.0169112 6.6242265
58848 70990.0 4880.526 4200.0465 3172.6596 -1.6488172 -3.0623398 6.5903902
58848 71000.0 4863.7752 4169.1973 3238.3914 -1.7013254 -3.1074382999999997 6.5558436
58848 71010.0 4846.500099999999 4137.8988 3303.7741 -1.7536502 -3.1522019 6.5205905
58848 71020.0 4828.7028 4106.1544 3368.8008 -1.8057859 -3.1966258 6.4846347
58848 71030.0 4810.3850999999995 4073.9675 3433.4645 -1.8577271000000002 -3.2407052 6.447979999999999
58848 71040.0 4791.548900000001 4041.3415 3497.7581 -1.9094681 -3.2844353 6.4106304000000005
58848 71050.0 4772.196400000001 4008.2799 3561.6748 -1.9610033000000002 -3.3278114999999997 6.372590000000001
58848 71060.0 4752.3296 3974.7864 3625.2076 -2.0123272 -3.3708291 6.3338627
58848 71070.0 4731.9506 3940.8646000000003 3688.3498 -2.0634341 -3.4134832999999998 6.2944529000000005
58848 71080.0 4711.0616 3906.518 3751.0944 -2.1143188 -3.4557697 6.2543647
58848 71090.0 4689.665 3871.7504 3813.4348 -2.1649755 -3.4976837 6.2136025
58848 71100.0 4667.762900000001 3836.5656000000004 3875.3642000000004 -2.2153989000000003 -3.5392207 6.1721706
58848 71110.0 4645.3578 3800.9673 3936.876 -2.2655836 -3.5803763 6.1300736
58848 71120.0 4622.452 3764.9593 3997.9635000000003 -2.3155241 -3.6211461 6.0873159
58848 71130.0 4599.0481 3728.5456000000004 4058.6201 -2.3652151 -3.6615256 6.043902200000001
58848 71140.0 4575.1485999999995 3691.7301 4118.8394 -2.4146511999999998 -3.7015105 5.9998372
58848 71150.0 4550.756 3654.5168 4178.6147 -2.463827 -3.7410965000000003 5.9551255
58848 71160.0 4525.8729 3616.9096 4237.9398 -2.5127373 -3.7802793 5.9097721000000005
58848 71170.0 4500.5021 3578.9125 4296.808099999999 -2.5613768 -3.8190547 5.8637817
58848 71180.0 4474.6463 3540.5298 4355.2133 -2.6097403 -3.8574185 5.8171595
58848 71190.0 4448.3083 3501.7656 4413.1492 -2.6578226 -3.8953666 5.769910299999999
58848 71200.0 4421.4908 3462.6239 4470.6094 -2.7056183000000003 -3.9328949 5.7220392
58848 71210.0 4394.196900000001 3423.1091 4527.5879 -2.7531226 -3.9699994000000003 5.6735516
58848 71220.0 4366.429400000001 3383.2253 4584.0784 -2.8003301 -4.006676 5.6244524
58848 71230.0 4338.1912999999995 3342.977 4640.0749000000005 -2.8472358 -4.0429208 5.5747472
58848 71240.0 4309.4857 3302.3684 4695.571400000001 -2.8938346000000004 -4.0787299 5.5244411
58848 71250.0 4280.3156 3261.4039 4750.5617999999995 -2.9401216 -4.1140994 5.473539700000001
58848 71260.0 4250.6843 3220.0879 4805.0402 -2.9860918 -4.1490256 5.4220483999999995
58848 71270.0 4220.5949 3178.4248 4859.0008 -3.0317401 -4.1835046 5.3699727
58848 71280.0 4190.0506000000005 3136.4193 4912.4377 -3.0770617000000002 -4.2175328 5.3173184000000004
58848 71290.0 4159.054700000001 3094.0757000000003 4965.345200000001 -3.1220517 -4.251106399999999 5.2640910000000005
58848 71300.0 4127.6107 3051.3987 5017.7176 -3.1667052 -4.2842218999999995 5.2102962
58848 71310.0 4095.7218 3008.3928 5069.5493 -3.2110175 -4.3168757 5.155939999999999
58848 71320.0 4063.3915 2965.0627000000004 5120.8346 -3.2549837000000004 -4.3490643 5.101028100000001
58848 71330.0 4030.6232999999997 2921.4131 5171.568 -3.2985991 -4.3807841 5.0455665
58848 71340.0 3997.4207 2877.4486 5221.7441 -3.341859 -4.4120319 4.9895611
58848 71350.0 3963.7873 2833.174 5271.357400000001 -3.3847587 -4.4428041 4.9330179
58848 71360.0 3929.7267 2788.5941000000003 5320.402700000001 -3.4272937000000003 -4.4730976 4.8759432
58848 71370.0 3895.2426 2743.7137000000002 5368.8746 -3.4694593 -4.502909 4.818343
58848 71380.0 3860.3388 2698.5376 5416.7678 -3.5112511 -4.5322351 4.7602234
58848 71390.0 3825.0189 2653.0706 5464.0773 -3.5526644000000003 -4.5610728 4.7015909
58848 71400.0 3789.2868 2607.3177 5510.7979000000005 -3.5936948 -4.5894189 4.6424517
58848 71410.0 3753.1463 2561.2839 5556.9247000000005 -3.634338 -4.617270400000001 4.5828122
58848 71420.0 3716.6013 2514.974 5602.4525 -3.6745894 -4.6446243 4.5226787999999996
58848 71430.0 3679.6558 2468.3931000000002 5647.3766 -3.7144449 -4.6714777000000005 4.462058
58848 71440.0 3642.3137 2421.5461 5691.692099999999 -3.7539001 -4.6978276 4.4009563
58848 71450.0 3604.5791000000004 2374.4382 5735.394200000001 -3.7929507 -4.7236713 4.3393803
58848 71460.0 3566.4561000000003 2327.0744 5778.478099999999 -3.8315925 -4.7490058 4.2773366
58848 71470.0 3527.9487000000004 2279.4598 5820.9394 -3.8698213999999997 -4.7738286 4.214832
58848 71480.0 3489.061 2231.5995000000003 5862.7733 -3.9076333 -4.7981369 4.1518732
58848 71490.0 3449.7974 2183.4988 5903.9753 -3.945024 -4.8219281 4.0884669
58848 71500.0 3410.1620000000003 2135.1627000000003 5944.5410999999995 -3.9819896 -4.8451996 4.02462
58848 71510.0 3370.159 2086.5965 5984.4663 -4.018526 -4.867948999999999 3.9603393000000002
58848 71520.0 3329.7929 2037.8055 6023.7465 -4.0546294 -4.8901737 3.8956319
58848 71530.0 3289.0679 1988.7948000000001 6062.3775000000005 -4.0902958 -4.9118715 3.8305046000000003
58848 71540.0 3247.9885 1939.5698 6100.3552 -4.125521300000001 -4.9330399 3.7649645
58848 71550.0 3206.559 1890.1358 6137.6755 -4.160302300000001 -4.9536766 3.6990187000000003
58848 71560.0 3164.7839 1840.498 6174.3342999999995 -4.1946349000000005 -4.9737795 3.6326742
58848 71570.0 3122.6677999999997 1790.662 6210.3276 -4.2285155 -4.9933464 3.5659382
58848 71580.0 3080.2151000000003 1740.6328999999998 6245.6517 -4.2619403 -5.012375100000001 3.4988179
58848 71590.0 3037.4305 1690.4163 6280.3027 -4.2949059 -5.0308636 3.4313205
58848 71600.0 2994.3185 1640.0174 6314.276900000001 -4.3274085 -5.0488100000000005 3.3634534
58848 71610.0 2950.8839 1589.4419 6347.5706 -4.359444900000001 -5.0662123 3.2952238000000005
58848 71620.0 2907.1312000000003 1538.695 6380.180200000001 -4.3910114 -5.0830686 3.226639
58848 71630.0 2863.0652000000005 1487.7823 6412.1022 -4.4221046 -5.0993770000000005 3.1577064999999997
58848 71640.0 2818.6907 1436.7093 6443.3332 -4.4527213 -5.1151359 3.0884337
58848 71650.0 2774.0124 1385.4815 6473.8698 -4.4828582 -5.130343600000001 3.0188281000000003
58848 71660.0 2729.0352000000003 1334.1043 6503.7087 -4.512511900000001 -5.1449984 2.9488971000000004
58848 71670.0 2683.7637999999997 1282.5833 6532.8467 -4.5416793 -5.1590986 2.8786484
58848 71680.0 2638.2032000000004 1230.9242 6561.2806 -4.5703572999999995 -5.1726429 2.8080894
58848 71690.0 2592.3583 1179.1323 6589.0075 -4.5985427 -5.1856298 2.7372277
58848 71700.0 2546.234 1127.2133999999999 6616.024200000001 -4.6262325 -5.198057700000001 2.6660711000000004
58848 71710.0 2499.8352999999997 1075.1731000000002 6642.3279 -4.6534237 -5.209925500000001 2.5946272
58848 71720.0 2453.1672000000003 1023.0168000000001 6667.9158 -4.680113500000001 -5.2212318 2.5229036000000002
58848 71730.0 2406.2347000000004 970.7502900000001 6692.7851 -4.7062988 -5.2319754000000005 2.4509081000000004
58848 71740.0 2359.0429 918.37917 6716.9331 -4.731977 -5.2421552 2.3786484999999997
58848 71750.0 2311.5969 865.9090699999999 6740.3572 -4.7571452 -5.2517700000000005 2.3061325999999998
58848 71760.0 2263.9017000000003 813.3456500000001 6763.0549 -4.7818007 -5.2608188 2.2333681000000003
58848 71770.0 2215.9626000000003 760.69458 6785.0238 -4.8059408999999995 -5.2693007 2.1603629
58848 71780.0 2167.7846 707.96153 6806.2614 -4.8295632 -5.277214700000001 2.0871249
58848 71790.0 2119.3731000000002 655.15218 6826.7655 -4.852665 -5.284560000000001 2.013662
58848 71800.0 2070.7331 602.27223 6846.5339 -4.875243800000001 -5.291335699999999 1.9399821
58848 71810.0 2021.8699 549.32737 6865.5645 -4.8972972 -5.2975411999999995 1.8660931
58848 71820.0 1972.7889 496.32331 6883.8551 -4.9188228 -5.3031758 1.792003
58848 71830.0 1923.4952 443.26576 6901.4039 -4.9398183 -5.3082389 1.7177197000000002
58848 71840.0 1873.9943 390.16044 6918.2089000000005 -4.9602815 -5.312729900000001 1.6432514
58848 71850.0 1824.2913999999998 337.01307 6934.2683 -4.9802100000000005 -5.3166483 1.5686059
58848 71860.0 1774.3918999999999 283.82938 6949.580400000001 -4.9996019 -5.319993800000001 1.4937914
58848 71870.0 1724.3011000000001 230.6151 6964.143599999999 -5.0184549 -5.322766 1.4188159
58848 71880.0 1674.0246000000002 177.37597 6977.9562000000005 -5.036767200000001 -5.3249645 1.3436875
58848 71890.0 1623.5676 124.11773 6991.0169000000005 -5.0545366000000005 -5.3265891000000005 1.2684142999999999
58848 71900.0 1572.9357 70.846106 7003.3241 -5.0717612 -5.3276397 1.1930044
58848 71910.0 1522.1342 17.566848999999998 7014.8765 -5.0884393 -5.3281161 1.1174659999999998
58848 71920.0 1471.1687 -35.714302 7025.673 -5.104569000000001 -5.3280183 1.0418071
58848 71930.0 1420.0447 -88.991603 7035.7123 -5.1201486 -5.3273463 0.9660359
58848 71940.0 1368.7676000000001 -142.25931 7044.9934 -5.135176400000001 -5.3261002 0.89016062
58848 71950.0 1317.343 -195.51169000000002 7053.515200000001 -5.149650800000001 -5.3242801 0.8141894
58848 71960.0 1265.7764 -248.743 7061.276900000001 -5.1635702000000006 -5.3218862 0.73813044
58848 71970.0 1214.0734 -301.94751 7068.2775 -5.1769331 -5.3189187 0.66199193
58848 71980.0 1162.2396 -355.11947 7074.5165 -5.1897381 -5.315378 0.58578208
58848 71990.0 1110.2805 -408.25316 7079.993 -5.2019838 -5.3112645 0.5095091
58848 72000.0 1058.2018 -461.34285 7084.7065 -5.2136689 -5.3065786 0.43318121000000004
58848 72010.0 1006.009 -514.38282 7088.656400000001 -5.2247921 -5.301320800000001 0.35680664
58848 72020.0 953.70784 -567.36736 7091.8425 -5.2353522 -5.2954916999999995 0.28039361
58848 72030.0 901.30386 -620.29076 7094.2642000000005 -5.2453481 -5.289091900000001 0.20395036
58848 72040.0 848.80276 -673.1473000000001 7095.9214 -5.2547788 -5.2821221 0.12748514
58848 72050.0 796.21018 -725.9313000000001 7096.8139 -5.2636431 -5.274583 0.051006169999999997
58848 72060.0 743.53179 -778.63707 7096.9415 -5.2719401 -5.266475499999999 -0.025478292
58848 72070.0 690.77327 -831.2589200000001 7096.3043 -5.279669 -5.2578004 -0.10196001
58848 72080.0 637.9403000000001 -883.79118 7094.9023 -5.286828900000001 -5.248558699999999 -0.17843073999999998
58848 72090.0 585.03859 -936.22821 7092.7358 -5.2934191 -5.2387513 -0.25488223
58848 72100.0 532.07382 -988.5643299999999 7089.8048 -5.2994388 -5.2283794 -0.33130626
58848 72110.0 479.05172 -1040.7939000000001 7086.1097 -5.304887300000001 -5.217444 -0.40769459
58848 72120.0 425.97798 -1092.9113 7081.651 -5.309764100000001 -5.2059463 -0.48403898
58848 72130.0 372.85834000000006 -1144.911 7076.429099999999 -5.3140688 -5.1938876 -0.5603312
58848 72140.0 319.69852000000003 -1196.7872 7070.4446 -5.3178007 -5.181269100000001 -0.63656304
58848 72150.0 266.50424 -1248.5345 7063.6981 -5.3209595 -5.1680923000000005 -0.71272627
58848 72160.0 213.28124 -1300.1471999999999 7056.1903 -5.3235449 -5.1543584000000005 -0.78881269
58848 72170.0 160.03525 -1351.6198000000002 7047.9221 -5.325556499999999 -5.1400691 -0.8648141
58848 72180.0 106.77202000000001 -1402.9467 7038.8944 -5.326994200000001 -5.1252259 -0.9407223100000001
58848 72190.0 53.497283 -1454.1225 7029.108 -5.3278579 -5.1098303 -1.0165291
58848 72200.0 0.21677889 -1505.1415 7018.564200000001 -5.3281472999999995 -5.093884 -1.0922264
58848 72210.0 -53.063749 -1555.9983 7007.263900000001 -5.3278625 -5.0773887 -1.1678060000000001
58848 72220.0 -106.33856 -1606.6875 6995.2085 -5.3270036 -5.0603463 -1.2432597
58848 72230.0 -159.60191 -1657.2033999999999 6982.3991 -5.3255704999999995 -5.0427585 -1.3185794000000002
58848 72240.0 -212.84805 -1707.5408 6968.8373 -5.323563500000001 -5.0246272 -1.3937571
58848 72250.0 -266.07126 -1757.6942 6954.5245 -5.3209827999999995 -5.0059545 -1.4687845
58848 72260.0 -319.2658 -1807.6581 6939.4622 -5.3178287 -4.9867422 -1.5436536
58848 72270.0 -372.42593 -1857.4272 6923.652 -5.314101399999999 -4.966992500000001 -1.6183564
58848 72280.0 -425.54591999999997 -1906.9962 6907.0956 -5.3098015 -4.9467076 -1.6928847
58848 72290.0 -478.62005 -1956.3596000000002 6889.794900000001 -5.3049292999999995 -4.9258895 -1.7672307
58848 72300.0 -531.6426 -2005.5122 6871.751700000001 -5.2994854 -4.9045405 -1.8413861
58848 72310.0 -584.60785 -2054.4487 6852.9678 -5.2934704 -4.882663 -1.9153431
58848 72320.0 -637.51011 -2103.1637 6833.4455 -5.2868849 -4.8602593 -1.9890937
58848 72330.0 -690.34365 -2151.6521000000002 6813.1867 -5.2797296 -4.8373318 -2.06263
58848 72340.0 -743.1028000000001 -2199.9086 6792.1936 -5.2720053 -4.813883 -2.1359439000000005
58848 72350.0 -795.78187 -2247.928 6770.4686 -5.263712900000001 -4.7899154 -2.2090277
58848 72360.0 -848.37517 -2295.7052000000003 6748.013900000001 -5.2548531999999994 -4.7654316 -2.2818733000000004
58848 72370.0 -900.8770400000001 -2343.2349 6724.8319 -5.2454272 -4.7404342 -2.3544731000000003
58848 72380.0 -953.28183 -2390.5122 6700.925200000001 -5.2354358 -4.7149259 -2.4268191000000003
58848 72390.0 -1005.5839000000001 -2437.5317999999997 6676.2964 -5.2248803 -4.6889095 -2.4989036000000002
58848 72400.0 -1057.7776000000001 -2484.2887 6650.9481 -5.2137617 -4.6623878 -2.5707188000000003
58848 72410.0 -1109.8572 -2530.7779 6624.883 -5.202081199999999 -4.6353636 -2.6422569
58848 72420.0 -1161.8173000000002 -2576.9943 6598.1039 -5.18984 -4.6078399 -2.7135103
58848 72430.0 -1213.6522 -2622.933 6570.6137 -5.1770396000000005 -4.5798195999999995 -2.7844713000000003
58848 72440.0 -1265.3562 -2668.589 6542.4155 -5.1636812 -4.5513057 -2.8551321
58848 72450.0 -1316.9239 -2713.9575 6513.5121 -5.1497663000000005 -4.5223013000000005 -2.9254853
58848 72460.0 -1368.3497 -2759.0334 6483.9068 -5.1352964000000005 -4.492809500000001 -2.9955232
58848 72470.0 -1419.628 -2803.8121 6453.6027 -5.1202731 -4.4628336 -3.0652382
58848 72480.0 -1470.7533 -2848.2885 6422.603099999999 -5.104698000000001 -4.4323767 -3.134623
58848 72490.0 -1521.7202 -2892.458 6390.911400000001 -5.0885728 -4.401442100000001 -3.2036699
58848 72500.0 -1572.5230000000001 -2936.3158 6358.530900000001 -5.0718992 -4.3700332 -3.2723715
58848 72510.0 -1623.1563 -2979.8571 6325.465099999999 -5.0546789 -4.3381533 -3.3407204999999998
58848 72520.0 -1673.6147 -3023.0773 6291.7177 -5.0369139 -4.3058059 -3.4087094000000002
58848 72530.0 -1723.8928 -3065.9717 6257.2922 -5.0186061 -4.2729944 -3.476331
58848 72540.0 -1773.9851 -3108.5356 6222.1923 -4.999757499999999 -4.2397225 -3.5435779000000003
58848 72550.0 -1823.8861000000002 -3150.7646 6186.4219 -4.98037 -4.2059936 -3.610443
58848 72560.0 -1873.5907 -3192.654 6149.9847 -4.9604458000000005 -4.1718115 -3.6769189
58848 72570.0 -1923.0933 -3234.1992999999998 6112.8848 -4.939987 -4.1371797 -3.7429986
58848 72580.0 -1972.3886000000002 -3275.3961000000004 6075.1260999999995 -4.918995799999999 -4.1021021 -3.8086749
58848 72590.0 -2021.4714 -3316.2399 6036.7127 -4.8974745 -4.0665824 -3.8739407999999997
58848 72600.0 -2070.3364 -3356.7263 5997.648700000001 -4.8754253 -4.0306245 -3.9387891
58848 72610.0 -2118.9782 -3396.8509 5957.9383 -4.852850800000001 -3.9942322 -4.003213000000001
58848 72620.0 -2167.3916 -3436.6095 5917.585900000001 -4.8297533 -3.9574094 -4.0672055
58848 72630.0 -2215.5715 -3475.9977000000003 5876.595700000001 -4.8061352 -3.9201601 -4.1307596
58848 72640.0 -2263.5126 -3515.0112999999997 5834.9722 -4.781999300000001 -3.8824884 -4.1938685
58848 72650.0 -2311.2098 -3553.6461000000004 5792.7198 -4.7573479 -3.8443982 -4.2565254999999995
58848 72660.0 -2358.6579 -3591.8979 5749.8432 -4.7321839 -3.8058937000000004 -4.3187237
58848 72670.0 -2405.8518 -3629.7626 5706.3469000000005 -4.7065098 -3.7669791 -4.3804566000000005
58848 72680.0 -2452.7864 -3667.2361 5662.2356 -4.6803286 -3.7276585 -4.4417173000000005
58848 72690.0 -2499.4566 -3704.3144 5617.514099999999 -4.6536429 -3.6879362 -4.5024994
58848 72700.0 -2545.8576000000003 -3740.9935 5572.1873 -4.6264557 -3.6478164000000004 -4.5627962
58848 72710.0 -2591.9841 -3777.2694 5526.259900000001 -4.598770000000001 -3.6073035 -4.6226013
58848 72720.0 -2637.8313 -3813.1383 5479.736900000001 -4.5705886 -3.5664018 -4.6819082
58848 72730.0 -2683.3942 -3848.5962000000004 5432.6234 -4.5419146 -3.5251158 -4.7407105000000005
58848 72740.0 -2728.668 -3883.6393 5384.924400000001 -4.512751199999999 -3.4834499 -4.7990019
58848 72750.0 -2773.6476000000002 -3918.2639 5336.6451 -4.4831014 -3.4414086000000004 -4.8567762000000005
58848 72760.0 -2818.3284 -3952.4663 5287.790599999999 -4.4529685 -3.3989963 -4.914027
58848 72770.0 -2862.7054 -3986.2426 5238.3663 -4.4223557 -3.3562178 -4.9707483
58848 72780.0 -2906.7739 -4019.5894 5188.3774 -4.391266300000001 -3.3130776 -5.0269338
58848 72790.0 -2950.5291 -4052.503 5137.8294000000005 -4.3597036 -3.2695803000000003 -5.0825776
58848 72800.0 -2993.9664 -4084.9798 5086.7277 -4.3276711 -3.2257307 -5.1376736
58848 72810.0 -3037.081 -4117.0164 5035.0778 -4.2951722 -3.1815333999999997 -5.192216
58848 72820.0 -3079.8683 -4148.6094 4982.885200000001 -4.2622104 -3.1369933000000003 -5.2461988
58848 72830.0 -3122.3237000000004 -4179.7552000000005 4930.1557 -4.228789300000001 -3.0921149999999997 -5.299616200000001
58848 72840.0 -3164.4426000000003 -4210.4506 4876.8948 -4.194912400000001 -3.0469036000000003 -5.3524624
58848 72850.0 -3206.2204 -4240.6922 4823.1084 -4.1605834999999995 -3.0013638 -5.4047319
58848 72860.0 -3247.6528 -4270.4767999999995 4768.8021 -4.1258061 -2.9555005000000003 -5.456418800000001
58848 72870.0 -3288.7351000000003 -4299.8011 4713.982 -4.0905841999999994 -2.9093187 -5.5075178
58848 72880.0 -3329.463 -4328.6621 4658.6538 -4.0549214000000005 -2.8628234000000004 -5.558023100000001
58848 72890.0 -3369.832 -4357.0565 4602.8235 -4.0188215000000005 -2.8160195 -5.6079295
58848 72900.0 -3409.838 -4384.9815 4546.497200000001 -3.9822886 -2.7689122000000004 -5.6572316
58848 72910.0 -3449.4764 -4412.4338 4489.6809 -3.9453265 -2.7215064000000004 -5.7059239
58848 72920.0 -3488.7431 -4439.4106 4432.3808 -3.9079392 -2.6738074000000003 -5.7540013
58848 72930.0 -3527.6338 -4465.909 4374.602900000001 -3.8701308 -2.6258202 -5.8014586
58848 72940.0 -3566.1443 -4491.9261 4316.353700000001 -3.8319053 -2.5775500000000005 -5.8482907
58848 72950.0 -3604.2705 -4517.4591 4257.6392000000005 -3.7932668 -2.529002 -5.8944925
58848 72960.0 -3642.0083 -4542.5052000000005 4198.4659 -3.7542195 -2.4801815 -5.940059100000001
58848 72970.0 -3679.3535 -4567.0617999999995 4138.840200000001 -3.7147676 -2.4310937 -5.9849855
58848 72980.0 -3716.3023 -4591.126200000001 4078.7684 -3.6749153999999997 -2.3817439 -6.0292669
58848 72990.0 -3752.8505 -4614.6957999999995 4018.257 -3.6346671 -2.3321374 -6.0728985
58848 73000.0 -3788.9943 -4637.768099999999 3957.3126 -3.5940271 -2.2822796 -6.1158757
58848 73010.0 -3824.7298 -4660.3405999999995 3895.9417000000003 -3.5529998000000003 -2.2321758 -6.1581937
58848 73020.0 -3860.053 -4682.4108 3834.1509 -3.5115895999999998 -2.1818315 -6.1998481000000005
58848 73030.0 -3894.9602999999997 -4703.9764000000005 3771.9469 -3.4698009 -2.131252 -6.2408343
58848 73040.0 -3929.4478 -4725.0351 3709.3365 -3.4276383000000004 -2.0804427999999997 -6.2811479
58848 73050.0 -3963.5117999999998 -4745.5845 3646.3262000000004 -3.3851063 -2.0294094 -6.3207847
58848 73060.0 -3997.1487 -4765.6226 3582.9231 -3.3422095 -1.9781573000000001 -6.3597402
58848 73070.0 -4030.3548 -4785.147 3519.1337000000003 -3.2989525 -1.9266921000000001 -6.3980103
58848 73080.0 -4063.1266 -4804.1557 3454.9651000000003 -3.2553400000000003 -1.8750191999999999 -6.4355910000000005
58848 73090.0 -4095.4605 -4822.6467 3390.4242000000004 -3.2113766 -1.8231442 -6.472478000000001
58848 73100.0 -4127.353 -4840.6179 3325.5179 -3.1670672 -1.7710727 -6.5086675
58848 73110.0 -4158.800700000001 -4858.0675 3260.2532 -3.1224164 -1.7188104000000002 -6.5441556
58848 73120.0 -4189.800200000001 -4874.9935000000005 3194.6371000000004 -3.0774291 -1.6663628000000001 -6.5789384
58848 73130.0 -4220.3481 -4891.394200000001 3128.6767999999997 -3.0321102 -1.6137356999999999 -6.6130122
58848 73140.0 -4250.4412999999995 -4907.2677 3062.3793 -2.9864645000000003 -1.5609346000000002 -6.646373400000001
58848 73150.0 -4280.076400000001 -4922.6123 2995.7517000000003 -2.9404969999999997 -1.5079653000000002 -6.679018200000001
58848 73160.0 -4309.2502 -4937.4264 2928.8013 -2.8942126 -1.4548335 -6.7109432
58848 73170.0 -4337.9596 -4951.7084 2861.5353 -2.8476162 -1.4015449000000002 -6.7421451
58848 73180.0 -4366.2015 -4965.4568 2793.9608 -2.8007130000000005 -1.3481053 -6.7726203
58848 73190.0 -4393.9728 -4978.670099999999 2726.0852999999997 -2.7535079000000002 -1.2945204000000001 -6.8023656
58848 73200.0 -4421.2706 -4991.3468 2657.916 -2.7060061 -1.240796 -6.8313778
58848 73210.0 -4448.092 -5003.4855 2589.4602000000004 -2.6582125999999997 -1.1869378 -6.8596538
58848 73220.0 -4474.433900000001 -5015.085099999999 2520.7254 -2.6101327000000003 -1.1329517 -6.8871905
58848 73230.0 -4500.2937 -5026.144200000001 2451.7189 -2.5617715 -1.0788436 -6.9139851
58848 73240.0 -4525.6684000000005 -5036.661599999999 2382.4481 -2.5131342 -1.0246192 -6.9400344
58848 73250.0 -4550.5555 -5046.6362 2312.9207 -2.4642261 -0.9702843000000001 -6.9653359
58848 73260.0 -4574.9520999999995 -5056.066900000001 2243.1439 -2.4150524 -0.91584488 -6.9898867000000005
58848 73270.0 -4598.8557 -5064.9528 2173.1254 -2.3656184 -0.8613067600000001 -7.0136842
58848 73280.0 -4622.263599999999 -5073.2927 2102.8727999999996 -2.3159295 -0.80667582 -7.0367259
58848 73290.0 -4645.173400000001 -5081.086 2032.3934 -2.265991 -0.75195794 -7.0590092
58848 73300.0 -4667.5826 -5088.3315999999995 1961.6951000000001 -2.2158083000000004 -0.6971590200000001 -7.0805317
58848 73310.0 -4689.4888 -5095.0289 1890.7854 -2.1653868000000003 -0.6422849700000001 -7.1012911999999995
58848 73320.0 -4710.8895999999995 -5101.1771 1819.6718 -2.1147319 -0.5873417 -7.121285299999999
58848 73330.0 -4731.782700000001 -5106.7755 1748.3622 -2.0638491 -0.5323351300000001 -7.140512
58848 73340.0 -4752.1658 -5111.8236 1676.8642 -2.0127439 -0.4772712 -7.1589692
58848 73350.0 -4772.0368 -5116.3207999999995 1605.1853999999998 -1.9614218 -0.42215582 -7.176654900000001
58848 73360.0 -4791.3935 -5120.2666 1533.3336000000002 -1.9098883000000002 -0.36699496 -7.1935671
58848 73370.0 -4810.2339 -5123.6606 1461.3166 -1.8581489999999998 -0.31179454 -7.2097041
58848 73380.0 -4828.5558 -5126.5024 1389.1422 -1.8062094 -0.25656051 -7.225064000000001
58848 73390.0 -4846.357400000001 -5128.791700000001 1316.818 -1.7540752 -0.20129884 -7.239645400000001
58848 73400.0 -4863.6367 -5130.5283 1244.3518000000001 -1.7017519 -0.14601548 -7.2534465
58848 73410.0 -4880.3919000000005 -5131.7119 1171.7516 -1.6492452000000002 -0.090716375 -7.2664659
58848 73420.0 -4896.621 -5132.3426 1099.0251 -1.5965608 -0.035407497 -7.2787022
58848 73430.0 -4912.3225 -5132.420099999999 1026.1802 -1.5437044000000002 0.019905197000000003 -7.2901541
58848 73440.0 -4927.4946 -5131.9445000000005 953.2246700000001 -1.4906815 0.075215746 -7.300820300000001
58848 73450.0 -4942.1356 -5130.9158 880.16642 -1.4374980000000002 0.13051819 -7.310699700000001
58848 73460.0 -4956.244 -5129.3341 807.0133000000001 -1.3841596 0.18580657 -7.3197913
58848 73470.0 -4969.8183 -5127.1997 733.77322 -1.3306721000000001 0.24107492 -7.3280939
58848 73480.0 -4982.857 -5124.5127 660.45406 -1.2770411 0.29631729 -7.3356069
58848 73490.0 -4995.358700000001 -5121.2735 587.06372 -1.2232725 0.35152773000000004 -7.3423293
58848 73500.0 -5007.322 -5117.4823 513.61011 -1.169372 0.40670028 -7.3482603
58848 73510.0 -5018.7457 -5113.1395999999995 440.10115 -1.1153456000000002 0.46182900000000005 -7.353399500000001
58848 73520.0 -5029.6285 -5108.245900000001 366.54476 -1.0611989000000002 0.51690796 -7.357746199999999
58848 73530.0 -5039.9693 -5102.8016 292.94887 -1.0069379 0.5719312 -7.361299900000001
58848 73540.0 -5049.7669000000005 -5096.8075 219.32141000000001 -0.95256833 0.6268928100000001 -7.3640604000000005
58848 73550.0 -5059.0203 -5090.264 145.67031 -0.89809613 0.6817868600000001 -7.3660272
58848 73560.0 -5067.7285 -5083.1720000000005 72.00350999999999 -0.8435271400000001 0.7366074300000001 -7.3672001
58848 73570.0 -5075.8905 -5075.532099999999 -1.6710475 -0.7888672400000001 0.79134861 -7.3675791
58848 73580.0 -5083.5055999999995 -5067.3453 -75.345425 -0.73412232 0.8460045199999999 -7.3671641
58848 73590.0 -5090.572700000001 -5058.6123 -149.01167999999998 -0.67929829 0.90056925 -7.3659551
58848 73600.0 -5097.0913 -5049.3342 -222.66188 -0.62440105 0.9550369200000001 -7.3639523
58848 73610.0 -5103.0605000000005 -5039.5119 -296.28808000000004 -0.56943652 1.0094017 -7.3611559
58848 73620.0 -5108.4798 -5029.1466 -369.88236 -0.51441062 1.0636576 -7.3575662
58848 73630.0 -5113.3485 -5018.2392 -443.43676 -0.45932928 1.117799 -7.3531835
58848 73640.0 -5117.666200000001 -5006.791 -516.94338 -0.40419844 1.1718198 -7.348008399999999
58848 73650.0 -5121.432400000001 -4994.8032 -590.3942900000001 -0.34902404000000004 1.2257144000000002 -7.3420414
58848 73660.0 -5124.6466 -4982.277099999999 -663.78158 -0.29381202 1.2794769 -7.3352832
58848 73670.0 -5127.3085 -4969.2141 -737.09732 -0.23856834000000002 1.3331015 -7.327734400000001
58848 73680.0 -5129.4179 -4955.6156 -810.33363 -0.18329895 1.3865825 -7.319395900000001
58848 73690.0 -5130.9744 -4941.483 -883.48261 -0.12800981 1.439914 -7.310268600000001
58848 73700.0 -5131.978 -4926.8178 -956.53638 -0.072706869 1.4930903000000002 -7.3003535
58848 73710.0 -5132.4285 -4911.621700000001 -1029.4871 -0.017396094 1.5461057 -7.2896516
58848 73720.0 -5132.325900000001 -4895.8963 -1102.3268 0.037916556000000004 1.5989545 -7.2781641
58848 73730.0 -5131.6702000000005 -4879.6432 -1175.0477 0.09322512000000001 1.6516309000000002 -7.265892300000001
58848 73740.0 -5130.4615 -4862.8642 -1247.642 0.14852364 1.7041294 -7.252837400000001
58848 73750.0 -5128.6998 -4845.5612 -1320.1019 0.20380615000000002 1.7564442 -7.2390008
58848 73760.0 -5126.3854 -4827.736 -1392.4194 0.25906669 1.8085697 -7.2243841
58848 73770.0 -5123.5185 -4809.3905 -1464.587 0.31429932000000005 1.8605003999999998 -7.2089889000000005
58848 73780.0 -5120.0995 -4790.5266 -1536.5966 0.36949807 1.9122305 -7.192816700000001
58848 73790.0 -5116.1287 -4771.1465 -1608.4406999999999 0.42465701 1.9637545 -7.1758693000000005
58848 73800.0 -5111.6065 -4751.2523 -1680.1114 0.47977018 2.0150669 -7.1581487
58848 73810.0 -5106.5335000000005 -4730.8459 -1751.6011 0.53483164 2.0661621 -7.1396565
58848 73820.0 -5100.9101 -4709.9298 -1822.902 0.58983546 2.1170347 -7.120395
58848 73830.0 -5094.737 -4688.506 -1894.0064 0.6447757199999999 2.1676791 -7.100366
58848 73840.0 -5088.0148 -4666.577 -1964.9068 0.69964649 2.2180899 -7.0795719
58848 73850.0 -5080.7443 -4644.145 -2035.5953000000002 0.75444186 2.2682615999999998 -7.0580148000000005
58848 73860.0 -5072.9263 -4621.212500000001 -2106.0645 0.8091559300000001 2.3181889 -7.035697
58848 73870.0 -5064.5615 -4597.782 -2176.3068 0.86378279 2.3678664 -7.0126211000000005
58848 73880.0 -5055.650900000001 -4573.8561 -2246.3143999999998 0.91831656 2.4172887000000003 -6.9887893000000005
58848 73890.0 -5046.1955 -4549.4371 -2316.08 0.97275136 2.4664504000000003 -6.9642044
58848 73900.0 -5036.1962 -4524.5279 -2385.596 1.0270813 2.5153464 -6.9388689999999995
58848 73910.0 -5025.6542 -4499.1311 -2454.8549 1.0813006 2.5639713000000004 -6.912785700000001
58848 73920.0 -5014.5706 -4473.249400000001 -2523.8493 1.1354034 2.6123199 -6.885957500000001
58848 73930.0 -5002.946599999999 -4446.885700000001 -2592.5716 1.1893837 2.6603869 -6.8583871
58848 73940.0 -4990.7834 -4420.0426 -2661.0145 1.2432360000000002 2.7081672 -6.8300777
58848 73950.0 -4978.0823 -4392.7233 -2729.1707 1.2969541999999998 2.7556556999999997 -6.8010321000000005
58848 73960.0 -4964.844700000001 -4364.9305 -2797.0327 1.3505326 2.8028472000000004 -6.7712536000000005
58848 73970.0 -4951.072099999999 -4336.6673 -2864.5933 1.4039655 2.8497366000000004 -6.7407454
58848 73980.0 -4936.7659 -4307.9367999999995 -2931.8452 1.4572471 2.8963189000000003 -6.7095107
58848 73990.0 -4921.9277 -4278.742 -2998.7811 1.5103716999999999 2.9425891 -6.6775529
58848 74000.0 -4906.559 -4249.0860999999995 -3065.3939 1.5633335 2.9885421 -6.6448755
58848 74010.0 -4890.661599999999 -4218.9722 -3131.6763 1.6161268 3.0341731 -6.6114820000000005
58848 74020.0 -4874.237099999999 -4188.4037 -3197.6211000000003 1.6687459 3.0794771 -6.5773759
58848 74030.0 -4857.2873 -4157.3838 -3263.2214 1.7211851999999999 3.1244492 -6.542561
58848 74040.0 -4839.814 -4125.9159 -3328.4700000000003 1.7734390000000002 3.1690846 -6.5070411
58848 74050.0 -4821.8191 -4094.0033 -3393.3599 1.8255016000000002 3.2133784000000003 -6.4708198
58848 74060.0 -4803.3045999999995 -4061.6494 -3457.8841 1.8773676000000001 3.257326 -6.4339012
58848 74070.0 -4784.2725 -4028.8579 -3522.0356 1.9290311999999998 3.3009225 -6.3962892
58848 74080.0 -4764.724700000001 -3995.6322000000005 -3585.8076 1.9804869 3.3441632 -6.3579879
58848 74090.0 -4744.6634 -3961.9757999999997 -3649.1931 2.0317292 3.3870436 -6.3190014
58848 74100.0 -4724.0908 -3927.8925 -3712.1853 2.0827525000000002 3.4295589 -6.279333800000001
58848 74110.0 -4703.009099999999 -3893.3858999999998 -3774.7775 2.1335514 3.4717046999999996 -6.2389896
58848 74120.0 -4681.4205999999995 -3858.4597000000003 -3836.9629 2.1841203 3.5134762999999998 -6.197973
58848 74130.0 -4659.3275 -3823.1176 -3898.7347000000004 2.2344539 3.5548692 -6.1562884
58848 74140.0 -4636.7323 -3787.3636 -3960.0864 2.2845466 3.595879 -6.113940400000001
58848 74150.0 -4613.6374000000005 -3751.2012999999997 -4021.0114 2.3343930999999998 3.6365013 -6.0709334
58848 74160.0 -4590.0453 -3714.6348 -4081.5029 2.3839881000000003 3.6767318 -6.0272722000000005
58848 74170.0 -4565.9585 -3677.668 -4141.5546 2.4333261000000004 3.7165659 -5.9829615
58848 74180.0 -4541.379599999999 -3640.3049 -4201.16 2.4824018999999997 3.7559995 -5.9380059
58848 74190.0 -4516.3113 -3602.5494 -4260.312599999999 2.5312102 3.7950284 -5.8924104
58848 74200.0 -4490.7563 -3564.4057000000003 -4319.0061 2.5797457 3.8336482000000003 -5.8461799
58848 74210.0 -4464.7174 -3525.8777999999998 -4377.2341 2.6280031 3.8718548999999998 -5.799319400000001
58848 74220.0 -4438.1972000000005 -3486.9700000000003 -4434.990400000001 2.6759774000000003 3.9096443 -5.751833800000001
58848 74230.0 -4411.1988 -3447.6863 -4492.2687000000005 2.7236632 3.9470124 -5.7037284
58848 74240.0 -4383.7249 -3408.0311 -4549.062900000001 2.7710556000000004 3.9839551 -5.6550083
58848 74250.0 -4355.7787 -3368.0086 -4605.366900000001 2.8181491999999997 4.0204685 -5.6056787
58848 74260.0 -4327.363 -3327.6232000000005 -4661.1745 2.8649392 4.0565486 -5.555745
58848 74270.0 -4298.4809000000005 -3286.8791 -4716.4798 2.9114204 4.0921915 -5.5052126
58848 74280.0 -4269.1356 -3245.7808 -4771.2768 2.9575879 4.1273934 -5.4540869
58848 74290.0 -4239.3302 -3204.3327000000004 -4825.5595 3.0034366 4.1621505 -5.4023734
58848 74300.0 -4209.0679 -3162.5393 -4879.3223 3.0489616 4.196459 -5.3500777
58848 74310.0 -4178.3521 -3120.4051 -4932.559200000001 3.0941581 4.2303153 -5.2972054
58848 74320.0 -4147.1859 -3077.9345 -4985.2645 3.1390211 4.2637156 -5.2437622
58848 74330.0 -4115.5728 -3035.1322999999998 -5037.4325 3.1835458 4.2966565 -5.1897538999999995
58848 74340.0 -4083.5161000000003 -2992.003 -5089.0577 3.2277274000000005 4.3291343 -5.1351863
58848 74350.0 -4051.0194 -2948.5512000000003 -5140.134400000001 3.2715611 4.3611455999999995 -5.0800653
58848 74360.0 -4018.0861 -2904.7816000000003 -5190.657200000001 3.3150423 4.392686800000001 -5.024396800000001
58848 74370.0 -3984.7197 -2860.699 -5240.6205 3.3581662000000003 4.423754700000001 -4.968186800000001
58848 74380.0 -3950.924 -2816.3081 -5290.0190999999995 3.4009282 4.4543458000000005 -4.9114414
58848 74390.0 -3916.7024 -2771.6137000000003 -5338.8476 3.4433237 4.4844569000000005 -4.8541666999999995
58848 74400.0 -3882.0587 -2726.6206 -5387.1007 3.4853481000000004 4.514084700000001 -4.796368900000001
58848 74410.0 -3846.9967 -2681.3336 -5434.7733 3.5269969000000003 4.543226 -4.7380541
58848 74420.0 -3811.52 -2635.7577 -5481.8601 3.5682656 4.5718777 -4.6792288
58848 74430.0 -3775.6327 -2589.8977000000004 -5528.3562 3.6091497 4.6000366 -4.6198991
58848 74440.0 -3739.3384 -2543.7586 -5574.2564 3.6496448999999997 4.6276998 -4.560071600000001
58848 74450.0 -3702.6411000000003 -2497.3454 -5619.5560000000005 3.6897467 4.6548643 -4.4997526

