CIC_MEM_VERS = 1.0
CREATION_DATE = 2023-03-16T10:50:06.950547
ORIGINATOR = CS Group

META_START
OBJECT_NAME = horus_eye_15
OBJECT_ID = horus_eye_15
USER_DEFINED_PROTOCOL = NONE
USER_DEFINED_CONTENT = LLA
USER_DEFINED_SIZE = 3.0
USER_DEFINED_TYPE = REAL
USER_DEFINED_UNIT = [deg] [km]
TIME_SYSTEM = UTC
META_STOP

58848 68400.0 66.06502827116091 -139.98165184478844 817.8454323382988
58848 68410.0 65.51242569418372 -140.54388273914225 817.6903652724139
58848 68420.0 64.95806562610181 -141.08453840138094 817.5321856251941
58848 68430.0 64.40205810878766 -141.60496309757298 817.370960999897
58848 68440.0 63.84450409195834 -142.1063971857338 817.2067603143155
58848 68450.0 63.28549632175814 -142.58998645059035 817.0396537720223
58848 68460.0 62.72512013101822 -143.05679051716018 816.8697128331195
58848 68470.0 62.16345414316203 -143.50779043742327 816.6970101844233
58848 68480.0 61.60057090016753 -143.9438955351995 816.5216197090837
58848 68490.0 61.036537423651374 -144.36594958595649 816.3436164557304
58848 68500.0 60.47141571697338 -144.77473640040057 816.1630766070655
58848 68510.0 59.90526321525224 -145.17098487355688 815.9800774479654
58848 68520.0 59.3381331893117 -145.55537355454393 815.7946973331017
58848 68530.0 58.77007510881839 -145.92853478638366 815.6070156540798
58848 68540.0 58.20113496922083 -146.2910584598979 815.4171128060924
58848 68550.0 57.63135558652842 -146.64349542106177 815.2250701541659
58848 68560.0 57.06077686347797 -146.9863605668675 815.0309699989349
58848 68570.0 56.48943603020557 -147.320135661096 814.8348955419746
58848 68580.0 55.91736786216941 -147.64527189794407 814.6369308507801
58848 68590.0 55.344604877743556 -147.96219223849778 814.4371608233066
58848 68600.0 54.77117751761959 -148.2712935424161 814.2356711520982
58848 68610.0 54.19711430790538 -148.57294851471914 814.0325482881253
58848 68620.0 53.62244200859374 -148.8675074856343 813.827879404192
58848 68630.0 53.04718574888343 -149.1553000393969 813.6217523580473
58848 68640.0 52.4713691506704 -149.43663650639232 813.4142556551218
58848 68650.0 51.89501444137808 -149.71180933147065 813.2054784110288
58848 68660.0 51.318142557170844 -149.9810943299396 812.9955103137029
58848 68670.0 50.74077323747825 -150.24475184162188 812.784441585267
58848 68680.0 50.1629251116603 -150.50302779224995 812.57236294366
58848 68690.0 49.58461577855477 -150.75615467060905 812.3593655640195
58848 68700.0 49.005861879570126 -151.00435242894855 812.1455410397425
58848 68710.0 48.426679165918685 -151.24782931346064 811.9309813434705
58848 68720.0 47.847082560523546 -151.48678263099697 811.7157787877788
58848 68730.0 47.26708621507886 -151.72139945749754 811.5000259856637
58848 68740.0 46.686703562693964 -151.95185729323325 811.2838158109245
58848 68750.0 46.10594736651056 -152.1783246693075 811.067241358363
58848 68760.0 45.52482976464224 -152.40096170958017 810.8503959038579
58848 68770.0 44.94336231175292 -152.6199206517366 810.6333728642517
58848 68780.0 44.36155601755944 -152.83534633083428 810.4162657572738
58848 68790.0 43.77942138251717 -153.04737662845244 810.1991681612485
58848 68800.0 43.196968430922034 -153.25614289020058 809.9821736747908
58848 68810.0 42.61420674164175 -153.46177031413632 809.7653758764388
58848 68820.0 42.03114547666854 -153.66437831240395 809.5488682842885
58848 68830.0 41.44779340766856 -153.86408084820235 809.3327443155268
58848 68840.0 40.86415894068718 -154.0609867500052 809.1170972460874
58848 68850.0 40.28025013915484 -154.25520000479145 808.9020201702103
58848 68860.0 39.69607474532595 -154.44682003189115 808.6876059600972
58848 68870.0 39.111640200271296 -154.63594193891603 808.473947225655
58848 68880.0 38.52695366253362 -154.82265676111825 808.2611362742067
58848 68890.0 37.942022025547516 -155.0070516854213 808.0492650703757
58848 68900.0 37.35685193391561 -155.1892102602192 807.8384251960864
58848 68910.0 36.77144979862457 -155.36921259203746 807.6287078106283
58848 68920.0 36.18582181127948 -155.5471355299625 807.4202036109174
58848 68930.0 35.59997395742642 -155.7230528387152 807.2130027918771
58848 68940.0 35.01391202902884 -155.89703536122957 807.0071950070612
58848 68950.0 34.42764163615723 -156.06915117139772 806.802869329393
58848 68960.0 33.84116821794758 -156.23946571774363 806.600114212174
58848 68970.0 33.25449705287888 -156.40804195858627 806.3990174503266
58848 68980.0 32.66763326841632 -156.5749404893414 806.1996661418536
58848 68990.0 32.08058185006368 -156.74021966245277 806.0021466496257
58848 69000.0 31.493347649864116 -156.9039357004474 805.8065445633769
58848 69010.0 30.90593539438637 -157.0661428026314 805.6129446620504
58848 69020.0 30.318349692230132 -157.22689324577047 805.4214308764916
58848 69030.0 29.73059504108222 -157.38623747921778 805.2320862524032
58848 69040.0 29.142675834352172 -157.54422421481726 805.0449929137457
58848 69050.0 28.554596367414888 -157.7009005119335 804.8602320264503
58848 69060.0 27.966360843484335 -157.85631185792127 804.6778837625228
58848 69070.0 27.377973379142727 -158.01050224432643 804.4980272646293
58848 69080.0 26.789438009545265 -158.16351423908878 804.3207406109675
58848 69090.0 26.20075869332224 -158.3153890550086 804.1461007807366
58848 69100.0 25.611939317194896 -158.46616661468866 803.9741836199653
58848 69110.0 25.022983700325028 -158.61588561220222 803.805063807842
58848 69120.0 24.433895598411787 -158.7645835716678 803.6388148235205
58848 69130.0 23.84467870755326 -158.91229690293017 803.4755089134558
58848 69140.0 23.255336667884748 -159.05906095452423 803.3152170592706
58848 69150.0 22.665873067008757 -159.20491006408596 803.1580089461082
58848 69160.0 22.07629144322734 -159.3498776063753 803.0039529316067
58848 69170.0 21.4865952885898 -159.49399603903223 802.8531160153851
58848 69180.0 20.896788051765377 -159.63729694623353 802.7055638091264
58848 69190.0 20.306873140751698 -159.77981108035445 802.5613605073094
58848 69200.0 19.71685392542816 -159.92156840176116 802.4205688584641
58848 69210.0 19.126733739963402 -160.06259811685544 802.2832501371413
58848 69220.0 18.536515885085063 -160.20292871445125 802.1494641164392
58848 69230.0 17.94620363021963 -160.3425880006152 802.0192690412952
58848 69240.0 17.35580021551025 -160.48160313203877 801.8927216023017
58848 69250.0 16.76530885371887 -160.62000064803806 801.7698769103466
58848 69260.0 16.1747327320199 -160.75780650127166 801.6507884718327
58848 69270.0 15.584075013691239 -160.89504608722936 801.5355081646785
58848 69280.0 14.993338839708894 -161.03174427259782 801.4240862149866
58848 69290.0 14.402527330250521 -161.16792542254777 801.3165711744984
58848 69300.0 13.811643586113425 -161.3036134270164 801.2130098987209
58848 69310.0 13.22069069005187 -161.43883172605626 801.1134475258641
58848 69320.0 12.629671708038726 -161.57360333427414 801.0179274564947
58848 69330.0 12.038589690455776 -161.70795086448123 800.9264913340248
58848 69340.0 11.447447673217196 -161.84189655052737 800.8391790258669
58848 69350.0 10.856248678830395 -161.97546226943345 800.7560286055535
58848 69360.0 10.264995717398024 -162.1086695628444 800.6770763355049
58848 69370.0 9.673691787565135 -162.2415396578356 800.6023566506858
58848 69380.0 9.082339877415075 -162.37409348714655 800.5319021430174
58848 69390.0 8.490942965317586 -162.50635170885934 800.4657435467395
58848 69400.0 7.899504020732603 -162.63833472557042 800.4039097244682
58848 69410.0 7.308026004972875 -162.77006270310144 800.3464276541466
58848 69420.0 6.716511871928712 -162.90155558876205 800.2933224168803
58848 69430.0 6.1249645687577425 -163.0328331292325 800.2446171855989
58848 69440.0 5.533387036542775 -163.16391488807454 800.2003332145501
58848 69450.0 4.9417822109205485 -163.29482026292283 800.160489829689
58848 69460.0 4.350153022684242 -163.42556850236386 800.1251044199499
58848 69470.0 3.758502398362314 -163.5561787225633 800.0941924293678
58848 69480.0 3.1668332607767953 -163.68666992365877 800.067767350082
58848 69490.0 2.575148529582758 -163.81706100593246 800.0458407162287
58848 69500.0 1.983451121792793 -163.9473707858238 800.0284220987385
58848 69510.0 1.3917439522875985 -164.07761801178646 800.0155191009569
58848 69520.0 0.8000299343166728 -164.2078213800258 800.0071373552638
58848 69530.0 0.20831197999004827 -164.33799955015277 800.0032805204572
58848 69540.0 -0.38340699923490756 -164.46817116075596 800.0039502801542
58848 69550.0 -0.9751240920707792 -164.59835484496273 800.0091463419758
58848 69560.0 -1.5668363869174387 -164.72856924595644 800.0188664377173
58848 69570.0 -2.1585409713786112 -164.85883303255414 800.0331063243718
58848 69580.0 -2.750234931773641 -164.98916491478775 800.0518597860201
58848 69590.0 -3.341915352643586 -165.11958365958253 800.0751186366954
58848 69600.0 -3.933579316247623 -165.25010810653342 800.1028727240408
58848 69610.0 -4.525223902048872 -165.38075718379454 800.1351099339505
58848 69620.0 -5.116846186185469 -165.5115499241394 800.1718161960206
58848 69630.0 -5.708443240926063 -165.642505481206 800.212975489939
58848 69640.0 -6.3000121341054385 -165.7736431459395 800.25856985272
58848 69650.0 -6.891549928539303 -165.90498236330336 800.3085793868801
58848 69660.0 -7.483053681413902 -166.03654274923937 800.362982269344
58848 69670.0 -8.074520443649337 -166.16834410796116 800.4217547614342
58848 69680.0 -8.665947259232192 -166.30040644955247 800.4848712195151
58848 69690.0 -9.257331164516101 -166.4327500079796 800.5523041066425
58848 69700.0 -9.848669187485807 -166.56539525947034 800.6240240049772
58848 69710.0 -10.439958346982884 -166.6983629413596 800.6999996291105
58848 69720.0 -11.03119565188911 -166.83167407141332 800.7801978401471
58848 69730.0 -11.62237810026456 -166.9653499676568 800.8645836607105
58848 69740.0 -12.21350267843695 -167.09941226877646 800.9531202907308
58848 69750.0 -12.804566360038633 -167.2338829551232 801.0457691240148
58848 69760.0 -13.395566104987514 -167.36878437034488 801.1424897656931
58848 69770.0 -13.986498858408265 -167.5041392437352 801.2432400504213
58848 69780.0 -14.577361549489318 -167.6399707132983 801.3479760613802
58848 69790.0 -15.168151090272003 -167.7763023496208 801.4566521500321
58848 69800.0 -15.75886437436706 -167.91315818058945 801.5692209567173
58848 69810.0 -16.349498275593806 -168.0505627169929 801.685633431912
58848 69820.0 -16.94004964653754 -168.1885409791098 801.8058388583537
58848 69830.0 -17.530515317019407 -168.32711852429594 801.9297848737854
58848 69840.0 -18.120892092474094 -168.4663214756779 802.0574174944674
58848 69850.0 -18.711176752228877 -168.60617655200767 802.1886811394739
58848 69860.0 -19.301366047678563 -168.746711098736 802.3235186555686
58848 69870.0 -19.89145670034991 -168.88795312042393 802.461871342896
58848 69880.0 -20.48144539984833 -169.02993131452837 802.6036789812183
58848 69890.0 -21.071328801680522 -169.17267510668998 802.7488798569409
58848 69900.0 -21.66110352494466 -169.3162146876046 802.8974107907143
58848 69910.0 -22.250766149880793 -169.46058105155146 803.0492071656863
58848 69920.0 -22.840313215272438 -169.60580603675004 803.2042029563709
58848 69930.0 -23.42974121569051 -169.7519223675867 803.3623307581789
58848 69940.0 -24.0190465985701 -169.89896369887444 803.5235218174295
58848 69950.0 -24.60822576110903 -170.0469646622812 803.6877060620984
58848 69960.0 -25.19727504697855 -170.19596091502862 803.8548121329509
58848 69970.0 -25.78619074283277 -170.34598919104766 804.0247674154068
58848 69980.0 -26.374969074605872 -170.4970873547319 804.1974980717716
58848 69990.0 -26.963606203582412 -170.64929445745324 804.372929074101
58848 70000.0 -27.55209822222726 -170.80265079702718 804.55098423753
58848 70010.0 -28.140441149759074 -170.95719798032945 804.731586254078
58848 70020.0 -28.728630927451498 -171.11297898926728 804.9146567269252
58848 70030.0 -29.31666341364344 -171.2700382503123 805.1001162051499
58848 70040.0 -29.90453437844074 -171.4284217078656 805.2878842189257
58848 70050.0 -30.492239498086995 -171.5881769016972 805.4778793150687
58848 70060.0 -31.07977434898358 -171.74935304872218 805.670019093077
58848 70070.0 -31.66713440133299 -171.9120011294526 805.8642202414846
58848 70080.0 -32.2543150123821 -172.0761739793958 806.0603985746188
58848 70090.0 -32.84131141923584 -172.2419263857987 806.258469069718
58848 70100.0 -33.428118731213246 -172.4093151900606 806.4583459043245
58848 70110.0 -34.014731921712276 -172.57839939625816 806.6599424940791
58848 70120.0 -34.601145819550176 -172.74924028620256 806.8631715307529
58848 70130.0 -35.18735509974013 -172.9219015414823 807.067945020566
58848 70140.0 -35.77335427366536 -173.0964493730413 807.2741743228286
58848 70150.0 -36.359137678604846 -173.27295265879084 807.4817701887177
58848 70160.0 -36.94469946656426 -173.45148308991327 807.6906428004064
58848 70170.0 -37.530033592359196 -173.63211532643072 807.9007018103047
58848 70180.0 -38.11513380089495 -173.8149271628012 808.1118563805305
58848 70190.0 -38.69999361358119 -173.99999970429616 808.3240152226027
58848 70200.0 -39.28460631381604 -174.18741755491894 808.5370866371873
58848 70210.0 -39.86896493145964 -174.37726901788253 808.7509785540739
58848 70220.0 -40.4530622262361 -174.56964630947942 808.9655985721985
58848 70230.0 -41.036890669952996 -174.76464578754167 809.1808539998782
58848 70240.0 -41.62044242746239 -174.96236819557254 809.3966518950001
58848 70250.0 -42.20370933625217 -175.1629189238213 809.6128991053326
58848 70260.0 -42.78668288455665 -175.36640828871919 809.8295023089513
58848 70270.0 -43.36935418786207 -175.5729518321341 810.0463680545882
58848 70280.0 -43.951713963671445 -175.78267064214344 810.2634028020701
58848 70290.0 -44.53375250437943 -175.99569169708892 810.4805129626969
58848 70300.0 -45.11545964809411 -176.21214823490598 810.6976049396495
58848 70310.0 -45.69682474722507 -176.43218014991123 810.914585168355
58848 70320.0 -46.277836634639854 -176.65593441938404 811.1313601567421
58848 70330.0 -46.85848358717034 -176.88356556260416 811.347836525504
58848 70340.0 -47.43875328622795 -177.11523613516408 811.563921048164
58848 70350.0 -48.01863277526167 -177.35111726175546 811.7795206911851
58848 70360.0 -48.59810841376481 -177.59138921088748 811.9945426537771
58848 70370.0 -49.17716582750418 -177.83624201536455 812.2088944077294
58848 70380.0 -49.75578985461143 -178.08587614276775 812.4224837369643
58848 70390.0 -50.33396448713575 -178.3405032205939 812.6352187769595
58848 70400.0 -50.91167280761298 -178.60034682122983 812.8470080540302
58848 70410.0 -51.48889692015661 -178.86564331246655 813.0577605242826
58848 70420.0 -52.065617875520104 -179.13664277986882 813.2673856124895
58848 70430.0 -52.64181558951553 -179.41361002802918 813.4757932506046
58848 70440.0 -53.217468754103706 -179.69682566846964 813.6828939161
58848 70450.0 -53.79255474038939 -179.98658730284816 813.8885986699853
58848 70460.0 -54.367049492664066 179.71678918893198 814.092819194592
58848 70470.0 -54.940927412534464 179.4129682450404 814.2954678309692
58848 70480.0 -55.51416123205939 179.10159309052588 814.4964576161087
58848 70490.0 -56.086721874682006 178.78228406538352 814.6957023196536
58848 70500.0 -56.65857830259505 178.45463679706972 814.8931164804429
58848 70510.0 -57.22969734900097 178.1182202009287 815.0886154425349
58848 70520.0 -57.800043533534534 177.7725742901139 815.2821153909972
58848 70530.0 -58.36957885888792 177.41720777432062 815.4735333872137
58848 70540.0 -58.93826258642235 177.05159542428686 815.6627874038243
58848 70550.0 -59.50605098825386 176.6751751761963 815.8497963592375
58848 70560.0 -60.072897072963116 176.28734494706623 816.0344801517189
58848 70570.0 -60.63875028169002 175.88745912869518 816.2167596930647
58848 70580.0 -61.203556150928435 175.4748247238545 816.3965569417678
58848 70590.0 -61.76725593782017 175.04869708408717 816.573794935727
58848 70600.0 -62.32978620315688 174.6082752034745 816.7483978245428
58848 70610.0 -62.891078346614286 174.15269651743398 816.9202909011884
58848 70620.0 -63.45105808795565 173.68103114943645 817.0894006333432
58848 70630.0 -64.00964488702996 173.19227554189848 817.2556546940507
58848 70640.0 -64.56675129433849 172.6853454001803 817.4189819919336
58848 70650.0 -65.1222822227266 172.15906787048186 817.5793127008855
58848 70660.0 -65.67613412935242 171.61217286391843 817.7365782891284
58848 70670.0 -66.2281940954576 171.04328342970626 817.8907115477682
58848 70680.0 -66.77833878958984 170.4509050708767 818.041646618832
58848 70690.0 -67.3264332977616 169.8334138861279 818.1893190225521
58848 70700.0 -67.87232980153874 169.18904341195795 818.3336656842417
58848 70710.0 -68.41586608219085 168.5158700307375 818.4746249604632
58848 70720.0 -68.95686382576329 167.811796803623 818.6121366646001
58848 70730.0 -69.49512670020843 167.07453558389037 818.7461420918478
58848 70740.0 -70.03043817150647 166.30158726803893 818.8765840435018
58848 70750.0 -70.56255902099961 165.49022005188002 819.0034068506696
58848 70760.0 -71.09122452096302 164.63744558077045 819.1265563973084
58848 70770.0 -71.61614121980314 163.73999292230553 819.245980142605
58848 70780.0 -72.13698328232445 162.79428035421896 819.3616271427044
58848 70790.0 -72.65338832448278 161.7963850596008 819.4734480717598
58848 70800.0 -73.16495267634137 160.7420109702142 819.5813952422669
58848 70810.0 -73.67122600221204 159.62645521472706 819.6854226247634
58848 70820.0 -74.17170520419133 158.44457393654324 819.7854858668411
58848 70830.0 -74.66582753599141 157.19074867688113 819.8815423113919
58848 70840.0 -75.1529628603185 155.8588551119861 819.9735510141744
58848 70850.0 -75.63240499822963 154.4422367367255 820.0614727607422
58848 70860.0 -76.10336214733093 152.93368715521046 820.1452700825066
58848 70870.0 -76.56494639342493 151.32544603007338 820.2249072721969
58848 70880.0 -77.01616241528797 149.6092155068679 820.3003503985462
58848 70890.0 -77.4558955948366 147.7762060931993 820.3715673202282
58848 70900.0 -77.88289990720814 145.81722350024387 820.4385276990726
58848 70910.0 -78.2957861904926 143.72281070048695 820.5012030125425
58848 70920.0 -78.69301169506551 141.48346208315658 820.5595665654115
58848 70930.0 -79.0728721939792 139.08992846642877 820.6135935007578
58848 70940.0 -79.43349839145 136.53363181194712 820.6632608101652
58848 70950.0 -79.77285886362324 133.80720524774446 820.7085473431538
58848 70960.0 -80.0887722314402 130.90516544516927 820.749433815841
58848 70970.0 -80.37893157030817 127.82470835472121 820.7859028188824
58848 70980.0 -80.6409440120088 124.56659420065924 820.8179388245823
58848 70990.0 -80.87238784739755 121.13605375745783 820.8455281932958
58848 71000.0 -81.07088795459825 117.54360918022675 820.8686591789616
58848 71010.0 -81.23420792855453 113.80566801791772 820.8873219339962
58848 71020.0 -81.36035400560179 109.94473246915165 820.9015085132377
58848 71030.0 -81.44768228486659 105.98908312879257 820.911212877276
58848 71040.0 -81.49499777535175 101.97185782660218 820.9164308948971
58848 71050.0 -81.50163256764093 97.92954822298773 820.9171603447633
58848 71060.0 -81.4674918240704 93.90005735902325 820.9134009163513
58848 71070.0 -81.39306044364574 89.92056373427599 820.9051542100555
58848 71080.0 -81.27936933731169 86.02548533991053 820.8924237365611
58848 71090.0 -81.12792662411042 82.24481215260631 820.8752149153524
58848 71100.0 -80.94062398426242 78.6029874932657 820.8535350725599
58848 71110.0 -80.719630730781 75.11839964575042 820.8273934379109
58848 71120.0 -80.46728771427453 71.80343373135123 820.7968011409602
58848 71130.0 -80.18601064701427 68.66495799339782 820.7617712065462
58848 71140.0 -79.87820892361806 65.70508774153845 820.7223185494162
58848 71150.0 -79.54622255431501 62.92207744098357 820.67845996815
58848 71160.0 -79.1922770757111 60.311221919346565 820.6302141382414
58848 71170.0 -78.81845451118467 57.865686332162525 820.5776016044649
58848 71180.0 -78.4266775576987 55.5772206408245 820.5206447724205
58848 71190.0 -78.01870396041123 53.436742482370306 820.4593678993817
58848 71200.0 -77.59612825047208 51.43479118232791 820.3937970842884
58848 71210.0 -77.16038845204706 49.5618664243014 820.3239602570865
58848 71220.0 -76.71277586196392 47.80866982252984 820.2498871671896
58848 71230.0 -76.25444647965867 46.16626844496779 820.1716093713499
58848 71240.0 -75.78643307242106 44.62619790188297 820.0891602206145
58848 71250.0 -75.30965718734194 43.180520144356194 820.0025748466296
58848 71260.0 -74.82494066978978 41.8218483603796 819.9118901472365
58848 71270.0 -74.33301642950711 40.543348733997966 819.8171447712381
58848 71280.0 -73.8345383227272 39.33872654323208 819.7183791025114
58848 71290.0 -73.33009010475135 38.20220217906005 819.6156352433932
58848 71300.0 -72.82019346307099 37.128481159986094 819.508956997325
58848 71310.0 -72.30531517507468 36.112721049803234 819.3983898507803
58848 71320.0 -71.78587345330796 35.150497302953696 819.2839809545341
58848 71330.0 -71.26224355007399 34.23776940597377 819.165779104181
58848 71340.0 -70.73476269541052 33.370848204501556 819.043834720039
58848 71350.0 -70.203734440638 32.546364961371644 818.9181998262673
58848 71360.0 -69.66943247544715 31.7612424482307 818.7889280293857
58848 71370.0 -69.13210398102156 31.012668205024475 818.6560744961364
58848 71380.0 -68.59197257571867 30.298069987863418 818.5196959305986
58848 71390.0 -68.04924090382647 29.615093351425784 818.3798505507599
58848 71400.0 -67.5040929121596 28.96158126547696 818.2365980643643
58848 71410.0 -66.95669585390903 28.33555563835939 818.0899996441857
58848 71420.0 -66.40720205428885 27.735200606957548 817.9401179026075
58848 71430.0 -65.85575046815605 27.158847448554603 817.7870168656526
58848 71440.0 -65.30246805590181 26.604960972048094 817.630761946383
58848 71450.0 -64.74747100049862 26.07212725163302 817.4714199176987
58848 71460.0 -64.19086578559686 25.559042574250864 817.3090588845456
58848 71470.0 -63.63275015195851 25.06450348129662 817.1437482555568
58848 71480.0 -63.073213947248036 24.587397794741896 816.9755587141435
58848 71490.0 -62.51233988223574 24.126696527628617 816.8045621889804
58848 71500.0 -61.95020420476477 23.681446588177298 816.630831824018
58848 71510.0 -61.38687730136018 23.250764195604532 816.454441947904
58848 71520.0 -60.82242423508161 22.8338289340617 816.2754680429359
58848 71530.0 -60.256905227119866 22.429878378563526 816.0939867134066
58848 71540.0 -59.690376088682804 22.0382032337896 815.9100756535995
58848 71550.0 -59.122888608889035 21.658142932800942 815.7238136151788
58848 71560.0 -58.55449090367308 21.28908164846941 815.5352803741674
58848 71570.0 -57.985227730084866 20.93044467533104 815.3445566974146
58848 71580.0 -57.41514076982916 20.58169514424135 815.1517243086874
58848 71590.0 -56.84426888542129 20.242331036200458 814.9568658542621
58848 71600.0 -56.272648351930336 19.911882465282144 814.7600648681482
58848 71610.0 -55.700313066926284 19.589909203915866 814.5614057368489
58848 71620.0 -55.12729474094007 19.275998426543634 814.3609736637923
58848 71630.0 -54.553623070474785 18.969762650262478 814.1588546333287
58848 71640.0 -53.97932589537201 18.67083785331387 813.9551353743847
58848 71650.0 -53.40442934213117 18.37888175429586 813.7499033237996
58848 71660.0 -52.82895795459919 18.093572236760355 813.543246589256
58848 71670.0 -52.25293481328977 17.814605905463736 813.3352539119422
58848 71680.0 -51.67638164445176 17.54169676190892 813.1260146289047
58848 71690.0 -51.09931891988463 17.27457498817029 812.9156186350863
58848 71700.0 -50.52176594839092 17.012985829000435 812.7041563451249
58848 71710.0 -49.94374095966037 16.75668856331044 812.4917186548274
58848 71720.0 -49.36526118129599 16.50545555697377 812.2783969024857
58848 71730.0 -48.78634290961906 16.25907138966821 812.0642828298814
58848 71740.0 -48.20700157482348 16.017332049284335 811.8494685431614
58848 71750.0 -47.62725180099165 15.780044187905284 811.6340464734454
58848 71760.0 -47.047107461432184 15.547024434115754 811.4181093372714
58848 71770.0 -46.46658172975395 15.318098756745933 811.201750096924
58848 71780.0 -45.885687127049614 15.093101875728903 810.985061920555
58848 71790.0 -45.30443556552581 14.871876716081214 810.7681381421972
58848 71800.0 -44.72283838888331 14.654273901441636 810.5510722216807
58848 71810.0 -44.14090640972246 14.44015128391094 810.3339577044399
58848 71820.0 -43.558649944223255 14.229373507209877 810.1168881812434
58848 71830.0 -42.976078844324746 14.021811600485368 809.8999572478469
58848 71840.0 -42.39320252760865 13.817342600305611 809.6832584646321
58848 71850.0 -41.810030005072896 13.615849198610118 809.4668853161903
58848 71860.0 -41.226569906964 13.417219414590736 809.2509311709266
58848 71870.0 -40.64283050682178 13.22134628861061 809.0354892406343
58848 71880.0 -40.058819743876434 13.028127596518388 808.8206525401444
58848 71890.0 -39.474545243925164 12.837465582759972 808.606513846958
58848 71900.0 -38.890014338805564 12.649266710867089 808.3931656609869
58848 71910.0 -38.30523408457137 12.463441430066956 808.1807001643637
58848 71920.0 -37.72021127846841 12.279903956765326 807.9692091813447
58848 71930.0 -37.13495247479936 12.098572069843888 807.7587841383206
58848 71940.0 -36.54946399975873 11.919366918745295 807.549516023954
58848 71950.0 -35.96375196531364 11.742212843457905 807.3414953495177
58848 71960.0 -35.377822282198366 11.567037205496232 807.1348121093371
58848 71970.0 -34.791680672085555 11.393770229140877 806.9295557414393
58848 71980.0 -34.20533267899251 11.222344852220457 806.7258150884281
58848 71990.0 -33.61878367997562 11.052696585716191 806.523678358571
58848 72000.0 -33.03203889516241 10.884763381655924 806.323233087116
58848 72010.0 -32.44510339716573 10.718485508676382 806.12456609785
58848 72020.0 -31.857982119922355 10.553805434734521 805.9277634650128
58848 72030.0 -31.270679866994772 10.390667716529771 805.7329104753661
58848 72040.0 -30.683201319371108 10.229018895136534 805.5400915907359
58848 72050.0 -30.095551042796888 10.06880739746686 805.3493904107268
58848 72060.0 -29.507733494668045 9.909983443169267 805.1608896359157
58848 72070.0 -28.919753030514748 9.752498956610378 804.9746710313182
58848 72080.0 -28.33161391010148 9.596307483611385 804.7908153902765
58848 72090.0 -27.74332030316721 9.441364112621631 804.609402498713
58848 72100.0 -27.15487629482923 9.287625400081913 804.4305110998495
58848 72110.0 -26.5662858906709 9.135049299645353 804.2542188593301
58848 72120.0 -25.977553021533094 8.983595095090164 804.0806023307459
58848 72130.0 -25.388681548027346 8.83322333664062 803.9097369217174
58848 72140.0 -24.79967526478737 8.683895780483342 803.7416968603634
58848 72150.0 -24.21053790447526 8.535575331326815 803.5765551623539
58848 72160.0 -23.621273141556784 8.38822598776399 803.414383598401
58848 72170.0 -23.03188459585924 8.241812790288341 803.2552526623231
58848 72180.0 -22.44237583592484 8.096301771824907 803.0992315396353
58848 72190.0 -21.85275038217201 7.951659910561136 802.9463880766888
58848 72200.0 -21.263011709875556 7.807855085016491 802.7967887504404
58848 72210.0 -20.673163251975705 7.664856031151639 802.6504986387208
58848 72220.0 -20.083208401726797 7.522632301429399 802.5075813912043
58848 72230.0 -19.493150515194316 7.381154225698624 802.3680992008949
58848 72240.0 -18.902992913609296 7.2403928737947565 802.2321127763349
58848 72250.0 -18.31273888558782 7.100320019754556 802.0996813144276
58848 72260.0 -17.722391689223713 6.960908107539878 801.9708624738737
58848 72270.0 -17.13195455406183 6.822130218204078 801.8457123493647
58848 72280.0 -16.541430682958076 6.683960038382227 801.724285446394
58848 72290.0 -15.950823253833972 6.546371830050495 801.6066346568164
58848 72300.0 -15.360135421329801 6.409340401469193 801.4928112350135
58848 72310.0 -14.769370318364404 6.272841079231197 801.3828647749889
58848 72320.0 -14.17853105760556 6.136849681370948 801.2768431879629
58848 72330.0 -13.587620732857172 6.0013424914389475 801.1747926808533
58848 72340.0 -12.99664242036678 5.8662962335041415 801.0767577354759
58848 72350.0 -12.405599180059946 5.7316880480182215 800.9827810885188
58848 72360.0 -11.814494056704662 5.597495468488002 800.8929037122755
58848 72370.0 -11.223330081010886 5.463696398906287 800.8071647961802
58848 72380.0 -10.632110270668086 5.330269091881685 800.7256017291477
58848 72390.0 -10.04083763132638 5.197192127445061 800.6482500826902
58848 72400.0 -9.449515157523651 5.064444392456957 800.575143594851
58848 72410.0 -8.858145833563313 4.932005060586134 800.5063141550096
58848 72420.0 -8.26673263434465 4.799853572843845 800.4417917894416
58848 72430.0 -7.67527852615098 4.667969618570168 800.3816046477775
58848 72440.0 -7.083786467397386 4.536333116915395 800.3257789902736
58848 72450.0 -6.4922594093422505 4.404924198713754 800.274339175912
58848 72460.0 -5.900700296763934 4.273723188750251 800.2273076514451
58848 72470.0 -5.3091120686077105 4.142710588376525 800.1847049411906
58848 72480.0 -4.717497658604016 4.011867058435701 800.1465496377546
58848 72490.0 -4.12585999586211 3.8811734024897975 800.1128583936554
58848 72500.0 -3.5342020054401595 3.7506105502762814 800.0836459137132
58848 72510.0 -2.942526608896497 3.620159541413247 800.0589249484716
58848 72520.0 -2.35083672482296 3.489801509280682 800.0387062883805
58848 72530.0 -1.7591352693641267 3.3595176650752614 800.022998758918
58848 72540.0 -1.1674251567233458 3.22928928200178 800.0118092166017
58848 72550.0 -0.5757092996600474 3.0990976795657876 800.0051425458639
58848 72560.0 0.016009390020779536 2.9689242079632066 800.0030016568684
58848 72570.0 0.6077280009833207 2.8387502325079197 800.0053874841656
58848 72580.0 1.1994436218790363 2.708557118093459 800.0122989862725
58848 72590.0 1.7911533408636837 2.5783262136544876 800.0237331461806
58848 72600.0 2.38285424511236 2.4480388365916412 800.0396849726563
58848 72610.0 2.9745434203295864 2.3176762571579284 800.0601475025769
58848 72620.0 3.5662179502515525 2.18721968274747 800.0851118040104
58848 72630.0 4.157874916139473 2.0566502420739243 800.1145669803295
58848 72640.0 4.749511396259631 1.9259489692267706 800.1485001750881
58848 72650.0 5.3411244653491625 1.7950967875347201 800.1868965778668
58848 72660.0 5.932711194063794 1.6640744932676075 800.2297394310066
58848 72670.0 6.524268648406608 1.5328627390702536 800.2770100371264
58848 72680.0 7.115793889133085 1.401442017181895 800.3286877676511
58848 72690.0 7.707283971131405 1.2697926423445014 800.3847500721056
58848 72700.0 8.298735942773954 1.1378947343941392 800.4451724882983
58848 72710.0 8.890146845238815 1.0057282005179389 800.5099286534532
58848 72720.0 9.481513711796403 0.8732727171008985 800.578990316057
58848 72730.0 10.072833567059616 0.7405077111773465 800.6523273486681
58848 72740.0 10.664103426193439 0.6074123414076955 800.7299077614994
58848 72750.0 11.255320294082136 0.47396547856880206 800.811697716893
58848 72760.0 11.846481164448923 0.34014568551086666 800.8976615445857
58848 72770.0 12.437583018926059 0.20593119653064593 800.9877617577934
58848 72780.0 13.028622826070649 0.07129989614371296 801.0819590701511
58848 72790.0 13.619597540323946 -0.0637707028212363 801.1802124134203
58848 72800.0 14.210504100908327 -0.1993034818377561 801.2824789559784
58848 72810.0 14.801339430659336 -0.33532174004024284 801.3887141221344
58848 72820.0 15.392100434787316 -0.47184921841788496 801.4988716122224
58848 72830.0 15.982783999565804 -0.6089101248491522 801.6129034233993
58848 72840.0 16.57338699093991 -0.7465291600856175 801.7307598712565
58848 72850.0 17.163906253051344 -0.8847315446955393 801.8523896121949
58848 72860.0 17.754338606673564 -1.0235430470746616 801.9777396664366
58848 72870.0 18.344680847553374 -1.1629900125631467 802.1067554418588
58848 72880.0 18.934929744650873 -1.3030993937609496 802.2393807584988
58848 72890.0 19.525082038273418 -1.4438987820914158 802.3755578737495
58848 72900.0 20.11513443809583 -1.5854164407262732 802.515227508232
58848 72910.0 20.70508362106155 -1.7276813389319248 802.6583288723726
58848 72920.0 21.294926229155653 -1.8707231879472097 802.8047996936155
58848 72930.0 21.884658867042987 -2.014572478462088 802.954576244301
58848 72940.0 22.47427809956306 -2.159260519842259 803.1075933701238
58848 72950.0 23.06378044907342 -2.30481948116071 803.2637845192796
58848 72960.0 23.653162392630986 -2.451282434193758 803.4230817721493
58848 72970.0 24.242420359002782 -2.598683398489512 803.5854158716413
58848 72980.0 24.83155072549417 -2.747057388626001 803.7507162540368
58848 72990.0 25.420549814585247 -2.896440463841688 803.9189110804322
58848 73000.0 26.00941389036104 -3.046869780139338 804.0899272687194
58848 73010.0 26.598139154724436 -3.198383645078124 804.2636905261083
58848 73020.0 27.186721743376737 -3.3510215753772274 804.4401253820984
58848 73030.0 27.77515772155288 -3.504824357558144 804.6191552220504
58848 73040.0 28.363443079493237 -3.659834111808525 804.8007023211284
58848 73050.0 28.951573727636955 -3.816094359265576 804.9846878788193
58848 73060.0 29.539545491517153 -3.973650092990141 805.1710320537369
58848 73070.0 30.12735410634018 -4.132547852828196 805.3596539990637
58848 73080.0 30.714995211225812 -4.292835804467136 805.5504718982281
58848 73090.0 31.302464343087433 -4.454563822954864 805.7434030010805
58848 73100.0 31.88975693012697 -4.617783580973382 805.9383636603958
58848 73110.0 32.47686828491813 -4.782548642237571 806.135269368768
58848 73120.0 33.06379359705096 -4.9489145603261395 806.3340347958431
58848 73130.0 33.65052792530519 -5.116938983380547 806.5345738258669
58848 73140.0 34.23706618932052 -5.286681765037166 806.736799595566
58848 73150.0 34.82340316072762 -5.458205082081167 806.9406245322958
58848 73160.0 35.40953345370187 -5.631573559291263 807.1459603924719
58848 73170.0 35.99545151489665 -5.806854401981957 807.3527183002653
58848 73180.0 36.58115161271172 -5.984117536852645 807.5608087865406
58848 73190.0 37.16662782584669 -6.1634357617069755 807.7701418279893
58848 73200.0 37.75187403108703 -6.344884904761096 807.9806268865176
58848 73210.0 38.33688389026321 -6.528543994213394 808.1921729487264
58848 73220.0 38.92165083632026 -6.714495438900995 808.4046885656895
58848 73230.0 39.50616805842854 -6.902825220878037 808.618081892759
58848 73240.0 40.09042848606159 -7.093623100840324 808.8322607295705
58848 73250.0 40.67442477195728 -7.2869828373998 809.0471325601794
58848 73260.0 41.258149273874594 -7.483002421350202 809.2626045931847
58848 73270.0 41.84159403504695 -7.6817843260570395 809.4785838020842
58848 73280.0 42.42475076322665 -7.883435775331565 809.6949769655697
58848 73290.0 43.00761080820184 -8.088069030185228 809.9116907079095
58848 73300.0 43.590165137658815 -8.29580169605501 810.1286315393755
58848 73310.0 44.1724043112486 -8.506757052164176 810.3457058966525
58848 73320.0 44.75431845270399 -8.721064404926395 810.5628201831869
58848 73330.0 45.335897219836426 -8.938859467421747 810.779880809656
58848 73340.0 45.91712977222668 -9.160284767173705 810.9967942342311
58848 73350.0 46.49800473640335 -9.385490084730382 811.2134670028404
58848 73360.0 47.07851016828326 -9.61463292570668 811.4298057894067
58848 73370.0 47.65863351262242 -9.847879029304314 811.6457174358969
58848 73380.0 48.238361559202005 -10.08540291656582 811.8611089922998
58848 73390.0 48.817680395442736 -10.327388481963423 812.0758877565066
58848 73400.0 49.39657535511084 -10.574029632318004 812.289961313968
58848 73410.0 49.975030962737534 -10.825530977420877 812.5032375772597
58848 73420.0 50.55303087333777 -11.082108577225478 812.7156248254107
58848 73430.0 51.13055780696332 -11.343990750963949 812.9270317430878
58848 73440.0 51.70759347757702 -11.611418954118248 813.1373674595193
58848 73450.0 52.28411851567205 -11.884648729828516 813.3465415872084
58848 73460.0 52.860112383997375 -12.163950742038253 813.5544642604295
58848 73470.0 53.43555328567388 -12.449611898464275 813.7610461734103
58848 73480.0 54.010418063902286 -12.741936572378812 813.9661986182622
58848 73490.0 54.584682092366265 -13.041247933208014 814.1698335226625
58848 73500.0 55.158319155328215 -13.347889397097124 814.3718634871228
58848 73510.0 55.7313013162894 -13.662226209799618 814.5722018220757
58848 73520.0 56.30359877394892 -13.984647175766455 814.7707625844886
58848 73530.0 56.8751797040331 -14.315566548819127 814.9674606142228
58848 73540.0 57.4460100853884 -14.655426101652719 815.1622115699951
58848 73550.0 58.01605350852184 -15.004697393436624 815.3549319649284
58848 73560.0 58.585270964535574 -15.36388425700288 815.5455392017853
58848 73570.0 59.153620612133416 -15.73352552976423 815.7339516076995
58848 73580.0 59.721057520062395 -16.114198055279225 815.9200884685506
58848 73590.0 60.28753338199999 -16.506519985721106 816.1038700629009
58848 73600.0 60.85299620048436 -16.911154419046646 816.2852176954704
58848 73610.0 61.41738993601766 -17.328813408792293 816.4640537301156
58848 73620.0 61.98065411692578 -17.760262388981463 816.6403016224311
58848 73630.0 62.54272340493628 -18.2063250616647 816.8138859517334
58848 73640.0 63.1035271107131 -18.66788880037202 816.9847324527008
58848 73650.0 63.66298865275559 -19.145910628959196 817.1527680463726
58848 73660.0 64.22102495210503 -19.64142384232711 817.3179208706553
58848 73670.0 64.77754575419333 -20.155545343104514 817.4801203103942
58848 73680.0 65.33245286788018 -20.689483776598884 817.6392970267588
58848 73690.0 65.88563931024271 -21.244548555295026 817.7953829861508
58848 73700.0 66.43698834396226 -21.82215987346676 817.9483114885444
58848 73710.0 66.98637239217345 -22.42385982227677 818.098017195253
58848 73720.0 67.5336518133563 -23.05132472534831 818.2444361560562
58848 73730.0 68.07867351622646 -23.706378824056006 818.3875058358005
58848 73740.0 68.62126939156467 -24.391009449754634 818.5271651403505
58848 73750.0 69.1612545344903 -25.107383825703092 818.6633544419492
58848 73760.0 69.69842522677868 -25.857867643270687 818.7960156039069
58848 73770.0 70.23255664442908 -26.645045552409993 818.9250920047384
58848 73780.0 70.76340025078954 -27.47174369253084 819.0505285615372
58848 73790.0 71.29068083017545 -28.341054362229364 819.1722717528556
58848 73800.0 71.81409311114435 -29.256362878479827 819.2902696407469
58848 73810.0 72.3332979225611 -30.22137659981349 819.4044718923208
58848 73820.0 72.84791781968525 -31.24015597143423 819.514829800442
58848 73830.0 73.35753211198657 -32.317147279021654 819.6212963039214
58848 73840.0 73.86167122036312 -33.457216549777264 819.7238260068543
58848 73850.0 74.3598102897084 -34.66568368917265 819.8223751974078
58848 73860.0 74.85136198532317 -35.94835545437954 819.9169018658035
58848 73870.0 75.33566841093317 -37.31155519845195 820.0073657216042
58848 73880.0 75.81199210567225 -38.76214642235227 820.0937282103536
58848 73890.0 76.27950611233452 -40.307545987854624 820.1759525294256
58848 73900.0 76.73728316624238 -41.955721316804386 820.2540036431399
58848 73910.0 77.18428414205675 -43.71516398706351 820.327848297171
58848 73920.0 77.61934602574416 -45.59482982522824 820.3974550322889
58848 73930.0 78.04116986348335 -47.604032960055946 820.4627941971851
58848 73940.0 78.44830939169958 -49.75227854608663 820.5238379607118
58848 73950.0 78.83916138323102 -52.04901642971654 820.5805603233193
58848 73960.0 79.21195915613572 -54.50329668322778 820.6329371276815
58848 73970.0 79.56477116864635 -57.12330889844353 820.6809460686551
58848 73980.0 79.89550712030972 -59.91579213439514 820.7245667024107
58848 73990.0 80.20193440270577 -62.88531356471561 820.7637804548136
58848 74000.0 80.48170793987397 -66.03343322818796 820.7985706290746
58848 74010.0 80.73241621289961 -69.35780090589864 820.828922412522
58848 74020.0 80.95164532399801 -72.85126758355884 820.8548228827732
58848 74030.0 81.13706111023616 -76.50113250689053 820.8762610129565
58848 74040.0 81.2865065177553 -80.28867647818085 820.8932276762562
58848 74050.0 81.39810796254683 -84.18913756161366 820.9057156496501
58848 74060.0 81.47038091944273 -88.17225208784191 820.9137196168767
58848 74070.0 81.50232253820911 -92.20340567009224 820.9172361705953
58848 74080.0 81.49347877714274 -96.24532626671203 820.9162638137941
58848 74090.0 81.4439760244077 -100.26013297536679 820.9108029604242
58848 74100.0 81.35451221863946 -104.21146887894807 820.9008559351785
58848 74110.0 81.22630888625822 -108.06642528924179 820.8864269725719
58848 74120.0 81.06103152541097 -111.79701623556089 820.8675222152308
58848 74130.0 80.86068979200836 -115.38106641982358 820.8441497113212
58848 74140.0 80.62753018407814 -118.80249624963203 820.816319411291
58848 74150.0 80.36393256934963 -122.05108782103756 820.7840431637746
58848 74160.0 80.07231886594671 -125.12187461600385 820.7473347107416
58848 74170.0 79.7550785903771 -128.0143126892799 820.7062096818787
58848 74180.0 79.41451274039419 -130.7313731616079 820.6606855881404
58848 74190.0 79.05279508333042 -133.2786606506964 820.610781814633
58848 74200.0 78.67194848682148 -135.66362360368626 820.5565196125789
58848 74210.0 78.27383332083083 -137.89488903309535 820.4979220907071
58848 74220.0 77.86014493571125 -139.9817295602549 820.4350142056531
58848 74230.0 77.43241753899906 -141.9336550845635 820.3678227518079
58848 74240.0 76.99203226372698 -143.76011318045346 820.2963763502681
58848 74250.0 76.54022771737336 -145.47027931206966 820.2207054371092
58848 74260.0 76.07811175267874 -147.07291817369568 820.1408422508372
58848 74270.0 75.60667357869238 -148.57629940473205 820.0568208192091
58848 74280.0 75.12679562632235 -149.9881535749701 819.968676945172
58848 74290.0 74.63926480413753 -151.31565707693534 819.876448192175
58848 74300.0 74.14478293940823 -152.56543707268693 819.7801738687155
58848 74310.0 73.64397630962777 -153.7435897842965 819.6798950121356
58848 74320.0 73.13740424310804 -154.85570716078738 819.5756543717398
58848 74330.0 72.62556681375722 -155.90690832647994 819.4674963911747
58848 74340.0 72.10891168272293 -156.90187326820688 819.3554671900963
58848 74350.0 71.58784015418554 -157.844877009536 819.2396145451715
58848 74360.0 71.06271251855961 -158.73982310343615 819.1199878703372
58848 74370.0 70.53385275681725 -159.59027569820435 818.9966381964131
58848 74380.0 70.00155267673333 -160.39948973361115 818.8696181500014
58848 74390.0 69.46607554704693 -161.1704390361035 818.7389819317609
58848 74400.0 68.92765928979777 -161.90584222739778 818.6047852939463
58848 74410.0 68.38651928507034 -162.60818645805188 818.4670855173839
58848 74420.0 67.84285083644058 -163.2797490403453 818.325941387701
58848 74430.0 67.29683133980939 -163.92261709287564 818.1814131709691
58848 74440.0 66.74862219313052 -164.53870533051565 818.0335625887426
58848 74450.0 66.19837047986297 -165.1297721425743 817.882452792439
