CIC_MEM_VERS = 1.0
CREATION_DATE = 2023-03-16T10:50:09.434997
ORIGINATOR = CS Group

META_START
OBJECT_NAME = horus_eye_34
OBJECT_ID = horus_eye_34
USER_DEFINED_PROTOCOL = NONE
USER_DEFINED_CONTENT = KEPLERIAN
USER_DEFINED_SIZE = 6.0
USER_DEFINED_TYPE = REAL
USER_DEFINED_UNIT = [deg] [km]
TIME_SYSTEM = UTC
META_STOP

58848 68400.0 7178.140000000002 2.2705781367852214e-16 98.62386964 90.0 -2.9377140731766183 -12.062285926823371
58848 68410.0 7178.139999999999 2.865269218733455e-17 98.62386964 90.0 75.59480365724713 -90.0
58848 68420.0 7178.140000000002 2.261842902809455e-16 98.62386964 90.0 -2.831597252446506 -10.978795433059195
58848 68430.0 7178.140000000003 2.230898945136301e-16 98.62386964 90.0 -18.764218362932677 5.54862933467409
58848 68440.0 7178.140000000003 2.227223246795278e-16 98.62386964 90.0 -17.091644793988 4.470859422976583
58848 68450.0 7178.139999999999 1.0788754632259998e-17 98.62386964 90.0 77.9740182862357 -90.0
58848 68460.0 7178.140000000002 2.2208017082326907e-16 98.62386964 90.0 -12.456606655718446 1.0254285992013206
58848 68470.0 7178.139999999999 1.1676418925202751e-16 98.62386964 90.0 151.1207365026868 -161.95711090195684
58848 68480.0 7178.140000000002 2.2230075651114377e-16 98.62386964 90.0 -7.49078100310541 -2.7507897389174243
58848 68490.0 7178.140000000001 2.2427881871481215e-16 98.62386964 90.0 -1.5526952777274392 -8.094071807048275
58848 68500.0 7178.140000000003 2.2208492424552663e-16 98.62386964 90.0 -10.143758836834808 1.0917954093062632
58848 68510.0 7178.140000000003 2.251978195700911e-16 98.62386964 90.0 -18.056477383208197 9.599317612926773
58848 68520.0 7178.139999999997 3.3372644920328455e-16 98.62386964 90.0 168.53488635655225 -176.3972424695865
58848 68530.0 7178.140000000003 2.2212654511371647e-16 98.62386964 90.0 -5.7112312656020805 -1.5563211901850507
58848 68540.0 7178.140000000002 2.2344185106194794e-16 98.62386964 90.0 -0.2618576547374596 -6.410891143802499
58848 68550.0 7178.14 1.4311316858912678e-17 98.62386964 90.0 83.92205485870716 -90.0
58848 68560.0 7178.139999999999 1.1272103420352577e-16 98.62386964 90.0 164.55719946032306 -170.04034094436875
58848 68570.0 7178.139999999999 2.1834513893415088e-17 98.62386964 90.0 85.11166217320145 -90.0
58848 68580.0 7178.139999999999 2.1956022179849863e-17 98.62386964 90.0 85.70646583044862 -90.0
58848 68590.0 7178.140000000004 4.441095371076973e-16 98.62386964 90.0 -3.150537326601683 -0.5481931857025784
58848 68600.0 7178.139999999999 5.841571125372994e-18 98.62386964 90.0 86.8960731449429 -90.0
58848 68610.0 7178.139999999999 1.1108613149203202e-16 98.62386964 90.0 -180.56672786129596 178.05760466348596
58848 68620.0 7178.140000000002 2.220446062429721e-16 98.62386964 90.0 -1.9205621399560642 0.006242599393264332
58848 68630.0 7178.140000000002 2.2204671486253283e-16 98.62386964 90.0 -1.0697399481609198 -0.2497759351547601
58848 68640.0 7178.140000000001 2.2206901459866007e-16 98.62386964 90.0 0.12481756278616057 -0.8495297888546697
58848 68650.0 7178.139999999999 2.2074550442269455e-20 98.62386964 90.0 -90.12990856882138 90.0
58848 68660.0 7178.140000000001 2.2204907921121517e-16 98.62386964 90.0 0.10116791246694454 0.36372717595883647
58848 68670.0 7178.139999999999 4.748581372008034e-18 98.62386964 90.0 -88.9403012543271 90.0
58848 68680.0 7178.139999999999 1.1104865718607997e-16 98.62386964 90.0 -177.0971980967852 178.75170049970527
58848 68690.0 7178.139999999997 3.331444700215721e-16 98.62386964 90.0 -176.51430239357336 178.76360845374055
58848 68700.0 7178.14 1.1102614669479693e-16 98.62386964 90.0 -176.67909597654676 179.5232056939611
58848 68710.0 7178.139999999999 1.408438769874916e-17 98.62386964 90.0 -86.56108662533852 90.0
58848 68720.0 7178.140000000001 1.0605648968511595e-17 98.62386964 90.0 94.03371703190865 -90.0
58848 68730.0 7178.139999999999 1.356615554625014e-17 98.62386964 90.0 -85.37147931084422 90.0
58848 68740.0 7178.140000000002 2.2239668615220194e-16 98.62386964 90.0 1.9988997839504705 3.2244245624524717
58848 68750.0 7178.140000000003 2.220497920057109e-16 98.62386964 90.0 5.426499050404139 0.3916289532459241
58848 68760.0 7178.140000000002 2.2209442358075484e-16 98.62386964 90.0 7.6265242728255265 -1.2135926119282932
58848 68770.0 7178.139999999999 1.1122411286001594e-16 98.62386964 90.0 -169.5402263235205 176.54796164166484
58848 68780.0 7178.140000000004 4.442121471070009e-16 98.62386964 90.0 8.95055231830745 -1.3480133429159256
58848 68790.0 7178.139999999999 1.811718921021241e-17 98.62386964 90.0 -81.80265736736135 90.0
58848 68800.0 7178.139999999997 3.3333926143867343e-16 98.62386964 90.0 -168.8915746023297 177.68372089221552
58848 68810.0 7178.140000000002 2.2625564215379103e-16 98.62386964 90.0 -1.6845983126367787 11.071548259769708
58848 68820.0 7178.140000000004 4.458988428383579e-16 98.62386964 90.0 4.818045344754057 5.163708259626044
58848 68830.0 7178.140000000003 2.258845338640277e-16 98.62386964 90.0 -0.0031374428087541494 10.57969470443598
58848 68840.0 7178.14 2.136259136894619e-17 98.62386964 90.0 -78.8286390811256 90.0
58848 68850.0 7178.140000000003 2.26718718839234e-16 98.62386964 90.0 0.11169388087655548 11.654470695244955
58848 68860.0 7178.140000000002 2.258072828176377e-16 98.62386964 90.0 1.8867385807717871 10.474229652596849
58848 68870.0 7178.139999999997 3.3316340416221246e-16 98.62386964 90.0 191.57673505605962 -178.6209631654438
58848 68880.0 7178.140000000002 2.27710188562709e-16 98.62386964 90.0 0.742811330646642 12.807764217216333
58848 68890.0 7178.140000000004 4.459352908069687e-16 98.62386964 90.0 8.930106555851209 5.21527264925888
58848 68900.0 7178.14 1.0732693956439623e-17 98.62386964 90.0 -75.25981713764278 90.0
58848 68910.0 7178.139999999999 1.1360924912611931e-16 98.62386964 90.0 -152.41456243691417 167.74954895651857
58848 68920.0 7178.140000000003 4.487571247735396e-16 98.62386964 90.0 7.658550717191066 8.271239459660485
58848 68930.0 7178.139999999997 3.3316648010656223e-16 98.62386964 90.0 -162.0745679529615 178.5991617870602
58848 68940.0 7178.14 5.39721570100738e-17 98.62386964 90.0 -72.88060250865418 90.0
58848 68950.0 7178.140000000004 4.483858694643995e-16 98.62386964 90.0 9.775955032440873 7.938246116152095
58848 68960.0 7178.140000000003 4.535444605092889e-16 98.62386964 90.0 6.58916662748762 11.719838178352461
58848 68970.0 7178.140000000002 2.227810925205282e-16 98.62386964 90.0 23.563969239294586 -4.660160776207326
58848 68980.0 7178.14 1.6087052873351732e-17 98.62386964 90.0 -70.50138787966561 90.0
58848 68990.0 7178.139999999999 1.0601694445089818e-16 98.62386964 90.0 -69.90658422241843 90.0
58848 69000.0 7178.140000000002 2.2783519568123114e-16 98.62386964 90.0 7.742899130999586 12.94532030382908
58848 69010.0 7178.139999999997 3.3359483018210985e-16 98.62386964 90.0 -155.4931592349615 176.77618232703736
58848 69020.0 7178.140000000002 2.27895653066515e-16 98.62386964 90.0 8.86654648067974 13.011280268643217
58848 69030.0 7178.140000000003 4.443071191975855e-16 98.62386964 90.0 20.678096469473502 1.7945339370966213
58848 69040.0 7178.14 1.65250256774352e-17 98.62386964 90.0 -66.93256593618274 90.0
58848 69050.0 7178.140000000002 2.243009837908248e-16 98.62386964 90.0 15.52845072411176 8.133786996952656
58848 69060.0 7178.140000000004 4.454048750423844e-16 98.62386964 90.0 19.852103363719472 4.404938014592065
58848 69070.0 7178.139999999999 8.167443954746952e-17 98.62386964 90.0 -65.14815496444129 90.0
58848 69080.0 7178.140000000001 3.063927063433779e-17 98.62386964 90.0 -64.55335130719416 90.0
58848 69090.0 7178.140000000003 2.244428950582976e-16 98.62386964 90.0 17.657997273087254 8.383455076965749
58848 69100.0 7178.140000000003 2.222775429201363e-16 98.62386964 90.0 24.012956139517573 2.6232998677825456
58848 69110.0 7178.139999999999 7.73423436802471e-17 98.62386964 90.0 -62.76894033545269 90.0
58848 69120.0 7178.140000000002 2.388794990066259e-16 98.62386964 90.0 6.1868453254416815 21.63901799635272
58848 69130.0 7178.140000000004 4.48215389120167e-16 98.62386964 90.0 20.640265147101104 7.780401831940471
58848 69140.0 7178.140000000002 2.432275259663734e-16 98.62386964 90.0 4.925975991250043 24.08949464503865
58848 69150.0 7178.140000000003 2.2376134425967654e-16 98.62386964 90.0 22.50836149965056 7.1019127938853055
58848 69160.0 7178.139999999999 1.1847692218554073e-16 98.62386964 90.0 -129.36167456059917 159.56675251138216
58848 69170.0 7178.140000000002 2.4232253221845663e-16 98.62386964 90.0 7.193544061978092 23.606337546052057
58848 69180.0 7178.140000000003 2.346417248790764e-16 98.62386964 90.0 12.535060975171186 18.8596242901061
58848 69190.0 7178.14 5.0457404159907944e-17 98.62386964 90.0 -58.01051107747554 90.0
58848 69200.0 7178.140000000002 2.24334874786254e-16 98.62386964 90.0 24.39016469531699 8.19412788445459
58848 69210.0 7178.140000000003 2.4015540471821394e-16 98.62386964 90.0 10.78528142403594 22.393814812982797
58848 69220.0 7178.139999999997 3.410437619353213e-16 98.62386964 90.0 -133.8096181840109 167.58351807827677
58848 69230.0 7178.140000000002 2.4317695886874047e-16 98.62386964 90.0 10.305870622349106 24.06283292916392
58848 69240.0 7178.140000000002 2.23813142564961e-16 98.62386964 90.0 42.17106915983773 -7.207561951077569
58848 69250.0 7178.140000000002 2.4022519694750193e-16 98.62386964 90.0 13.124131838142956 22.43417902786436
58848 69260.0 7178.140000000003 2.385826857384559e-16 98.62386964 90.0 14.694487504485913 21.458627018768517
58848 69270.0 7178.140000000003 2.4023387654348875e-16 98.62386964 90.0 14.308725776044875 22.439192404456733
58848 69280.0 7178.140000000003 2.2215360310061933e-16 98.62386964 90.0 35.54782983524492 1.794892002503824
58848 69290.0 7178.140000000002 2.2509482077722574e-16 98.62386964 90.0 28.4944859407159 9.44303955428
58848 69300.0 7178.140000000003 2.2209805392571823e-16 98.62386964 90.0 37.27530460547027 1.2570245467727574
58848 69310.0 7178.140000000002 2.221797349514444e-16 98.62386964 90.0 37.128728521525794 1.998404287964357
58848 69320.0 7178.14 1.1216970875700672e-16 98.62386964 90.0 211.5197554165045 -171.79781894976716
58848 69330.0 7178.140000000003 2.260769781400396e-16 98.62386964 90.0 29.47903179022013 10.83770833376436
58848 69340.0 7178.140000000003 2.260913293708111e-16 98.62386964 90.0 30.054854660280995 10.8566891209506
58848 69350.0 7178.139999999997 3.342100441690808e-16 98.62386964 90.0 216.7661017993037 -175.25975436082496
58848 69360.0 7178.140000000002 2.2904274626657083e-16 98.62386964 90.0 27.901334275000398 14.199816820725509
58848 69370.0 7178.140000000003 2.228668009802781e-16 98.62386964 90.0 47.61902736438037 -4.923072611407296
58848 69380.0 7178.140000000003 2.2387788323332785e-16 98.62386964 90.0 35.95334413122116 7.337414278999034
58848 69390.0 7178.14 1.1180018178312776e-16 98.62386964 90.0 217.1227920242048 -173.23722995673748
58848 69400.0 7178.140000000002 2.400539313662773e-16 98.62386964 90.0 66.8153281640962 -22.334962439381716
58848 69410.0 7178.14 1.0853932849988452e-16 98.62386964 90.0 135.07516938196164 -90.0
58848 69420.0 7178.14 1.1136885053443325e-16 98.62386964 90.0 -129.8088637390493 175.47883677825803
58848 69430.0 7178.140000000003 2.2205976645224894e-16 98.62386964 90.0 46.93431686436847 -0.6695401679125728
58848 69440.0 7178.140000000002 2.2217781717949226e-16 98.62386964 90.0 48.84376037898414 -1.9841800252810822
58848 69450.0 7178.14 1.147800278841187e-16 98.62386964 90.0 -42.54561598904982 89.99999999999999
58848 69460.0 7178.14 4.797110858593102e-17 98.62386964 90.0 138.04918766819736 -90.0
58848 69470.0 7178.140000000003 2.2507931131365494e-16 98.62386964 90.0 39.224719036828375 9.419272288616096
58848 69480.0 7178.140000000002 2.305974573696478e-16 98.62386964 90.0 33.585080231593395 15.653714751098246
58848 69490.0 7178.14 1.2157729884431413e-16 98.62386964 90.0 -106.11537086054621 155.94896950048496
58848 69500.0 7178.140000000002 2.3205452004531456e-16 98.62386964 90.0 33.53833219554188 16.890070101644053
58848 69510.0 7178.14 1.312743436491329e-16 98.62386964 90.0 -96.72674313981393 147.749949094247
58848 69520.0 7178.140000000002 2.2719070491085573e-16 98.62386964 90.0 63.83613714350827 -12.218127531828031
58848 69530.0 7178.140000000003 2.22324952871373e-16 98.62386964 90.0 49.33516398792515 2.8776492810021996
58848 69540.0 7178.14 1.2986755363464696e-16 98.62386964 90.0 -95.93982269741412 148.74743962358863
58848 69550.0 7178.140000000003 2.2233576727786175e-16 98.62386964 90.0 50.469853337682984 2.93256724573865
58848 69560.0 7178.14 1.217538524202743e-16 98.62386964 90.0 209.7607032849699 -155.7634790443011
58848 69570.0 7178.140000000002 2.456564353143285e-16 98.62386964 90.0 29.26524891665926 25.326778981256655
58848 69580.0 7178.140000000003 2.395588927552634e-16 98.62386964 90.0 33.14184286071417 22.044988694448914
58848 69590.0 7178.14 1.4262197650383005e-16 98.62386964 90.0 -85.33610583326598 141.11774104567618
58848 69600.0 7178.14 5.917124519552225e-17 98.62386964 90.0 146.3764388696574 -90.0
58848 69610.0 7178.140000000002 2.2515999473782784e-16 98.62386964 90.0 47.429004581633805 9.5422379452707
58848 69620.0 7178.140000000001 1.045471507973914e-16 98.62386964 90.0 -32.43395381584832 90.0
58848 69630.0 7178.140000000002 2.2375733867143556e-16 98.62386964 90.0 51.06717420568533 7.093675635713463
58848 69640.0 7178.139999999999 1.110762245313564e-16 98.62386964 90.0 -119.45897779084716 178.21463128949313
58848 69650.0 7178.140000000004 4.477995430039835e-16 98.62386964 90.0 51.969671609084074 7.380785546809013
58848 69660.0 7178.140000000003 2.2704936021089736e-16 98.62386964 90.0 47.892961633021436 12.052299180118832
58848 69670.0 7178.14 1.282340313575871e-16 98.62386964 90.0 -89.43168590709915 149.97175037748653
58848 69680.0 7178.140000000003 2.4935947282293127e-16 98.62386964 90.0 34.06595964796429 27.0689084796702
58848 69690.0 7178.140000000003 2.4416046000551495e-16 98.62386964 90.0 37.15510677545448 24.574565009427182
58848 69700.0 7178.140000000003 2.2556200258434347e-16 98.62386964 90.0 52.192797460445554 10.13167798168328
58848 69710.0 7178.139999999999 2.6375597587538644e-17 98.62386964 90.0 -27.080720900624033 90.0
58848 69720.0 7178.139999999997 3.3446907992155484e-16 98.62386964 90.0 -111.23769510179794 174.751777858421
58848 69730.0 7178.14 1.314605753296521e-17 98.62386964 90.0 154.10888641387027 -90.0
58848 69740.0 7178.140000000003 2.3598139312130107e-16 98.62386964 90.0 44.91390682231051 19.789783248806906
58848 69750.0 7178.140000000002 2.391553146100585e-16 98.62386964 90.0 43.49351711977357 21.804976608590955
58848 69760.0 7178.14 1.224437064925085e-16 98.62386964 90.0 -89.16280707945495 155.05610446506662
58848 69770.0 7178.14 1.2868577692514966e-16 98.62386964 90.0 -83.13747809567356 149.6255791385324
58848 69780.0 7178.140000000003 2.2872998537833456e-16 98.62386964 90.0 53.19608927133806 13.886815428767939
58848 69790.0 7178.140000000004 4.46350477145401e-16 98.62386964 90.0 73.44748629954161 -5.769777942188475
58848 69800.0 7178.140000000003 2.4064894137668975e-16 98.62386964 90.0 45.595220932617785 22.677291081982442
58848 69810.0 7178.140000000003 2.258139485801911e-16 98.62386964 90.0 79.350689799642 -10.483374127794592
58848 69820.0 7178.14 2.3937490410243024e-17 98.62386964 90.0 -20.537880670905412 90.0
58848 69830.0 7178.140000000002 2.2221990063616934e-16 98.62386964 90.0 67.7809853682812 2.2759376180605173
58848 69840.0 7178.140000000004 4.469201844132395e-16 98.62386964 90.0 64.1993435332555 6.452383110333321
58848 69850.0 7178.140000000001 3.42258697243814e-17 98.62386964 90.0 -18.753469699164 90.0
58848 69860.0 7178.14 1.8120709328851438e-17 98.62386964 90.0 161.84133395808317 -90.0
58848 69870.0 7178.140000000003 2.223455238909083e-16 98.62386964 90.0 69.45489577393234 2.9812418413979493
58848 69880.0 7178.14 1.266629039019447e-16 98.62386964 90.0 -78.1941894310093 151.22513070358673
58848 69890.0 7178.14 1.1145050260089447e-16 98.62386964 90.0 248.601634654437 -174.97588972461241
58848 69900.0 7178.139999999999 3.201232991882e-17 98.62386964 90.0 164.22054858707176 -90.0
58848 69910.0 7178.140000000003 2.29772591449752e-16 98.62386964 90.0 59.91328568151204 14.90206656280682
58848 69920.0 7178.140000000003 2.2384334170352584e-16 98.62386964 90.0 68.14172613751961 7.268429764046362
58848 69930.0 7178.140000000003 2.2222815793443763e-16 98.62386964 90.0 78.33384828721593 -2.3288887284027724
58848 69940.0 7178.139999999999 1.133294400245145e-16 98.62386964 90.0 245.01885706234813 -168.41909384628786
58848 69950.0 7178.14 2.999496410270336e-17 98.62386964 90.0 -12.805433126692547 90.0
58848 69960.0 7178.140000000003 2.223419254868829e-16 98.62386964 90.0 80.7527538300768 -2.9633832995222282
58848 69970.0 7178.140000000003 2.24800933074558e-16 98.62386964 90.0 69.40267605308716 8.981498134714577
58848 69980.0 7178.140000000003 2.2339628237630845e-16 98.62386964 90.0 72.67295681009693 6.306021034951925
58848 69990.0 7178.140000000004 4.440902959812349e-16 98.62386964 90.0 79.44706207069198 0.12671943160405044
58848 70000.0 7178.140000000005 4.449491261112518e-16 98.62386964 90.0 76.60587493198518 3.562710227557961
58848 70010.0 7178.140000000002 2.2685320009957653e-16 98.62386964 90.0 68.94537685578692 11.818011961003393
58848 70020.0 7178.140000000003 2.2255412903950814e-16 98.62386964 90.0 77.48039551288323 3.877796961154213
58848 70030.0 7178.140000000003 2.2586278576722297e-16 98.62386964 90.0 71.40287976673733 10.550116364547277
58848 70040.0 7178.140000000003 2.239607464561804e-16 98.62386964 90.0 75.04755224946385 7.500247539067866
58848 70050.0 7178.140000000002 2.220743942180583e-16 98.62386964 90.0 82.20412707940258 0.9384763663763246
58848 70060.0 7178.14 1.5212463211773777e-17 98.62386964 90.0 -6.262592896973975 90.0
58848 70070.0 7178.140000000002 2.2216881474506736e-16 98.62386964 90.0 82.41621614912461 1.9159946111485862
58848 70080.0 7178.14 1.2381552442332123e-17 98.62386964 90.0 -5.072985582479684 90.0
58848 70090.0 7178.140000000003 2.2204976335062874e-16 98.62386964 90.0 85.91236380950069 -0.3905457347331963
58848 70100.0 7178.140000000003 2.221124469470846e-16 98.62386964 90.0 84.7004639974923 1.4161577345222907
58848 70110.0 7178.140000000003 2.221088557043635e-16 98.62386964 90.0 85.33325040495295 1.3781749843088198
58848 70120.0 7178.14 1.1152896630808116e-16 98.62386964 90.0 -87.23030427015938 174.53653331666828
58848 70130.0 7178.140000000003 2.2226629942577315e-16 98.62386964 90.0 85.34177284071878 2.5592598630372945
58848 70140.0 7178.140000000003 2.220446186230779e-16 98.62386964 90.0 88.47571085417526 0.020125506827920452
58848 70150.0 7178.14 1.1105809200241035e-16 98.62386964 90.0 -89.45473096181843 178.54537098006878
58848 70160.0 7178.140000000003 2.22046609255727e-16 98.62386964 90.0 89.44199883599958 0.24344483949789658
58848 70170.0 7178.140000000002 2.220446053499649e-16 98.62386964 90.0 90.28379202105285 -0.0035446883082512915
58848 70180.0 7178.140000000002 2.2204512655453267e-16 98.62386964 90.0 90.75085769055397 0.12419329943779964
58848 70190.0 7178.140000000003 2.2210182954399626e-16 98.62386964 90.0 92.77051032805329 -1.3006556808143621
58848 70200.0 7178.140000000003 2.2212542078872415e-16 98.62386964 90.0 93.61026850803151 -1.5456102035454546
58848 70210.0 7178.140000000003 2.2209229964633764e-16 98.62386964 90.0 93.84690780042595 -1.1874458386927844
58848 70220.0 7178.14 1.1122688930315896e-16 98.62386964 90.0 269.77859851309984 -176.52433289411948
58848 70230.0 7178.140000000002 2.2206266726868085e-16 98.62386964 90.0 94.57985465307796 -0.7307853768504379
58848 70240.0 7178.14 5.944450196057564e-18 98.62386964 90.0 4.4438729334746405 90.0
58848 70250.0 7178.140000000004 4.442244922782726e-16 98.62386964 90.0 96.45273743759877 -1.4140608468770244
58848 70260.0 7178.140000000003 2.2211785624740843e-16 98.62386964 90.0 94.1619622973479 1.4715179506210283
58848 70270.0 7178.140000000003 2.220877392845403e-16 98.62386964 90.0 97.35754416459332 -1.1292602593772214
58848 70280.0 7178.140000000003 2.220582929814443e-16 98.62386964 90.0 97.45926352545436 -0.6361759629911463
58848 70290.0 7178.140000000004 4.442518559613731e-16 98.62386964 90.0 95.86744003262795 1.550451187082381
58848 70300.0 7178.140000000004 4.445796484175794e-16 98.62386964 90.0 95.32119055648677 2.6915043204707336
58848 70310.0 7178.140000000002 2.226423635005346e-16 98.62386964 90.0 102.8069624258362 -4.1994638916315274
58848 70320.0 7178.14 1.9600549560809577e-17 98.62386964 90.0 189.20230219145182 -90.0
58848 70330.0 7178.139999999999 1.1741253465325223e-16 98.62386964 90.0 260.80695584494345 -161.00984999624453
58848 70340.0 7178.140000000003 2.227945361781627e-16 98.62386964 90.0 105.09429235152797 -4.702382845581929
58848 70350.0 7178.14 1.1346793473946334e-17 98.62386964 90.0 10.986713163193263 90.0
58848 70360.0 7178.140000000002 2.2426859250019445e-16 98.62386964 90.0 109.65719732455734 -8.075680504116958
58848 70370.0 7178.140000000001 1.6683048937849324e-17 98.62386964 90.0 192.1763204776875 -90.0
58848 70380.0 7178.139999999999 1.110314720430338e-16 98.62386964 90.0 -76.49251227822273 179.26363641315746
58848 70390.0 7178.139999999999 1.1257620709182502e-16 98.62386964 90.0 273.83517235705796 -170.4692445648761
58848 70400.0 7178.14 1.2772617385301286e-16 98.62386964 90.0 254.3289990667765 -150.36826761734756
58848 70410.0 7178.140000000002 2.2238169082286053e-16 98.62386964 90.0 107.71063622141436 -3.155101114738278
58848 70420.0 7178.140000000002 2.2347349310440375e-16 98.62386964 90.0 111.6330312576556 -6.4826924937323955
58848 70430.0 7178.140000000003 2.258179836239586e-16 98.62386964 90.0 116.23404796087996 -10.488905539709526
58848 70440.0 7178.14 2.1786279744553363e-17 98.62386964 90.0 196.33994607841754 -90.0
58848 70450.0 7178.14 1.2301268448141298e-16 98.62386964 90.0 261.4270299985478 -154.49228026288316
58848 70460.0 7178.139999999997 3.388503969171147e-16 98.62386964 90.0 276.92851858920517 -169.39896519629326
58848 70470.0 7178.140000000001 4.407800075707205e-17 98.62386964 90.0 198.124357050159 -90.0
58848 70480.0 7178.140000000003 2.25101512251257e-16 98.62386964 90.0 118.17243522557523 -9.453274518169097
58848 70490.0 7178.140000000003 2.3779801531017843e-16 98.62386964 90.0 130.2863595705959 -20.972395205942647
58848 70500.0 7178.140000000003 2.228876828930394e-16 98.62386964 90.0 114.8937713746632 -4.985003352762855
58848 70510.0 7178.14 4.283038111999188e-17 98.62386964 90.0 200.5035716791476 -90.0
58848 70520.0 7178.140000000003 2.257568484261953e-16 98.62386964 90.0 121.50314104330948 -10.40476570691477
58848 70530.0 7178.140000000003 2.2383286503178223e-16 98.62386964 90.0 118.94055198399371 -7.247372990351877
58848 70540.0 7178.14 1.146530887221848e-16 98.62386964 90.0 277.8303264550517 -165.54234380416275
58848 70550.0 7178.140000000003 2.221769541688634e-16 98.62386964 90.0 114.86053187290689 -1.9777455647708102
58848 70560.0 7178.14 7.092438108842787e-17 98.62386964 90.0 203.4775899653833 -90.0
58848 70570.0 7178.140000000003 2.377870713075044e-16 98.62386964 90.0 135.03790821854813 -20.96551459591769
58848 70580.0 7178.14 1.3732586254439508e-16 98.62386964 90.0 258.6128217463206 -143.94562446644306
58848 70590.0 7178.140000000004 4.510807063633025e-16 98.62386964 90.0 125.36285557321418 -10.100854636089418
58848 70600.0 7178.14 2.3969752544569972e-17 98.62386964 90.0 25.856804594371884 90.0
58848 70610.0 7178.140000000003 2.2233440361351676e-16 98.62386964 90.0 119.37730754880607 -2.925699297187059
58848 70620.0 7178.139999999999 1.23710143818473e-16 98.62386964 90.0 270.8698571402985 -153.82344523143237
58848 70630.0 7178.140000000003 2.231958653860677e-16 98.62386964 90.0 123.46316200978721 -5.821946443674006
58848 70640.0 7178.140000000002 2.228293829581239e-16 98.62386964 90.0 123.04609993627913 -4.810080712918693
58848 70650.0 7178.14 4.335932678126834e-18 98.62386964 90.0 208.83082288060757 -90.0
58848 70660.0 7178.140000000002 2.2228945130093336e-16 98.62386964 90.0 122.11508545868728 -2.6894589208325894
58848 70670.0 7178.139999999997 3.374508308806611e-16 98.62386964 90.0 290.77482898660367 -170.75439879150176
58848 70680.0 7178.14 2.922315989348921e-17 98.62386964 90.0 30.61523385234902 90.0
58848 70690.0 7178.140000000003 2.3048750494468777e-16 98.62386964 90.0 136.76591307020422 -15.555875560608069
58848 70700.0 7178.139999999998 3.359957003004707e-16 98.62386964 90.0 294.23422760962796 -172.42938644278473
58848 70710.0 7178.14 3.4004871559375836e-17 98.62386964 90.0 32.39964482409041 90.0
58848 70720.0 7178.140000000003 2.2211260993268536e-16 98.62386964 90.0 124.41230587064496 -1.417857389307328
58848 70730.0 7178.14 9.504142827930569e-17 98.62386964 90.0 213.58925213858473 -90.0
58848 70740.0 7178.139999999999 3.711438020851494e-17 98.62386964 90.0 214.18405579583182 -90.0
58848 70750.0 7178.140000000001 5.685876830089171e-17 98.62386964 90.0 214.77885945307906 -90.0
58848 70760.0 7178.14 5.2021377404012537e-17 98.62386964 90.0 215.37366311032616 -90.0
58848 70770.0 7178.140000000003 2.4308676168261005e-16 98.62386964 90.0 149.9836461346371 -24.015179367063777
58848 70780.0 7178.140000000002 2.3636902523536845e-16 98.62386964 90.0 146.61255666625868 -20.04928624143827
58848 70790.0 7178.140000000002 2.233054769486746e-16 98.62386964 90.0 133.24962682657844 -6.09155274451085
58848 70800.0 7178.14 1.41852779403399e-16 98.62386964 90.0 269.2575237935964 -141.50464605428166
58848 70810.0 7178.140000000002 2.3273001633277264e-16 98.62386964 90.0 145.77709917201526 -17.429417775453338
58848 70820.0 7178.140000000004 4.645424837225715e-16 98.62386964 90.0 146.00774100471952 -17.06525595091049
58848 70830.0 7178.140000000003 2.3770164326934936e-16 98.62386964 90.0 150.44899766050423 -20.911708949448013
58848 70840.0 7178.140000000002 2.2713707577527974e-16 98.62386964 90.0 142.2875877598207 -12.155495391517347
58848 70850.0 7178.140000000003 2.3645855482805097e-16 98.62386964 90.0 150.83554190095293 -20.108645875402456
58848 70860.0 7178.14 1.1674442906892346e-16 98.62386964 90.0 293.3086055700638 -161.98690588726615
58848 70870.0 7178.140000000003 2.455865307215588e-16 98.62386964 90.0 157.20880041456252 -25.292297074517794
58848 70880.0 7178.14 4.47800845433363e-17 98.62386964 90.0 222.5113069972919 -90.0
58848 70890.0 7178.14 1.1443455316889312e-16 98.62386964 90.0 299.0791164298007 -165.97300577526164
58848 70900.0 7178.140000000003 2.5616390694137884e-16 98.62386964 90.0 163.6112565186261 -29.910342206839942
58848 70910.0 7178.140000000003 2.4285527812043464e-16 98.62386964 90.0 158.18802636389432 -23.89230839486092
58848 70920.0 7178.140000000002 2.720525119358839e-16 98.62386964 90.0 170.1860299785083 -35.29550835222778
58848 70930.0 7178.140000000002 2.2206731844343186e-16 98.62386964 90.0 136.3048106719514 -0.8194853884237477
58848 70940.0 7178.140000000002 2.4465873358251916e-16 98.62386964 90.0 160.90863421211316 -24.828505271338397
58848 70950.0 7178.140000000003 2.224872098185503e-16 98.62386964 90.0 140.28957412998034 -3.6146415319584513
58848 70960.0 7178.140000000002 2.519953514057177e-16 98.62386964 90.0 165.48886480738204 -28.219128552112952
58848 70970.0 7178.140000000003 2.3875225087535943e-16 98.62386964 90.0 159.4264526043953 -21.56191269187908
58848 70980.0 7178.140000000002 2.254530139703197e-16 98.62386964 90.0 148.43483098827429 -9.975487418510946
58848 70990.0 7178.14 1.1683233021385515e-16 98.62386964 90.0 -22.800658320041087 161.85480554705154
58848 71000.0 7178.140000000003 2.221264101283185e-16 98.62386964 90.0 141.20399002530755 -1.5550391410499662
58848 71010.0 7178.140000000004 4.449600889059408e-16 98.62386964 90.0 143.82906595197744 -3.585311410472646
58848 71020.0 7178.140000000003 2.4842164101443563e-16 98.62386964 90.0 167.48110347842868 -26.642545279676753
58848 71030.0 7178.140000000002 2.22996858508049e-16 98.62386964 90.0 146.73023085678372 -5.296869000784668
58848 71040.0 7178.14 5.3456778381932346e-17 98.62386964 90.0 52.02816551324625 90.0
58848 71050.0 7178.14 3.1617965507143385e-17 98.62386964 90.0 232.62296917049338 -90.0
58848 71060.0 7178.14 1.293464732899489e-16 98.62386964 90.0 292.3476591725539 -149.1298863448134
58848 71070.0 7178.140000000002 2.285673133852795e-16 98.62386964 90.0 130.09167013026791 13.72090635471971
58848 71080.0 7178.140000000002 2.245730274740723e-16 98.62386964 90.0 153.0131945118144 -8.605814369579642
58848 71090.0 7178.14 9.450510513349247e-17 98.62386964 90.0 235.00218379948197 -90.0
58848 71100.0 7178.14 5.2152782107684e-18 98.62386964 90.0 235.5969874567291 -90.0
58848 71110.0 7178.140000000001 2.2524264168406534e-16 98.62386964 90.0 155.85829082030753 -9.666499706331342
58848 71120.0 7178.140000000003 2.3796337040008773e-16 98.62386964 90.0 167.8626127712257 -21.076018000002303
58848 71130.0 7178.140000000002 2.232306608163852e-16 98.62386964 90.0 153.29028647837703 -5.908888049906513
58848 71140.0 7178.14 3.578521125932794e-18 98.62386964 90.0 57.97620208571768 90.0
58848 71150.0 7178.139999999999 1.1224326791233494e-16 98.62386964 90.0 320.1123054704677 -171.54129972750286
58848 71160.0 7178.140000000002 2.2286596373850817e-16 98.62386964 90.0 154.08638249790243 -4.920573097690545
58848 71170.0 7178.14 1.1255358145991643e-16 98.62386964 90.0 320.2987045594112 -170.53809150195212
58848 71180.0 7178.140000000002 2.4803372894180377e-16 98.62386964 90.0 176.8187923198119 -26.46337560510564
58848 71190.0 7178.140000000001 3.499261636435713e-17 98.62386964 90.0 60.95022037195336 90.0
58848 71200.0 7178.140000000004 4.546319122401783e-16 98.62386964 90.0 163.90809873130155 -12.363074702100947
58848 71210.0 7178.140000000002 2.4106658222350387e-16 98.62386964 90.0 175.05351326125952 -22.913685574811836
58848 71220.0 7178.140000000002 2.3052264244850613e-16 98.62386964 90.0 168.32184864984384 -15.587217306149006
58848 71230.0 7178.140000000003 4.444878336507675e-16 98.62386964 90.0 155.75616671712925 -2.4267317161873083
58848 71240.0 7178.140000000003 2.2399182685799214e-16 98.62386964 90.0 161.4846320408353 -7.560393382646231
58848 71250.0 7178.140000000003 2.2305221556423833e-16 98.62386964 90.0 159.9671333605411 -5.448091045104855
58848 71260.0 7178.140000000002 2.308057778122323e-16 98.62386964 90.0 170.95106283120109 -15.837216858517698
58848 71270.0 7178.140000000004 4.471984778609166e-16 98.62386964 90.0 162.46898905628473 -6.760339426354212
58848 71280.0 7178.140000000002 2.220583566606231e-16 98.62386964 90.0 155.66579931777963 0.6376539693980997
58848 71290.0 7178.139999999999 5.3890816533499415e-17 98.62386964 90.0 246.89825694442487 -90.0
58848 71300.0 7178.14 5.55973661681153e-18 98.62386964 90.0 247.493060601672 -90.0
58848 71310.0 7178.14 1.2832695793885327e-16 98.62386964 90.0 8.187817515561164 149.90004674335793
58848 71320.0 7178.140000000002 2.223724356194865e-16 98.62386964 90.0 161.7942074955023 -3.1115395793360303
58848 71330.0 7178.140000000002 2.2581740409256094e-16 98.62386964 90.0 148.7893602907696 10.488111282643885
58848 71340.0 7178.140000000002 2.283887879098128e-16 98.62386964 90.0 173.40853154522776 -13.536256314567181
58848 71350.0 7178.14 3.6164079895735845e-17 98.62386964 90.0 250.4670788879077 -90.0
58848 71360.0 7178.140000000004 4.491089385740568e-16 98.62386964 90.0 169.63635181640493 -8.574469271250022
58848 71370.0 7178.139999999999 7.613355419476659e-17 98.62386964 90.0 251.65668620240203 -90.0
58848 71380.0 7178.140000000002 2.3423098863167938e-16 98.62386964 90.0 180.81474047809772 -18.563250618448574
58848 71390.0 7178.140000000002 2.297390362798791e-16 98.62386964 90.0 177.71688103731805 -14.87058752042178
58848 71400.0 7178.140000000003 2.2283024468512456e-16 98.62386964 90.0 158.62838408502623 4.812713089117153
58848 71410.0 7178.139999999999 2.301452571015844e-17 98.62386964 90.0 254.03590083139062 -90.0
58848 71420.0 7178.140000000003 2.2309591941121425e-16 98.62386964 90.0 170.19523894162904 -5.564534452991307
58848 71430.0 7178.140000000002 2.246505003665695e-16 98.62386964 90.0 173.96091493074422 -8.735406784859391
58848 71440.0 7178.139999999997 3.3531901848087184e-16 98.62386964 90.0 339.17604881947057 -173.35573701633865
58848 71450.0 7178.14 7.717715586244424e-19 98.62386964 90.0 76.41511546037911 90.0
58848 71460.0 7178.140000000001 3.83448635727796e-17 98.62386964 90.0 77.0099191176263 90.0
58848 71470.0 7178.140000000001 2.2798034279224017e-16 98.62386964 90.0 180.70779385769254 -13.10307108281909
58848 71480.0 7178.140000000003 2.223143865794875e-16 98.62386964 90.0 165.37657126200756 2.8229551701129547
58848 71490.0 7178.140000000001 2.231095355934009e-16 98.62386964 90.0 174.3946408666994 -5.600310777331654
58848 71500.0 7178.140000000004 4.441202221597412e-16 98.62386964 90.0 168.71202731462216 0.6771064319927315
58848 71510.0 7178.140000000002 2.2231849281830306e-16 98.62386964 90.0 172.8282730854643 -2.844335681602292
58848 71520.0 7178.140000000001 2.239453862236653e-16 98.62386964 90.0 178.0490799688745 -7.4703389077653926
58848 71530.0 7178.139999999999 1.1125588845342526e-16 98.62386964 90.0 -5.113022750902552 176.28656746925878
58848 71540.0 7178.140000000002 2.2216658645899207e-16 98.62386964 90.0 169.86960978472965 1.8987385908738121
58848 71550.0 7178.140000000003 2.2308729026075347e-16 98.62386964 90.0 177.90489205163436 -5.541740018783768
58848 71560.0 7178.140000000002 2.2205169050217024e-16 98.62386964 90.0 172.50023624960428 0.457719440493424
58848 71570.0 7178.140000000002 2.2362465299384924e-16 98.62386964 90.0 180.36780839097327 -6.815049043628339
58848 71580.0 7178.140000000002 2.22169053138679e-16 98.62386964 90.0 176.06539454336274 -1.9178315387706955
58848 71590.0 7178.139999999999 1.1305975812888238e-16 98.62386964 90.0 343.84849995404227 -169.10613329220305
58848 71600.0 7178.140000000001 2.232781446082788e-16 98.62386964 90.0 181.36264454655677 -6.025474227470456
58848 71610.0 7178.140000000002 2.2234992555606043e-16 98.62386964 90.0 178.9349158114972 -3.002941835163816
58848 71620.0 7178.139999999999 1.110524484736627e-16 98.62386964 90.0 -2.138169960780565 178.6649475943612
58848 71630.0 7178.14 1.8030970645734466e-18 98.62386964 90.0 87.12158129082775 90.0
58848 71640.0 7178.14 5.943300461245303e-18 98.62386964 90.0 87.71638494807486 90.0
58848 71650.0 7178.139999999999 1.110544435931291e-16 98.62386964 90.0 -0.3102988908508365 178.62148749617293
58848 71660.0 7178.139999999999 2.301727598733068e-19 98.62386964 90.0 268.9059922625692 -90.0
58848 71670.0 7178.139999999997 3.3307188170225885e-16 98.62386964 90.0 359.1876578900736 -179.68686197025727
58848 71680.0 7178.140000000003 2.220446145216841e-16 98.62386964 90.0 -179.92124567060995 0.0168452476734029
58848 71690.0 7178.140000000004 4.440893680372542e-16 98.62386964 90.0 -179.35795696845543 0.048360202766006284
58848 71700.0 7178.140000000004 4.440918710806766e-16 98.62386964 90.0 -178.9131478975838 0.1983547891415801
58848 71710.0 7178.14 1.1115069507842884e-16 98.62386964 90.0 -355.3658027520366 177.24581330084152
58848 71720.0 7178.14 1.1112122829237515e-16 98.62386964 90.0 -355.1073534152504 177.58216762130237
58848 71730.0 7178.139999999999 1.1131249617666608e-16 98.62386964 90.0 -352.7922527456416 175.86187060894085
58848 71740.0 7178.140000000002 2.2227493830595785e-16 98.62386964 90.0 -178.9441835413352 2.6086050618815864
58848 71750.0 7178.139999999999 1.1115671614851456e-16 98.62386964 90.0 -352.92281176919886 177.18203694699238
58848 71760.0 7178.140000000003 2.2216012480796426e-16 98.62386964 90.0 -173.29818476794813 -1.847786397011257
58848 71770.0 7178.139999999999 1.842435719145516e-18 98.62386964 90.0 -264.55116750771225 90.0
58848 71780.0 7178.140000000001 8.569994081861902e-18 98.62386964 90.0 -83.95636385046504 -90.0
58848 71790.0 7178.140000000002 2.2223082891457725e-16 98.62386964 90.0 -175.70732044160954 2.3457602483916005
58848 71800.0 7178.140000000002 2.2285168738760226e-16 98.62386964 90.0 -177.64450925511147 4.877752719140677
58848 71810.0 7178.140000000002 2.222551124181922e-16 98.62386964 90.0 -169.67804840440817 -2.493904474315407
58848 71820.0 7178.14 1.6895101968560415e-17 98.62386964 90.0 -261.5771492214764 90.0
58848 71830.0 7178.140000000003 2.23728542643063e-16 98.62386964 90.0 -178.01651334140521 7.034167777175869
58848 71840.0 7178.139999999999 2.2647631120282948e-17 98.62386964 90.0 -260.38754190698216 90.0
58848 71850.0 7178.140000000002 2.248876586064354e-16 98.62386964 90.0 -178.91297150930367 9.120233259568582
58848 71860.0 7178.139999999999 1.1103267355034136e-16 98.62386964 90.0 10.018946394531389 -179.21688098701927
58848 71870.0 7178.14 2.6972856482193505e-17 98.62386964 90.0 -258.6031309352407 90.0
58848 71880.0 7178.14 1.1105045049347876e-16 98.62386964 90.0 10.701610517289994 -178.70993779528362
58848 71890.0 7178.14 2.1703094700771418e-17 98.62386964 90.0 -257.4135236207464 90.0
58848 71900.0 7178.140000000004 4.448777822684079e-16 98.62386964 90.0 -170.23066663874388 3.411946675244481
58848 71910.0 7178.14 3.3863982734722254e-17 98.62386964 90.0 -256.22391630625214 90.0
58848 71920.0 7178.140000000003 2.308233455843225e-16 98.62386964 90.0 -181.4816946323409 15.852581983335833
58848 71930.0 7178.140000000002 2.262470270871159e-16 98.62386964 90.0 -176.0947020941001 11.060393102342172
58848 71940.0 7178.140000000002 2.2522891859685603e-16 98.62386964 90.0 -174.0854881142587 9.645982779747992
58848 71950.0 7178.140000000002 2.330824547929747e-16 98.62386964 90.0 -181.5479934529125 17.703291775648896
58848 71960.0 7178.140000000002 2.278742560134106e-16 98.62386964 90.0 -176.23787540463485 12.987977384618352
58848 71970.0 7178.14 6.024732410472642e-18 98.62386964 90.0 -252.65509436276932 90.0
58848 71980.0 7178.140000000002 2.225431674423905e-16 98.62386964 90.0 -165.8962273207892 3.8359366152669505
58848 71990.0 7178.139999999999 1.18471583270494e-16 98.62386964 90.0 -321.03917124504494 159.57368419677
58848 72000.0 7178.139999999999 1.654885202850232e-17 98.62386964 90.0 -250.87068339102785 90.0
58848 72010.0 7178.140000000002 2.2351119981145853e-16 98.62386964 90.0 -166.8430885781387 6.567208844357897
58848 72020.0 7178.139999999999 1.3318909796126594e-16 98.62386964 90.0 -306.14820091045135 146.4671248339178
58848 72030.0 7178.14 1.51618169595484e-18 98.62386964 90.0 -69.08627241928643 -90.0
58848 72040.0 7178.140000000003 2.2457228295295624e-16 98.62386964 90.0 -167.09602790425285 8.60455914221356
58848 72050.0 7178.140000000003 2.2309332612993886e-16 98.62386964 90.0 -163.45435922565983 5.557694120867633
58848 72060.0 7178.140000000002 2.491141346044272e-16 98.62386964 90.0 -184.2601445076068 26.958283060061706
58848 72070.0 7178.140000000004 4.480094024609336e-16 98.62386964 90.0 -164.29222152495657 7.585163734658697
58848 72080.0 7178.140000000001 2.51715549958769e-16 98.62386964 90.0 -184.21246883885996 28.100214705809226
58848 72090.0 7178.140000000002 2.2623053162474367e-16 98.62386964 90.0 -166.5564511070465 11.039000631242892
58848 72100.0 7178.140000000003 2.2252436772581914e-16 98.62386964 90.0 -158.68569853634813 3.7630517177917353
58848 72110.0 7178.14 1.1342980528063255e-16 98.62386964 90.0 -322.50209599131307 168.17425283000378
58848 72120.0 7178.14 6.137744112614344e-17 98.62386964 90.0 -243.7330395040621 90.0
58848 72130.0 7178.140000000003 2.22046819801992e-16 98.62386964 90.0 -153.39414776689338 0.25591192007837105
58848 72140.0 7178.140000000002 2.3690495523669777e-16 98.62386964 90.0 -172.94491891395495 20.401486724387045
58848 72150.0 7178.139999999999 1.1515283370372112e-16 98.62386964 90.0 -316.556096295668 164.60746776334733
58848 72160.0 7178.14 3.8715999245388165e-17 98.62386964 90.0 -241.35382487507354 90.0
58848 72170.0 7178.14 1.3798395656514067e-17 98.62386964 90.0 -60.75902121782645 -90.0
58848 72180.0 7178.140000000002 2.236878100961491e-16 98.62386964 90.0 -157.1133179597724 6.949100399193137
58848 72190.0 7178.140000000003 2.272842654755307e-16 98.62386964 90.0 -161.89598819784314 12.326574294511031
58848 72200.0 7178.139999999997 3.359177255497722e-16 98.62386964 90.0 23.55551105494382 -172.5301213010288
58848 72210.0 7178.14 1.2199938062070697e-16 98.62386964 90.0 -303.8884048391128 155.50859825027499
58848 72220.0 7178.140000000003 2.3764976161875897e-16 98.62386964 90.0 -168.66395138687193 20.878948455281158
58848 72230.0 7178.140000000002 2.2759035795117036e-16 98.62386964 90.0 -159.8645817884431 12.674382514099596
58848 72240.0 7178.140000000002 2.2294858820491606e-16 98.62386964 90.0 -141.43405740409648 -5.16133821299993
58848 72250.0 7178.140000000003 2.2318501690705723e-16 98.62386964 90.0 -140.20602349624878 -5.794568463600521
58848 72260.0 7178.140000000002 2.275402623108206e-16 98.62386964 90.0 -158.02395705122382 12.618168748621752
58848 72270.0 7178.14 1.164438847167716e-16 98.62386964 90.0 17.636396095808962 -162.447380741164
58848 72280.0 7178.140000000003 4.537907634579202e-16 98.62386964 90.0 -156.08499235200645 11.868811363898642
58848 72290.0 7178.140000000004 4.768701123945915e-16 98.62386964 90.0 -164.9895724595466 21.368195128685873
58848 72300.0 7178.14 5.249308793731519e-17 98.62386964 90.0 -233.02657367361357 90.0
58848 72310.0 7178.140000000002 2.2509999655040883e-16 98.62386964 90.0 -151.882727205279 9.450957188912621
58848 72320.0 7178.14 1.9885758820114587e-16 98.62386964 90.0 -231.83696635911926 89.99999999999999
58848 72330.0 7178.140000000002 2.30976012434888e-16 98.62386964 90.0 -157.2275667105694 15.985404008697286
58848 72340.0 7178.140000000003 2.228217994354872e-16 98.62386964 90.0 -135.86050739564823 -4.786851648976659
58848 72350.0 7178.140000000003 2.2224795762336156e-16 98.62386964 90.0 -137.60136620961015 -2.4511891777677466
58848 72360.0 7178.14 5.057412456191768e-17 98.62386964 90.0 -229.45775173013064 90.0
58848 72370.0 7178.140000000003 2.6798841868830347e-16 98.62386964 90.0 -172.91180386676334 34.048855793879795
58848 72380.0 7178.140000000003 2.417660119758203e-16 98.62386964 90.0 -161.57084874534684 23.302704329710416
58848 72390.0 7178.139999999999 1.1268202462577567e-16 98.62386964 90.0 -307.82727978293605 170.15393902454684
58848 72400.0 7178.140000000003 2.4422360979127213e-16 98.62386964 90.0 -161.68547925236504 24.60694215122295
58848 72410.0 7178.140000000001 1.3406906267300892e-17 98.62386964 90.0 -226.48373344389495 90.0
58848 72420.0 7178.14 1.761165712419366e-16 98.62386964 90.0 -6.809953665873143 -129.0789761207746
58848 72430.0 7178.140000000002 2.340514331263548e-16 98.62386964 90.0 -153.72604057835042 18.431914448949694
58848 72440.0 7178.14 8.634579109688435e-17 98.62386964 90.0 -224.69932247215348 90.0
58848 72450.0 7178.14 1.8133124435582517e-17 98.62386964 90.0 -44.104518814906385 -90.0
58848 72460.0 7178.140000000002 2.40856020820542e-16 98.62386964 90.0 -156.30461060471254 22.794895447053257
58848 72470.0 7178.14 1.1631238972496668e-16 98.62386964 90.0 29.738423279412498 -162.65333477982455
58848 72480.0 7178.140000000003 2.35258075927414e-16 98.62386964 90.0 -151.61435284400324 19.294245000838313
58848 72490.0 7178.140000000003 2.244928750155628e-16 98.62386964 90.0 -140.19487683725603 8.469572651338224
58848 72500.0 7178.14 6.075638909387224e-17 98.62386964 90.0 -221.13050052867058 90.0
58848 72510.0 7178.140000000002 2.567695949375684e-16 98.62386964 90.0 -160.68014968597495 30.144452814551393
58848 72520.0 7178.140000000003 2.3368027855473403e-16 98.62386964 90.0 -148.09776884546002 18.15687563128368
58848 72530.0 7178.140000000003 2.2605472906783766e-16 98.62386964 90.0 -140.1543016127399 10.808212055810692
58848 72540.0 7178.140000000001 9.61488171528857e-17 98.62386964 90.0 -38.7512858996821 -90.0
58848 72550.0 7178.14 1.2208233681091733e-16 98.62386964 90.0 27.266790643361364 -155.42327288579625
58848 72560.0 7178.14 7.522607508305604e-17 98.62386964 90.0 -217.56167858518776 90.0
58848 72570.0 7178.14 1.1983697372554974e-16 98.62386964 90.0 30.920312693449183 -157.8871876213898
58848 72580.0 7178.140000000003 2.2221139908794413e-16 98.62386964 90.0 -128.59216881596717 2.2200975452737595
58848 72590.0 7178.14 1.8350982621455705e-16 98.62386964 90.0 -253.00566152451682 127.2283939110704
58848 72600.0 7178.140000000003 2.6615484892006526e-16 98.62386964 90.0 -158.64271852718576 33.46025457098659
58848 72610.0 7178.139999999997 3.401821911113219e-16 98.62386964 90.0 -292.84847784148906 168.26081754253704
58848 72620.0 7178.139999999999 1.2289192873534822e-16 98.62386964 90.0 30.617673577772173 -154.6105302194771
58848 72630.0 7178.140000000003 2.2691106563286867e-16 98.62386964 90.0 -135.28569312755005 11.887640143092327
58848 72640.0 7178.140000000003 2.2262062204659445e-16 98.62386964 90.0 -126.92580299035384 4.122553663143144
58848 72650.0 7178.14 3.082591132045464e-17 98.62386964 90.0 -32.208445669963474 -90.0
58848 72660.0 7178.14 5.4081441306542587e-17 98.62386964 90.0 -211.61364201271635 90.0
58848 72670.0 7178.140000000002 2.2673265420727048e-16 98.62386964 90.0 -109.34730701135794 -11.671531344111285
58848 72680.0 7178.140000000003 2.3575088398026566e-16 98.62386964 90.0 -140.05753158856774 19.633496890345718
58848 72690.0 7178.140000000003 2.232184768835926e-16 98.62386964 90.0 -125.70782456640129 5.878593525426389
58848 72700.0 7178.140000000003 2.234009402719412e-16 98.62386964 90.0 -125.55124946357239 6.31682207984461
58848 72710.0 7178.140000000003 2.2522371736130806e-16 98.62386964 90.0 -128.27781835380827 9.638194627327703
58848 72720.0 7178.140000000003 2.4280459394028433e-16 98.62386964 90.0 -141.91011459456612 23.865294525332565
58848 72730.0 7178.140000000003 2.2332028712518067e-16 98.62386964 90.0 -123.57707090375557 6.127054491769257
58848 72740.0 7178.14 3.0017913480187332e-18 98.62386964 90.0 -206.8552127547392 90.0
58848 72750.0 7178.14 1.2899558751492205e-16 98.62386964 90.0 -265.6520152413299 149.39160614383778
58848 72760.0 7178.140000000002 2.222583395298171e-16 98.62386964 90.0 -113.15267291131514 -2.5129325289297215
58848 72770.0 7178.140000000004 4.444975467877711e-16 98.62386964 90.0 -117.5268988833099 2.456097100312171
58848 72780.0 7178.14 3.107991875984565e-17 98.62386964 90.0 -24.475998125750614 -90.0
58848 72790.0 7178.140000000003 2.278790040920026e-16 98.62386964 90.0 -126.87434676595821 12.993152297454795
58848 72800.0 7178.139999999997 3.3312524010511233e-16 98.62386964 90.0 65.64135857657638 -178.92774938783276
58848 72810.0 7178.139999999997 3.330865085225644e-16 98.62386964 90.0 66.68682595183222 -179.37841310584136
58848 72820.0 7178.140000000002 2.243216282873729e-16 98.62386964 90.0 -120.26738164166954 8.170598144907508
58848 72830.0 7178.139999999997 3.3328126922414355e-16 98.62386964 90.0 66.44293798690921 -177.94491782642413
58848 72840.0 7178.140000000003 2.317205099937726e-16 98.62386964 90.0 -127.52308592912655 16.615909746858865
58848 72850.0 7178.140000000003 2.2295542282898055e-16 98.62386964 90.0 -115.49311910523323 5.180746580212678
58848 72860.0 7178.14 8.83552490454216e-17 98.62386964 90.0 -199.71756886777345 90.0
58848 72870.0 7178.139999999999 1.2374134379159956e-16 98.62386964 90.0 -262.91683628430326 153.794071073777
58848 72880.0 7178.140000000003 2.4369020242105365e-16 98.62386964 90.0 -132.8596199452165 24.331658391937264
58848 72890.0 7178.140000000003 2.283963556224262e-16 98.62386964 90.0 -121.47729756581585 13.544139669783835
58848 72900.0 7178.140000000003 2.2230319157074877e-16 98.62386964 90.0 -104.5745330956463 -2.7638211431385766
58848 72910.0 7178.140000000003 2.235365586600586e-16 98.62386964 90.0 -100.12012172882602 -6.623428852711718
58848 72920.0 7178.139999999999 1.5568336701873135e-17 98.62386964 90.0 -16.148746924290528 -90.0
58848 72930.0 7178.140000000004 4.484598602946415e-16 98.62386964 90.0 -113.559697004843 8.0057537377996
58848 72940.0 7178.14 1.117273256541311e-16 98.62386964 90.0 -278.5191039963372 173.5599643865409
58848 72950.0 7178.140000000003 2.254967795986874e-16 98.62386964 90.0 -114.40285065284684 10.038514700297771
58848 72960.0 7178.140000000002 2.225119184128829e-16 98.62386964 90.0 -100.05553839361008 -3.7139939016919725
58848 72970.0 7178.139999999999 1.225008297521872e-17 98.62386964 90.0 -193.17472863805483 90.0
58848 72980.0 7178.140000000003 2.220539790277134e-16 98.62386964 90.0 -102.0534536440801 -0.5264713367276128
58848 72990.0 7178.140000000003 2.223263163284244e-16 98.62386964 90.0 -104.86975239045674 2.8846310668961506
58848 73000.0 7178.140000000004 4.4442733969159e-16 98.62386964 90.0 -103.62546695667918 2.235149290365819
58848 73010.0 7178.140000000003 2.2229912422868257e-16 98.62386964 90.0 -103.53753366098142 2.7420196519151787
58848 73020.0 7178.14 1.1144266083852077e-16 98.62386964 90.0 -275.2226706814365 175.0219603296174
58848 73030.0 7178.139999999998 3.3352835829184213e-16 98.62386964 90.0 -276.5916232874973 176.98571659292543
58848 73040.0 7178.14 6.033304890468993e-18 98.62386964 90.0 -9.011103037324887 -90.0
58848 73050.0 7178.14 1.1143106347471774e-16 98.62386964 90.0 76.67459840804621 -175.09089778812387
58848 73060.0 7178.14 1.145592465688259e-16 98.62386964 90.0 -263.547011861525 165.72551613869445
58848 73070.0 7178.140000000001 2.4080001065283823e-17 98.62386964 90.0 -187.22669206558342 90.0
58848 73080.0 7178.140000000003 2.2345530809219304e-16 98.62386964 90.0 -103.07341580057263 6.441527392236433
58848 73090.0 7178.14 1.0243886519622172e-17 98.62386964 90.0 -186.03708475108917 90.0
58848 73100.0 7178.140000000003 2.2294191733471296e-16 98.62386964 90.0 -100.58460435168858 5.142323257846618
58848 73110.0 7178.14 1.2394255985846367e-17 98.62386964 90.0 -184.84747743659483 90.0
58848 73120.0 7178.14 1.1352220208397704e-16 98.62386964 90.0 -262.20623370176855 167.95355992242082
58848 73130.0 7178.14 7.568237437297378e-18 98.62386964 90.0 -183.6578701221005 90.0
58848 73140.0 7178.14 2.9719392746179415e-18 98.62386964 90.0 -3.0630664648533834 -90.0
58848 73150.0 7178.140000000003 2.220593159563532e-16 98.62386964 90.0 -91.80874414545504 -0.6595186621512139
58848 73160.0 7178.140000000003 2.221276807597937e-16 98.62386964 90.0 -93.44052476983312 1.5670656194740744
58848 73170.0 7178.139999999999 1.1102725017712898e-16 98.62386964 90.0 88.18043231309974 -179.45908780621176
58848 73180.0 7178.140000000003 2.220535670450467e-16 98.62386964 90.0 -91.19862463635856 0.5147728004937644
58848 73190.0 7178.14 1.110223205829975e-16 98.62386964 90.0 89.87821644364493 -179.9672646222626
58848 73200.0 7178.140000000003 2.220477250915163e-16 98.62386964 90.0 -89.19050321356994 -0.3037413078006178
58848 73210.0 7178.14 1.110811972229325e-16 98.62386964 90.0 89.23471709508723 -178.13415795921057
58848 73220.0 7178.140000000003 2.2214829689279126e-16 98.62386964 90.0 -86.55396197025904 -1.750675236617178
58848 73230.0 7178.140000000003 2.2205393424272445e-16 98.62386964 90.0 -87.18462128883245 -0.5252122607966523
58848 73240.0 7178.14 1.110495269317806e-16 98.62386964 90.0 91.61624405562922 -178.7312739480111
58848 73250.0 7178.140000000001 9.829467955002524e-18 98.62386964 90.0 3.4797737648651386 -90.0
58848 73260.0 7178.140000000001 2.347599972882153e-17 98.62386964 90.0 4.07457742211236 -90.0
58848 73270.0 7178.14 4.773752944459215e-18 98.62386964 90.0 -175.33061892064052 90.0
58848 73280.0 7178.140000000003 2.220556468658148e-16 98.62386964 90.0 -85.30720340889798 0.5713881455045882
58848 73290.0 7178.140000000002 2.2302850704761275e-16 98.62386964 90.0 -89.52486442798366 5.383852821837471
58848 73300.0 7178.139999999997 3.332856036382854e-16 98.62386964 90.0 94.37804813984484 -177.9242560887439
58848 73310.0 7178.14 1.113064796153288e-16 98.62386964 90.0 92.95349648336116 -175.9049007750131
58848 73320.0 7178.140000000003 2.2206830370644353e-16 98.62386964 90.0 -83.19366954582226 0.8370689114175489
58848 73330.0 7178.140000000003 2.2521180474669453e-16 98.62386964 90.0 -72.1414647827193 -9.620332194438404
58848 73340.0 7178.140000000002 2.221803604799678e-16 98.62386964 90.0 -79.1639713296036 -2.003021990306869
58848 73350.0 7178.140000000003 2.2642565946497536e-16 98.62386964 90.0 -69.28289284654161 -11.289296816121732
58848 73360.0 7178.14 1.178883668359929e-16 98.62386964 90.0 80.3715162072967 -160.34890221271294
58848 73370.0 7178.14 1.151006686319487e-16 98.62386964 90.0 85.31949038503869 -164.7020727332077
58848 73380.0 7178.14 1.1135805385839447e-16 98.62386964 90.0 96.76186373685971 -175.5496424277816
58848 73390.0 7178.140000000001 5.01293333888154e-17 98.62386964 90.0 11.807024966325223 -90.0
58848 73400.0 7178.14 1.4465280475616668e-17 98.62386964 90.0 12.401828623572445 -90.0
58848 73410.0 7178.140000000003 2.224711370411694e-16 98.62386964 90.0 -73.45485739140622 -3.5485103277743026
58848 73420.0 7178.140000000003 2.28658272959848e-16 98.62386964 90.0 -62.59461819263354 -13.813945869299772
58848 73430.0 7178.140000000003 2.2329451904234386e-16 98.62386964 90.0 -69.74861136116797 -6.065149043518211
58848 73440.0 7178.14 1.2229088489711777e-16 98.62386964 90.0 79.99153527083486 -155.21049201827392
58848 73450.0 7178.140000000003 2.278219574161612e-16 98.62386964 90.0 -61.69332476480339 -12.930828325388445
58848 73460.0 7178.139999999999 1.2178860207105196e-16 98.62386964 90.0 81.69784096018837 -155.7271903931331
58848 73470.0 7178.14 4.7062514568095823e-17 98.62386964 90.0 16.565454224302385 -90.0
58848 73480.0 7178.140000000002 2.235219577836326e-16 98.62386964 90.0 -79.43086101592475 6.591118897474355
58848 73490.0 7178.139999999999 3.646803349434185e-17 98.62386964 90.0 -162.24493846120336 90.0
58848 73500.0 7178.140000000002 2.2441115833201334e-16 98.62386964 90.0 -63.321842491280165 -8.328292312675986
58848 73510.0 7178.140000000002 2.254008128586633e-16 98.62386964 90.0 -61.15557074607109 -9.899760400637932
58848 73520.0 7178.14 3.660430272570057e-18 98.62386964 90.0 19.539472510538086 -90.0
58848 73530.0 7178.139999999999 1.1292989577811725e-16 98.62386964 90.0 99.58823892800338 -169.45396276021808
58848 73540.0 7178.140000000001 8.068880102141245e-17 98.62386964 90.0 20.729079825032315 -90.0
58848 73550.0 7178.139999999999 1.213900336897575e-16 98.62386964 90.0 -224.82390865800437 156.1477921402839
58848 73560.0 7178.139999999998 3.4664526623849514e-16 98.62386964 90.0 95.82903838680932 -163.91035124728265
58848 73570.0 7178.14 1.1353756430447974e-16 98.62386964 90.0 100.43077708329373 -167.91728628651995
58848 73580.0 7178.14 1.1135460812024118e-16 98.62386964 90.0 108.68077516030013 -175.57248070627912
58848 73590.0 7178.140000000003 2.2688906699295536e-16 98.62386964 90.0 -54.4356805216115 -11.861221367120361
58848 73600.0 7178.14 3.4337290950165773e-17 98.62386964 90.0 24.29790176851525 -90.0
58848 73610.0 7178.139999999999 1.133864501352902e-16 98.62386964 90.0 103.17205125553639 -168.27934582977392
58848 73620.0 7178.140000000003 2.246770570310509e-16 98.62386964 90.0 -55.73311878158809 -8.779372135402426
58848 73630.0 7178.14 1.519253092065882e-16 98.62386964 90.0 73.03321145947831 -136.95089871922158
58848 73640.0 7178.14 4.7141620233972704e-17 98.62386964 90.0 26.67711639750383 -90.0
58848 73650.0 7178.140000000002 2.2271393549990496e-16 98.62386964 90.0 -67.17125161049009 4.443171665241054
58848 73660.0 7178.140000000003 2.252528695659785e-16 98.62386964 90.0 -52.45151485025565 -9.681761437746177
58848 73670.0 7178.139999999997 3.339853058664728e-16 98.62386964 90.0 114.21152572961725 -175.74999836037196
58848 73680.0 7178.140000000002 2.290287042804466e-16 98.62386964 90.0 -46.75774169370701 -14.185927279800579
58848 73690.0 7178.140000000003 2.3847581443677175e-16 98.62386964 90.0 -38.9556557335337 -21.393209582726644
58848 73700.0 7178.14 1.0107044431869614e-17 98.62386964 90.0 30.245938340986637 -90.0
58848 73710.0 7178.140000000003 2.220495483212093e-16 98.62386964 90.0 -59.54157728000963 0.38231927824350576
58848 73720.0 7178.140000000003 2.2731190539747007e-16 98.62386964 90.0 -46.206038670137296 -12.358415674381707
58848 73730.0 7178.14 1.1258704390991804e-16 98.62386964 90.0 112.46680247149006 -170.43645315876194
58848 73740.0 7178.14 6.70045051149043e-17 98.62386964 90.0 32.62515296997533 -90.0
58848 73750.0 7178.140000000002 2.2204486922906627e-16 98.62386964 90.0 -56.691639925874554 -0.088403446902976
58848 73760.0 7178.140000000002 2.2228002860007593e-16 98.62386964 90.0 -58.82248676048775 2.637247044957323
58848 73770.0 7178.140000000003 2.3211122087201046e-16 98.62386964 90.0 -38.65433061187545 -16.93610544640776
58848 73780.0 7178.140000000001 1.0769906255738744e-16 98.62386964 90.0 35.00436759896381 -90.0
58848 73790.0 7178.14 1.110352914442854e-16 98.62386964 90.0 124.72277825793303 -179.123607001722
58848 73800.0 7178.140000000002 2.3532926132706757e-16 98.62386964 90.0 -34.462333921187124 -19.34369116535472
58848 73810.0 7178.14 2.715666389824063e-17 98.62386964 90.0 -143.2112214292947 90.0
58848 73820.0 7178.139999999997 3.331856589135639e-16 98.62386964 90.0 125.85380926966712 -178.47022704171462
58848 73830.0 7178.140000000002 2.299123965327624e-16 98.62386964 90.0 -36.989183868062035 -15.032430246738334
58848 73840.0 7178.140000000002 2.29651809807234e-16 98.62386964 90.0 -36.63840224328772 -14.788408214265532
58848 73850.0 7178.140000000003 2.2828280923021264e-16 98.62386964 90.0 -37.40668204726352 -13.425324753042506
58848 73860.0 7178.140000000002 2.460669738917427e-16 98.62386964 90.0 -24.709187602701572 -25.528015540357444
58848 73870.0 7178.140000000002 2.220452421154672e-16 98.62386964 90.0 -49.779661896657736 0.13726241084593632
58848 73880.0 7178.140000000002 2.224369623676417e-16 98.62386964 90.0 -45.643992353097694 -3.4036034754669835
58848 73890.0 7178.14 1.2583900277296946e-16 98.62386964 90.0 41.547207828682446 -89.99999999999999
58848 73900.0 7178.140000000002 2.2532580497387763e-16 98.62386964 90.0 -57.64785906354318 9.789870549472832
58848 73910.0 7178.139999999999 1.2556947462355078e-16 98.62386964 90.0 104.88396625155184 -152.14715110837506
58848 73920.0 7178.140000000002 2.2278650062598643e-16 98.62386964 90.0 -51.345573376201834 4.677192176625737
58848 73930.0 7178.140000000002 2.529065267957012e-16 98.62386964 90.0 -17.472148318849666 -28.601429223479204
58848 73940.0 7178.14 1.445149687014853e-16 98.62386964 90.0 -185.67495439692138 140.19618051183951
58848 73950.0 7178.140000000002 2.541818315932034e-16 98.62386964 90.0 -15.759683630484878 -29.12428659734976
58848 73960.0 7178.14 4.6311223020826976e-17 98.62386964 90.0 45.710833429412475 -90.0
58848 73970.0 7178.140000000003 2.232977698890885e-16 98.62386964 90.0 -49.76735725976832 6.072994346427922
58848 73980.0 7178.140000000002 2.51556458153152e-16 98.62386964 90.0 -15.067282560906623 -28.032276695186546
58848 73990.0 7178.140000000001 1.289061817498135e-17 98.62386964 90.0 47.49524440115383 -90.0
58848 74000.0 7178.14 1.287101925991506e-16 98.62386964 90.0 -191.5169919488926 149.60704000729368
58848 74010.0 7178.140000000003 2.257381428865423e-16 98.62386964 90.0 -30.936270777290673 -10.378877507061139
58848 74020.0 7178.14 1.6378157259825458e-16 98.62386964 90.0 49.279655372895306 -89.99999999999999
58848 74030.0 7178.140000000003 2.3356347850085486e-16 98.62386964 90.0 -22.056237729373088 -18.06930324048438
58848 74040.0 7178.140000000002 2.3226259698353915e-16 98.62386964 90.0 -22.47242973061288 -17.05830758199748
58848 74050.0 7178.140000000002 2.310117514525062e-16 98.62386964 90.0 -22.91961646558468 -16.01631718977855
58848 74060.0 7178.140000000002 2.660673779051514e-16 98.62386964 90.0 -4.909387616973214 -33.43174238114279
58848 74070.0 7178.140000000003 2.627881394557916e-16 98.62386964 90.0 -5.4136256481778355 -32.33270069269115
58848 74080.0 7178.140000000004 4.441079491907201e-16 98.62386964 90.0 -36.625175822851574 -0.5263468607701997
58848 74090.0 7178.14 3.4871729533352176e-17 98.62386964 90.0 -126.55671902637465 90.0
58848 74100.0 7178.140000000003 2.225628496273232e-16 98.62386964 90.0 -32.051138501824916 -3.910776867302622
58848 74110.0 7178.140000000003 2.2490183062024207e-16 98.62386964 90.0 -26.224415952243266 -9.142695759637045
58848 74120.0 7178.14 1.148357042044053e-16 98.62386964 90.0 -199.9653909874503 165.1930829328171
58848 74130.0 7178.14 1.1103411348257389e-16 98.62386964 90.0 -213.34179176113196 179.1642873637459
58848 74140.0 7178.140000000003 2.354314530513261e-16 98.62386964 90.0 -14.168289850427435 -19.41441088971141
58848 74150.0 7178.140000000002 2.245784055029927e-16 98.62386964 90.0 -24.373021249177047 -8.614875833714784
58848 74160.0 7178.140000000002 2.236128978474161e-16 98.62386964 90.0 -25.603293955312278 -6.789799470332329
58848 74170.0 7178.140000000003 4.715669428539795e-16 98.62386964 90.0 -12.142607405790365 -19.655682362607113
58848 74180.0 7178.140000000001 2.265674130074233e-16 98.62386964 90.0 -19.73600309090001 -11.467483020250361
58848 74190.0 7178.14 8.274330289259007e-18 98.62386964 90.0 -120.60868245390314 90.0
58848 74200.0 7178.14 1.1845759365442144e-16 98.62386964 90.0 129.57798222582431 -159.59186102248034
58848 74210.0 7178.140000000002 2.222714771347071e-16 98.62386964 90.0 -32.008023333592405 2.5889481941834993
58848 74220.0 7178.140000000002 2.234719843387714e-16 98.62386964 90.0 -22.344984194104317 -6.479287288057369
58848 74230.0 7178.14 9.764396928219471e-19 98.62386964 90.0 61.77053217508533 -90.0
58848 74240.0 7178.140000000003 2.2895103859210985e-16 98.62386964 90.0 -41.743496087360825 14.108831919693372
58848 74250.0 7178.140000000002 2.28103154573783e-16 98.62386964 90.0 -13.804910826974654 -13.234949683445668
58848 74260.0 7178.140000000002 2.310950806437889e-16 98.62386964 90.0 -10.356924020792347 -16.08813283238086
58848 74270.0 7178.14 2.951592432846713e-17 98.62386964 90.0 64.14974680407401 -90.0
58848 74280.0 7178.140000000001 2.270734009303775e-16 98.62386964 90.0 -13.174772435488636 -12.08067710319023
58848 74290.0 7178.14 3.2617732408021064e-17 98.62386964 90.0 -114.66064588143175 90.0
58848 74300.0 7178.140000000003 2.310622260618951e-16 98.62386964 90.0 -8.005980952410601 -16.059861271773922
58848 74310.0 7178.139999999997 3.355531718055023e-16 98.62386964 90.0 149.54986602615952 -173.02090459309701
58848 74320.0 7178.139999999999 1.1833344651837012e-16 98.62386964 90.0 136.8778058149785 -159.75404072466878
58848 74330.0 7178.140000000003 2.2230954685686004e-16 98.62386964 90.0 -25.078976141470594 2.7975448890274253
58848 74340.0 7178.139999999997 3.3370143969635207e-16 98.62386964 90.0 154.77947203313425 -176.4660996283303
58848 74350.0 7178.139999999999 1.112238237888292e-16 98.62386964 90.0 -197.64225506167003 176.55043112372118
58848 74360.0 7178.140000000003 2.220980699258034e-16 98.62386964 90.0 -19.239807639106125 -1.2572126415955762
58848 74370.0 7178.14 3.2338690219136716e-17 98.62386964 90.0 70.09778337654541 -90.0
58848 74380.0 7178.140000000004 4.449049721484052e-16 98.62386964 90.0 -22.7775945188899 3.470181552682527
58848 74390.0 7178.139999999999 1.0531622579565495e-16 98.62386964 90.0 71.28739069103963 -90.0
58848 74400.0 7178.140000000002 2.2275451901013773e-16 98.62386964 90.0 -22.693348988986216 4.575543337273092
58848 74410.0 7178.14 4.649136642815288e-17 98.62386964 90.0 -107.523001994466 90.0
58848 74420.0 7178.14 1.0719206052637772e-17 98.62386964 90.0 -106.92819833721889 90.0
58848 74430.0 7178.139999999999 3.8065442079721764e-17 98.62386964 90.0 73.66660532002834 -90.0
58848 74440.0 7178.140000000003 2.2207615923787354e-16 98.62386964 90.0 -16.704466561031694 0.9658755383071495
58848 74450.0 7178.140000000004 4.461784132395219e-16 98.62386964 90.0 -9.596976947313193 -5.546810418164228
