CIC_AEM_VERS = 1.0
CREATION_DATE = 2023-03-16T10:50:09.674Z
ORIGINATOR = CS Group

META_START
OBJECT_NAME = horus_eye_36
OBJECT_ID = horus_eye_36
CENTER_NAME = null
REF_FRAME_A = EME2000
REF_FRAME_B = SC_BODY_1
ATTITUDE_DIR = A2B
TIME_SYSTEM = UTC
START_TIME = 2019-12-31T19:00:00.0
STOP_TIME = 2019-12-31T20:40:53.0
ATTITUDE_TYPE = QUATERNION
QUATERNION_TYPE = LAST
META_STOP

58848 68400.0 -0.6304785902091627 -0.4212723256432382 -0.6394136155552691 0.12718727600488502
58848 68410.0 -0.6326567604463207 -0.4179940771429215 -0.638744821253274 0.13050451431704232
58848 68420.0 -0.6348178852055637 -0.4147045667558191 -0.6380588174446009 0.13381823648591992
58848 68430.0 -0.6369619062603673 -0.4114038831102046 -0.6373556226120407 0.13712835323091332
58848 68440.0 -0.639088765845027 -0.40809211513538957 -0.636635255701557 0.14043477536855772
58848 68450.0 -0.6411984066562144 -0.40476935205932757 -0.6358977361217755 0.14373741381493116
58848 68460.0 -0.6432907718545211 -0.4014356834062093 -0.6351430837434613 0.14703617958805448
58848 68470.0 -0.6453658050659907 -0.3980911989940515 -0.6343713188989827 0.15033098381028862
58848 68480.0 -0.647423450383637 -0.3947359889322763 -0.6335824623817643 0.1536217377107295
58848 68490.0 -0.6494636523689504 -0.391370143619284 -0.6327765354457267 0.15690835262759978
58848 68500.0 -0.6514863560533918 -0.38799375374001716 -0.6319535598047127 0.16019074001063707
58848 68510.0 -0.6534915069398735 -0.3846069102635172 -0.631113557631904 0.1634688114234805
58848 68520.0 -0.6554790510042273 -0.38120970444047386 -0.6302565515592227 0.16674247854605315
58848 68530.0 -0.6574489346966605 -0.37780222780076617 -0.6293825646767216 0.170011653176941
58848 68540.0 -0.6594011049431984 -0.37438457215099674 -0.6284916205319626 0.17327624723577034
58848 68550.0 -0.661335509147114 -0.3709568295720182 -0.6275837431293813 0.1765361727655804
58848 68560.0 -0.6632520951903454 -0.36751909241645225 -0.6266589569296418 0.179791341935193
58848 68570.0 -0.6651508114349004 -0.3640714533062013 -0.625717286848976 0.18304166704157912
58848 68580.0 -0.6670316067242467 -0.3606140051299531 -0.6247587582585136 0.18628706051222202
58848 68590.0 -0.6688944303846911 -0.35714684104067834 -0.6237833969835975 0.18952743490747617
58848 68600.0 -0.6707392322267447 -0.3536700544531201 -0.6227912293030888 0.19276270292292388
58848 68610.0 -0.6725659625464746 -0.35018373904127803 -0.6217822819486587 0.19599277739172688
58848 68620.0 -0.6743745721268438 -0.34668798873588363 -0.6207565821040668 0.199217571286975
58848 68630.0 -0.6761650122390366 -0.3431828977218699 -0.6197141574044317 0.20243699772403106
58848 68640.0 -0.6779372346437716 -0.3396685604358338 -0.6186550359354833 0.20565096996287163
58848 68650.0 -0.6796911915926018 -0.3361450715634916 -0.617579246232808 0.20885940141042397
58848 68660.0 -0.6814268358292008 -0.33261252603712826 -0.6164868172810796 0.21206220562289935
58848 68670.0 -0.6831441205906357 -0.32907101903303926 -0.6153777785132774 0.2152592963081219
58848 68680.0 -0.6848429996086277 -0.3255206459689662 -0.6142521598098943 0.21845058732785344
58848 68690.0 -0.6865234271107982 -0.3219615025015266 -0.6131099914981314 0.22163599270011455
58848 68700.0 -0.6881853578219018 -0.3183936845236362 -0.6119513043510809 0.22481542660150095
58848 68710.0 -0.6898287469650474 -0.31481728816192506 -0.6107761295868965 0.22798880336949576
58848 68720.0 -0.6914535502629026 -0.3112324097741486 -0.6095844988679534 0.2311560375047777
58848 68730.0 -0.6930597239388885 -0.3076391459465904 -0.608376444299994 0.23431704367352485
58848 68740.0 -0.6946472247183583 -0.30403759349146053 -0.6071519984312633 0.23747173670971292
58848 68750.0 -0.6962160098297628 -0.30042784944428735 -0.6059111942516331 0.24062003161741094
58848 68760.0 -0.6977660370058044 -0.296810011061302 -0.6046540651917112 0.2437618435730704
58848 68770.0 -0.6992972644845739 -0.2931841758168197 -0.6033806451219418 0.24689708792781115
58848 68780.0 -0.7008096510106767 -0.28955044140061215 -0.6020909683516935 0.2500256802097019
58848 68790.0 -0.7023031558363447 -0.2859089057152763 -0.6007850696283333 0.25314753612603613
58848 68800.0 -0.7037777387225334 -0.28225966687359605 -0.5994629841362918 0.2562625715656033
58848 68810.0 -0.7052333599400062 -0.27860282319589913 -0.598124747496115 0.2593707026009544
58848 68820.0 -0.7066699802704054 -0.27493847320740833 -0.5967703957635038 0.2624718454906642
58848 68830.0 -0.7080875610073077 -0.27126671563558635 -0.5953999654283434 0.2655659166815869
58848 68840.0 -0.7094860639572685 -0.2675876494074764 -0.59401349341372 0.26865283281110697
58848 68850.0 -0.7108654514408498 -0.2639013736470363 -0.5926110170749256 0.27173251070938564
58848 68860.0 -0.7122256862936357 -0.26020798767246844 -0.591192574198452 0.274804867401602
58848 68870.0 -0.713566731867234 -0.2565075909935432 -0.5897582030009724 0.27786982011018757
58848 68880.0 -0.7148885520302632 -0.2528002833089184 -0.5883079421283122 0.2809272862570575
58848 68890.0 -0.7161911111693265 -0.24908616450345297 -0.5868418306544069 0.2839771834658349
58848 68900.0 -0.7174743741899706 -0.24536533464551594 -0.5853599080802505 0.2870194295640707
58848 68910.0 -0.7187383065176316 -0.2416378939842898 -0.5838622143328307 0.29005394258545725
58848 68920.0 -0.719982874098567 -0.23790394294707032 -0.5823487897640525 0.2930806407720367
58848 68930.0 -0.7212080434007724 -0.23416358213655988 -0.5808196751496518 0.2960994425764041
58848 68940.0 -0.7224137814148853 -0.2304169123281578 -0.5792749116880969 0.299110266663904
58848 68950.0 -0.7236000556550749 -0.22666403446724476 -0.577714540999478 0.3021130319148226
58848 68960.0 -0.7247668341599163 -0.2229050496664629 -0.5761386051243862 0.30510765742657253
58848 68970.0 -0.7259140854932524 -0.21914005920299204 -0.5745471465227805 0.308094062515873
58848 68980.0 -0.7270417787450412 -0.2153691645158204 -0.5729402080728441 0.3110721667209238
58848 68990.0 -0.7281498835321873 -0.21159246720301228 -0.5713178330698289 0.31404188980357245
58848 69000.0 -0.7292383699993622 -0.20781006901897012 -0.5696800652248893 0.3170031517514769
58848 69010.0 -0.7303072088198073 -0.2040220718716931 -0.5680269486639042 0.3199558727802607
58848 69020.0 -0.7313563711961244 -0.2002285778200319 -0.5663585279262884 0.3228999733356627
58848 69030.0 -0.7323858288610521 -0.19642968907093827 -0.5646748479637924 0.3258353740956807
58848 69040.0 -0.733395554078227 -0.19262550797671193 -0.562975954139291 0.32876199597270817
58848 69050.0 -0.7343855196429306 -0.1888161370322423 -0.5612618922255623 0.33167976011566574
58848 69060.0 -0.7353556988828234 -0.18500167887224764 -0.5595327084040524 0.334588587912125
58848 69070.0 -0.7363060656586621 -0.18118223626850938 -0.5577884492636336 0.33748840099042676
58848 69080.0 -0.7372365943650048 -0.17735791212710345 -0.5560291617993467 0.3403791212217928
58848 69090.0 -0.7381472599309007 -0.17352880948562727 -0.5542548934111373 0.34326067072243055
58848 69100.0 -0.7390380378205658 -0.16969503151042414 -0.5524656919025766 0.34613297185563163
58848 69110.0 -0.7399089040340432 -0.16585668149380342 -0.5506616054795742 0.34899594723386385
58848 69120.0 -0.7407598351078504 -0.16201386285125766 -0.5488426827490801 0.35184951972085576
58848 69130.0 -0.7415908081156114 -0.15816667911867593 -0.5470089727177737 0.3546936124336749
58848 69140.0 -0.7424018006686743 -0.15431523394955493 -0.5451605247907446 0.35752814874480005
58848 69150.0 -0.7431927909167141 -0.1504596311122059 -0.5432973887701611 0.36035305228418496
58848 69160.0 -0.7439637575483223 -0.14659997448695866 -0.5414196148539279 0.3631682469413158
58848 69170.0 -0.7447146797915803 -0.14273636806336307 -0.539527253634334 0.36597365686726285
58848 69180.0 -0.7454455374146194 -0.1388689159373874 -0.5376203560966902 0.368769206476723
58848 69190.0 -0.7461563107261657 -0.13499772230861318 -0.5356989736179546 0.371554820450057
58848 69200.0 -0.7468469805760711 -0.1311228914774284 -0.5337631579653486 0.3743304237353177
58848 69210.0 -0.7475175283558286 -0.1272445278422169 -0.531812961294962 0.37709594155027365
58848 69220.0 -0.7481679359990744 -0.12336273589654588 -0.5298484361503484 0.3798512993844225
58848 69230.0 -0.7487981859820734 -0.11947762022635047 -0.5278696354611091 0.38259642300099983
58848 69240.0 -0.7494082613241932 -0.11558928550711571 -0.5258766125414663 0.38533123843897815
58848 69250.0 -0.7499981455883602 -0.11169783650105679 -0.5238694210888284 0.3880556720150599
58848 69260.0 -0.7505678228815024 -0.10780337805429605 -0.5218481151823419 0.3907696503256637
58848 69270.0 -0.7511172778549788 -0.10390601509403806 -0.5198127492814342 0.3934731002489001
58848 69280.0 -0.7516464957049916 -0.10000585262574314 -0.5177633782243475 0.3961659489465436
58848 69290.0 -0.752155462172986 -0.09610299573029779 -0.5157000572266605 0.39884812386599405
58848 69300.0 -0.7526441635460339 -0.09219754956118346 -0.5136228418798005 0.4015195527422314
58848 69310.0 -0.7531125866572033 -0.08828961934164388 -0.5115317881495467 0.4041801635997633
58848 69320.0 -0.7535607188859134 -0.08437931036184952 -0.509426952374521 0.4068298847545637
58848 69330.0 -0.7539885481582744 -0.08046672797606132 -0.5073083912646711 0.4094686448160047
58848 69340.0 -0.7543960629474129 -0.07655197759979179 -0.505176161899742 0.41209637268877974
58848 69350.0 -0.7547832522737821 -0.0726351647069651 -0.5030303217277385 0.41471299757481933
58848 69360.0 -0.7551501057054587 -0.06871639482707476 -0.500870928563377 0.4173184489751977
58848 69370.0 -0.7554966133584223 -0.06479577354234117 -0.4986980405865282 0.4199126566920336
58848 69380.0 -0.7558227658968233 -0.060873406484866374 -0.4965117163406493 0.42249555083038054
58848 69390.0 -0.7561285545332331 -0.05694939933378841 -0.494312014731207 0.4250670618001106
58848 69400.0 -0.7564139710288823 -0.05302385781243366 -0.4920989950240899 0.4276271203177888
58848 69410.0 -0.756679007693881 -0.04909688768546873 -0.4898727168440126 0.4301756574085404
58848 69420.0 -0.7569236573874274 -0.04516859475605068 -0.48763324017290793 0.43271260440790854
58848 69430.0 -0.7571479135179995 -0.041239084862976304 -0.4853806253483122 0.435237892963705
58848 69440.0 -0.7573517700435329 -0.03730846387783079 -0.4831149330617388 0.4377514550378512
58848 69450.0 -0.7575352214715836 -0.03337683770213523 -0.4808362243570429 0.44025322290821184
58848 69460.0 -0.7576982628594755 -0.029444312264493167 -0.47854456062877787 0.4427431291704188
58848 69470.0 -0.7578408898144345 -0.025510993517736346 -0.4762400036205389 0.4452211067396884
58848 69480.0 -0.757963098493706 -0.021576987436071258 -0.47392261542330283 0.4476870888526273
58848 69490.0 0.7580648856046589 0.017642400012221792 0.4715924584737514 -0.4501410090690328
58848 69500.0 0.7581462484048741 0.01370733725457641 0.46924959555259244 -0.4525828012736814
58848 69510.0 0.7582071847022187 0.009771905184328428 0.4668940897828656 -0.4550123996781115
58848 69520.0 0.7582476928549045 0.0058362098326232925 0.4645260046282442 -0.45742973882239507
58848 69530.0 0.7582677717715325 0.0019003572376985254 0.4621454038913229 -0.459834753576902
58848 69540.0 0.7582674209111232 -0.0020355465579708514 0.459752351711901 -0.4622273791440536
58848 69550.0 0.7582466402831288 -0.005971395510531216 0.457346912565252 -0.46460755106007035
58848 69560.0 0.7582054304474364 -0.009907083577605216 0.454929151260389 -0.46697520519670666
58848 69570.0 0.7581437925143493 -0.013842504721151996 0.45249913293831584 -0.4693302777629805
58848 69580.0 0.7580617281445599 -0.01777755291032047 0.45005692307027506 -0.47167270530689037
58848 69590.0 0.7579592395491032 -0.021712122124309632 0.4476025874559805 -0.47400242471712667
58848 69600.0 0.7578363294892986 -0.025646106355221913 0.44513619222184814 -0.47631937322477025
58848 69610.0 0.7576930012766736 -0.02957939961092192 0.44265780381921066 -0.4786234884049856
58848 69620.0 0.757529258772877 -0.03351189591789001 0.4401674890225307 -0.4809147081787002
58848 69630.0 0.7573451063895729 -0.037443489324079586 0.437665314927599 -0.48319297081428003
58848 69640.0 0.7571405490883226 -0.041374073901769316 0.4351513489497286 -0.48545821492918995
58848 69650.0 0.7569155923804515 -0.04530354375041981 0.4326256588219369 -0.48771037949165
58848 69660.0 0.7566702423268988 -0.04923179299952421 0.43008831259312197 -0.4899494038222776
58848 69670.0 0.7564045055380567 -0.0531587158114631 0.427539378626228 -0.4921752275957243
58848 69680.0 0.7561183891735899 -0.05708420638435346 0.4249789255964051 -0.4943877908422995
58848 69690.0 0.7558119009422446 -0.061008158954902164 0.4224070224891573 -0.4965870339495874
58848 69700.0 0.7554850491016393 -0.06493046780125293 0.41982373859848454 -0.49877289766405264
58848 69710.0 0.7551378424580436 -0.06885102724583625 0.41722914352501583 -0.5009453230926364
58848 69720.0 0.7547702903661399 -0.0727697316582162 0.41462330717413415 -0.5031042517043438
58848 69730.0 0.754382402728772 -0.0766864754579362 0.4120062997540926 -0.5052496253318205
58848 69740.0 0.7539741899966782 -0.08060115311736434 0.40937819177412305 -0.5073813861729197
58848 69750.0 0.7535456631682095 -0.08451365916453546 0.40673905404253596 -0.5094994767922605
58848 69760.0 0.7530968337890332 -0.08842388818599402 0.4040889576648137 -0.5116038401227736
58848 69770.0 0.7526277139518224 -0.09233173482963343 0.40142797404169384 -0.5136944194672406
58848 69780.0 0.7521383162959296 -0.09623709380753492 0.3987561748672452 -0.5157711584998206
58848 69790.0 0.751628654007046 -0.10013985989880379 0.3960736321269375 -0.517834001267568
58848 69800.0 0.7510987408168477 -0.10403992795240524 0.39338041809570046 -0.5198828921919397
58848 69810.0 0.7505485910026235 -0.10793719288999641 0.39067660533597753 -0.5219177760702934
58848 69820.0 0.7499782193868922 -0.11183154970875825 0.3879622666957701 -0.5239385980773742
58848 69830.0 0.7493876413370018 -0.11572289348422397 0.3852374753066754 -0.5259453037667917
58848 69840.0 0.7487768727647163 -0.11961111937310659 0.3825023045819158 -0.5279378390724873
58848 69850.0 0.748145930125787 -0.12349612261612326 0.37975682821436096 -0.5299161503101906
58848 69860.0 0.7474948304195091 -0.12737779854081782 0.3770011201745424 -0.531880184178866
58848 69870.0 0.7468235911882627 -0.13125604256438106 0.3742352547086603 -0.5338298877621487
58848 69880.0 0.7461322305170415 -0.13513075019646859 0.3714593063365833 -0.5357652085297705
58848 69890.0 0.7454207670329649 -0.13900181704201567 0.36867334984984096 -0.5376860943389749
58848 69900.0 0.7446892199047767 -0.14286913880405044 0.3658774603096079 -0.539592493435922
58848 69910.0 0.7439376088423274 -0.1467326112865036 0.36307171304468244 -0.541484354457083
58848 69920.0 0.7431659540960447 -0.15059213039701572 0.36025618364945655 -0.5433616264306241
58848 69930.0 0.7423742764563861 -0.15444759214974155 0.3574309479818788 -0.54522425877778
58848 69940.0 0.7415625972532812 -0.1582988926681531 0.354596082161411 -0.547072201314216
58848 69950.0 0.740730938355555 -0.16214592818783582 0.3517516625669777 -0.5489054042513802
58848 69960.0 0.7398793221703388 -0.16598859505928687 0.34889776583490706 -0.5507238181978463
58848 69970.0 0.7390077716424677 -0.1698267897507056 0.34603446885686767 -0.5525273941606421
58848 69980.0 0.738116310253861 -0.17366040885078493 0.34316184877779526 -0.5543160835465716
58848 69990.0 0.7372049620228913 -0.17748934907149555 0.3402799829938161 -0.5560898381635222
58848 70000.0 0.7362737515037354 -0.1813135072508709 0.33738894915015943 -0.5578486102217655
58848 70010.0 0.7353227037857138 -0.18513278035578407 0.33448882513906775 -0.5595923523352426
58848 70020.0 0.7343518444926151 -0.1889470654847268 0.3315796890976963 -0.5613210175228425
58848 70030.0 0.7333611997820049 -0.1927562598705789 0.3286616194060096 -0.5630345592096665
58848 70040.0 0.7323507963445206 -0.1965602608833798 0.32573469468466787 -0.5647329312282845
58848 70050.0 0.731320661403154 -0.200358966033091 0.32279899379291066 -0.5664160878199775
58848 70060.0 0.7302708227125158 -0.20415227297236038 0.31985459582643017 -0.5680839836359719
58848 70070.0 0.7292013085580897 -0.20794007949927668 0.31690158011524217 -0.5697365737386594
58848 70080.0 0.7281121477554687 -0.21172228356012582 0.31394002622154676 -0.57137381360281
58848 70090.0 0.72700336964958 -0.2154987832521381 0.31097001393758683 -0.5729956591167696
58848 70100.0 0.7258750041138933 -0.2192694768262362 0.3079916232834957 -0.57460206658365
58848 70110.0 0.7247270815496168 -0.22303426268977372 0.3050049345051442 -0.5761929927225051
58848 70120.0 0.7235596328848775 -0.2267930394092755 0.3020100280719752 -0.577768394669498
58848 70130.0 0.7223726895738886 -0.23054570571316746 0.299006984674839 -0.5793282299790549
58848 70140.0 0.7211662835961009 -0.23429216049450774 0.29599588522381615 -0.5808724566250095
58848 70150.0 0.7199404474553425 -0.23803230281370866 0.2929768108460403 -0.5824010330017346
58848 70160.0 0.7186952141789422 -0.2417660319012583 0.2899498428835104 -0.5839139179252638
58848 70170.0 0.7174306173168399 -0.24549324716043366 0.2869150628908998 -0.5854110706344006
58848 70180.0 0.716146690940683 -0.2492138481700122 0.2838725526333593 -0.5868924507918165
58848 70190.0 0.7148434696429072 -0.25292773468697693 0.28082239408431375 -0.5883580184851385
58848 70200.0 0.7135209885358065 -0.2566348066492175 0.2777646694232534 -0.5898077342280236
58848 70210.0 0.7121792832505855 -0.26033496417822605 0.27469946103352033 -0.5912415589612231
58848 70220.0 0.7108183899363997 -0.26402810758178796 0.2716268515000881 -0.5926594540536354
58848 70230.0 0.7094383452593824 -0.2677141373566684 0.2685469236073373 -0.5940613813033457
58848 70240.0 0.708039186401656 -0.27139295419129256 0.26545976033682456 -0.5954473029386562
58848 70250.0 0.70662095106033 -0.27506445896842174 0.2623654448650472 -0.5968171816191036
58848 70260.0 0.7051836774464866 -0.27872855276782393 0.25926406056120205 -0.5981709804364647
58848 70270.0 0.7037274042841494 -0.28238513686893874 0.2561556909849397 -0.5995086629157516
58848 70280.0 0.702252170809242 -0.28603411275353724 0.2530404198841122 -0.6008301930161934
58848 70290.0 0.7007580167685291 -0.28967538210837623 0.24991833119251775 -0.6021355351322085
58848 70300.0 0.699244982418547 -0.2933088468278476 0.24678950902763844 -0.6034246540943627
58848 70310.0 0.6977131085245181 -0.2969344090166207 0.24365403768837465 -0.6046975151703174
58848 70320.0 0.6961624363592531 -0.30055197099228065 0.2405120016527732 -0.6059540840657652
58848 70330.0 0.6945930077020385 -0.30416143528795975 0.23736348557575165 -0.6071943269253544
58848 70340.0 0.6930048648375113 -0.3077627046549636 0.23420857428681718 -0.6084182103335999
58848 70350.0 0.6913980505545202 -0.31135568206539127 0.23104735278778124 -0.609625701315785
58848 70360.0 0.6897726081449713 -0.3149402707147496 0.2278799062504696 -0.6108167673388488
58848 70370.0 0.6881285814026632 -0.3185163740245611 0.22470632001442692 -0.6119913763122632
58848 70380.0 0.6864660146221067 -0.3220838956449662 0.2215266795846182 -0.6131494965888972
58848 70390.0 0.6847849525973304 -0.3256427394573194 0.21834107062912464 -0.6142910969658699
58848 70400.0 0.6830854406206757 -0.3291928095767784 0.21514957897683562 -0.6154161466853909
58848 70410.0 0.6813675244815746 -0.3327340103548881 0.2119522906151361 -0.616524615435589
58848 70420.0 0.6796312504653168 -0.336266246382157 0.20874929168759024 -0.6176164733513295
58848 70430.0 0.6778766653518034 -0.3397894224906287 0.20554066849162012 -0.6186916910150176
58848 70440.0 0.6761038164142851 -0.3433034437564449 0.20232650747618047 -0.6197502394573924
58848 70450.0 0.6743127514180896 -0.3468082155024037 0.1991068952394305 -0.6207920901583062
58848 70460.0 0.672503518619334 -0.3503036433005102 0.1958819185263994 -0.6218172150474938
58848 70470.0 0.6706761667636251 -0.35378963297452054 0.19265166422664995 -0.6228255865053284
58848 70480.0 0.6688307450847463 -0.35726609060247927 0.1894162193719375 -0.6238171773635656
58848 70490.0 0.6669673033033303 -0.3607329225192502 0.18617567113386474 -0.6247919609060756
58848 70500.0 0.6650858916255199 -0.3641900353190393 0.18293010682153354 -0.6257499108695633
58848 70510.0 0.6631865607416153 -0.3676373358579126 0.17967961387919185 -0.6266910014442753
58848 70520.0 0.6612693618247091 -0.37107473125630375 0.17642427988387857 -0.6276152072746954
58848 70530.0 0.6593343465293053 -0.37450212890151846 0.17316419254306356 -0.6285225034602285
58848 70540.0 0.6573815669899314 -0.3779194364502285 0.1698994396922846 -0.6294128655558702
58848 70550.0 0.6554110758197292 -0.38132656183095975 0.1666301092927807 -0.6302862695728665
58848 70560.0 0.6534229261090414 -0.38472341324657405 0.16335628942912278 -0.6311426919793596
58848 70570.0 0.6514171714239779 -0.3881098991767404 0.1600780683068396 -0.6319821097010223
58848 70580.0 0.6493938658049753 -0.39148592838040264 0.15679553425004186 -0.632804500121679
58848 70590.0 0.6473530637653385 -0.39485140989823686 0.15350877569904237 -0.6336098410839159
58848 70600.0 0.6452948202897743 -0.3982062530551021 0.1502178812079732 -0.6343981108896773
58848 70610.0 0.6432191908329076 -0.40155036746248346 0.14692293944239954 -0.6351692883008506
58848 70620.0 0.6411262313177895 -0.4048836630209279 0.14362403917693156 -0.6359233525398382
58848 70630.0 0.6390159981343888 -0.4082060499224707 0.14032126929283156 -0.6366602832901176
58848 70640.0 0.636888548138074 -0.4115174386530563 0.13701471877562024 -0.6373800606967885
58848 70650.0 0.6347439386480809 -0.4148177399949491 0.13370447671267818 -0.6380826653671082
58848 70660.0 0.6325822274459679 -0.41810686502913785 0.13039063229084696 -0.6387680783710135
58848 70670.0 0.6304034727740596 -0.4213847251377312 0.12707327479402458 -0.6394362812416312
58848 70680.0 0.6282077333338784 -0.42465123200634497 0.12375249360076133 -0.6400872559757753
58848 70690.0 0.6259950682845612 -0.427906297626482 0.12042837818185081 -0.6407209850344323
58848 70700.0 0.6237655372412669 -0.4311498342979035 0.11710101809791972 -0.6413374513432337
58848 70710.0 0.6215192002735694 -0.434381754630991 0.11377050299701494 -0.6419366382929163
58848 70720.0 0.61925611790384 -0.4376019715491021 0.11043692261218768 -0.6425185297397685
58848 70730.0 0.6169763511056159 -0.44081039829091556 0.10710036675907636 -0.6430831100060671
58848 70740.0 0.6146799613019577 -0.4440069484127692 0.10376092533348659 -0.6436303638804984
58848 70750.0 0.6123670103637948 -0.4471915357909895 0.10041868830896897 -0.6441602766185681
58848 70760.0 0.610037560608258 -0.45036407462421096 0.09707374573439512 -0.6446728339429995
58848 70770.0 0.6076916747970008 -0.45352447943568847 0.09372618773153138 -0.6451680220441167
58848 70780.0 0.6053294161345082 -0.4566726650756003 0.09037610449261092 -0.6456458275802182
58848 70790.0 0.602950848266394 -0.4598085467233422 0.08702358627790352 -0.6461062376779351
58848 70800.0 0.600556035277686 -0.462932039889812 0.08366872341328356 -0.646549239932579
58848 70810.0 0.5981450416910996 -0.4660430604196876 0.08031160628779707 -0.6469748224084751
58848 70820.0 0.5957179324652986 -0.4691415244936927 0.07695232535122543 -0.647382973639285
58848 70830.0 0.5932747729931453 -0.4722273486308555 0.07359097111164938 -0.6477736826283147
58848 70840.0 0.5908156290999402 -0.475300449690759 0.0702276341330095 -0.6481469388488109
58848 70850.0 0.5883405670416457 -0.4783607448757795 0.06686240503266733 -0.6485027322442456
58848 70860.0 0.5858496535031033 -0.48140815173331847 0.06349537447896272 -0.6488410532285857
58848 70870.0 0.5833429555962357 -0.484442588158023 0.060126633188771865 -0.6491618926865524
58848 70880.0 0.5808205408582394 -0.4874639723939996 0.05675627192506275 -0.6494652419738661
58848 70890.0 0.5782824772497644 -0.4904722230370151 0.05338438149444965 -0.6497510929174796
58848 70900.0 0.5757288331530835 -0.4934672590366911 0.050011052744746806 -0.6500194378157981
58848 70910.0 0.5731596773702496 -0.49644899969868705 0.04663637656252084 -0.6502702694388872
58848 70920.0 0.5705750791212431 -0.49941736468687514 0.04326044387064153 -0.6505035810286667
58848 70930.0 0.5679751080421046 -0.5023722740255032 0.03988334562583254 -0.6507193662990941
58848 70940.0 0.5653598341830615 -0.5053136481013519 0.0365051728162208 -0.6509176194363324
58848 70950.0 0.5627293280066388 -0.5082414076658776 0.033126016458884834 -0.6510983350989079
58848 70960.0 0.5600836603857611 -0.5111554738373475 0.029745967597402424 -0.6512615084178539
58848 70970.0 0.5574229026018431 -0.5140557681029676 0.026365117299397826 -0.6514071349968413
58848 70980.0 0.5547471263428696 -0.5169422123209947 0.022983556654088473 -0.6515352109122978
58848 70990.0 0.5520564037014628 -0.5198147287228434 0.019601376769830234 -0.6516457327135131
58848 71000.0 0.5493508071729418 -0.5226732399151818 0.01621866877166299 -0.6517386974227318
58848 71010.0 0.5466304096533675 -0.5255176688820155 0.012835523798855353 -0.6518141025352344
58848 71020.0 0.5438952844375794 -0.5283479389867631 0.009452033002449456 -0.651871946019404
58848 71030.0 0.5411455052172213 -0.5311639739743219 0.00606828754280434 -0.6519122263167811
58848 71040.0 0.5383811460787549 -0.533965697973121 0.002684378587140991 -0.6519349423421059
58848 71050.0 0.5356022815014645 -0.5367530354971657 -6.99602692914815E-4 -0.6519400934833478
58848 71060.0 0.5328089863554498 -0.539525911448073 -0.004083565123789083 -0.6519276796017207
58848 71070.0 0.530001335899609 -0.5422842511170922 -0.007467417532415081 -0.6518977010316885
58848 71080.0 0.5271794057796111 -0.5450279801871204 -0.010851068748690672 -0.6518501585809543
58848 71090.0 0.5243432720258575 -0.5477570247347026 -0.014234427607934268 -0.65178505353044
58848 71100.0 0.5214930110514339 -0.550471311232025 -0.017617402953341313 -0.6517023876342511
58848 71110.0 0.5186286996500516 -0.5531707665488954 -0.02099990363844016 -0.6516021631196295
58848 71120.0 0.5157504149939778 -0.5558553179547134 -0.024381838529547718 -0.6514843826868939
58848 71130.0 0.5128582346319573 -0.5585248931204302 -0.027763116508224404 -0.6513490495093663
58848 71140.0 0.5099522364871228 -0.5611794201204973 -0.03114364647373056 -0.6511961672332872
58848 71150.0 0.5070324988548941 -0.5638188274348043 -0.03452333734547976 -0.6510257399777173
58848 71160.0 0.5040991004008712 -0.566443043950606 -0.03790209806549256 -0.6508377723344259
58848 71170.0 0.5011521201587134 -0.5690519989644378 -0.041279837600850335 -0.6506322693677677
58848 71180.0 0.49819163752800877 -0.5716456221840214 -0.0446564649461484 -0.6504092366145469
58848 71190.0 0.49521773227213706 -0.574223843730159 -0.04803188912594757 -0.6501686800838662
58848 71200.0 0.4922304845161193 -0.576786594138614 -0.0514060191972246 -0.6499106062569673
58848 71210.0 0.48922997474446017 -0.579333804361985 -0.05477876425182288 -0.6496350220870541
58848 71220.0 0.48621628379897797 -0.5818654057715646 -0.05815003341890265 -0.6493419349991071
58848 71230.0 0.48318949287662727 -0.5843813301591895 -0.06151973586738842 -0.649031352889682
58848 71240.0 0.48014968352731185 -0.5868815097390767 -0.06488778080841576 -0.6487032841266978
58848 71250.0 0.4770969376516874 -0.5893658771496513 -0.06825407749777798 -0.6483577375492109
58848 71260.0 0.4740313374989533 -0.5918343654553606 -0.07161853523837165 -0.6479947224671774
58848 71270.0 0.4709529656646381 -0.5942869081484784 -0.07498106338263928 -0.6476142486612017
58848 71280.0 0.4678619050883746 -0.5967234391508953 -0.0783415713350117 -0.6472163263822734
58848 71290.0 0.46475823905166447 -0.599143892815901 -0.08169996855434909 -0.6468009663514909
58848 71300.0 0.4616420511756333 -0.6015482039299509 -0.08505616455638061 -0.6463681797597729
58848 71310.0 0.45851342541877954 -0.6039363077144253 -0.08841006891614286 -0.645917978267556
58848 71320.0 0.45537244607471183 -0.606308139827373 -0.09176159127041426 -0.6454503740044819
58848 71330.0 0.45221919776987807 -0.6086636363652455 -0.09511064132015118 -0.6449653795690693
58848 71340.0 0.4490537654612837 -0.6110027338646189 -0.09845712883292095 -0.6444630080283753
58848 71350.0 0.4458762344342049 -0.6133253693039036 -0.1018009636453329 -0.6439432729176428
58848 71360.0 0.4426866902998901 -0.6156314801050422 -0.10514205566546626 -0.6434061882399361
58848 71370.0 0.43948521899325327 -0.6179210041351952 -0.10848031487529869 -0.642851768465764
58848 71380.0 0.43627190677055805 -0.6201938797084161 -0.11181565133313183 -0.6422800285326888
58848 71390.0 0.43304684020709405 -0.6224500455873127 -0.11514797517601438 -0.6416909838449252
58848 71400.0 0.4298101061948451 -0.6246894409846957 -0.11847719662216223 -0.6410846502729243
58848 71410.0 0.4265617919401479 -0.6269120055652194 -0.12180322597337824 -0.6404610441529464
58848 71420.0 0.4233019849613412 -0.6291176794470047 -0.12512597361746938 -0.6398201822866207
58848 71430.0 0.42003077308640896 -0.6313064032032539 -0.12844535003066068 -0.6391620819404927
58848 71440.0 0.4167482444506136 -0.6334781178638513 -0.1317612657800071 -0.6384867608455593
58848 71450.0 0.41345448749412206 -0.6356327649169515 -0.13507363152580296 -0.6377942371967904
58848 71460.0 0.4101495909596227 -0.6377702863105572 -0.13838235802398902 -0.6370845296526393
58848 71470.0 0.4068336438899334 -0.6398906244540818 -0.14168735612855798 -0.6363576573345395
58848 71480.0 0.40350673562560296 -0.6419937222199027 -0.1449885367939553 -0.6356136398263902
58848 71490.0 0.40016895580250567 -0.6440795229448986 -0.1482858110774781 -0.6348524971740275
58848 71500.0 0.3968203943494238 -0.6461479704319774 -0.15157909014167167 -0.634074249884686
58848 71510.0 0.3934611414856265 -0.6481990089515903 -0.15486828525672441 -0.6332789189264442
58848 71520.0 0.390091287718437 -0.6502325832432326 -0.15815330780285677 -0.6324665257276617
58848 71530.0 0.386710923840797 -0.6522486385169335 -0.16143406927270912 -0.6316370921764002
58848 71540.0 0.3833201409288184 -0.6542471204547304 -0.1647104812737267 -0.6307906406198347
58848 71550.0 0.37991903033932967 -0.6562279752121357 -0.16798245553054164 -0.6299271938636509
58848 71560.0 0.3765076837074145 -0.6581911494195842 -0.17124990388735092 -0.6290467751714313
58848 71570.0 0.37308619294394385 -0.6601365901838726 -0.17451273831029107 -0.6281494082640275
58848 71580.0 0.36965465023309896 -0.6620642450895844 -0.17777087088981003 -0.6272351173189226
58848 71590.0 0.36621314802988686 -0.663974062200502 -0.181024213843037 -0.626303926969578
58848 71600.0 0.36276177905765045 -0.6658659900610064 -0.18427267951614648 -0.6253558623047709
58848 71610.0 0.35930063630557 -0.6677399776974628 -0.1875161803867193 -0.6243909488679185
58848 71620.0 0.3558298130261586 -0.6695959746195947 -0.1907546290661019 -0.6234092126563883
58848 71630.0 0.3523494027327474 -0.6714339308218435 -0.1939879383017605 -0.6224106801207997
58848 71640.0 0.348859499196968 -0.6732537967847166 -0.1972160209796319 -0.6213953781643098
58848 71650.0 0.3453601964462261 -0.6750555234761214 -0.20043879012647006 -0.6203633341418889
58848 71660.0 0.3418515887611673 -0.6768390623526849 -0.2036561589121894 -0.6193145758595846
58848 71670.0 0.33833377067313697 -0.6786043653610644 -0.20686804065220582 -0.6182491315737706
58848 71680.0 0.3348068369616333 -0.6803513849392401 -0.21007434880977022 -0.617167029990387
58848 71690.0 0.3312708826517548 -0.6820800740177967 -0.213274996998301 -0.6160683002641661
58848 71700.0 0.3277260030116389 -0.6837903860211924 -0.21646989898371083 -0.614952971997848
58848 71710.0 0.32417229354989496 -0.6854822748690126 -0.2196589686867315 -0.6138210752413814
58848 71720.0 0.3206098500130317 -0.6871556949772134 -0.222842120185232 -0.6126726404911147
58848 71730.0 0.31703876838287764 -0.6888106012593476 -0.22601926771653313 -0.611507698688975
58848 71740.0 0.3134591448739954 -0.6904469491277802 -0.2291903256797191 -0.6103262812216335
58848 71750.0 0.3098710759310875 -0.6920646944948905 -0.2323552086379434 -0.6091284199196602
58848 71760.0 0.30627465822639954 -0.6936637937742594 -0.23551383132073136 -0.6079141470566664
58848 71770.0 0.3026699886571161 -0.6952442038818425 -0.23866610862627627 -0.606683495348435
58848 71780.0 0.2990571643427488 -0.6968058822371335 -0.2418119556237328 -0.6054364979520396
58848 71790.0 0.2954362826225198 -0.6983487867643089 -0.24495128755550633 -0.6041731884649498
58848 71800.0 0.2918074410527394 -0.6998728758933639 -0.24808401983953554 -0.6028936009241275
58848 71810.0 0.2881707374041781 -0.7013781085612297 -0.2512100680715706 -0.601597769805109
58848 71820.0 0.2845262696594321 -0.7028644442128823 -0.2543293480274484 -0.6002857300210769
58848 71830.0 0.2808741360102828 -0.7043318428024342 -0.2574417756653617 -0.598957516921918
58848 71840.0 0.27721443485505165 -0.7057802647942135 -0.26054726712812337 -0.5976131662932724
58848 71850.0 0.27354726479594965 -0.7072096711638284 -0.263645738745425 -0.5962527143555686
58848 71860.0 0.26987272463642037 -0.7086200233992197 -0.26673710703609166 -0.5948761977630478
58848 71870.0 0.2661909133784768 -0.7100112835016978 -0.2698212887103316 -0.5934836536027761
58848 71880.0 0.26250193022003504 -0.7113834139869663 -0.27289820067198006 -0.5920751193936458
58848 71890.0 0.2588058745522426 -0.7127363778861333 -0.27596776002073725 -0.5906506330853636
58848 71900.0 0.25510284595679866 -0.7140701387467044 -0.2790298840544028 -0.5892102330574297
58848 71910.0 0.2513929442032718 -0.7153846606335689 -0.282084490271104 -0.5877539581181019
58848 71920.0 0.24767626924641215 -0.7166799081299647 -0.28513149637151847 -0.5862818475033513
58848 71930.0 0.24395292122345782 -0.7179558463384342 -0.28817082026109125 -0.5847939408758045
58848 71940.0 0.24022300045143807 -0.7192124408817635 -0.2912023800522468 -0.5832902783236756
58848 71950.0 0.23648660742446956 -0.7204496579039099 -0.294226094066595 -0.5817709003596856
58848 71960.0 0.2327438428110485 -0.7216674640709125 -0.2972418808371328 -0.5802358479199711
58848 71970.0 0.22899480745133854 -0.7228658265717921 -0.3002496591104382 -0.5786851623629811
58848 71980.0 0.225239602354455 -0.7240447131194335 -0.3032493478488596 -0.577118885468363
58848 71990.0 0.22147832869574244 -0.7252040919514564 -0.30624086623269875 -0.5755370594358372
58848 72000.0 0.21771108781404835 -0.726343931831071 -0.3092241336623897 -0.5739397268840594
58848 72010.0 0.2139379812089931 -0.7274642020479195 -0.3121990697606693 -0.5723269308494725
58848 72020.0 0.210159110538236 -0.7285648724189036 -0.3151655943747423 -0.5706987147851479
58848 72030.0 0.20637457761473618 -0.7296459132889973 -0.3181236275784416 -0.5690551225596139
58848 72040.0 0.20258448440400817 -0.7307072955320468 -0.32107308967438225 -0.5673961984556737
58848 72050.0 0.19878893302137574 -0.7317489905515544 -0.3240139011961077 -0.5657219871692128
58848 72060.0 0.1949880257292211 -0.7327709702814491 -0.3269459829102309 -0.5640325338079951
58848 72070.0 0.19118186493422928 -0.7337732071868431 -0.32986925581856935 -0.5623278838904464
58848 72080.0 0.1873705531846278 -0.7347556742647738 -0.332783641160274 -0.5606080833444289
58848 72090.0 0.18355419316742524 -0.7357183450449304 -0.3356890604139503 -0.5588731785060036
58848 72100.0 0.17973288770564438 -0.7366611935903681 -0.3385854352997747 -0.5571232161181817
58848 72110.0 0.175906739755552 -0.7375841944982064 -0.3414726877816028 -0.5553582433296657
58848 72120.0 0.17207585240388337 -0.7384873229003142 -0.3443507400690726 -0.5535783076935783
58848 72130.0 0.16824032886506662 -0.7393705544639778 -0.34721951461970063 -0.5517834571661818
58848 72140.0 0.16440027247844136 -0.7402338653925595 -0.35007893414096963 -0.5499737401055861
58848 72150.0 0.16055578670547463 -0.7410772324261363 -0.3529289215924125 -0.5481492052704454
58848 72160.0 0.15670697512697257 -0.7419006328421284 -0.35576940018768793 -0.5463099018186444
58848 72170.0 0.1528539414402898 -0.7427040444559085 -0.3586002933966485 -0.5444558793059744
58848 72180.0 0.14899678945653672 -0.7434874456214041 -0.36142152494740254 -0.542587187684798
58848 72190.0 0.14513562309778177 -0.744250815231676 -0.36423301882836995 -0.540703877302703
58848 72200.0 0.14127054639425105 -0.7449941327194904 -0.3670346992903296 -0.5388059989011457
58848 72210.0 0.13740166348152535 -0.7457173780578709 -0.3698264908484607 -0.5368936036140843
58848 72220.0 0.13352907859773608 -0.7464205317606392 -0.3726083182843753 -0.5349667429666014
58848 72230.0 0.12965289608075564 -0.74710357488294 -0.37538010664814625 -0.533025468873515
58848 72240.0 0.12577322036538552 -0.7477664890217508 -0.378141781260326 -0.5310698336379801
58848 72250.0 0.12189015598054379 -0.7484092563163784 -0.38089326771395915 -0.5290998899500796
58848 72260.0 0.1180038075464485 -0.7490318594489398 -0.3836344918765861 -0.5271156908854049
58848 72270.0 0.11411427977179942 -0.7496342816448294 -0.386365379892241 -0.5251172899036256
58848 72280.0 0.11022167745095514 -0.7502165066731692 -0.3890858581834422 -0.5231047408470492
58848 72290.0 0.10632610546111163 -0.7507785188472489 -0.3917958534531739 -0.5210780979391699
58848 72300.0 0.10242766875947462 -0.751320303024945 -0.3944952926868612 -0.519037415783209
58848 72310.0 0.09852647238043515 -0.7518418446091326 -0.3971841031543365 -0.5169827493606431
58848 72320.0 0.09462262143273543 -0.752343129548076 -0.39986221241180053 -0.514914154029722
58848 72330.0 0.09071622109663958 -0.7528241443358079 -0.40252954830377363 -0.5128316855239778
58848 72340.0 0.08680737662109818 -0.7532848760124942 -0.40518603896503963 -0.5107353999507235
58848 72350.0 0.08289619332091572 -0.7537253121647813 -0.40783161282258096 -0.5086253537895418
58848 72360.0 0.07898277657390913 -0.7541454409261331 -0.4104661985975095 -0.5065016038907617
58848 72370.0 0.0750672318180706 -0.7545452509771484 -0.41308972530698507 -0.5043642074739283
58848 72380.0 0.07114966454872629 -0.7549247315458671 -0.4157021222661292 -0.5022132221262602
58848 72390.0 0.06723018031569639 -0.75528387240806 -0.4183033190899272 -0.5000487058010996
58848 72400.0 0.06330888472044688 -0.7556226638875049 -0.4208932456951281 -0.49787071681634854
58848 72410.0 0.05938588341324772 -0.7559410968562457 -0.42347183230212987 -0.4956793138528992
58848 72420.0 0.05546128209032467 -0.756239162734841 -0.4260390094368617 -0.49347455595305195
58848 72430.0 0.051535186491014004 -0.7565168534925922 -0.42859470793265275 -0.4912565025189267
58848 72440.0 0.04760770239490989 -0.7567741616477623 -0.4311388589320994 -0.48902521331085924
58848 72450.0 0.04367893561901728 -0.7570110802677761 -0.4336713938889181 -0.4867807484457935
58848 72460.0 0.03974899201489893 -0.757227602969408 -0.4361922445697936 -0.4845231683956604
58848 72470.0 0.035817977465826774 -0.7574237239189523 -0.4387013430562142 -0.48225253398575096
58848 72480.0 0.031885997883924766 -0.7575994378323826 -0.4411986217463067 -0.47996890639307416
58848 72490.0 0.027953159207318164 -0.7577547399754925 -0.44368401335665336 -0.47767234714471096
58848 72500.0 0.024019567397277914 -0.7578896261640237 -0.4461574509241074 -0.47536291811615555
58848 72510.0 0.020085328435368238 -0.7580040927637787 -0.44861886780759513 -0.4730406815296499
58848 72520.0 0.016150548320587613 -0.7580981366907191 -0.4510681976899133 -0.4707056999525047
58848 72530.0 0.012215333066515219 -0.7581717554110481 -0.4535053745795149 -0.46835803629541584
58848 72540.0 0.008279788698453222 -0.7582249469412788 -0.4559303328122875 -0.4659977538107677
58848 72550.0 0.004344021250573294 -0.7582577098482879 -0.458343007053321 -0.46362491609093165
58848 72560.0 4.0813676305519804E-4 -0.7582700432493548 -0.46074333229867065 -0.4612395870665492
58848 72570.0 -0.003527758720767026 -0.7582619468121844 -0.4631312438771062 -0.4588418310048121
58848 72580.0 -0.007463559157263939 -0.7582334207549163 -0.4655066774518556 -0.456431712507729
58848 72590.0 -0.011399158505364802 -0.7581844658461195 -0.4678695690223364 -0.45400929651038785
58848 72600.0 -0.015334450729418836 -0.758115083404771 -0.47021985492588314 -0.45157464827920263
58848 72610.0 -0.01926932980204918 -0.7580252753002209 -0.4725574718394603 -0.4491278334101571
58848 72620.0 -0.02320368970701052 -0.7579150439521415 -0.47488235678136914 -0.44666891782703727
58848 72630.0 -0.027137424442046074 -0.7577843923304624 -0.47719444711294506 -0.44419796777965437
58848 72640.0 -0.031070428021740634 -0.7576333239552903 -0.47949368054024316 -0.44171504984206195
58848 72650.0 -0.03500259448038035 -0.7574618428968141 -0.48177999511572017 -0.43922023091075935
58848 72660.0 -0.038933817874805085 -0.7572699537751959 -0.48405332923990035 -0.4367135782028913
58848 72670.0 -0.04286399228726382 -0.7570576617604456 -0.4863136216630367 -0.4341951592544358
58848 72680.0 -0.04679301182826626 -0.7568249725722821 -0.4885608114867603 -0.4316650419183865
58848 72690.0 -0.05072077063943927 -0.7565718924799792 -0.490794838165722 -0.4291232943629217
58848 72700.0 -0.05464716289637653 -0.7562984283021965 -0.49301564150922345 -0.42656998506956983
58848 72710.0 -0.058572082811491066 -0.7560045874067959 -0.4952231616828383 -0.42400518283136296
58848 72720.0 -0.06249542463686274 -0.7556903777106428 -0.49741733921002407 -0.42142895675098546
58848 72730.0 -0.0664170826670914 -0.7553558076793933 -0.499598114973726 -0.41884137623890966
58848 72740.0 -0.07033695124214226 -0.7550008863272655 -0.5017654302179684 -0.41624251101152693
58848 72750.0 -0.07425492475019381 -0.7546256232167968 -0.5039192265494389 -0.41363243108926945
58848 72760.0 -0.07817089763048092 -0.7542300284585869 -0.50605944593906 -0.41101120679472436
58848 72770.0 -0.08208476437614264 -0.7538141127110244 -0.5081860307235546 -0.4083789087507368
58848 72780.0 -0.08599641953706241 -0.7533778871800003 -0.5102989236069979 -0.4057356078785093
58848 72790.0 -0.08990575772271026 -0.7529213636186061 -0.5123980676623626 -0.40308137539568967
58848 72800.0 -0.0938126736049798 -0.7524445543268165 -0.5144834063330508 -0.4004162828144543
58848 72810.0 -0.09771706192103019 -0.7519474721511585 -0.5165548834344198 -0.39774040193957816
58848 72820.0 -0.10161881747611912 -0.7514301304843658 -0.5186124431552944 -0.39505380486650243
58848 72830.0 -0.10551783514643871 -0.7508925432650165 -0.5206560300594719 -0.39235656397939167
58848 72840.0 -0.10941400988194522 -0.7503347249771595 -0.5226855890872134 -0.38964875194918414
58848 72850.0 -0.11330723670919314 -0.7497566906499219 -0.5247010655567304 -0.38693044173163216
58848 72860.0 -0.11719741073416069 -0.7491584558571066 -0.5267024051656555 -0.3842017065653377
58848 72870.0 -0.12108442714507771 -0.7485400367167706 -0.5286895539925072 -0.38146261996977887
58848 72880.0 -0.12496818121524672 -0.7479014498907922 -0.5306624584981406 -0.3787132557433304
58848 72890.0 -0.12884856830586827 -0.7472427125844212 -0.5326210655271928 -0.3759536879612726
58848 72900.0 -0.13272548386885785 -0.7465638425458156 -0.5345653223095124 -0.3731839909737975
58848 72910.0 -0.13659882344966398 -0.7458648580655636 -0.5364951764615827 -0.37040423940400496
58848 72920.0 -0.14046848269007972 -0.7451457779761909 -0.5384105759879323 -0.3676145081458934
58848 72930.0 -0.14433435733105845 -0.7444066216516523 -0.5403114692825367 -0.36481487236234017
58848 72940.0 -0.14819634321552 -0.7436474090068114 -0.5421978051302084 -0.362005407483077
58848 72950.0 -0.15205433629115875 -0.7428681604969021 -0.544069532707977 -0.35918618920265816
58848 72960.0 -0.15590823261324402 -0.7420688971169795 -0.5459266015864571 -0.3563572934784214
58848 72970.0 -0.15975792834742458 -0.7412496404013529 -0.5477689617312095 -0.35351879652844037
58848 72980.0 -0.16360331977252376 -0.7404104124230055 -0.5495965635040874 -0.35067077482947145
58848 72990.0 -0.1674443032833353 -0.7395512357930005 -0.5514093576645742 -0.34781330511489317
58848 73000.0 -0.17128077539341183 -0.7386721336598717 -0.5532072953711104 -0.34494646437264037
58848 73010.0 -0.17511263273785768 -0.7377731297089993 -0.5549903281824091 -0.3420703298431276
58848 73020.0 -0.17893977207611025 -0.7368542481619724 -0.5567584080587618 -0.3391849790171689
58848 73030.0 -0.18276209029472376 -0.7359155137759354 -0.558511487363333 -0.3362904896338903
58848 73040.0 -0.18657948441014416 -0.734956951842923 -0.5602495188634412 -0.33338693967863636
58848 73050.0 -0.19039185157148814 -0.7339785881891762 -0.561972455731835 -0.3304744073808663
58848 73060.0 -0.1941990890633115 -0.7329804491744483 -0.5636802515479524 -0.3275529712120487
58848 73070.0 -0.19800109430837698 -0.7319625616912937 -0.5653728602991722 -0.324622709883546
58848 73080.0 -0.20179776487041867 -0.7309249531643444 -0.5670502363820539 -0.321683702344494
58848 73090.0 -0.20558899845689987 -0.7298676515495701 -0.5687123346035652 -0.3187360277796764
58848 73100.0 -0.2093746929217722 -0.7287906853335252 -0.5703591101823018 -0.31577976560738835
58848 73110.0 -0.21315474626822575 -0.7276940835325818 -0.5719905187496919 -0.312814995477299
58848 73120.0 -0.21692905665143813 -0.726577875692147 -0.5736065163511929 -0.3098417972683041
58848 73130.0 -0.22069752238131576 -0.7254420918858683 -0.5752070594474744 -0.30686025108637605
58848 73140.0 -0.2244600419252378 -0.7242867627148216 -0.5767921049155927 -0.3038704372624028
58848 73150.0 -0.22821651391078934 -0.7231119193066882 -0.578361610050152 -0.30087243635002536
58848 73160.0 -0.23196683712849298 -0.721917593314915 -0.5799155325644547 -0.2978663291234662
58848 73170.0 -0.23571091053453444 -0.7207038169178629 -0.5814538305916406 -0.29485219657535544
58848 73180.0 -0.23944863325348767 -0.7194706228179387 -0.5829764626858155 -0.29183011991454555
58848 73190.0 -0.2431799045810309 -0.7182180442407142 -0.5844833878231686 -0.28880018056392526
58848 73200.0 -0.24690462398666052 -0.7169461149340316 -0.5859745654030756 -0.28576246015822454
58848 73210.0 -0.25062269111639784 -0.7156548691670941 -0.5874499552491941 -0.2827170405418179
58848 73220.0 -0.25433400579549603 -0.7143443417295419 -0.5889095176105463 -0.2796640037665156
58848 73230.0 -0.25803846803113706 -0.7130145679305155 -0.5903532131625892 -0.27660343208935534
58848 73240.0 -0.2617359780151266 -0.7116655835977043 -0.5917810030082745 -0.2735354079703846
58848 73250.0 -0.26542643612658096 -0.7102974250763816 -0.5931928486790957 -0.2704600140704415
58848 73260.0 -0.26910974293461476 -0.7089101292284244 -0.5945887121361267 -0.26737733324892443
58848 73270.0 -0.27278579920101736 -0.7075037334313212 -0.5959685557710442 -0.26428744856156117
58848 73280.0 -0.2764545058829279 -0.7060782755771644 -0.5973323424071428 -0.2611904432581711
58848 73290.0 -0.28011576413550116 -0.70463379407163 -0.5986800353003354 -0.2580864007804233
58848 73300.0 -0.2837694753145748 -0.7031703278329418 -0.6000115981401438 -0.254975404759586
58848 73310.0 -0.287415540979324 -0.7016879162908239 -0.6013269950506771 -0.25185753901427504
58848 73320.0 -0.2910538628949156 -0.7001865993854378 -0.6026261905915982 -0.2487328875481946
58848 73330.0 -0.2946843430351519 -0.6986664175663067 -0.603909149759078 -0.24560153454787614
58848 73340.0 -0.2983068835851157 -0.697127411791225 -0.6051758379867395 -0.24246356438040673
58848 73350.0 -0.3019213869438032 -0.6955696235251552 -0.6064262211465887 -0.23931906159115862
58848 73360.0 -0.30552775572675456 -0.6939930947391109 -0.607660265549934 -0.23616811090150958
58848 73370.0 -0.30912589276867575 -0.692397867909026 -0.6088779379482936 -0.23301079720656298
58848 73380.0 -0.3127157011260595 -0.69078398601461 -0.6100792055342921 -0.2298472055728571
58848 73390.0 -0.3162970840797958 -0.6891514925381896 -0.6112640359425434 -0.2266774212360754
58848 73400.0 -0.3198699451377776 -0.687500431463538 -0.6124323972505242 -0.22350152959874872
58848 73410.0 -0.32343418803749924 -0.6858308472746902 -0.6135842579794317 -0.2203196162279568
58848 73420.0 -0.32698971674865324 -0.6841427849547428 -0.6147195870950347 -0.21713176685301946
58848 73430.0 -0.3305364354757153 -0.6824362899846433 -0.6158383540085074 -0.21393806736318902
58848 73440.0 -0.3340742486605264 -0.6807114083419644 -0.6169405285772546 -0.21073860380533516
58848 73450.0 -0.3376030609848646 -0.6789681864996663 -0.6180260811057227 -0.20753346238162854
58848 73460.0 -0.34112277737301794 -0.6772066714248423 -0.6190949823462021 -0.20432272944721533
58848 73470.0 -0.3446333029943424 -0.6754269105774552 -0.6201472034996127 -0.20110649150789256
58848 73480.0 -0.3481345432658186 -0.6736289519090578 -0.6211827162162817 -0.1978848352177764
58848 73490.0 -0.351626403854598 -0.6718128438615021 -0.6222014925967057 -0.19465784737696973
58848 73500.0 -0.35510879068054746 -0.6699786353656324 -0.6232035051923039 -0.19142561492921994
58848 73510.0 -0.3585816099187822 -0.668126375839968 -0.6241887270061571 -0.18818822495957901
58848 73520.0 -0.3620447680021937 -0.6662561151893719 -0.6251571314937348 -0.18494576469205626
58848 73530.0 -0.3654981716239721 -0.6643679038037053 -0.6261086925636103 -0.18169832148726808
58848 73540.0 -0.3689417277401166 -0.6624617925564716 -0.6270433845781643 -0.17844598284008614
58848 73550.0 -0.37237534357194707 -0.6605378328034438 -0.6279611823542757 -0.17518883637727717
58848 73560.0 -0.3757989266086005 -0.6585960763812821 -0.6288620611639985 -0.1719269698551435
58848 73570.0 -0.3792123846095251 -0.6566365756061366 -0.6297459967352308 -0.16866047115715843
58848 73580.0 -0.38261562560696316 -0.6546593832722388 -0.6306129652523661 -0.16538942829160005
58848 73590.0 -0.3860085579084322 -0.6526645526504778 -0.6314629433569362 -0.16211392938917693
58848 73600.0 -0.3893910900991933 -0.650652137486966 -0.6322959081482407 -0.15883406270065573
58848 73610.0 -0.392763131044715 -0.6486221920015903 -0.6331118371839636 -0.15554991659448258
58848 73620.0 -0.39612458989312677 -0.6465747708865527 -0.633910708480778 -0.15226157955440442
58848 73630.0 -0.39947537607766953 -0.6445099293048947 -0.6346925005149383 -0.14896914017708138
58848 73640.0 -0.40281539931913474 -0.6424277228890126 -0.635457192222861 -0.14567268716970228
58848 73650.0 -0.40614456962829615 -0.6403282077391578 -0.6362047630016906 -0.1423723093475934
58848 73660.0 -0.4094627973083339 -0.6382114404219265 -0.6369351927098557 -0.13906809563182776
58848 73670.0 -0.4127699929572533 -0.6360774779687337 -0.6376484616676117 -0.13576013504682596
58848 73680.0 -0.41606606747029173 -0.6339263778742785 -0.6383445506575711 -0.13244851671795993
58848 73690.0 -0.41935093204232066 -0.6317581980949933 -0.6390234409252208 -0.12913332986915055
58848 73700.0 -0.4226244981702361 -0.6295729970474846 -0.6396851141794275 -0.12581466382046602
58848 73710.0 -0.4258866776553455 -0.6273708336069567 -0.6403295525929308 -0.12249260798571171
58848 73720.0 -0.42913738260574347 -0.6251517671056266 -0.6409567388028231 -0.11916725187002351
58848 73730.0 -0.43237652543867955 -0.6229158573311252 -0.6415666559110184 -0.11583868506745534
58848 73740.0 -0.43560401888291655 -0.6206631645248876 -0.6421592874847056 -0.11250699725856732
58848 73750.0 -0.43881977598108446 -0.6183937493805276 -0.6427346175567936 -0.10917227820800622
58848 73760.0 -0.44202371009202174 -0.6161076730422047 -0.64329263062634 -0.1058346177620891
58848 73770.0 -0.44521573489311045 -0.6138049971029752 -0.6438333116589687 -0.10249410584638172
58848 73780.0 -0.44839576438260026 -0.6114857836031345 -0.6443566460872762 -0.09915083246327765
58848 73790.0 -0.4515637128819279 -0.6091500950285436 -0.6448626198112222 -0.09580488768957028
58848 73800.0 -0.4547194950380244 -0.6067979943089463 -0.6453512191985117 -0.09245636167402782
58848 73810.0 -0.4578630258256153 -0.6044295448162736 -0.6458224310849604 -0.08910534463496389
58848 73820.0 -0.46099422054950934 -0.6020448103629382 -0.6462762427748503 -0.08575192685780814
58848 73830.0 -0.46411299484688373 -0.5996438552001117 -0.6467126420412717 -0.0823961986926716
58848 73840.0 -0.46721926468955494 -0.5972267440159955 -0.6471316171264521 -0.0790382505519133
58848 73850.0 -0.4703129463862436 -0.5947935419340783 -0.6475331567420742 -0.07567817290770423
58848 73860.0 -0.4733939565848273 -0.5923443145113817 -0.6479172500695787 -0.0723160562895913
58848 73870.0 -0.4764622122745897 -0.5898791277366913 -0.6482838867604558 -0.06895199128205551
58848 73880.0 -0.47951763078845455 -0.5873980480287819 -0.6486330569365256 -0.06558606852207317
58848 73890.0 -0.48256012980521434 -0.5849011422346263 -0.6489647511902026 -0.06221837869667274
58848 73900.0 -0.4855896273517461 -0.5823884776275954 -0.6492789605847498 -0.05884901254049389
58848 73910.0 -0.48860604180522293 -0.5798601219056441 -0.6495756766545191 -0.05547806083333993
58848 73920.0 -0.49160929189531133 -0.5773161431894889 -0.6498548914051805 -0.05210561439773321
58848 73930.0 -0.49459929670636166 -0.5747566100207707 -0.6501165973139359 -0.04873176409646753
58848 73940.0 -0.4975759756795862 -0.5721815913602111 -0.650360787329723 -0.045356600830162706
58848 73950.0 -0.5005392486152329 -0.5695911565857513 -0.6505874548734052 -0.041980215534811245
58848 73960.0 -0.5034890356747439 -0.5669853754906843 -0.6507965938379473 -0.03860269917933135
58848 73970.0 -0.5064252573829077 -0.564364318281774 -0.6509881985885826 -0.03522414276311423
58848 73980.0 -0.5093478346299983 -0.5617280555773654 -0.6511622639629626 -0.031844637313574835
58848 73990.0 -0.5122566886739098 -0.5590766584054792 -0.6513187852712972 -0.02846427388369628
58848 74000.0 -0.5151517411422761 -0.5564101982018995 -0.6514577582964802 -0.02508314354957781
58848 74010.0 -0.5180329140345824 -0.5537287468082497 -0.6515791792942044 -0.02170133740798196
58848 74020.0 -0.5209001297242678 -0.5510323764700554 -0.6516830449930607 -0.018318946573878198
58848 74030.0 -0.5237533109608145 -0.5483211598348 -0.6517693525946271 -0.014936062177991148
58848 74040.0 -0.526592380871832 -0.545595169949965 -0.6518380997735443 -0.011552775364341607
58848 74050.0 -0.5294172629651267 -0.5428544802610639 -0.6518892846775783 -0.008169177287793065
58848 74060.0 -0.5322278811307635 -0.540099164609661 -0.6519229059276697 -0.004785359111594757
58848 74070.0 -0.5350241596431143 -0.5373292972313859 -0.6519389626179712 -0.0014014120049276962
58848 74080.0 -0.5378060231629015 -0.5345449527539294 -0.6519374543158729 0.0019825728595551048
58848 74090.0 -0.5405733967392259 -0.5317462061950337 -0.6519183810620118 0.005366504308182854
58848 74100.0 -0.5433262058115865 -0.528933132960473 -0.6518817433702732 0.008750291168724198
58848 74110.0 -0.5460643762118881 -0.5261058088420213 -0.6518275422277751 0.012133842272841788
58848 74120.0 -0.5487878341664423 -0.5232643100154083 -0.6517557790948424 0.015517066458552147
58848 74130.0 -0.551496506297953 -0.5204087130382693 -0.6516664559049672 0.018899872572679013
58848 74140.0 -0.5541903196274943 -0.5175390948480816 -0.6515595750647571 0.022282169473310992
58848 74150.0 -0.5568692015764757 -0.5146555327600921 -0.6514351394538698 0.02566386603225397
58848 74160.0 -0.559533079968599 -0.5117581044652338 -0.6512931524249359 0.029044871137491008
58848 74170.0 -0.5621818830318023 -0.5088468880280324 -0.6511336178034686 0.0324250936956337
58848 74180.0 -0.5648155394001937 -0.5059219618845026 -0.6509565398877606 0.03580444263437867
58848 74190.0 -0.5674339781159732 -0.5029834048400376 -0.6507619234487679 0.03918282690495795
58848 74200.0 -0.5700371286313463 -0.5000312960672821 -0.6505497737299821 0.042560155484596525
58848 74210.0 -0.5726249208104234 -0.4970657151040013 -0.6503200964472884 0.045936337378961516
58848 74220.0 -0.5751972849311108 -0.4940867418509369 -0.6500728977888112 0.04931128162461582
58848 74230.0 -0.5777541516869864 -0.49109445656965683 -0.6498081844147485 0.05268489729146595
58848 74240.0 -0.5802954521891704 -0.48808893988038904 -0.6495259634571924 0.05605709348521568
58848 74250.0 -0.5828211179681794 -0.48507027275985215 -0.6492262425199354 0.05942777934981268
58848 74260.0 -0.5853310809757718 -0.48203853653907214 -0.6489090296782678 0.06279686406989748
58848 74270.0 -0.5878252735867799 -0.4789938129011931 -0.6485743334787577 0.06616425687324809
58848 74280.0 -0.5903036286009344 -0.4759361838792738 -0.6482221629390232 0.06952986703322907
58848 74290.0 -0.5927660792446727 -0.4728657318540795 -0.6478525275474873 0.07289360387123349
58848 74300.0 -0.5952125591729396 -0.4697825395518609 -0.6474654372631234 0.07625537675912746
58848 74310.0 -0.5976430024709725 -0.46668669004212776 -0.647060902515187 0.07961509512168947
58848 74320.0 -0.6000573436560801 -0.4635782667354077 -0.6466389342029343 0.08297266843905401
58848 74330.0 -0.6024555176794052 -0.46045735338100074 -0.6461995436953287 0.0863280062491485
58848 74340.0 -0.6048374599276777 -0.45732403406472183 -0.6457427428307343 0.08968101815013159
58848 74350.0 -0.6072031062249541 -0.45417839320663733 -0.6452685439165974 0.09303161380282611
58848 74360.0 -0.609552392834349 -0.45102051555878836 -0.6447769597291148 0.09637970293315715
58848 74370.0 -0.6118852564597508 -0.44785048620290774 -0.6442680035128887 0.09972519533458166
58848 74380.0 -0.6142016342475273 -0.44466839054812807 -0.6437416889805714 0.10306800087051987
58848 74390.0 -0.6165014637882185 -0.441474314328682 -0.6431980303124942 0.1064080294767819
58848 74400.0 -0.6187846831182195 -0.438268343601589 -0.6426370421562874 0.10974519116399745
58848 74410.0 -0.6210512307214494 -0.4350505647443397 -0.6420587396264826 0.1130793960200382
58848 74420.0 -0.6233010455310083 -0.4318210644525668 -0.6414631383041088 0.11641055421244137
58848 74430.0 -0.6255340669308221 -0.42857992973771125 -0.6408502542362707 0.11973857599082773
58848 74440.0 -0.6277502347572776 -0.42532724792467586 -0.6402201039357163 0.12306337168932337
58848 74450.0 -0.6299494893008415 -0.42206310664947344 -0.639572704380393 0.1263848517289731
