CIC_MEM_VERS = 1.0
CREATION_DATE = 2023-03-16T10:50:06.577077
ORIGINATOR = CS Group

META_START
OBJECT_NAME = horus_eye_12
OBJECT_ID = horus_eye_12
USER_DEFINED_PROTOCOL = NONE
USER_DEFINED_CONTENT = LLA
USER_DEFINED_SIZE = 3.0
USER_DEFINED_TYPE = REAL
USER_DEFINED_UNIT = [deg] [km]
TIME_SYSTEM = UTC
META_STOP

58848 68400.0 22.433803309293218 16.816291609847152 803.0969862148634
58848 68410.0 23.023313788736637 16.670793452996193 803.2529616154771
58848 68420.0 23.61270410547699 16.52439360397154 803.412047825628
58848 68430.0 24.201970691693557 16.37705810977145 803.5741756790617
58848 68440.0 24.791109928328055 16.228752025670794 803.7392747007558
58848 68450.0 25.380118141733835 16.079439365769854 803.9072731383467
58848 68460.0 25.968991600121083 15.929083051068272 804.0780979940283
58848 68470.0 26.557726509784928 15.777644854858213 804.2516750570827
58848 68480.0 27.146319011102694 15.62508534531762 804.4279289367973
58848 68490.0 27.734765174285997 15.471363825085232 804.606783096002
58848 68500.0 28.32306099487146 15.316438267629252 804.7881598849813
58848 68510.0 28.91120238893357 15.160265250195513 804.9719805759416
58848 68520.0 29.49918518800125 15.002799883105912 805.1581653978512
58848 68530.0 30.087005133659037 14.843995735160636 805.3466335717771
58848 68540.0 30.67465787181157 14.683804754890607 805.537303346566
58848 68550.0 31.262138946589033 14.52217718734284 805.7300920349952
58848 68560.0 31.849443793869387 14.359061486149653 805.9249160502621
58848 68570.0 32.43656773439114 14.194404220495906 806.1216909428159
58848 68580.0 33.023505966428296 14.028149976661766 806.3203314376119
58848 68590.0 33.610253557997474 13.860241253758794 806.5207514716141
58848 68600.0 34.19680543856377 13.690618353212022 806.7228642316369
58848 68610.0 34.78315639021012 13.51921926161062 806.9265821925184
58848 68620.0 35.369301038231676 13.345979526353808 807.1318171554996
58848 68630.0 35.95523384111319 13.170832123660354 807.3384802869333
58848 68640.0 36.54094907984464 12.993707318318595 807.5464821571413
58848 68650.0 37.12644084652551 12.814532514577353 807.7557327796254
58848 68660.0 37.71170303220509 12.6332320975377 807.9661416503578
58848 68670.0 38.29672931390032 12.449727264294163 808.1776177873118
58848 68680.0 38.8815131407287 12.263935844079267 808.3900697701854
58848 68690.0 39.4660477190873 12.075772106529191 808.6034057802389
58848 68700.0 40.05032599680367 11.885146557171144 808.8175336402343
58848 68710.0 40.63434064617666 11.691965719130868 809.0323608545983
58848 68720.0 41.21808404581888 11.496131899933166 809.247794649585
58848 68730.0 41.80154826120287 11.29754294227234 809.4637420135207
58848 68740.0 42.384725023805686 11.0960919573624 809.6801097371961
58848 68750.0 42.967605708734695 10.891667039537248 809.8968044541863
58848 68760.0 43.55018131070792 10.684150960493804 810.1137326813097
58848 68770.0 44.13244241824876 10.473420841483684 810.3308008589808
58848 68780.0 44.71437918594175 10.259347801643596 810.5479153916777
58848 68790.0 45.29598130458091 10.041796580374642 810.764982688275
58848 68800.0 45.87723796902506 9.820625131575884 810.9819092023965
58848 68810.0 46.458137843555996 9.595684187272703 811.1986014726724
58848 68820.0 47.038669024514036 9.36681678795375 811.4149661629555
58848 68830.0 47.618818999963096 9.133857776660008 811.630910102384
58848 68840.0 48.19857460610999 8.896633253573391 811.8463403254148
58848 68850.0 48.777921980174796 8.654959987520648 812.0611641116409
58848 68860.0 49.35684650937599 8.408644780442156 812.2752890255019
58848 68870.0 49.93533277565757 8.157483780464572 812.4886229558663
58848 68880.0 50.51336449574433 7.901261738762139 812.7010741553619
58848 68890.0 51.09092445606583 7.639751204869248 812.9125512795475
58848 68900.0 51.66799444203756 7.372711654583636 813.1229634258967
58848 68910.0 52.24455516112946 7.099888543874725 813.3322201725157
58848 68920.0 52.820586159086595 6.821012281601529 813.5402316166284
58848 68930.0 53.396065728592326 6.53579711300537 813.7469084127995
58848 68940.0 53.97097080958035 6.243939904993543 813.9521618109119
58848 68950.0 54.545276880307746 5.945118823367686 814.1559036937974
58848 68960.0 55.11895783819253 5.63899189087 814.358046614606
58848 68970.0 55.69198586929805 5.32519541380901 814.5585038338492
58848 68980.0 56.26433130520689 5.003342263476671 814.757189356077
58848 68990.0 56.835962465869784 4.673019997093178 814.9540179662594
58848 69000.0 57.40684548683419 4.333788801183479 815.1489052657677
58848 69010.0 57.976944129052185 3.985179238224473 815.3417677079333
58848 69020.0 58.54621956923235 3.626689775277635 815.5325226333313
58848 69030.0 59.11463016843132 3.257784070634333 815.721088304523
58848 69040.0 59.6821312162735 2.8778879917481666 815.9073839405029
58848 69050.0 60.24867464783301 2.4863863344717196 816.0913297505977
58848 69060.0 60.81420872980775 2.082619210024727 816.2728469680214
58848 69070.0 61.37867771214713 1.6658780620783242 816.4518578828963
58848 69080.0 61.942021440759795 1.2354012718174168 816.628285874807
58848 69090.0 62.50417492630645 0.7903693037781221 816.802055444936
58848 69100.0 63.06506786337091 0.3298993396615585 816.9730922476439
58848 69110.0 63.62462409347622 -0.14696065897722524 817.1413231215372
58848 69120.0 64.18276100446188 -0.6412385251068704 817.3066761200411
58848 69130.0 64.73938885763607 -1.1540451712031377 817.4690805414305
58848 69140.0 65.2944100328457 -1.6865826665939667 817.6284669583358
58848 69150.0 65.84771818013525 -2.24015319776493 817.784767246626
58848 69160.0 66.39919726496623 -2.8161690115961053 817.9379146138643
58848 69170.0 66.94872049200758 -3.4161634511588796 818.0878436270067
58848 69180.0 67.49614909024474 -4.041803203472659 818.2344902396632
58848 69190.0 68.0413309395542 -4.694901887826349 818.3777918187154
58848 69200.0 68.58409901590557 -5.3774351213795955 818.5176871702721
58848 69210.0 69.12426962894588 -6.091557204589197 818.6541165651118
58848 69220.0 69.66164042184987 -6.839619571003636 818.7870217634085
58848 69230.0 70.19598809895962 -7.624191142046597 818.9163460388934
58848 69240.0 70.72706584187384 -8.448080714244515 819.0420342023117
58848 69250.0 71.2546003693046 -9.314361479782077 819.1640326243044
58848 69260.0 71.77828859026931 -10.22639773513397 819.2822892575326
58848 69270.0 72.29779379418314 -11.187873758525127 819.396753658226
58848 69280.0 72.81274131544058 -12.202824723972068 819.5073770070064
58848 69290.0 73.32271360459117 -13.275669352291494 819.6141121290457
58848 69300.0 73.82724463396221 -14.411243757810738 819.7169135135213
58848 69310.0 74.32581356369478 -15.61483560715325 819.8157373324019
58848 69320.0 74.81783759633316 -16.892217229707686 819.9105414584958
58848 69330.0 75.30266395680911 -18.249675666475365 820.0012854828194
58848 69340.0 75.77956095341165 -19.694036764351488 820.0879307312009
58848 69350.0 76.2477081090274 -21.23267926062757 820.1704402802482
58848 69360.0 76.70618540720862 -22.873533300052156 820.2487789725284
58848 69370.0 77.15396178315008 -24.625055939083072 820.3229134309956
58848 69380.0 77.58988311627965 -26.496173907895013 820.3928120727234
58848 69390.0 78.01266016154831 -28.496181282186093 820.4584451219145
58848 69400.0 78.42085710386728 -30.634576959838885 820.5197846221039
58848 69410.0 78.81288174535912 -32.92082435822103 820.5768044476268
58848 69420.0 79.18697874127977 -35.364014292890786 820.6294803143646
58848 69430.0 79.5412277740012 -37.97241275639633 820.6777897897329
58848 69440.0 79.87354905197513 -40.75287997683381 820.7217123018373
58848 69450.0 80.18171895313739 -43.710157794868806 820.7612291479418
58848 69460.0 80.46339885075255 -46.846041139807575 820.7963235021238
58848 69470.0 80.71617995229967 -50.158477377553176 820.8269804221937
58848 69480.0 80.9376460983074 -53.640673326628566 820.853186855806
58848 69490.0 81.12545468930237 -57.280328433500635 820.8749316458016
58848 69500.0 81.27743317106915 -61.059143305741024 820.8922055348038
58848 69510.0 81.39168505366514 -64.95276049069847 820.9050011689868
58848 69520.0 81.466695924891 -68.9312641163472 820.9133131011089
58848 69530.0 81.50142736785259 -72.96028980221348 820.9171377927277
58848 69540.0 81.49538620844643 -77.0026852064835 820.9164736156617
58848 69550.0 81.4486588026383 -81.02054240955034 820.9113208526534
58848 69560.0 81.36190496719416 -84.97733451396866 820.9016816972497
58848 69570.0 81.23631252322087 -88.83986286299734 820.8875602529121
58848 69580.0 81.07351951833711 -92.57976814388839 820.8689625313265
58848 69590.0 80.87551539208047 -96.17446046272268 820.8458964499484
58848 69600.0 80.64453378558744 -99.60744402912324 820.8183718287428
58848 69610.0 80.38294849973705 -102.86811462634832 820.7864003861821
58848 69620.0 80.09318115026629 -105.95117005513946 820.7499957344377
58848 69630.0 79.77762547800337 -108.85579151915414 820.7091733737774
58848 69640.0 79.43858998086279 -111.5847377319092 820.6639506862374
58848 69650.0 79.07825807152126 -114.14345903487738 820.6143469285076
58848 69660.0 78.69866346729441 -116.53930004724604 820.5603832239659
58848 69670.0 78.30167786128007 -118.78082538151854 820.5020825541011
58848 69680.0 77.88900786770307 -120.87727771775197 820.439469749019
58848 69690.0 77.46219853566201 -122.83816136557333 820.372571477287
58848 69700.0 77.02264118986099 -124.67293578888369 820.3014162349574
58848 69710.0 76.57158385423821 -126.39080026669659 820.2260343339003
58848 69720.0 76.11014297089841 -128.00055091385198 820.1464578892994
58848 69730.0 75.63931550943865 -129.51049314545833 820.0627208064991
58848 69740.0 75.15999086312658 -130.9283952910625 819.9748587670526
58848 69750.0 74.6729621546153 -132.2614718120304 819.8829092140318
58848 69760.0 74.17893673696327 -133.51638710809863 819.786911336628
58848 69770.0 73.67854578893778 -134.69927306815842 819.6869060540439
58848 69780.0 73.17235297912032 -135.8157552906551 819.5829359986083
58848 69790.0 72.66086222141135 -136.87098429526483 819.4750454982077
58848 69800.0 72.14452457319852 -137.86966912007006 819.3632805580543
58848 69810.0 71.62374434278667 -138.81611150526675 819.2476888416584
58848 69820.0 71.098884479144 -139.71423946046778 819.1283196512089
58848 69830.0 70.57027131777423 -140.56763944555385 819.0052239071999
58848 69840.0 70.03819875378952 -141.3795867045291 818.8784541273535
58848 69850.0 69.50293190854562 -142.1530735090178 818.7480644049837
58848 69860.0 68.96471035050769 -142.89083521744658 818.6141103865414
58848 69870.0 68.42375092499272 -143.5953741561143 818.4766492486723
58848 69880.0 67.88025024148396 -144.26898139296935 818.3357396744559
58848 69890.0 67.33438686157206 -144.913756514608 818.1914418291286
58848 69900.0 66.78632322537123 -145.53162553901964 818.0438173351347
58848 69910.0 66.23620734954514 -146.12435710660876 817.8929292465457
58848 69920.0 65.68417432586268 -146.693577094035 817.7388420228541
58848 69930.0 65.13034764547484 -147.24078179192696 817.5816215022388
58848 69940.0 64.57484037082409 -147.76734978100635 817.4213348741087
58848 69950.0 64.017756174233 -148.27455263260035 817.2580506512226
58848 69960.0 63.45919025972025 -148.76356455002215 817.0918386410759
58848 69970.0 62.89923018242485 -149.23547105762225 816.9227699168559
58848 69980.0 62.337956578137145 -149.69127683464043 816.7509167877653
58848 69990.0 61.77544381380854 -150.1319127817778 816.5763527688266
58848 70000.0 61.21176056850117 -150.55824239974936 816.3991525501939
58848 70010.0 60.64697035302076 -150.97106755104699 816.2193919658854
58848 70020.0 60.081131975420966 -151.3711336687629 816.0371479620503
58848 70030.0 59.514299958655286 -151.75913446961127 815.852498564736
58848 70040.0 58.94652491586173 -152.13571622227292 815.665522847186
58848 70050.0 58.37785388808261 -152.50148161668716 815.4763008966065
58848 70060.0 57.808330648626026 -152.85699327502306 815.2849137805974
58848 70070.0 57.23799597776281 -153.20277694074213 815.0914435130111
58848 70080.0 56.66688791100267 -153.5393243781663 814.8959730194623
58848 70090.0 56.09504196380632 -153.86709601158614 814.6985861024132
58848 70100.0 55.52249133524897 -154.18652332973988 814.499367405796
58848 70110.0 54.94926709285691 -154.4980110788269 814.2984023793471
58848 70120.0 54.375398340578556 -154.8019392647081 814.095777242484
58848 70130.0 53.800912371628286 -155.09866498276335 813.8915789478365
58848 70140.0 53.225834807740505 -155.3885240919942 813.6858951444962
58848 70150.0 52.65018972620203 -155.67183274813974 813.4788141408206
58848 70160.0 52.073999775874505 -155.94888880915462 813.2704248670296
58848 70170.0 51.4972862832893 -156.2199731248956 813.0608168374567
58848 70180.0 50.92006934977582 -156.48535072178177 812.8500801124565
58848 70190.0 50.34236794048368 -156.7452718920424 812.638305260197
58848 70200.0 49.76419996606534 -156.99997319614843 812.425583318004
58848 70210.0 49.185582357704845 -157.24967838627842 812.2120057536144
58848 70220.0 48.60653113611248 -157.4945992578516 811.9976644261282
58848 70230.0 48.027061475030166 -157.73493643538953 811.7826515468023
58848 70240.0 47.447187759748154 -157.970880098503 811.5670596396055
58848 70250.0 46.86692364107706 -158.202610653119 811.3509815016181
58848 70260.0 46.28628208517569 -158.43029935267188 811.1345101633059
58848 70270.0 45.70527541959729 -158.65410887344288 810.9177388486036
58848 70280.0 45.12391537587923 -158.8741938479367 810.7007609349088
58848 70290.0 44.54221312897178 -159.0907013597367 810.4836699129215
58848 70300.0 43.96017933377209 -159.30377140301604 810.2665593464527
58848 70310.0 43.377824159004554 -159.51353730959656 810.0495228321557
58848 70320.0 42.795157318666625 -159.7201261461274 809.8326539591097
58848 70330.0 42.21218810123832 -159.92365908381552 809.6160462685167
58848 70340.0 41.628925396835854 -160.12425174282694 809.3997932131957
58848 70350.0 41.04537772247316 -160.32201451337843 809.1839881172812
58848 70360.0 40.4615532455808 -160.51705285530895 808.9687241357078
58848 70370.0 39.87745980591776 -160.7094675777748 808.7540942139674
58848 70380.0 39.29310493600074 -160.89935510059618 808.5401910476799
58848 70390.0 38.70849588016355 -161.08680769861974 808.327107042392
58848 70400.0 38.123639612350544 -161.2719137303804 808.1149342734425
58848 70410.0 37.53854285273804 -161.45475785221583 807.9037644458174
58848 70420.0 36.95321208327138 -161.63542121889023 807.6936888542886
58848 70430.0 36.367653562196054 -161.81398167172256 807.4847983435523
58848 70440.0 35.781873337655895 -161.99051391510235 807.2771832686154
58848 70450.0 35.19587726042572 -162.16508968223698 807.0709334552948
58848 70460.0 34.60967099583911 -162.33777789088455 806.8661381609619
58848 70470.0 34.02326003496821 -162.50864478975782 806.6628860354314
58848 70480.0 33.43664970510746 -162.6777540962832 806.461265082168
58848 70490.0 32.849845179609034 -162.8451671262745 806.2613626196345
58848 70500.0 32.26285148711408 -163.01094291608734 806.0632652430119
58848 70510.0 31.67567352022084 -163.17513833778145 805.8670587860773
58848 70520.0 31.08831604362678 -163.33780820771958 805.6728282835077
58848 70530.0 30.500783701779767 -163.49900538908852 805.480657933411
58848 70540.0 29.9130810260705 -163.6587808887039 805.2906310602343
58848 70550.0 29.325212441595724 -163.81718394849997 805.1028300779894
58848 70560.0 28.737182273519974 -163.97426213203312 804.9173364538708
58848 70570.0 28.148994753061448 -164.13006140633652 804.7342306722801
58848 70580.0 27.560654023125544 -164.2846262194278 804.553592199209
58848 70590.0 26.972164143608392 -164.43799957370481 804.3754994470365
58848 70600.0 26.38352909639048 -164.59022309556204 804.2000297398454
58848 70610.0 25.794752790039887 -164.7413371013941 804.0272592790607
58848 70620.0 25.20583906424235 -164.89138066025953 803.8572631096941
58848 70630.0 24.616791693975273 -165.04039165340538 803.6901150869761
58848 70640.0 24.027614393440434 -165.1884068308061 803.5258878435146
58848 70650.0 23.43831081977042 -165.33546186497242 803.3646527570219
58848 70660.0 22.84888457652168 -165.48159140212414 803.206479918473
58848 70670.0 22.259339216967202 -165.62682911094586 803.0514381009136
58848 70680.0 21.669678247200146 -165.7712077290315 802.8995947287984
58848 70690.0 21.079905129059853 -165.91475910717256 802.7510158478628
58848 70700.0 20.490023282890228 -166.05751425163658 802.6057660956444
58848 70710.0 19.90003609014024 -166.19950336451606 802.4639086726197
58848 70720.0 19.3099468958159 -166.34075588231167 802.3255053138766
58848 70730.0 18.7197590107917 -166.4813005128156 802.1906162615659
58848 70740.0 18.129475713990182 -166.62116527041087 802.0593002378549
58848 70750.0 17.53910025443674 -166.76037750990665 801.9316144186341
58848 70760.0 16.94863585319693 -166.89896395893393 801.8076144078912
58848 70770.0 16.358085705203234 -167.03695074906844 801.6873542127391
58848 70780.0 15.767452980977236 -167.17436344568293 801.570886219189
58848 70790.0 15.176740828253566 -167.31122707666373 801.4582611686199
58848 70800.0 14.585952373511086 -167.44756616002002 801.3495281349401
58848 70810.0 13.995090723416972 -167.58340473046806 801.2447345025371
58848 70820.0 13.404158966188506 -167.71876636506812 801.1439259449724
58848 70830.0 12.813160172877748 -167.8536742079445 801.0471464043986
58848 70840.0 12.222097398583445 -167.98815099416026 800.9544380717548
58848 70850.0 11.630973683594881 -168.12221907281534 800.8658413678116
58848 70860.0 11.039792054471691 -168.2559004293784 800.781394924873
58848 70870.0 10.448555525063712 -168.38921670735994 800.7011355694024
58848 70880.0 9.857267097474802 -168.52218922929677 800.6250983053955
58848 70890.0 9.265929762974228 -168.65483901717573 800.5533162985739
58848 70900.0 8.674546502859272 -168.7871868122726 800.4858208614172
58848 70910.0 8.0831202892724 -168.9192530944738 800.4226414390174
58848 70920.0 7.491654085976359 -169.05105810113207 800.3638055957542
58848 70930.0 6.900150849090314 -169.18262184546433 800.3093390028731
58848 70940.0 6.308613527790165 -169.31396413454215 800.2592654268497
58848 70950.0 5.717045064975986 -169.4451045869247 800.2136067186636
58848 70960.0 5.125448397909564 -169.57606264993572 800.1723828038738
58848 70970.0 4.533826458824625 -169.70685761664387 800.1356116736596
58848 70980.0 3.942182175512942 -169.83750864255666 800.1033093766215
58848 70990.0 3.3505184718885137 -169.96803476209567 800.0754900115764
58848 71000.0 2.7588382685327577 -170.09845490481706 800.0521657211124
58848 71010.0 2.1671444832232454 -170.22878791148688 800.0333466861478
58848 71020.0 1.575440031448462 -170.35905254997635 800.0190411212719
58848 71030.0 0.9837278269111558 -170.48926753102975 800.0092552710652
58848 71040.0 0.392010782022753 -170.61945152394762 800.0039934072464
58848 71050.0 -0.19970819160873493 -170.74962317218174 800.003257826741
58848 71060.0 -0.7914261826948304 -170.8798011088855 800.0070488506565
58848 71070.0 -1.383140279784328 -171.01000397246054 800.015364824113
58848 71080.0 -1.9748475707802011 -171.14025042209664 800.028202117018
58848 71090.0 -2.5665451424532777 -171.27055915335566 800.0455551256765
58848 71100.0 -3.1582300799502003 -171.40094891381963 800.0674162753685
58848 71110.0 -3.7498994662932605 -171.5314385188219 800.0937760237604
58848 71120.0 -4.341550381869618 -171.66204686731328 800.1246228652114
58848 71130.0 -4.933179903907382 -171.7927929578596 800.1599433360171
58848 71140.0 -5.524785105936061 -171.923695904823 800.1997220204793
58848 71150.0 -6.116363057228798 -172.05477495474616 800.2439415578918
58848 71160.0 -6.7079108222237345 -172.18604950297353 800.292582650397
58848 71170.0 -7.299425459921914 -172.31753911052857 800.3456240717178
58848 71180.0 -7.890904023258891 -172.44926352130457 800.4030426767524
58848 71190.0 -8.482343558447354 -172.5812426795669 800.4648134120746
58848 71200.0 -9.073741104287796 -172.71349674782522 800.5309093272116
58848 71210.0 -9.665093691444397 -172.84604612510017 800.6013015868838
58848 71220.0 -10.256398341682852 -172.97891146562293 800.6759594839574
58848 71230.0 -10.847652067067312 -173.11211369799443 800.7548504534225
58848 71240.0 -11.438851869112868 -173.24567404486822 800.8379400869949
58848 71250.0 -12.029994737890416 -173.37961404316258 800.9251921487129
58848 71260.0 -12.621077651080268 -173.51395556487103 801.0165685912865
58848 71270.0 -13.212097572970945 -173.64872083849437 801.1120295732228
58848 71280.0 -13.803051453399227 -173.7839324711666 801.2115334768084
58848 71290.0 -14.393936226627684 -173.91961347148887 801.3150369268917
58848 71300.0 -14.984748810155244 -174.0557872731476 801.4224948103962
58848 71310.0 -15.575486103456722 -174.19247775935824 801.5338602966235
58848 71320.0 -16.166144986646593 -174.32970928819475 801.6490848583566
58848 71330.0 -16.75672231906223 -174.46750671885113 801.7681182936509
58848 71340.0 -17.347214937761585 -174.6058954389332 801.8909087484687
58848 71350.0 -17.93761965593003 -174.74490139277887 802.0174027399022
58848 71360.0 -18.527933261190682 -174.88455111095737 802.1475451802138
58848 71370.0 -19.118152513812394 -175.0248717409528 802.2812794016086
58848 71380.0 -19.708274144809018 -175.1658910791558 802.4185471815689
58848 71390.0 -20.298294853923633 -175.30763760420066 802.5592887690119
58848 71400.0 -20.888211307490288 -175.4501405117936 802.7034429110308
58848 71410.0 -21.4780201361662 -175.59342975106924 802.8509468803286
58848 71420.0 -22.06771793252654 -175.7375360625977 803.0017365032531
58848 71430.0 -22.657301248512944 -175.88249101817036 803.1557461885102
58848 71440.0 -23.246766592727763 -176.02832706241182 803.3129089564408
58848 71450.0 -23.836110427563334 -176.1750775564172 803.4731564689586
58848 71460.0 -24.425329166157464 -176.322776823486 803.6364190599813
58848 71470.0 -25.014419169163318 -176.47146019709012 803.8026257665281
58848 71480.0 -25.603376741322855 -176.62116407126678 803.9717043602993
58848 71490.0 -26.192198127831254 -176.7719259535377 804.1435813798232
58848 71500.0 -26.780879510479124 -176.92378452054268 804.3181821631252
58848 71510.0 -27.36941700355867 -177.07677967658896 804.4954308809154
58848 71520.0 -27.95780664951857 -177.23095261524998 804.6752505702373
58848 71530.0 -28.54604441435144 -177.38634588427772 804.85756316859
58848 71540.0 -29.134126182696477 -177.54300345400029 805.0422895485553
58848 71550.0 -29.72204775263903 -177.70097078948794 805.2293495528386
58848 71560.0 -30.309804830186433 -177.86029492667134 805.4186620297107
58848 71570.0 -30.897393023399356 -178.0210245527631 805.6101448688818
58848 71580.0 -31.484807836154747 -178.18321009121922 805.8037150377766
58848 71590.0 -32.07204466151619 -178.34690379155626 805.9992886181636
58848 71600.0 -32.65909877468398 -178.51215982440854 806.1967808431646
58848 71610.0 -33.24596532549656 -178.67903438213517 806.3961061345533
58848 71620.0 -33.83263933045152 -178.84758578540414 806.5971781404571
58848 71630.0 -34.41911566421248 -179.0178745961682 806.7999097732709
58848 71640.0 -35.00538905056518 -179.18996373749266 807.0042132479274
58848 71650.0 -35.59145405278298 -179.36391862073157 807.2100001204232
58848 71660.0 -36.17730506335903 -179.53980728059184 807.4171813265591
58848 71670.0 -36.76293629305807 -179.71770051865482 807.6256672209555
58848 71680.0 -37.34834175923766 -179.89767205601996 807.8353676162668
58848 71690.0 -37.93351527338382 179.92020130430342 808.0461918225997
58848 71700.0 -38.518450427801014 179.73583950445664 808.2580486871029
58848 71710.0 -39.10314058139188 179.54915904747335 808.4708466337155
58848 71720.0 -39.68757884445558 179.3600728008257 808.6844937030825
58848 71730.0 -40.27175806242792 179.16848978678965 808.8988975925618
58848 71740.0 -40.855670798478776 178.97431495866107 809.11396569639
58848 71750.0 -41.4393093148749 178.7774489616026 809.3296051458746
58848 71760.0 -42.02266555300798 178.57778787698112 809.5457228497041
58848 71770.0 -42.605731111977555 178.37522294878312 809.762225534319
58848 71780.0 -43.18849722560874 178.16964029068538 809.9790197842775
58848 71790.0 -43.7709547377729 177.96092057214378 810.196012082675
58848 71800.0 -44.35309407586581 177.74893868176977 810.4131088515406
58848 71810.0 -44.934905222285735 177.53356336607334 810.6302164922699
58848 71820.0 -45.516377683734845 177.31465684144405 810.8472414259685
58848 71830.0 -46.0975004581532 177.09207437708307 811.0640901337359
58848 71840.0 -46.67826199907252 176.86566384634125 811.2806691969548
58848 71850.0 -47.258650177156184 176.6352652436762 811.4968853374203
58848 71860.0 -47.83865223866759 176.40071016417465 811.7126454574117
58848 71870.0 -48.418254760581526 176.16182124223243 811.927856679622
58848 71880.0 -48.99744360202321 175.91841154572808 812.1424263869835
58848 71890.0 -49.57620385168513 175.670283921544 812.3562622622703
58848 71900.0 -50.15451977083407 175.4172302879079 812.569272327626
58848 71910.0 -50.732374731478075 175.15903086859493 812.7813649838253
58848 71920.0 -51.30975114921424 174.8954533634032 812.9924490493927
58848 71930.0 -51.886630410225166 174.62625204880925 813.2024337994702
58848 71940.0 -52.462992791830246 174.35116680199127 813.4112290044237
58848 71950.0 -53.03881737592894 174.06992204072392 813.6187449682964
58848 71960.0 -53.614081954596344 173.78222557072618 813.8248925668887
58848 71970.0 -54.18876292700285 173.48776733121394 814.0295832856037
58848 71980.0 -54.76283518673049 173.18621802832237 814.2327292570137
58848 71990.0 -55.33627199844529 172.87722764483223 814.434243298093
58848 72000.0 -55.909044862756815 172.56042381345492 814.6340389471197
58848 72010.0 -56.48112336795115 172.2354100393172 814.8320305002354
58848 72020.0 -57.05247502711666 171.90176375568484 815.0281330477025
58848 72030.0 -57.62306509899194 171.5590341951388 815.2222625096848
58848 72040.0 -58.1928563906515 171.20674005621748 815.4143356717552
58848 72050.0 -58.76180903989509 170.8443669432663 815.6042702199352
58848 72060.0 -59.32988027492569 170.47136455453293 815.7919847753423
58848 72070.0 -59.89702414857497 170.08714359057618 815.977398928441
58848 72080.0 -60.46319124396449 169.69107235170117 816.1604332728069
58848 72090.0 -61.028328348062345 169.28247298935625 816.3410094384308
58848 72100.0 -61.5923780891031 168.86061737225754 816.5190501246507
58848 72110.0 -62.15527853327124 168.42472252318296 816.6944791325257
58848 72120.0 -62.71696273539625 167.97394557725798 816.8672213966931
58848 72130.0 -63.27735823765282 167.507378206562 817.0372030168396
58848 72140.0 -63.836386509388575 167.02404044945112 817.2043512885299
58848 72150.0 -64.3939623201959 166.52287387588845 817.36859473361
58848 72160.0 -64.94999303718211 166.00273401215597 817.5298631300271
58848 72170.0 -65.50437783604715 165.46238193992974 817.6880875410964
58848 72180.0 -66.0570068140249 164.90047497564603 817.8432003442273
58848 72190.0 -66.60775999094827 164.31555632648403 817.995135259064
58848 72200.0 -67.15650618262887 163.7060436096922 818.1438273750982
58848 72210.0 -67.70310172835495 163.07021611222487 818.2892131786019
58848 72220.0 -68.24738905157014 162.40620065884693 818.4312305790394
58848 72230.0 -68.7891950296554 161.71195594944007 818.569818934827
58848 72240.0 -69.32832914515748 160.9852552216566 818.7049190784826
58848 72250.0 -69.86458138675405 160.2236670950087 818.8364733411854
58848 72260.0 -70.39771986369318 159.42453445948559 818.9644255765952
58848 72270.0 -70.9274880923968 158.58495128945682 819.0887211841763
58848 72280.0 -71.45360190840735 157.7017372967493 819.209307131725
58848 72290.0 -71.9757459509875 156.77141039241394 819.3261319773441
58848 72300.0 -72.49356966165017 155.79015701392697 819.4391458906174
58848 72310.0 -73.00668273203624 154.75380050617593 819.5483006733193
58848 72320.0 -73.51464993143757 153.6577679374344 819.6535497791747
58848 72330.0 -74.01698524074665 152.49705600786092 819.7548483331502
58848 72340.0 -74.51314521903248 151.26619709700836 819.8521531498988
58848 72350.0 -75.00252153324716 149.95922703496004 819.9454227515988
58848 72360.0 -75.48443259360009 148.56965691426964 820.0346173850129
58848 72370.0 -75.95811426088682 147.09045223978507 820.1196990378704
58848 72380.0 -76.42270963305099 145.51402399826569 820.2006314544997
58848 72390.0 -76.87725798385601 143.8322378740749 820.2773801507543
58848 72400.0 -77.32068302626266 142.03644987676026 820.3499124281466
58848 72410.0 -77.75178081854713 140.11757907020174 820.4181973873685
58848 72420.0 -78.16920783545638 138.06623079679926 820.482205940924
58848 72430.0 -78.5714700025597 135.87288650610796 820.5419108250893
58848 72440.0 -78.95691384817593 133.5281784979595 820.5972866111279
58848 72450.0 -79.32372136185852 131.0232686728221 820.6483097156845
58848 72460.0 -79.66991063826292 128.35034837011534 820.6949584105289
58848 72470.0 -79.9933448715752 125.50326969979609 820.7372128314202
58848 72480.0 -80.29175263817692 122.47830527093683 820.7750549862456
58848 72490.0 -80.56276249024386 119.2750110181431 820.8084687624635
58848 72500.0 -80.80395444905038 115.89713546006195 820.8374399336219
58848 72510.0 -81.01292978433018 112.3534807819753 820.8619561652558
58848 72520.0 -81.18739831794485 108.65858392420036 820.8820070199297
58848 72530.0 -81.32527943073778 104.83306197319993 820.8975839614915
58848 72540.0 -81.42480937346788 100.90347132867473 820.9086803585975
58848 72550.0 -81.4846441995672 96.90157732666465 820.9152914874049
58848 72560.0 -81.50394575033111 92.86302191014386 820.9174145335296
58848 72570.0 -81.48243864479716 88.82549519388722 820.9150485931792
58848 72580.0 -81.42042957399863 84.82662905618251 820.9081946735391
58848 72590.0 -81.31878583091303 80.9018987824813 820.8968556923685
58848 72600.0 -81.178876486989 77.08281677288628 820.8810364767555
58848 72610.0 -81.00248516451958 73.39563118424148 820.8607437612184
58848 72620.0 -80.79170655323232 69.86062875542997 820.8359861848611
58848 72630.0 -80.54883919260448 66.49202355551336 820.8067742879105
58848 72640.0 -80.2762850498443 63.29832460551138 820.7731205073324
58848 72650.0 -79.97646309754901 60.283030574601796 820.7350391717667
58848 72660.0 -79.6517405279534 57.44549653976032 820.692546495676
58848 72670.0 -79.30438222431764 54.78184279700626 820.6456605726424
58848 72680.0 -78.93651701478903 52.285813240203666 820.5944013679956
58848 72690.0 -78.55011807895775 49.949528548520654 820.538790710598
58848 72700.0 -78.1469944780012 47.76411032523624 820.4788522838727
58848 72710.0 -77.72879088538838 45.72017403167286 820.4146116161488
58848 72720.0 -77.29699297762514 43.80820163777122 820.3460960701157
58848 72730.0 -76.85293643335876 42.018811279543904 820.2733348316345
58848 72740.0 -76.39781797712442 40.342943030720015 820.1963588977021
58848 72750.0 -75.9327073347236 38.771979005725754 820.1152010637621
58848 72760.0 -75.45855931901205 37.29781376352152 820.0298959101991
58848 72770.0 -74.97622553657965 35.912888255765566 819.9404797881119
58848 72780.0 -74.48646540654141 34.61019786917499 819.846990804398
58848 72790.0 -73.98995632529714 33.3832827072937 819.7494688060387
58848 72800.0 -73.48730290871022 32.22620623902921 819.6479553636879
58848 72810.0 -72.97904530720012 31.133526817616243 819.5424937545652
58848 72820.0 -72.46566662913044 30.10026530674125 819.4331289446495
58848 72830.0 -71.94759953086475 29.121871085589547 819.3199075700685
58848 72840.0 -71.42523204338659 28.194187983737137 819.2028779179124
58848 72850.0 -70.89891270935631 27.313421167903247 819.0820899063091
58848 72860.0 -70.36895510369422 26.476105620545738 818.9575950637629
58848 72870.0 -69.83564180714707 25.67907657916361 818.8294465079032
58848 72880.0 -69.2992278971155 24.91944211612942 818.697698923509
58848 72890.0 -68.75994401413983 24.194557910106024 818.5624085398863
58848 72900.0 -68.21799905641078 23.50200417478377 818.4236331075807
58848 72910.0 -67.67358254881547 22.839564656587388 818.2814318744572
58848 72920.0 -67.12686672754602 22.205207580767308 818.1358655611647
58848 72930.0 -66.57800837627181 21.597068408389145 817.9869963359063
58848 72940.0 -66.02715044535462 21.013434260116515 817.8348877886704
58848 72950.0 -65.4744234815567 20.45272986312907 817.6796049048074
58848 72960.0 -64.91994689213976 19.913504882224288 817.5212140379865
58848 72970.0 -64.3638300641335 19.394422503690453 817.3597828826349
58848 72980.0 -63.80617335683206 18.89424914951084 817.1953804457283
58848 72990.0 -63.24706898320795 18.41184520903055 817.0280770180583
58848 73000.0 -62.68660179387992 17.9461566850518 816.857944144889
58848 73010.0 -62.124849975488104 17.49620766071078 816.6850545961506
58848 73020.0 -61.561885673789845 17.061093502620547 816.5094823359968
58848 73030.0 -60.997775550453724 16.63997472410602 816.3313024919233
58848 73040.0 -60.432581281378845 16.232071440197927 816.150591323315
58848 73050.0 -59.86636000336454 15.836658353163672 815.9674261895638
58848 73060.0 -59.29916471509467 15.45306021375082 815.781885517551
58848 73070.0 -58.73104463764975 15.08064770923474 815.5940487688653
58848 73080.0 -58.162045539114985 14.718833734508092 815.4039964063622
58848 73090.0 -57.59221002728683 14.367070007197768 815.2118098604072
58848 73100.0 -57.02157781399391 14.024843991987746 815.0175714945925
58848 73110.0 -56.450185954123754 13.691676103010904 814.8213645710628
58848 73120.0 -55.878069062075355 13.36711715659532 814.6232732154795
58848 73130.0 -55.30525950803912 13.050746049515924 814.4233823814791
58848 73140.0 -54.73178759622124 12.742167640643629 814.221777814848
58848 73150.0 -54.15768172688744 12.441010816140155 814.0185460172893
58848 73160.0 -53.58296854388274 12.14692672048956 813.813774209807
58848 73170.0 -53.007673069100775 11.859587137515431 813.6075502958053
58848 73180.0 -52.43181882520652 11.578683007123994 813.3999628238186
58848 73190.0 -51.85542794777536 11.303923065074699 813.191100949965
58848 73200.0 -51.27852128788047 11.035032594283715 812.9810544000788
58848 73210.0 -50.70111850605269 10.771752277432864 812.7699134315453
58848 73220.0 -50.12323815843412 10.513837141602753 812.5577687949345
58848 73230.0 -49.544897775862275 10.261055586633056 812.3447116953316
58848 73240.0 -48.96611393654189 10.013188489722122 812.1308337534442
58848 73250.0 -48.38690233289634 9.77002837952028 811.9162269665153
58848 73260.0 -47.807277833127095 9.53137867358042 811.7009836689834
58848 73270.0 -47.227254537957606 9.29705297372763 811.485196493038
58848 73280.0 -46.64684583298865 9.066874414318685 811.2689583289243
58848 73290.0 -46.066064437052624 8.840675058919285 811.0523622851578
58848 73300.0 -45.48492244691227 8.618295341289087 810.8355016485589
58848 73310.0 -44.903431378619636 8.399583547017452 810.6184698442278
58848 73320.0 -44.321602205816696 8.184395332412679 810.4013603953048
58848 73330.0 -43.7394453952367 7.972593277614149 810.1842668828094
58848 73340.0 -43.1569709396367 7.764046471168969 809.9672829052726
58848 73350.0 -42.57418838837372 7.558630123511033 809.7505020383757
58848 73360.0 -41.99110687581393 7.356225207092859 809.5340177945767
58848 73370.0 -41.40773514775091 7.156718121034057 809.3179235826801
58848 73380.0 -40.824081585989546 6.960000378392842 809.1023126674063
58848 73390.0 -40.2401542312407 6.765968314321561 808.8872781290725
58848 73400.0 -39.65596080445648 6.5745228134924325 808.6729128231597
58848 73410.0 -39.07150872672766 6.385569055351402 808.459309340081
58848 73420.0 -38.48680513785144 6.199016275845656 808.2465599649065
58848 73430.0 -37.901856913670144 6.014777544407944 808.0347566372903
58848 73440.0 -37.316670682271294 5.832769555080585 807.8239909114131
58848 73450.0 -36.73125283913467 5.652912430740811 807.6143539160876
58848 73460.0 -36.1456095613012 5.475129539473635 807.4059363150333
58848 73470.0 -35.55974682063615 5.299347322227118 807.1988282672826
58848 73480.0 -34.97367039624878 5.125495130954756 806.9931193877596
58848 73490.0 -34.38738588613085 4.953505076502678 806.7888987081114
58848 73500.0 -33.800898718066136 4.783311885541799 806.5862546376694
58848 73510.0 -33.21421415986362 4.614852765960466 806.3852749247653
58848 73520.0 -32.6273373289582 4.448067280086928 806.1860466181398
58848 73530.0 -32.04027320142412 4.282897225250073 805.9886560288006
58848 73540.0 -31.453026620439537 4.119286521165767 805.7931886920222
58848 73550.0 -30.865602304238255 3.957181103676229 805.5997293297129
58848 73560.0 -30.278004853583845 3.7965288244596698 805.4083618131468
58848 73570.0 -29.690238758795367 3.6372793562671153 805.2191691259121
58848 73580.0 -29.102308406355693 3.4793841033755286 805.032233327355
58848 73590.0 -28.514218085127506 3.3227961168694637 804.8476355163126
58848 73600.0 -27.925971992203532 3.1674700144787034 804.6654557952752
58848 73610.0 -27.337574238411616 3.0133619046648694 804.4857732349222
58848 73620.0 -26.749028853499016 2.8604293146707236 804.3086658391305
58848 73630.0 -26.160339791013456 2.7086311223210418 804.134210510391
58848 73640.0 -25.571510932901287 2.5579274912924634 803.9624830156879
58848 73650.0 -24.982546093837886 2.408279809674899 803.7935579529044
58848 73660.0 -24.39344902530893 2.2596506316046425 803.6275087175754
58848 73670.0 -23.804223419455354 2.1120036217643126 803.4644074703841
58848 73680.0 -23.214872912697913 1.9653035026121868 803.3043251049347
58848 73690.0 -22.625401089152128 1.8195160041259493 803.1473312162401
58848 73700.0 -22.035811483848377 1.6746078159583615 802.9934940696572
58848 73710.0 -21.44610758576678 1.5305465418096573 802.842880570484
58848 73720.0 -20.856292840698824 1.3873006559223247 802.695556234052
58848 73730.0 -20.26637065394418 1.2448394615566356 802.5515851564755
58848 73740.0 -19.676344392854325 1.1031330513024893 802.4110299859841
58848 73750.0 -19.08621738922997 0.9621522691792734 802.2739518949281
58848 73760.0 -18.495992941582106 0.8218686743476704 802.1404105523558
58848 73770.0 -17.905674317262655 0.6822545063756718 802.0104640973196
58848 73780.0 -17.315264754474455 0.5432826519728923 801.8841691127587
58848 73790.0 -16.724767464165623 0.40492661306923267 801.7615806002086
58848 73800.0 -16.134185631815896 0.2671604761939859 801.6427519550197
58848 73810.0 -15.543522419121965 0.1299588830609517 801.5277349424737
58848 73820.0 -14.95278096558356 -0.006702997718120533 801.4165796744337
58848 73830.0 -14.361964390002397 -0.14284949785454848 801.309334586882
58848 73840.0 -13.771075791894415 -0.27850447559695596 801.2060464180963
58848 73850.0 -13.18011825282129 -0.41369134100453137 801.1067601876372
58848 73860.0 -12.589094837647245 -0.5484330803563905 801.0115191760709
58848 73870.0 -11.998008595724611 -0.6827522797114192 800.92036490544
58848 73880.0 -11.40686256201316 -0.8166711477198724 800.8333371206228
58848 73890.0 -10.815659758136222 -0.9502115376966741 800.7504737713297
58848 73900.0 -10.224403193379192 -1.0833949690198297 800.6718109950489
58848 73910.0 -9.633095865632855 -1.2162426479145152 800.5973831006787
58848 73920.0 -9.041740762286317 -1.3487754876344489 800.5272225531197
58848 73930.0 -8.450340861071322 -1.4810141281100335 800.4613599585234
58848 73940.0 -7.858899130863526 -1.6129789550811002 800.3998240505235
58848 73950.0 -7.267418532442238 -1.7446901187804336 800.342641677249
58848 73960.0 -6.675902019213037 -1.876167552173203 800.2898377891527
58848 73970.0 -6.084352537894675 -2.007430988800462 800.2414354277672
58848 73980.0 -5.4927730291752175 -2.1384999802876514 800.1974557152483
58848 73990.0 -4.901166428338823 -2.2693939134870362 800.1579178448551
58848 74000.0 -4.309535665866432 -2.4001320273565656 800.1228390722533
58848 74010.0 -3.7178836680135725 -2.5307334295754873 800.0922347076719
58848 74020.0 -3.1262133573664954 -2.661217112895673 800.0661181090262
58848 74030.0 -2.5345276533812076 -2.7916019713306794 800.0445006758358
58848 74040.0 -1.942829472906396 -2.9219068161361252 800.0273918440762
58848 74050.0 -1.3511217306939989 -3.052150391670678 800.014799081891
58848 74060.0 -0.7594073398982462 -3.18235139112301 800.0067278862355
58848 74070.0 -0.16768921256773328 -3.312528472149053 800.0031817803543
58848 74080.0 0.4240297398686917 -3.4427002724618667 800.0041623122206
58848 74090.0 1.0157466061185407 -3.5728854253697326 800.0096690538122
58848 74100.0 1.6074584745440053 -3.7031025753171387 800.0196996013025
58848 74110.0 2.1991624326775194 -3.83337039343477 800.0342495761473
58848 74120.0 2.79085556673376 -3.9637075931527783 800.0533126271151
58848 74130.0 3.382534961114411 -4.094132945873646 800.0768804330974
58848 74140.0 3.9741976979048834 -4.224665296745071 800.1049427069074
58848 74150.0 4.565840856358421 -4.355323580587002 800.1374871999463
58848 74160.0 5.157461512366798 -4.486126837935862 800.1744997077351
58848 74170.0 5.749056737913728 -4.617094231316332 800.2159640763541
58848 74180.0 6.340623600510133 -4.748245061704782 800.2618622097373
58848 74190.0 6.932159162606503 -4.879598785238807 800.3121740779019
58848 74200.0 7.523660480981382 -5.011175030228043 800.3668777259517
58848 74210.0 8.11512460610191 -5.142993614432362 800.4259492840727
58848 74220.0 8.706548581455285 -5.275074562722274 800.4893629782658
58848 74230.0 9.297929442846169 -5.40743812508888 800.5570911420607
58848 74240.0 9.889264217658768 -5.5401047950630415 800.6291042289635
58848 74250.0 10.480549924079071 -5.673095328604397 800.7053708258525
58848 74260.0 11.071783570275977 -5.806430763432093 800.7858576671367
58848 74270.0 11.662962153535725 -5.940132438917551 800.8705296497981
58848 74280.0 12.254082659347924 -6.074222016514831 800.9593498492263
58848 74290.0 12.84514206043845 -6.208721500797269 801.0522795358711
58848 74300.0 13.43613731574702 -6.343653261156832 801.1492781927193
58848 74310.0 14.027065369343623 -6.479040054182884 801.2503035335674
58848 74320.0 14.617923149281337 -6.614905046792267 801.355311522061
58848 74330.0 15.208707566380154 -6.751271840154702 801.4642563915394
58848 74340.0 15.799415512938879 -6.888164494458537 801.5770906656231
58848 74350.0 16.390043861368582 -7.025607554598248 801.693765179605
58848 74360.0 16.98058946274422 -7.163626076810859 801.8142291025331
58848 74370.0 17.571049145268077 -7.302245656348819 801.9384299600653
58848 74380.0 18.16141971264137 -7.441492456246405 802.06631365804
58848 74390.0 18.751697942336026 -7.581393237251433 802.1978245067738
58848 74400.0 19.34188058376243 -7.721975388999492 802.3329052460308
58848 74410.0 19.931964356325505 -7.863266962497486 802.4714970707229
58848 74420.0 20.521945947363886 -8.005296704037551 802.6135396572278
58848 74430.0 21.111822009963184 -8.148094090562928 802.7589711904204
58848 74440.0 21.70158916063709 -8.291689366662606 802.9077283913517
58848 74450.0 22.291243976867467 -8.43611358323055 803.0597465455384
