CIC_AEM_VERS = 1.0
CREATION_DATE = 2023-03-16T10:50:10.565Z
ORIGINATOR = CS Group

META_START
OBJECT_NAME = horus_eye_43
OBJECT_ID = horus_eye_43
CENTER_NAME = null
REF_FRAME_A = EME2000
REF_FRAME_B = SC_BODY_1
ATTITUDE_DIR = A2B
TIME_SYSTEM = UTC
START_TIME = 2019-12-31T19:00:00.0
STOP_TIME = 2019-12-31T20:40:53.0
ATTITUDE_TYPE = QUATERNION
QUATERNION_TYPE = LAST
META_STOP

58848 68400.0 0.24373795256414338 -0.7180288542564534 -0.2883458960720393 -0.5847076356209288
58848 68410.0 0.2400076557318424 -0.7192843319961175 -0.29137700552709517 -0.5832030654798269
58848 68420.0 0.23627089244655908 -0.7205204302776586 -0.29440026450046325 -0.5816827822766129
58848 68430.0 0.2325277633867663 -0.7217371157972575 -0.29741559153739994 -0.5801468269718129
58848 68440.0 0.2287783694024465 -0.7229343557741279 -0.3004229053968699 -0.5785952409482017
58848 68450.0 0.22502281151237788 -0.7241121179513991 -0.3034221250537336 -0.5770280660096877
58848 68460.0 0.22126119090140894 -0.7252703705969837 -0.3064131697009323 -0.5754453443801868
58848 68470.0 0.21749360891773598 -0.7264090825044347 -0.3093959587516627 -0.5738471187024847
58848 68480.0 0.2137201670701695 -0.7275282229937851 -0.31237041184155084 -0.5722334320370874
58848 68490.0 0.20994096702540138 -0.7286277619123741 -0.31533644883081485 -0.5706043278610625
58848 68500.0 0.20615611060526387 -0.7297076696356604 -0.3182939898064264 -0.568959850066866
58848 68510.0 0.2023656997839883 -0.73076791706802 -0.3212429550842612 -0.5673000429611613
58848 68520.0 0.19856983668545566 -0.7318084756435302 -0.32418326521124924 -0.565624951263624
58848 68530.0 0.19476862358044683 -0.7328293173267388 -0.32711484096751164 -0.5639346201057386
58848 68540.0 0.19096216288388512 -0.7338304146134204 -0.33003760336849863 -0.5622290950295811
58848 68550.0 0.18715055715207957 -0.7348117405313161 -0.332951473667115 -0.5605084219865929
58848 68560.0 0.18333390907995867 -0.7357732686408615 -0.3358563733558433 -0.5587726473363425
58848 68570.0 0.17951232149830681 -0.7367149730358983 -0.33875222416885775 -0.5570218178452763
58848 68580.0 0.17568589737099066 -0.7376368283443725 -0.3416389480841347 -0.5552559806854583
58848 68590.0 0.17185473979218763 -0.7385388097290185 -0.3445164673255527 -0.5534751834333004
58848 68600.0 0.1680189519836059 -0.7394208928880265 -0.34738470436499 -0.5516794740682788
58848 68610.0 0.16417863729170587 -0.7402830540556999 -0.3502435819244112 -0.5498689009716429
58848 68620.0 0.16033389918491292 -0.7411252700030934 -0.3530930229779518 -0.5480435129251104
58848 68630.0 0.15648484125083245 -0.7419475180386397 -0.35593295075399106 -0.5462033591095546
58848 68640.0 0.15263156719345658 -0.7427497760087614 -0.35876328873722263 -0.5443484891036774
58848 68650.0 0.1487741808303722 -0.7435320222984666 -0.36158396067071386 -0.5424789528826753
58848 68660.0 0.14491278608996153 -0.7442942358319329 -0.36439489055796265 -0.5405948008168915
58848 68670.0 0.1410474870086047 -0.7450363960730733 -0.36719600266494284 -0.5386960836704602
58848 68680.0 0.137178387727874 -0.7457584830260913 -0.36998722152214697 -0.5367828525999372
58848 68690.0 0.13330559249173055 -0.7464604772360185 -0.37276847192661694 -0.5348551591529235
58848 68700.0 0.12942920564371307 -0.7471423597892394 -0.37553967894397294 -0.5329130552666747
58848 68710.0 0.12554933162412948 -0.7478041123140003 -0.37830076791043 -0.530956593266703
58848 68720.0 0.12166607496724009 -0.7484457169809056 -0.3810516644348117 -0.5289858258653665
58848 68730.0 0.11777954029844397 -0.749067156503396 -0.38379229440055246 -0.5270008061604496
58848 68740.0 0.11388983233145723 -0.7496684141382164 -0.3865225839676963 -0.5250015876337321
58848 68750.0 0.1099970558654946 -0.750249473685866 -0.38924245957488507 -0.5229882241495483
58848 68760.0 0.10610131578244308 -0.750810319491035 -0.3919518479413406 -0.5209607699533356
58848 68770.0 0.10220271704403881 -0.7513509364430261 -0.3946506760688396 -0.5189192796701737
58848 68780.0 0.09830136468903662 -0.7518713099761615 -0.39733887124368017 -0.5168638083033115
58848 68790.0 0.09439736383038201 -0.7523714260701762 -0.4000163610386399 -0.5147944112326868
58848 68800.0 0.09049081965237779 -0.7528512712505948 -0.40268307331492953 -0.5127111442134326
58848 68810.0 0.08658183740785144 -0.7533108325890955 -0.40533893622413386 -0.5106140633743764
58848 68820.0 0.08267052241531724 -0.7537500977038574 -0.40798387821015003 -0.5085032252165266
58848 68830.0 0.07875698005614135 -0.7541690547598943 -0.4106178280111133 -0.5063786866115515
58848 68840.0 0.07484131577170018 -0.7545676924693744 -0.4132407146613187 -0.5042405048002458
58848 68850.0 0.0709236350605407 -0.7549460000919239 -0.4158524674931322 -0.502088737390989
58848 68860.0 0.06700404347553844 -0.7553039674349156 -0.41845301613889474 -0.4999234423581935
58848 68870.0 0.06308264662105267 -0.7556415848537448 -0.42104229053281783 -0.4977446780407424
58848 68880.0 0.05915955015008141 -0.7559588432520887 -0.42362022091287255 -0.4955525031404172
58848 68890.0 0.055234859761414366 -0.7562557340821507 -0.4261867378226677 -0.49334697672031685
58848 68900.0 0.05130868119678691 -0.7565322493448924 -0.4287417721133219 -0.49112815820326616
58848 68910.0 0.04738112023802928 -0.756788381590247 -0.4312852549453262 -0.48889610737021527
58848 68920.0 0.043452282704216846 -0.7570241239173218 -0.43381711779039955 -0.48665088435862797
58848 68930.0 0.0395222744488195 -0.7572394699745835 -0.4363372924333347 -0.4843925496608621
58848 68940.0 0.03559120135685009 -0.7574344139600285 -0.43884571097383507 -0.4821211641225402
58848 68950.0 0.031659169342009984 -0.7576089506213415 -0.44134230582834666 -0.47983678894090886
58848 68960.0 0.027726284343837712 -0.757763075256033 -0.4438270097318757 -0.47753948566319165
58848 68970.0 0.023792652324852302 -0.7578967837115714 -0.44629975573980457 -0.47522931618492864
58848 68980.0 0.019858379267700694 -0.75801007238549 -0.44876047722969203 -0.4729063427483112
58848 68990.0 0.015923571172299884 -0.7581029382254868 -0.4512091079030706 -0.470570627940503
58848 69000.0 0.011988334052983593 -0.758175378729506 -0.4536455817872317 -0.468222234691955
58848 69010.0 0.008052773935643189 -0.758227391945805 -0.4560698332370036 -0.4658612262747093
58848 69020.0 0.0041169968548739316 -0.7582589764730073 -0.4584817969365193 -0.46348766630069504
58848 69030.0 1.8110885111527835E-4 -0.7582701314601412 -0.4608814079009778 -0.46110161872001343
58848 69040.0 -0.0037547840322035707 -0.758260856606661 -0.4632686014783931 -0.4587031478192164
58848 69050.0 -0.00769057575152314 -0.7582311521624563 -0.46564331335133835 -0.4562923182195724
58848 69060.0 -0.011626160266008158 -0.758181018927845 -0.4680054795386759 -0.45386919487532773
58848 69070.0 -0.015561431540407657 -0.758110458253551 -0.4703550363972839 -0.45143384307195433
58848 69080.0 -0.019496283547908347 -0.7580194720406696 -0.472691920623769 -0.44898632842439273
58848 69090.0 -0.02343061027299509 -0.7579080627406142 -0.4750160692561736 -0.4465267168752822
58848 69100.0 -0.02736430571430335 -0.757776233355052 -0.47732741967566994 -0.4440550746931858
58848 69110.0 -0.031297263887478784 -0.7576239874358213 -0.47962590960825036 -0.44157146847080436
58848 69120.0 -0.03522937882802956 -0.7574513290848377 -0.4819114771264018 -0.4390759651231817
58848 69130.0 -0.039160544594184304 -0.7572582629539824 -0.4841840606507771 -0.4365686318859028
58848 69140.0 -0.04309065526974332 -0.7570447942449773 -0.4864435989518515 -0.43404953631328125
58848 69150.0 -0.04701960496693544 -0.7568109287092446 -0.4886900311515752 -0.4315187462765396
58848 69160.0 -0.05094728782926803 -0.7565566726477518 -0.49092329672501106 -0.42897632996198154
58848 69170.0 -0.054873598034381875 -0.7562820329108427 -0.49314333550196676 -0.4264223558691532
58848 69180.0 -0.058798429796899136 -0.7559870168980516 -0.4953500876686154 -0.4238568928089989
58848 69190.0 -0.0627216773712767 -0.755671632557905 -0.4975434937691072 -0.42128000990200626
58848 69200.0 -0.06664323505465267 -0.7553358883877067 -0.49972349470717126 -0.418691776576345
58848 69210.0 -0.07056299718969639 -0.7549797934333096 -0.5018900317477082 -0.4160922625659947
58848 69220.0 -0.07448085816745294 -0.7546033572888711 -0.5040430465183716 -0.413481537908868
58848 69230.0 -0.07839671243019102 -0.7542065900965953 -0.5061824810111427 -0.410859672944922
58848 69240.0 -0.08231045447424415 -0.7537895025464597 -0.5083082775838904 -0.40822673831426415
58848 69250.0 -0.08622197885285618 -0.7533521058759267 -0.5104203789619275 -0.4055828049552477
58848 69260.0 -0.09013118017901961 -0.7528944118696412 -0.5125187282395509 -0.40292794410256216
58848 69270.0 -0.09403795312831732 -0.7524164328591131 -0.514603268881577 -0.4002622272853128
58848 69280.0 -0.09794219244175804 -0.7519181817223849 -0.5166739447248638 -0.3975857263250938
58848 69290.0 -0.10184379292861455 -0.7513996718836848 -0.5187306999798244 -0.3948985133340535
58848 69300.0 -0.10574264946925648 -0.7508609173130653 -0.52077347923193 -0.3922006607129504
58848 69310.0 -0.10963865701798221 -0.750301932526026 -0.5228022274432028 -0.38949224114920405
58848 69320.0 -0.11353171060584986 -0.7497227325831234 -0.5248168899536991 -0.3867733276149364
58848 69330.0 -0.11742170534350554 -0.7491233330895646 -0.5268174124829825 -0.384043993365004
58848 69340.0 -0.12130853642400921 -0.7485037501947873 -0.5288037411315851 -0.38130431193502606
58848 69350.0 -0.12519209912565762 -0.7478640005920243 -0.5307758223824607 -0.3785543571394029
58848 69360.0 -0.12907228881480629 -0.7472041015178538 -0.5327336031024262 -0.3757942030693271
58848 69370.0 -0.13294900094868972 -0.7465240707517348 -0.5346770305435936 -0.373023924090787
58848 69380.0 -0.13682213107823687 -0.7458239266155288 -0.5366060523447909 -0.37024359484256264
58848 69390.0 -0.14069157485088513 -0.7451036879730053 -0.5385206165329726 -0.3674532902342163
58848 69400.0 -0.14455722801339194 -0.7443633742293344 -0.5404206715246201 -0.36465308544407354
58848 69410.0 -0.14841898641464496 -0.743603005330563 -0.5423061661271322 -0.36184305591719634
58848 69420.0 -0.1522767460084671 -0.7428226017630782 -0.544177049540204 -0.3590232773633522
58848 69430.0 -0.15613040285641933 -0.7420221845530551 -0.5460332713571944 -0.3561938257549738
58848 69440.0 -0.15997985313060142 -0.74120177526589 -0.5478747815664857 -0.3533547773251123
58848 69450.0 -0.16382499311645055 -0.7403613960056202 -0.549701530552831 -0.35050620856538217
58848 69460.0 -0.1676657192155343 -0.7395010694143271 -0.55151346909869 -0.3476481962239014
58848 69470.0 -0.17150192794834182 -0.7386208186715275 -0.553310548385556 -0.3447808173032247
58848 69480.0 -0.17533351595707303 -0.7377206674935484 -0.5550927199952702 -0.34190414905826577
58848 69490.0 -0.17916038000842155 -0.7368006401328883 -0.5568599359113269 -0.33901826899421955
58848 69500.0 -0.18298241699635848 -0.735860761377563 -0.5586121485201679 -0.3361232548644708
58848 69510.0 -0.1867995239449077 -0.734901056550439 -0.5603493106124635 -0.33321918466850187
58848 69520.0 -0.1906115980109228 -0.7339215515085507 -0.562071375384386 -0.3303061366497886
58848 69530.0 -0.1944185364868557 -0.7329222726424031 -0.5637782964388699 -0.3273841892936948
58848 69540.0 -0.19822023680352596 -0.7319032468752614 -0.5654700277868631 -0.32445342132535543
58848 69550.0 -0.20201659653288231 -0.7308645016624261 -0.5671465238485635 -0.32151391170755744
58848 69560.0 -0.20580751339076442 -0.7298060649904919 -0.5688077394546502 -0.31856573963861035
58848 69570.0 -0.20959288523965636 -0.7287279653765951 -0.5704536298474984 -0.3156089845502146
58848 69580.0 -0.2133726100914407 -0.7276302318676443 -0.5720841506823856 -0.31264372610531904
58848 69590.0 -0.21714658611014445 -0.7265128940395383 -0.5736992580286868 -0.3096700441959771
58848 69600.0 -0.22091471161468462 -0.725375981996369 -0.5752989083710582 -0.3066880189411918
58848 69610.0 -0.22467688508160574 -0.7242195263696104 -0.5768830586106088 -0.3036977306847597
58848 69620.0 -0.2284330051478176 -0.7230435583172932 -0.5784516660660629 -0.30069925999310376
58848 69630.0 -0.23218297061332346 -0.7218481095231659 -0.580004688474908 -0.2976926876531045
58848 69640.0 -0.23592668044394957 -0.7206332121958399 -0.5815420839945364 -0.29467809466992206
58848 69650.0 -0.23966403377406428 -0.7193988990679233 -0.5830638112033696 -0.2916555622648152
58848 69660.0 -0.24339492990929887 -0.7181452033951374 -0.5845698291019762 -0.288625171872951
58848 69670.0 -0.24711926832925718 -0.7168721589554224 -0.5860600971141755 -0.28558700514121305
58848 69680.0 -0.25083694869022716 -0.7155798000480256 -0.587534575088132 -0.2825411439259994
58848 69690.0 -0.2545478708278814 -0.7142681614925784 -0.5889932232974355 -0.2794876702910191
58848 69700.0 -0.25825193475997804 -0.7129372786281581 -0.5904360024421728 -0.2764266665050797
58848 69710.0 -0.261949040689054 -0.7115871873123351 -0.591862873649986 -0.27335821503987134
58848 69720.0 -0.265639089005113 -0.7102179239202074 -0.5932737984771203 -0.2702823985677452
58848 69730.0 -0.26932198028830934 -0.7088295253434208 -0.594668738909458 -0.2671992999594854
58848 69740.0 -0.2729976153116284 -0.7074220289891742 -0.5960476573635455 -0.2641090022820761
58848 69750.0 -0.27666589504355826 -0.7059954727792117 -0.5974105166876039 -0.2610115887964639
58848 69760.0 -0.280326720650758 -0.704549895148802 -0.5987572801625305 -0.25790714295531453
58848 69770.0 -0.28397999350072056 -0.7030853350457017 -0.6000879115028882 -0.25479574840076474
58848 69780.0 -0.28762561516443164 -0.7016018319291064 -0.6014023748578833 -0.25167748896216774
58848 69790.0 -0.2912634874190202 -0.7000994257685876 -0.602700634812331 -0.24855244865383522
58848 69800.0 -0.2948935122504045 -0.6985781570430157 -0.6039826563876096 -0.24542071167277404
58848 69810.0 -0.29851559185593374 -0.6970380667394698 -0.605248405042603 -0.24228236239641773
58848 69820.0 -0.30212962864702336 -0.6954791963521322 -0.6064978466746324 -0.2391374853803524
58848 69830.0 -0.305735525251784 -0.6939015878811718 -0.6077309476203729 -0.23598616535603878
58848 69840.0 -0.30933318451764413 -0.6923052838316122 -0.6089476746567624 -0.23282848722853045
58848 69850.0 -0.3129225095139683 -0.6906903272121858 -0.6101479950018956 -0.22966453607418516
58848 69860.0 -0.31650340353466977 -0.6890567615341757 -0.6113318763159087 -0.22649439713837247
58848 69870.0 -0.3200757701008143 -0.6874046308102431 -0.6124992867018482 -0.22331815583317752
58848 69880.0 -0.3236395129632202 -0.6857339795532416 -0.6136501947065328 -0.2201358977351002
58848 69890.0 -0.32719453610505145 -0.684044852775018 -0.6147845693213996 -0.216947708582749
58848 69900.0 -0.33074074374440526 -0.6823372959851993 -0.6159023799833396 -0.2137536742745305
58848 69910.0 -0.3342780403368924 -0.6806113551899665 -0.6170035965755217 -0.2105538808663354
58848 69920.0 -0.33780633057821036 -0.6788670768908157 -0.6180881894282034 -0.20734841456922107
58848 69930.0 -0.3413255194067129 -0.6771045080833044 -0.6191561293195306 -0.20413736174708655
58848 69940.0 -0.34483551200596957 -0.6753236962557857 -0.6202073874763249 -0.2009208089143481
58848 69950.0 -0.3483362138073222 -0.6735246893881288 -0.6212419355748589 -0.19769884273360608
58848 69960.0 -0.35182753049243043 -0.6717075359504268 -0.6222597457416189 -0.19447155001331182
58848 69970.0 -0.35530936799581536 -0.6698722849016894 -0.6232607905540565 -0.19123901770542723
58848 69980.0 -0.35878163250739187 -0.6680189856885257 -0.6242450430413268 -0.1880013329030837
58848 69990.0 -0.3622442304749982 -0.66614768824381 -0.6252124766850161 -0.18475858283823376
58848 70000.0 -0.36569706860691364 -0.6642584429853384 -0.6261630654198544 -0.1815108548793027
58848 70010.0 -0.3691400538743757 -0.6623513008144688 -0.6270967836344201 -0.17825823652883277
58848 70020.0 -0.37257309351408274 -0.6604263131147504 -0.6280136061718287 -0.17500081542112747
58848 70030.0 -0.3759960950306969 -0.658483531750539 -0.6289135083304099 -0.17173867931988848
58848 70040.0 -0.37940896619933273 -0.6565230090655997 -0.6297964658643752 -0.16847191611585333
58848 70050.0 -0.38281161506804506 -0.6545447978816964 -0.6306624549844689 -0.16520061382442486
58848 70060.0 -0.38620394996030394 -0.6525489514971692 -0.6315114523586111 -0.16192486058330244
58848 70070.0 -0.38958587947746676 -0.6505355236854976 -0.6323434351125241 -0.15864474465010484
58848 70080.0 -0.39295731250123866 -0.6485045686938525 -0.6331583808303515 -0.1553603543999946
58848 70090.0 -0.39631815819612964 -0.646456141241634 -0.6339562675552588 -0.15207177832329474
58848 70100.0 -0.39966832601189983 -0.6443902965189976 -0.634737073790028 -0.14877910502310696
58848 70110.0 -0.4030077256860014 -0.6423070901853666 -0.635500778497635 -0.14548242321292193
58848 70120.0 -0.40633626724600796 -0.6402065783679333 -0.6362473611018175 -0.14218182171423177
58848 70130.0 -0.40965386101204104 -0.6380888176601461 -0.6369768014876279 -0.13887738945413397
58848 70140.0 -0.41296041759918467 -0.6359538651201854 -0.6376890800019765 -0.13556921546293865
58848 70150.0 -0.4162558479198944 -0.6338017782694252 -0.6383841774541614 -0.1322573888717672
58848 70160.0 -0.41954006318639764 -0.6316326150908844 -0.6390620751163838 -0.12894199891015196
58848 70170.0 -0.422812974913085 -0.6294464340276644 -0.6397227547242538 -0.12562313490363244
58848 70180.0 -0.426074494918895 -0.627243293981374 -0.6403661984772829 -0.12230088627134858
58848 70190.0 -0.4293245353296903 -0.6250232543105427 -0.6409923890393621 -0.1189753425236305
58848 70200.0 -0.43256300858062485 -0.6227863748290212 -0.6416013095392308 -0.11564659325958766
58848 70210.0 -0.4357898274185022 -0.6205327158043706 -0.6421929435709293 -0.11231472816469533
58848 70220.0 -0.4390049049041277 -0.6182623379562382 -0.6427672751942428 -0.10897983700837759
58848 70230.0 -0.44220815441465067 -0.6159753024547204 -0.64332428893513 -0.10564200964158843
58848 70240.0 -0.44539948964589776 -0.6136716709187167 -0.6438639697861396 -0.10230133599439088
58848 70250.0 -0.448578824614698 -0.6113515054142681 -0.644386303206815 -0.09895790607353547
58848 70260.0 -0.45174607366120006 -0.6090148684528854 -0.6448912751240867 -0.0956118099600338
58848 70270.0 -0.4549011514511802 -0.6066618229898649 -0.6453788719326502 -0.09226313780673144
58848 70280.0 -0.45804397297834115 -0.6042924324225916 -0.6458490804953338 -0.08891197983587953
58848 70290.0 -0.4611744535666019 -0.6019067605888323 -0.6463018881434518 -0.08555842633670403
58848 70300.0 -0.4642925088723796 -0.599504871765015 -0.6467372826771458 -0.08220256766297342
58848 70310.0 -0.46739805488686254 -0.5970868306644966 -0.6471552523657138 -0.07884449423056274
58848 70320.0 -0.47049100793827303 -0.5946527024358199 -0.6475557859479264 -0.07548429651501892
58848 70330.0 -0.4735712846941211 -0.5922025526609587 -0.6479388726323295 -0.07212206504912314
58848 70340.0 -0.47663880216345034 -0.5897364473535506 -0.6483045020975354 -0.06875789042045162
58848 70350.0 -0.47969347769907467 -0.5872544529571173 -0.648652664492501 -0.06539186326893376
58848 70360.0 -0.48273522899980403 -0.5847566363432762 -0.6489833504367937 -0.062024074284410785
58848 70370.0 -0.48576397411266165 -0.5822430648099377 -0.6492965510208424 -0.05865461420419378
58848 70380.0 -0.48877963143509273 -0.5797138060794919 -0.6495922578061796 -0.05528357381061639
58848 70390.0 -0.4917821197171629 -0.5771689282969849 -0.6498704628256681 -0.05191104392859085
58848 70400.0 -0.4947713580637475 -0.5746085000282808 -0.6501311585837146 -0.048537115423159465
58848 70410.0 -0.49774726593671026 -0.5720325902582175 -0.650374338056473 -0.045161879197048005
58848 70420.0 -0.5007097631570738 -0.5694412683887452 -0.650599994692033 -0.041785426188215784
58848 70430.0 -0.5036587699071805 -0.5668346042370574 -0.6508081224105966 -0.038407847367405074
58848 70440.0 -0.5065942067328418 -0.5642126680337111 -0.6509987156046428 -0.035029233735690196
58848 70450.0 -0.50951599454548 -0.5615755304207317 -0.6511717691390767 -0.03164967632202708
58848 70460.0 -0.5124240546242576 -0.558923262449714 -0.6513272783513702 -0.02826926618079928
58848 70470.0 -0.5153183086182002 -0.556255935579903 -0.651465239051686 -0.024888094389364717
58848 70480.0 -0.5181986785483064 -0.5535736216762726 -0.6515856475229908 -0.021506252045602445
58848 70490.0 -0.5210650868096485 -0.550876393007587 -0.6516885005211562 -0.018123830265458163
58848 70500.0 -0.5239174561734637 -0.5481643222444549 -0.6517737952750453 -0.014740920180489328
58848 70510.0 -0.5267557097892356 -0.5454374824573706 -0.6518415294865872 -0.011357612935409421
58848 70520.0 -0.5295797711867635 -0.5426959471147459 -0.6518917013308404 -0.007973999685632152
58848 70530.0 -0.5323895642782237 -0.5399397900809303 -0.6519243094560396 -0.0045901715948159635
58848 70540.0 -0.5351850133602187 -0.537169085614221 -0.6519393529836347 -0.0012062198324079528
58848 70550.0 -0.5379660431158175 -0.534383908364863 -0.6519368315083116 0.0021777644288121577
58848 70560.0 -0.5407325786165845 -0.531584333373036 -0.6519167450980065 0.005561690015190299
58848 70570.0 -0.543484545324599 -0.528770436066834 -0.6518790942939008 0.008945465754653015
58848 70580.0 -0.5462218690944617 -0.5259422922602331 -0.651823880110409 0.012329000479163426
58848 70590.0 -0.5489444761752941 -0.5230999781510489 -0.65175110403515 0.015712203027178205
58848 70600.0 -0.5516522932127251 -0.5202435703188819 -0.651660768028907 0.019094982246104578
58848 70610.0 -0.5543452472508675 -0.5173731457230559 -0.6515528745255759 0.022477246994755232
58848 70620.0 -0.5570232657342826 -0.5144887817005447 -0.6514274264320981 0.025858906145803644
58848 70630.0 -0.5596862765099359 -0.5115905559638875 -0.6512844271283834 0.029239868588239244
58848 70640.0 -0.5623342078291413 -0.5086785465990953 -0.6511238804672183 0.03262004322982406
58848 70650.0 -0.5649669883494943 -0.5057528320635468 -0.6509457907741627 0.035999338999544925
58848 70660.0 -0.567584547136793 -0.5028134911838757 -0.6507501628474325 0.03937766485006751
58848 70670.0 -0.57018681366695 -0.49986060315384606 -0.6505370019577713 0.04275492976018977
58848 70680.0 -0.5727737178278928 -0.49689424753221817 -0.650306313848308 0.046131042737294695
58848 70690.0 -0.575345189921453 -0.49391450424060546 -0.6500581047344017 0.04950591281980148
58848 70700.0 -0.5779011606652429 -0.4909214535613217 -0.6497923813034748 0.0528794490796159
58848 70710.0 -0.5804415611945228 -0.48791517613521795 -0.6495091507148327 0.05625156062458021
58848 70720.0 -0.5829663230640575 -0.48489575295950865 -0.6492084205994706 0.059622156600922974
58848 70730.0 -0.5854753782499589 -0.4818632653855899 -0.6488901990598681 0.06299114619570642
58848 70740.0 -0.587968659151519 -0.47881779511684897 -0.6485544946697712 0.0663584386392723
58848 70750.0 -0.5904460985930318 -0.47575942420646133 -0.6482013164739603 0.06972394320768807
58848 70760.0 -0.5929076298256029 -0.47268823505518065 -0.6478306739880081 0.07308756922519229
58848 70770.0 -0.5953531865289482 -0.46960431040911804 -0.6474425771980218 0.07644922606663641
58848 70780.0 -0.59778270281318 -0.4665077333575136 -0.6470370365603747 0.0798088231599265
58848 70790.0 -0.6001961132205827 -0.46339858733049816 -0.6466140630014245 0.0831662699884635
58848 70800.0 -0.602593352727377 -0.4602769560968427 -0.6461736679172183 0.0865214760935829
58848 70810.0 -0.6049743567454707 -0.4571429237617047 -0.645715863173187 0.08987435107699163
58848 70820.0 -0.6073390611241997 -0.4539965747643604 -0.6452406611038233 0.09322480460320255
58848 70830.0 -0.6096874021520556 -0.4508379938759304 -0.6447480745123519 0.09657274640196886
58848 70840.0 -0.6120193165584036 -0.4476672661970947 -0.6442381166703827 0.09991808627071724
58848 70850.0 -0.6143347415151859 -0.4444844771558008 -0.6437108013175542 0.10326073407697772
58848 70860.0 -0.6166336146386145 -0.4412897125049625 -0.6431661426611631 0.10660059976081052
58848 70870.0 -0.6189158739908531 -0.4380830583201481 -0.6426041553757811 0.10993759333723423
58848 70880.0 -0.6211814580816847 -0.43486460099726215 -0.6420248546028601 0.1132716248986501
58848 70890.0 -0.6234303058701692 -0.4316344272502173 -0.6414282559503237 0.11660260461726411
58848 70900.0 -0.6256623567662872 -0.42839262410859846 -0.6408143754921476 0.11993044274750655
58848 70910.0 -0.6278775506325727 -0.42513927891531855 -0.6401832297679253 0.12325504962845049
58848 70920.0 -0.6300758277857339 -0.4218744793242631 -0.6395348357824235 0.12657633568622825
58848 70930.0 -0.6322571289982611 -0.4185983132979302 -0.638869211005123 0.129894211436444
58848 70940.0 -0.6344213955000214 -0.41531086910506115 -0.6381863733697494 0.13320858748658423
58848 70950.0 -0.6365685689798433 -0.4120122353182614 -0.6374863412737883 0.1365193745384268
58848 70960.0 -0.6386985915870873 -0.40870250081161347 -0.6367691335779908 0.13982648339044737
58848 70970.0 -0.640811405933205 -0.40538175475828353 -0.6360347696058648 0.14312982494022203
58848 70980.0 -0.6429069550932845 -0.40205008662811803 -0.6352832691431546 0.14642931018682823
58848 70990.0 -0.6449851826075849 -0.39870758618523466 -0.6345146524373074 0.14972485023324236
58848 71000.0 -0.6470460324830561 -0.39535434348560244 -0.633728940196929 0.15301635628873478
58848 71010.0 -0.6490894491948498 -0.3919904488746152 -0.6329261535912243 0.1563037396712634
58848 71020.0 -0.6511153776878136 -0.388615992984658 -0.6321063142494272 0.15958691180986156
58848 71030.0 -0.6531237633779745 -0.3852310667326655 -0.6312694442602189 0.16286578424702472
58848 71040.0 -0.6551145521540099 -0.3818357613176729 -0.6304155661711323 0.16614026864109382
58848 71050.0 -0.657087690378706 -0.3784301682183567 -0.6295447029879438 0.16941027676863585
58848 71060.0 -0.6590431248904022 -0.37501437919057146 -0.628656878174054 0.17267572052682056
58848 71070.0 -0.6609808030044232 -0.37158848626487834 -0.6277521156498562 0.17593651193579365
58848 71080.0 -0.6629006725144994 -0.3681525817440648 -0.6268304397920906 0.17919256314104773
58848 71090.0 -0.6648026816941728 -0.36470675820065673 -0.6258918754331885 0.18244378641578954
58848 71100.0 -0.666686779298191 -0.3612511084744254 -0.6249364478606027 0.18569009416330334
58848 71110.0 -0.6685529145638874 -0.3577857256698865 -0.6239641828161264 0.1889313989193106
58848 71120.0 -0.6704010372125494 -0.35431070315379104 -0.6229751064952002 0.19216761335432683
58848 71130.0 -0.6722310974507727 -0.3508261345526094 -0.6219692455462054 0.19539865027601486
58848 71140.0 -0.6740430459718034 -0.347332113750009 -0.6209466270697457 0.19862442263153368
58848 71150.0 -0.6758368339568656 -0.34382873488432575 -0.6199072786179194 0.20184484350988366
58848 71160.0 -0.6776124130764772 -0.34031609234602683 -0.6188512281935739 0.2050598261442479
58848 71170.0 -0.6793697354917523 -0.33679428077516743 -0.6177785042495536 0.20826928391433136
58848 71180.0 -0.6811087538556898 -0.33326339505884106 -0.616689135687932 0.21147313034869375
58848 71190.0 -0.6828294213144489 -0.3297235303286236 -0.6155831518592335 0.21467127912707845
58848 71200.0 -0.6845316915086113 -0.32617478195801 -0.6144605825616429 0.21786364408273928
58848 71210.0 -0.6862155185744312 -0.32261724555984345 -0.6133214580402021 0.22105013920476224
58848 71220.0 -0.6878808571450704 -0.3190510169837407 -0.6121658089859949 0.22423067864038254
58848 71230.0 -0.68952766235182 -0.3154761923135096 -0.6109936665353211 0.227405176697297
58848 71240.0 -0.69115588982531 -0.3118928678645601 -0.6098050622688569 0.23057354784597384
58848 71250.0 -0.6927654956967049 -0.3083011401813083 -0.6086000282108042 0.23373570672195665
58848 71260.0 -0.6943564365988855 -0.30470110603457584 -0.6073785968280272 0.23689156812816473
58848 71270.0 -0.6959286696676166 -0.3010928624189842 -0.606140801029179 0.24004104703718757
58848 71280.0 -0.6974821525427025 -0.29747650655033936 -0.604886674163814 0.24318405859357642
58848 71290.0 -0.6990168433691288 -0.293852135863013 -0.6036162500214891 0.2463205181161308
58848 71300.0 -0.7005327007981893 -0.29021984800731765 -0.6023295628308543 0.24945034110017986
58848 71310.0 -0.7020296839885998 -0.286579740846876 -0.6010266472587292 0.25257344321985836
58848 71320.0 -0.7035077526075992 -0.28293191245598426 -0.5997075384091711 0.2556897403303793
58848 71330.0 -0.7049668668320365 -0.27927646111696847 -0.5983722718225261 0.2587991484703014
58848 71340.0 -0.7064069873494425 -0.2756134853175376 -0.5970208834744744 0.26190158386379075
58848 71350.0 -0.7078280753590896 -0.2719430837481305 -0.5956534097750595 0.2649969629228779
58848 71360.0 -0.7092300925730378 -0.26826535529925605 -0.5942698875677082 0.2680852022497095
58848 71370.0 -0.7106130012171652 -0.2645803990588286 -0.5928703541282364 0.27116621863879675
58848 71380.0 -0.7119767640321868 -0.2608883143094986 -0.5914548471638462 0.2742399290792561
58848 71390.0 -0.7133213442746571 -0.2571892005259786 -0.5900234048121098 0.2773062507570455
58848 71400.0 -0.7146467057179613 -0.2534831573723618 -0.5885760656399411 0.280365101057196
58848 71410.0 -0.7159528126532908 -0.24977028469943702 -0.5871128686425579 0.2834163975660381
58848 71420.0 -0.7172396298906053 -0.24605068254199872 -0.5856338532424297 0.28646005807342223
58848 71430.0 -0.7185071227595808 -0.24232445111615245 -0.584139059288217 0.28949600057493186
58848 71440.0 -0.7197552571105441 -0.23859169081661333 -0.5826285270536966 0.29252414327409604
58848 71450.0 -0.7209839993153923 -0.23485250221400297 -0.5811022972366778 0.29554440458459
58848 71460.0 -0.7221933162684995 -0.2311069860521376 -0.579560410957904 0.29855670313243576
58848 71470.0 -0.7233831753876083 -0.22735524324531556 -0.5780029097599468 0.30156095775819336
58848 71480.0 -0.724553544614708 -0.223597374875597 -0.5764298356060849 0.3045570875191482
58848 71490.0 -0.7257043924168973 -0.21983348219008345 -0.5748412308791755 0.30754501169149007
58848 71500.0 -0.7268356877872357 -0.21606366659818527 -0.5732371383805102 0.3105246497724908
58848 71510.0 -0.7279474002455777 -0.21228802966889246 -0.5716176013286631 0.3134959214826719
58848 71520.0 -0.7290394998393934 -0.20850667312803903 -0.5699826633583276 0.3164587467679661
58848 71530.0 -0.7301119571445772 -0.20471969885555916 -0.568332368519137 0.3194130458018769
58848 71540.0 -0.7311647432662396 -0.20092720888274407 -0.566666761274482 0.3223587389876273
58848 71550.0 -0.7321978298394852 -0.19712930538949322 -0.5649858865003099 0.3252957469603055
58848 71560.0 -0.7332111890301785 -0.1933260907015601 -0.5632897894839158 0.3282239905890029
58848 71570.0 -0.7342047935356915 -0.18951766728779804 -0.5615785159227247 0.3311433909789447
58848 71580.0 -0.7351786165856418 -0.18570413775739542 -0.5598521119230571 0.334053869473618
58848 71590.0 -0.7361326319426126 -0.18188560485711336 -0.5581106239988884 0.33695534765688984
58848 71600.0 -0.7370668139028588 -0.17806217146851908 -0.5563540990705969 0.3398477473551188
58848 71610.0 -0.7379811372970017 -0.17423394060521016 -0.5545825844636968 0.3427309906392631
58848 71620.0 -0.7388755774907048 -0.170401015410042 -0.5527961279075655 0.3456049998269798
58848 71630.0 -0.7397501103853394 -0.1665634991523475 -0.5509947775341562 0.3484696974847164
58848 71640.0 -0.7406047124186328 -0.16272149522515494 -0.5491785818767019 0.3513250064297996
58848 71650.0 -0.7414393605653031 -0.15887510714240413 -0.547347589868408 0.3541708497325112
58848 71660.0 -0.7422540323376802 -0.15502443853615416 -0.5455018508411332 0.3570071507181645
58848 71670.0 -0.7430487057863117 -0.15116959315379278 -0.5436414145240596 0.3598338329691687
58848 71680.0 -0.7438233595005529 -0.14731067485524332 -0.5417663310423559 0.36265082032708595
58848 71690.0 -0.7445779726091455 -0.1434477876101627 -0.5398766509158236 0.3654580368946867
58848 71700.0 -0.7453125247807793 -0.13958103549514211 -0.5379724250575367 0.3682554070379921
58848 71710.0 -0.7460269962246391 -0.13571052269090342 -0.5360537047724715 0.3710428553883123
58848 71720.0 -0.7467213676909392 -0.13183635347949038 -0.5341205417561222 0.37382030684427836
58848 71730.0 -0.7473956204714409 -0.12795863224146242 -0.5321729880931108 0.37658768657386266
58848 71740.0 -0.7480497363999575 -0.1240774634530782 -0.5302110962557801 0.37934492001639886
58848 71750.0 -0.7486836978528435 -0.12019295168348255 -0.5282349191027828 0.3820919328845884
58848 71760.0 -0.7492974877494688 -0.11630520159189123 -0.5262445098776568 0.38482865116650156
58848 71770.0 -0.7498910895526798 -0.1124143179247673 -0.5242399222073901 0.38755500112757374
58848 71780.0 -0.7504644872692443 -0.10852040551300121 -0.5222212101009761 0.39027090931259056
58848 71790.0 -0.7510176654502826 -0.10462356926908616 -0.5201884279479586 0.3929763025476671
58848 71800.0 -0.7515506091916841 -0.10072391418429039 -0.5181416305169662 0.3956711079422198
58848 71810.0 -0.7520633041345082 -0.09682154532583147 -0.5160808729542377 0.3983552528909291
58848 71820.0 -0.7525557364653715 -0.09291656783404134 -0.5140062107821346 0.4010286650756975
58848 71830.0 -0.7530278929168205 -0.08900908691953545 -0.5119176998976458 0.4036912724675974
58848 71840.0 -0.7534797607676874 -0.08509920786038032 -0.5098153965708832 0.40634300332880996
58848 71850.0 -0.7539113278434354 -0.08118703599925281 -0.5076993574435629 0.40898378621456055
58848 71860.0 -0.7543225825164841 -0.0772726767406049 -0.505569639527481 0.4116135499750425
58848 71870.0 -0.7547135137065244 -0.0733562355478227 -0.5034263002029774 0.41423222375733393
58848 71880.0 -0.755084110880817 -0.06943781794038478 -0.501269397217388 0.41683973700730664
58848 71890.0 -0.755434364054475 -0.06551752949102171 -0.49909898868349245 0.4194360194715269
58848 71900.0 -0.7557642637907341 -0.06159547582286734 -0.4969151330779449 0.4220210011991494
58848 71910.0 -0.7560738012012068 -0.05767176260661601 -0.49471788923969967 0.4245946125438007
58848 71920.0 -0.7563629679461209 -0.05374649555767493 -0.49250731636842704 0.42715678416545627
58848 71930.0 -0.7566317562345451 -0.04981978043331477 -0.49028347402291617 0.4297074470323089
58848 71940.0 -0.7568801588245988 -0.04589172302982357 -0.4880464221194732 0.4322465324226269
58848 71950.0 -0.7571081690236466 -0.04196242917965184 -0.4857962209303042 0.4347739719266082
58848 71960.0 -0.7573157806884795 -0.03803200474856329 -0.4835329310818921 0.4372896974482228
58848 71970.0 -0.7575029882254797 -0.034100555632784565 -0.481256613553365 0.4397936412070451
58848 71980.0 -0.7576697865907718 -0.030168187756147966 -0.47896732967485084 0.4422857357400833
58848 71990.0 -0.7578161712903584 -0.026235007067240527 -0.476665141125826 0.44476591390359554
58848 72000.0 -0.757942138380241 -0.022301119536548678 -0.4743501099334535 0.44723410887489873
58848 72010.0 -0.758047684466527 -0.01836663115360192 -0.47202229847091154 0.4496902541541699
58848 72020.0 0.7581328067055204 0.014431647924121133 0.46968176945571427 -0.4521342835662359
58848 72030.0 0.7581975028037987 0.010496275867156776 0.4673285859480199 -0.4545661312623591
58848 72040.0 0.7582417710182747 0.006560621012236284 0.46496281134893286 -0.45698573172200985
58848 72050.0 0.7582656101562432 0.002624789396507761 0.46258450939879653 -0.45939301975463104
58848 72060.0 0.7582690195754139 -0.001311112938119943 0.4601937441754737 -0.46178793050139677
58848 72070.0 0.7582519991839276 -0.005246979947832234 0.4577905800926215 -0.464170399436958
58848 72080.0 0.7582145494403598 -0.009182705589765881 0.4553750818979566 -0.4665403623711816
58848 72090.0 0.7581566713537069 -0.013118183824867317 0.4529473146715083 -0.4688977554508805
58848 72100.0 0.7580783664833611 -0.017053308620747012 0.45050734382386887 -0.4712425151615318
58848 72110.0 0.7579796369390667 -0.02098797395453987 0.4480552350944272 -0.4735745783289911
58848 72120.0 0.7578604853808633 -0.024922073815759713 0.4455910545495998 -0.47589388212119277
58848 72130.0 0.7577209150190151 -0.028855502209154074 0.4431148685810512 -0.47820036404984245
58848 72140.0 0.7575609296139236 -0.03278815315756344 0.44062674390390366 -0.480493961972102
58848 72150.0 0.7573805334760267 -0.03671992070477407 0.4381267475549406 -0.4827746140922631
58848 72160.0 0.7571797314656827 -0.040650698918373626 0.43561494689080005 -0.48504225896341197
58848 72170.0 0.7569585289930388 -0.04458038189260564 0.4330914095861602 -0.4872968354890856
58848 72180.0 0.7567169320178856 -0.04850886375122024 0.43055620363191677 -0.48953828292491647
58848 72190.0 0.7564549470494966 -0.052436038650331 0.4280093973333493 -0.491766540880271
58848 72200.0 0.7561725811464529 -0.05636180078126438 0.4254510593082817 -0.493981549319876
58848 72210.0 0.7558698419164529 -0.06028604437340875 0.42288125848523533 -0.49618324856543455
58848 72220.0 0.7555467375161067 -0.06420866369706797 0.4203000641015681 -0.49837157929723674
58848 72230.0 0.7552032766507181 -0.06812955306630726 0.4177075457016126 -0.5005464825557556
58848 72240.0 0.754839468574048 -0.0720486068418016 0.41510377313480035 -0.5027078997432369
58848 72250.0 0.7544553230880664 -0.07596571943368258 0.41248881655378 -0.5048557726252778
58848 72260.0 0.7540508505426881 -0.0798807853043804 0.40986274641252923 -0.5069900433323942
58848 72270.0 0.753626061835493 -0.08379369897147132 0.40722563346445345 -0.5091106543615825
58848 72280.0 0.7531809684114334 -0.08770435501051789 0.4045775487604812 -0.5112175485778678
58848 72290.0 0.7527155822625263 -0.09161264805790657 0.40191856364715145 -0.5133106692158412
58848 72300.0 0.7522299159275277 -0.095518472813694 0.3992487497646863 -0.5153899598811943
58848 72310.0 0.751723982491598 -0.09942172404443432 0.39656817904506736 -0.5174553645522322
58848 72320.0 0.7511977955859469 -0.10332229658602207 0.39387692371009253 -0.5195068275813881
58848 72330.0 0.7506513693874673 -0.10722008534652305 0.391175056269432 -0.5215442936967204
58848 72340.0 0.7500847186183544 -0.11111498530900361 0.38846264951867626 -0.5235677080034007
58848 72350.0 0.7494978585457059 -0.11500689153436393 0.38573977653737174 -0.5255770159851957
58848 72360.0 0.7488908049811138 -0.11889569916416362 0.383006510687053 -0.5275721635059345
58848 72370.0 0.7482635742802372 -0.12278130342344433 0.380262925609269 -0.5295530968109654
58848 72380.0 0.7476161833423609 -0.12666359962355944 0.37750909522359255 -0.5315197625286088
58848 72390.0 0.7469486496099416 -0.1305424831649859 0.3747450937256366 -0.5334721076715895
58848 72400.0 0.7462609910681367 -0.13441784954014968 0.37197099558504865 -0.5354100796384691
58848 72410.0 0.7455532262443203 -0.13828959433623852 0.36918687554350765 -0.5373336262150608
58848 72420.0 0.7448253742075838 -0.14215761323801307 0.3663928086127107 -0.539242695575836
58848 72430.0 0.7440774545682227 -0.1460218020306221 0.36358887007234925 -0.5411372362853221
58848 72440.0 0.7433094874772072 -0.14988205660240753 0.36077513546808293 -0.5430171972994875
58848 72450.0 0.7425214936256406 -0.153738272947707 0.35795168060950533 -0.5448825279671159
58848 72460.0 0.7417134942442 -0.15759034716966375 0.3551185815680967 -0.5467331780311737
58848 72470.0 0.7408855111025662 -0.16143817548301626 0.352275914675181 -0.5485690976301607
58848 72480.0 0.7400375665088362 -0.16528165421690202 0.34942375651986346 -0.5503902372994558
58848 72490.0 0.7391696833089224 -0.16912067981764758 0.3465621839469703 -0.5521965479726494
58848 72500.0 0.7382818848859367 -0.17295514885155716 0.34369127405497824 -0.553987980982864
58848 72510.0 0.737374195159561 -0.17678495800770314 0.34081110419393545 -0.5557644880640671
58848 72520.0 0.7364466385854024 -0.18061000410070743 0.3379217519633787 -0.5575260213523714
58848 72530.0 0.7354992401543345 -0.18443018407351916 0.3350232952102441 -0.5592725333873225
58848 72540.0 0.7345320253918238 -0.1882453950001986 0.3321158120267651 -0.5610039771131811
58848 72550.0 0.7335450203572427 -0.1920555340886806 0.32919938074837474 -0.5627203058801865
58848 72560.0 0.7325382516431659 -0.1958604986835518 0.3262740799515901 -0.5644214734458174
58848 72570.0 0.7315117463746555 -0.19966018626881368 0.3233399884518965 -0.5661074339760357
58848 72580.0 0.73046553220853 -0.20345449447064257 0.3203971853016264 -0.567778142046521
58848 72590.0 0.7293996373326179 -0.2072433210601517 0.3174457497878262 -0.5694335526438963
58848 72600.0 0.7283140904649995 -0.2110265639561433 0.3144857614301214 -0.5710736211669393
58848 72610.0 0.7272089208532326 -0.21480412122785925 0.31151729997857475 -0.5726983034277845
58848 72620.0 0.7260841582735641 -0.21857589109772807 0.3085404454115361 -0.5743075556531143
58848 72630.0 0.7249398330301291 -0.22234177194410445 0.3055552779334901 -0.5759013344853369
58848 72640.0 0.7237759759541337 -0.2261016623040116 0.302561877972892 -0.5774795969837556
58848 72650.0 0.7225926184030227 -0.22985546087587197 0.29956032618000245 -0.5790423006257268
58848 72660.0 0.7213897922596383 -0.2336030665222352 0.29655070342471657 -0.5805894033078023
58848 72670.0 0.7201675299313568 -0.23734437827250893 0.293533090794379 -0.5821208633468681
58848 72680.0 0.7189258643492202 -0.2410792953256715 0.29050756959160695 -0.583636639481263
58848 72690.0 0.7176648289670445 -0.2448077170529937 0.28747422133209405 -0.5851366908718939
58848 72700.0 0.7163844577605206 -0.24852954300074792 0.2844331277424155 -0.5866209771033345
58848 72710.0 0.7150847852262997 -0.2522446728929131 0.28138437075782846 -0.5880894581849134
58848 72720.0 0.7137658463810616 -0.2559530066338794 0.27832803252006083 -0.5895420945517937
58848 72730.0 0.7124276767605726 -0.2596544443111439 0.2752641953750999 -0.5909788470660375
58848 72740.0 0.7110703124187292 -0.26334888619799957 0.272192941870976 -0.5923996770176597
58848 72750.0 0.7096937899265829 -0.26703623275622923 0.26911435475553236 -0.5938045461256739
58848 72760.0 0.70829814637136 -0.2707163846387787 0.2660285169742032 -0.5951934165391198
58848 72770.0 0.7068834193554585 -0.27438924269244 0.262935511667773 -0.5965662508380863
58848 72780.0 0.705449646995436 -0.278054707960521 0.2598354221701387 -0.5979230120347183
58848 72790.0 0.7039968679209837 -0.28171268168550884 0.2567283320060664 -0.5992636635742126
58848 72800.0 0.7025251212738847 -0.28536306531173494 0.25361432488893687 -0.6005881693358045
58848 72810.0 0.7010344467069589 -0.2890057604880287 0.2504934847184923 -0.6018964936337398
58848 72820.0 0.699524884382997 -0.2926406690703642 0.24736589557857835 -0.6031886012182359
58848 72830.0 0.6979964749736748 -0.2962676931245122 0.24423164173487188 -0.6044644572764335
58848 72840.0 0.6964492596584607 -0.2998867349286689 0.24109080763261898 -0.6057240274333318
58848 72850.0 0.6948832801235048 -0.303497696976097 0.23794347789435308 -0.6069672777527167
58848 72860.0 0.6932985785605147 -0.3071004819777491 0.23478973731761774 -0.608194174738075
58848 72870.0 0.6916951976656214 -0.31069499286488783 0.23162967087268346 -0.6094046853334953
58848 72880.0 0.6900731806382268 -0.31428113279170455 0.22846336370025508 -0.6105987769245604
58848 72890.0 0.6884325711798398 -0.31785880513792686 0.22529090110917932 -0.6117764173392255
58848 72900.0 0.6867734134929012 -0.3214279135114194 0.22211236857414854 -0.6129375748486836
58848 72910.0 0.6850957522795884 -0.3249883617507874 0.21892785173339233 -0.6140822181682237
58848 72920.0 0.6833996327406163 -0.3285400539279593 0.21573743638637694 -0.6152103164580696
58848 72930.0 0.6816851005740155 -0.3320828943507781 0.21254120849148855 -0.6163218393242136
58848 72940.0 0.6799522019739025 -0.3356167875655765 0.20933925416371865 -0.6174167568192348
58848 72950.0 0.6782009836292351 -0.33914163835974753 0.20613165967234612 -0.6184950394431051
58848 72960.0 0.6764314927225548 -0.34265735176431317 0.20291851143860942 -0.6195566581439853
58848 72970.0 0.674643776928714 -0.3461638330564813 0.1996998960333796 -0.6206015843190069
58848 72980.0 0.6728378844135948 -0.34966098776219534 0.19647590017483044 -0.6216297898150427
58848 72990.0 0.671013863832806 -0.3531487216586863 0.1932466107260958 -0.6226412469294665
58848 73000.0 0.6691717643303787 -0.356626940777003 0.19001211469293672 -0.6236359284108978
58848 73010.0 0.6673116355374367 -0.3600955514045504 0.1867724992213917 -0.6246138074599371
58848 73020.0 0.6654335275708616 -0.36355446008761216 0.18352785159543053 -0.6255748577298881
58848 73030.0 0.6635374910319438 -0.3670035736338666 0.18027825923460467 -0.6265190533274665
58848 73040.0 0.6616235770050163 -0.37044279911490124 0.17702380969168824 -0.6274463688134987
58848 73050.0 0.6596918370560803 -0.3738720438687147 0.173764590650321 -0.6283567792036069
58848 73060.0 0.6577423232314158 -0.37729121550221073 0.17050068992264808 -0.6292502599688816
58848 73070.0 0.6557750880561776 -0.3807002218936946 0.16723219544694778 -0.630126787036544
58848 73080.0 0.6537901845329833 -0.3840989711953463 0.16395919528527042 -0.6309863367905922
58848 73090.0 0.651787666140482 -0.38748737183570175 0.16068177762105956 -0.6318288860724401
58848 73100.0 0.6497675868319149 -0.39086533252211786 0.1574000307567779 -0.6326544121815396
58848 73110.0 0.6477300010336632 -0.39423276224322923 0.15411404311153068 -0.6334628928759927
58848 73120.0 0.6456749636437773 -0.39758957027140773 0.15082390321867764 -0.6342543063731512
58848 73130.0 0.6436025300305033 -0.4009356661651979 0.14752969972345478 -0.6350286313502025
58848 73140.0 0.6415127560307867 -0.4042709597717602 0.14423152138058043 -0.6357858469447455
58848 73150.0 0.6394056979487701 -0.40759536122929824 0.1409294570518662 -0.6365259327553515
58848 73160.0 0.6372814125542765 -0.4109087809694773 0.13762359570382396 -0.6372488688421146
58848 73170.0 0.6351399570812785 -0.4142111297198418 0.13431402640526596 -0.6379546357271884
58848 73180.0 0.6329813892263564 -0.4175023185062182 0.1310008383249069 -0.6386432143953115
58848 73190.0 0.6308057671471462 -0.42078225865511043 0.12768412072896304 -0.6393145862943186
58848 73200.0 0.6286131494607676 -0.4240508617960946 0.12436396297874151 -0.6399687333356422
58848 73210.0 0.6264035952422505 -0.42730803986419297 0.12104045452824067 -0.640605637894798
58848 73220.0 0.6241771640229392 -0.4305537051022518 0.11771368492173324 -0.641225282811861
58848 73230.0 0.6219339157888898 -0.43378777006330416 0.11438374379135613 -0.6418276513919274
58848 73240.0 0.6196739109792553 -0.43701014761292434 0.11105072085469782 -0.6424127274055645
58848 73250.0 0.6173972104846547 -0.4402207509315785 0.10771470591237682 -0.6429804950892479
58848 73260.0 0.615103875645534 -0.4434194935169622 0.10437578884562464 -0.6435309391457863
58848 73270.0 0.6127939682505146 -0.44660628918632933 0.10103405961386581 -0.6440640447447333
58848 73280.0 0.6104675505347246 -0.44978105207881913 0.09768960825228845 -0.6445797975227882
58848 73290.0 0.6081246851781271 -0.452943696657763 0.09434252486942607 -0.6450781835841807
58848 73300.0 0.6057654353038279 -0.4560941377129943 0.09099289964472354 -0.6455591895010475
58848 73310.0 0.6033898644763753 -0.459232290363142 0.08764082282611012 -0.6460228023137934
58848 73320.0 0.6009980367000499 -0.46235807005791657 0.0842863847275689 -0.6464690095314395
58848 73330.0 0.5985900164171365 -0.4654713925803907 0.0809296757267009 -0.6468977991319611
58848 73340.0 0.5961658685061897 -0.4685721740492667 0.07757078626229098 -0.6473091595626113
58848 73350.0 0.5937256582802879 -0.47166033092113485 0.07420980683187435 -0.647703079740231
58848 73360.0 0.5912694514852685 -0.47473577999272976 0.070846827989291 -0.6480795490515496
58848 73370.0 0.5887973142979626 -0.4777984384031642 0.06748194034225481 -0.6484385573534692
58848 73380.0 0.5863093133244066 -0.48084822363616864 0.06411523454990564 -0.6487800949733389
58848 73390.0 0.5838055155980508 -0.48388505352231126 0.060746801320368894 -0.6491041527092148
58848 73400.0 0.5812859885779539 -0.48690884624121056 0.057376731408313945 -0.6494107218301083
58848 73410.0 0.5787508001469623 -0.4899195203237432 0.054005115612504546 -0.6496997940762211
58848 73420.0 0.5762000186098837 -0.49291699465423733 0.0506320447733551 -0.6499713616591681
58848 73430.0 0.5736337126916472 -0.49590118847265574 0.04725760977048499 -0.6502254172621866
58848 73440.0 0.5710519515354481 -0.4988720213767778 0.04388190152026378 -0.6504619540403344
58848 73450.0 0.5684548047008899 -0.5018294133243577 0.04050501097336994 -0.6506809656206729
58848 73460.0 0.5658423421621064 -0.5047732846352883 0.03712702911233344 -0.6508824461024403
58848 73470.0 0.5632146343058773 -0.5077035559937438 0.033748046949087895 -0.6510663900572093
58848 73480.0 0.5605717519297345 -0.5106201484503173 0.030368155522518946 -0.6512327925290343
58848 73490.0 0.5579137662400501 -0.5135229834241488 0.026987445896008547 -0.6513816490345841
58848 73500.0 0.5552407488501204 -0.5164119827050428 0.023606009154983516 -0.6515129555632635
58848 73510.0 0.552552771778238 -0.5192870684555723 0.020223936404463103 -0.6516267085773206
58848 73520.0 0.5498499074457469 -0.5221481632131817 0.016841318766598258 -0.651722905011943
58848 73530.0 0.5471322286750968 -0.524995189892267 0.013458247378225098 -0.651801542275339
58848 73540.0 0.5443998086878762 -0.5278280717862583 0.01007481338840223 -0.6518626182488094
58848 73550.0 0.5416527211028421 -0.5306467325696848 0.006691107955957934 -0.6519061312868025
58848 73560.0 0.5388910399339383 -0.5334510963002274 0.003307222247036381 -0.65193208021696
58848 73570.0 0.5361148395882949 -0.5362410874207727 -7.675256736555121E-5 -0.6519404643401477
58848 73580.0 0.5333241948642313 -0.5390166307614405 -0.003460725313845833 -0.651931283430475
58848 73590.0 0.5305191809492367 -0.5417776515416144 -0.006844604819060727 -0.6519045377352999
58848 73600.0 0.5276998734179431 -0.5445240753719554 -0.010228299912178565 -0.6518602279752237
58848 73610.0 0.5248663482300936 -0.5472558282564033 -0.013611719427334612 -0.6517983553440708
58848 73620.0 0.522018681728492 -0.5499728365941753 -0.016994772206090313 -0.6517189215088566
58848 73630.0 0.5191569506369462 -0.5526750271817455 -0.020377367099888435 -0.6516219286097427
58848 73640.0 0.5162812320582053 -0.555362327214817 -0.023759412972505986 -0.6515073792599789
58848 73650.0 0.5133916034718743 -0.558034664290287 -0.027140818702515838 -0.6513752765458337
58848 73660.0 0.510488142732336 -0.5606919664081929 -0.030521493185734206 -0.65122562402651
58848 73670.0 0.5075709280666455 -0.5633341619736548 -0.03390134533768152 -0.6510584257340499
58848 73680.0 0.5046400380724264 -0.5659611797988054 -0.03728028409603367 -0.650873686173226
58848 73690.0 0.501695551715754 -0.5685729491047047 -0.04065821842307431 -0.65067141032142
58848 73700.0 0.49873754832902445 -0.57116939952325 -0.04403505730815111 -0.6504516036284882
58848 73710.0 0.49576610760881934 -0.5737504610990709 -0.04741070977012554 -0.6502142720166153
58848 73720.0 0.49278130961376015 -0.5763160642914124 -0.0507850848598223 -0.6499594218801545
58848 73730.0 0.4897832347623458 -0.5788661399760126 -0.05415809166248599 -0.6496870600854553
58848 73740.0 0.4867719638307932 -0.58140061944696 -0.05752963930022281 -0.6493971939706781
58848 73750.0 0.4837475779508549 -0.5839194344185484 -0.06089963693445447 -0.6490898313455972
58848 73760.0 0.4807101586076358 -0.5864225170271152 -0.06426799376836459 -0.64876498049139
58848 73770.0 0.47765978763739886 -0.58890979983287 -0.06763461904934216 -0.6484226501604139
58848 73780.0 0.4745965472253568 -0.5913812158217111 -0.07099942207143108 -0.6480628495759705
58848 73790.0 0.47152051990346067 -0.5938366984070332 -0.07436231217777135 -0.6476855884320569
58848 73800.0 0.4684317885481766 -0.5962761814315176 -0.07772319876303987 -0.6472908768931053
58848 73810.0 0.4653304363782482 -0.5986995991689195 -0.08108199127589816 -0.6468787255937076
58848 73820.0 0.46221654695246195 -0.6011068863258335 -0.0844385992214233 -0.6464491456383309
58848 73830.0 0.45909020416738877 -0.6034979780434572 -0.0877929321635529 -0.6460021486010166
58848 73840.0 0.4559514922551276 -0.605872809899337 -0.09114489972751949 -0.6455377465250692
58848 73850.0 0.4528004957810358 -0.6082313179091027 -0.09449441160228324 -0.6450559519227324
58848 73860.0 0.44963729964144894 -0.6105734385281933 -0.097841377542969 -0.6445567777748508
58848 73870.0 0.44646198906139417 -0.6128991086535691 -0.1011857073732961 -0.6440402375305209
58848 73880.0 0.44327464959229634 -0.6152082656254083 -0.10452731098800536 -0.6435063451067292
58848 73890.0 0.4400753671096674 -0.6175008472288013 -0.10786609835529319 -0.642955114887976
58848 73900.0 0.4368642278108001 -0.6197767916954209 -0.11120197951922949 -0.6423865617258887
58848 73910.0 0.4336413182124394 -0.6220360377051911 -0.11453486460218704 -0.6418007009388217
58848 73920.0 0.4304067251484539 -0.6242785243879362 -0.11786466380726143 -0.641197548311443
58848 73930.0 0.42716053576749813 -0.6265041913250221 -0.12119128742068835 -0.6405771200943101
58848 73940.0 0.4239028375306606 -0.6287129785509841 -0.12451464581426401 -0.6399394330034308
58848 73950.0 0.4206337182091097 -0.630904826555143 -0.12783464944775866 -0.6392845042198135
58848 73960.0 0.41735326588173094 -0.6330796762832062 -0.13115120887132636 -0.6386123513890049
58848 73970.0 0.414061568932747 -0.6352374691388628 -0.13446423472792166 -0.6379229926206129
58848 73980.0 0.4107587160493457 -0.637378146985358 -0.13777363775569873 -0.6372164464878207
58848 73990.0 0.4074447962192832 -0.6395016521470624 -0.14107932879042304 -0.6364927320268848
58848 74000.0 0.40411989872848897 -0.6416079274110256 -0.14438121876787083 -0.6357518687366229
58848 74010.0 0.4007841131586624 -0.6436969160285144 -0.14767921872622713 -0.634993876577889
58848 74020.0 0.39743752938485316 -0.6457685617165485 -0.15097323980848817 -0.6342187759730336
58848 74030.0 0.39408023757304805 -0.6478228086594094 -0.15426319326484825 -0.6334265878053559
58848 74040.0 0.39071232817773444 -0.6498596015101494 -0.15754899045509643 -0.6326173334185399
58848 74050.0 0.3873338919394662 -0.6518788853920808 -0.1608305428510031 -0.6317910346160792
58848 74060.0 0.38394501988242047 -0.6538806059002542 -0.16410776203870264 -0.6309477136606905
58848 74070.0 0.3805458033119417 -0.6558647091029254 -0.16738055972107996 -0.6300873932737125
58848 74080.0 0.37713633381208334 -0.6578311415430077 -0.1706488477201469 -0.6292100966344948
58848 74090.0 0.373716703243143 -0.6597798502395118 -0.17391253797941617 -0.628315847379773
58848 74100.0 0.37028700373918033 -0.6617107826889752 -0.17717154256628018 -0.6274046696030313
58848 74110.0 0.36684732770554374 -0.6636238868668738 -0.18042577367437151 -0.6264765878538547
58848 74120.0 0.3633977678163736 -0.6655191112290262 -0.1836751436259358 -0.6255316271372663
58848 74130.0 0.3599384170121082 -0.6673964047129815 -0.18691956487419104 -0.6245698129130539
58848 74140.0 0.35646936849698097 -0.6692557167393935 -0.1901589500056853 -0.6235911710950849
58848 74150.0 0.35299071573650637 -0.6710969972133871 -0.1933932117426546 -0.6225957280506066
58848 74160.0 0.34950255245496287 -0.6729201965259044 -0.19662226294537324 -0.6215835105995369
58848 74170.0 0.34600497263287033 -0.6747252655550425 -0.19984601661449872 -0.6205545460137422
58848 74180.0 0.3424980705044516 -0.6765121556673785 -0.20306438589342266 -0.6195088620163002
58848 74190.0 0.3389819405551017 -0.6782808187192775 -0.20627728407060275 -0.6184464867807561
58848 74200.0 0.3354566775188357 -0.6800312070581906 -0.20948462458190484 -0.6173674489303614
58848 74210.0 0.33192237637573824 -0.68176327352394 -0.21268632101293353 -0.6162717775373033
58848 74220.0 0.32837913234940735 -0.683476971449987 -0.21588228710135846 -0.6151595021219218
58848 74230.0 0.3248270409043842 -0.6851722546646919 -0.21907243673924165 -0.6140306526519137
58848 74240.0 0.3212661977435833 -0.6868490774925571 -0.22225668397535608 -0.6128852595415253
58848 74250.0 0.3176966988057165 -0.6885073947554563 -0.2254349430174993 -0.6117233536507339
58848 74260.0 0.31411864026270114 -0.6901471617738549 -0.22860712823481033 -0.6105449662844147
58848 74270.0 0.31053211851707807 -0.6917683343680102 -0.23177315416007008 -0.609350129191499
58848 74280.0 0.30693723019940683 -0.6933708688591641 -0.2349329354920092 -0.6081388745641176
58848 74290.0 0.3033340721656651 -0.6949547220707196 -0.23808638709760477 -0.6069112350367338
58848 74300.0 0.2997227414946405 -0.6965198513294022 -0.24123342401437187 -0.6056672436852653
58848 74310.0 0.29610333548531237 -0.6980662144664133 -0.24437396145265647 -0.6044069340261904
58848 74320.0 0.29247595165423074 -0.6995937698185626 -0.24750791479791776 -0.6031303400156477
58848 74330.0 0.28884068773289245 -0.7011024762293923 -0.2506351996130061 -0.6018374960485203
58848 74340.0 0.2851976416651009 -0.702592293050287 -0.2537557316404438 -0.6005284369575076
58848 74350.0 0.28154691160433587 -0.7040631801415669 -0.25686942680468783 -0.5992031980121895
58848 74360.0 0.27788859591110165 -0.7055150978735695 -0.25997620121440057 -0.5978618149180742
58848 74370.0 0.27422279315028053 -0.7069480071277195 -0.26307597116470816 -0.5965043238156366
58848 74380.0 0.2705496020884782 -0.70836186929758 -0.2661686531394545 -0.5951307612793452
58848 74390.0 0.2668691216913592 -0.7097566462898944 -0.2692541638134539 -0.5937411643166759
58848 74400.0 0.2631814511209823 -0.7111323005256123 -0.272332420054735 -0.592335570367115
58848 74410.0 0.2594866897331315 -0.712488794940901 -0.2754033389267782 -0.5909140173011521
58848 74420.0 0.2557849370746323 -0.7138260929881466 -0.2784668376907562 -0.5894765434192561
58848 74430.0 0.25207629288067823 -0.7151441586369355 -0.2815228338077558 -0.5880231874508478
58848 74440.0 0.24836085707213648 -0.7164429563750275 -0.28457124494100694 -0.5865539885532529
58848 74450.0 0.24463872975285897 -0.7177224512093121 -0.2876119889581001 -0.5850689863106485
