CIC_MEM_VERS = 1.0
CREATION_DATE = 2023-03-16T10:50:10.331170
ORIGINATOR = CS Group

META_START
OBJECT_NAME = horus_eye_41
OBJECT_ID = horus_eye_41
USER_DEFINED_PROTOCOL = NONE
USER_DEFINED_CONTENT = LLA
USER_DEFINED_SIZE = 3.0
USER_DEFINED_TYPE = REAL
USER_DEFINED_UNIT = [deg] [km]
TIME_SYSTEM = UTC
META_STOP

58848 68400.0 -37.10014013201266 -76.15881340080858 807.7463058175528
58848 68410.0 -37.68541055155049 -76.3400316835563 807.9566637995299
58848 68420.0 -38.27044532032432 -76.52345100102407 808.1680931238344
58848 68430.0 -38.855237896688756 -76.70915337671205 808.3805023893375
58848 68440.0 -39.43978149690902 -76.89722438515754 808.5937997946688
58848 68450.0 -40.024069079356224 -77.08775335586849 808.8078931782279
58848 68460.0 -40.60809332759688 -77.28083359098427 809.022690058232
58848 68470.0 -41.19184663228732 -77.4765625977981 809.2380976729348
58848 68480.0 -41.775321071776716 -77.67504233727252 809.4540230208811
58848 68490.0 -42.35850839131285 -77.87637948987651 809.6703729012562
58848 68500.0 -42.94139998073429 -78.08068574014624 809.8870539542302
58848 68510.0 -43.52398685052314 -78.28807808151484 810.1039727013955
58848 68520.0 -44.106259606077934 -78.49867914310116 810.3210355861602
58848 68530.0 -44.68820842005472 -78.71261754030624 810.5381490141708
58848 68540.0 -45.26982300260832 -78.93002825123278 810.7552193936516
58848 68550.0 -45.85109256934857 -79.15105302118124 810.9721531757862
58848 68560.0 -46.43200580680885 -79.37584079760347 811.1888568949818
58848 68570.0 -47.0125508352021 -79.60454819824763 811.4052372090276
58848 68580.0 -47.5927151682173 -79.83734001540506 811.621200939252
58848 68590.0 -48.17248566958275 -80.0743897594989 811.8366551104838
58848 68600.0 -48.75184850609428 -80.31588024561597 812.0515069909144
58848 68610.0 -49.33078909677285 -80.56200422684748 812.2656641318179
58848 68620.0 -49.90929205778178 -80.81296507887131 812.4790344071051
58848 68630.0 -50.48734114269 -81.0689775404815 812.6915260527095
58848 68640.0 -51.06491917762591 -81.33026851542529 812.9030477057375
58848 68650.0 -51.642007990810534 -81.59707794140459 813.1135084434696
58848 68660.0 -52.21858833590498 -81.86965973271886 813.3228178220947
58848 68670.0 -52.79463980853821 -82.14828280378924 813.5308859151822
58848 68680.0 -53.37014075531044 -82.43323218152862 813.7376233519624
58848 68690.0 -53.945068174481015 -82.72481021547756 813.9429413552743
58848 68700.0 -54.5193976074586 -83.0233378955635 814.1467517792056
58848 68710.0 -55.0931030201011 -83.32915628847668 814.3489671465271
58848 68720.0 -55.666156672714074 -83.64262810494506 814.5495006857062
58848 68730.0 -56.23852897749632 -83.96413941149365 814.7482663676055
58848 68740.0 -56.81018834202621 -84.29410150201416 814.9451789418935
58848 68750.0 -57.38110099720042 -84.63295294606701 815.1401539730077
58848 68760.0 -57.95123080783643 -84.9811618329819 815.3331078758116
58848 68770.0 -58.52053906391239 -85.33922823301144 815.5239579507652
58848 68780.0 -59.088984250154226 -85.7076868992758 815.7126224188447
58848 68790.0 -59.65652179137198 -86.08711023717682 815.8990204558582
58848 68800.0 -60.22310377059715 -86.47811157106383 816.0830722264907
58848 68810.0 -60.788678616668484 -86.88134874156184 816.2646989177617
58848 68820.0 -61.353190757452246 -87.29752807097985 816.4438227721575
58848 68830.0 -61.91658023434588 -87.72740873871902 816.620367120174
58848 68840.0 -62.47878227310278 -88.17180761362735 816.7942564124801
58848 68850.0 -63.03972680530206 -88.63160459584915 816.9654162514971
58848 68860.0 -63.59933793397248 -89.1077485269334 817.133773422506
58848 68870.0 -64.15753333592983 -89.6012637338278 817.2992559242672
58848 68880.0 -64.71422359229571 -90.11325727991705 817.4617929990475
58848 68890.0 -65.26931143740093 -90.64492700446885 817.6213151621279
58848 68900.0 -65.82269091481538 -91.19757044061917 817.7777542307911
58848 68910.0 -66.37424642755825 -91.77259471145192 817.9310433526894
58848 68920.0 -66.92385166759259 -92.37152751330241 818.0811170336813
58848 68930.0 -67.47136840746221 -92.9960293051712 818.227911165041
58848 68940.0 -68.01664513434324 -93.64790683247544 818.3713630501394
58848 68950.0 -68.55951550381592 -94.32912812136537 818.5114114304293
58848 68960.0 -69.09979658727741 -95.0418390859364 818.6479965108763
58848 68970.0 -69.63728688306702 -95.78838189274121 818.7810599847706
58848 68980.0 -70.17176405703728 -96.5713152234663 818.9105450578576
58848 68990.0 -70.70298237346856 -97.39343656387965 819.0363964718791
58848 69000.0 -71.23066977190187 -98.25780662128007 819.1585605274452
58848 69010.0 -71.754524539736 -99.167775927597 819.2769851061977
58848 69020.0 -72.27421152444101 -100.12701361260383 819.3916196924037
58848 69030.0 -72.78935782326144 -101.13953822079525 819.5024153937889
58848 69040.0 -73.29954788276768 -102.20975028082941 819.6093249617265
58848 69050.0 -73.80431793629685 -103.34246609859741 819.7123028107651
58848 69060.0 -74.30314970530819 -104.5429519077327 819.8113050373664
58848 69070.0 -74.79546329263914 -105.81695704149672 819.9062894380778
58848 69080.0 -75.28060920400347 -107.17074414589483 819.997215526832
58848 69090.0 -75.7578594522978 -108.6111135858285 820.0840445516899
58848 69100.0 -76.22639773219721 -110.14541804779138 820.1667395107667
58848 69110.0 -76.68530870667578 -111.7815618571027 820.2452651674524
58848 69120.0 -77.13356653105468 -113.52797765848719 820.319588064899
58848 69130.0 -77.5700228647083 -115.39357084304083 820.3896765397765
58848 69140.0 -77.99339479823185 -117.38761949990597 820.4555007353001
58848 69150.0 -78.40225336792454 -119.51961491568349 820.5170326134621
58848 69160.0 -78.79501365092538 -121.79902514298811 820.5742459666092
58848 69170.0 -79.1699278368559 -124.23496264071456 820.6271164281053
58848 69180.0 -79.52508314271873 -126.83573761898857 820.6756214824197
58848 69190.0 -79.85840693537406 -129.60828316849518 820.7197404743252
58848 69200.0 -80.16768186356968 -132.55744859774563 820.7594546173699
58848 69210.0 -80.45057403317251 -135.6851757407138 820.7947470016046
58848 69220.0 -80.70467707569283 -138.98960056388125 820.825602600468
58848 69230.0 -80.92757411189584 -142.46415811918195 820.852008277019
58848 69240.0 -81.11691787711628 -146.0968076177563 820.8739527892463
58848 69250.0 -81.27052657879473 -149.8695257250357 820.8914267947498
58848 69260.0 -81.38648962550405 -153.7582252133342 820.9044228544961
58848 69270.0 -81.46327383771825 -157.7332277766396 820.9129354359118
58848 69280.0 -81.49981813447583 -161.76034660385102 820.9169609151421
58848 69290.0 -81.49560409523025 -165.80252448751224 820.9164975785311
58848 69300.0 -81.4506919513328 -169.82185375257671 820.911545623319
58848 69310.0 -81.36571635302543 -173.78171338820044 820.9021071575758
58848 69320.0 -81.24184258803781 -177.64872958036923 820.8881861993331
58848 69330.0 -81.08069007030304 178.60569040406847 820.8697886749316
58848 69340.0 -80.8842342239646 175.00440106329953 820.8469224165732
58848 69350.0 -80.65469945181101 171.56416785970526 820.8195971591625
58848 69360.0 -80.39445478511806 168.2958485090537 820.7878245362771
58848 69370.0 -80.10592091361994 165.20496809156862 820.7516180754238
58848 69380.0 -79.79149371261286 162.29253009655304 820.7109931924538
58848 69390.0 -79.4534860668262 159.55592047415732 820.6659671853012
58848 69400.0 -79.09408728655649 156.98979573095284 820.6165592268529
58848 69410.0 -78.71533787258336 154.58688488566446 820.5627903570713
58848 69420.0 -78.31911669585321 152.33866939826416 820.504683474401
58848 69430.0 -77.90713757984497 150.23593083398885 820.4422633263589
58848 69440.0 -77.4809525628906 148.26917256508082 820.3755564993678
58848 69450.0 -77.04195957758601 146.42893075887093 820.3045914078479
58848 69460.0 -76.59141278186281 144.70599339972512 820.2293982825423
58848 69470.0 -76.13043423531053 143.0915461590669 820.1500091581103
58848 69480.0 -75.66002600046434 141.5772621263866 820.0664578599469
58848 69490.0 -75.18108205362948 140.1553498128793 819.9787799902857
58848 69500.0 -74.69439961912286 138.81857109057302 819.8870129135589
58848 69510.0 -74.20068970642741 137.56023818509058 819.7911957410066
58848 69520.0 -73.70058674492427 136.37419665455204 819.6913693146028
58848 69530.0 -73.1946572878759 135.25479949978964 819.5875761902101
58848 69540.0 -72.68340780646818 134.19687613952144 819.4798606200616
58848 69550.0 -72.16729162412979 133.19569889841947 819.3682685345201
58848 69560.0 -71.64671505718704 132.24694883872405 819.2528475231186
58848 69570.0 -71.12204283470554 131.34668216162387 819.1336468149427
58848 69580.0 -70.59360287133595 130.49129796540086 819.0107172582971
58848 69590.0 -70.0616904643788 129.6775078329402 818.8841112996853
58848 69600.0 -69.5265719816385 128.9023075004528 818.7538829621503
58848 69610.0 -68.98848810098072 128.1629507071948 818.6200878229233
58848 69620.0 -68.4476566564919 127.45692522389328 818.4827829904231
58848 69630.0 -67.90427514018599 126.78193099154726 818.3420270805951
58848 69640.0 -67.35852290254594 126.13586026168538 818.1978801926202
58848 69650.0 -66.81056308996602 125.51677960635288 818.0504038840455
58848 69660.0 -66.26054435242226 124.92291365570199 817.8996611451313
58848 69670.0 -65.70860235046747 124.35263041871853 817.7457163728013
58848 69680.0 -65.15486108689437 123.80442804587312 817.5886353438253
58848 69690.0 -64.59943408511526 123.2769228988533 817.428485187471
58848 69700.0 -64.04242543342272 122.7688388011372 817.2653343575789
58848 69710.0 -63.48393071178346 122.2789973524443 817.0992526040469
58848 69720.0 -62.92403781563503 121.80630919992693 816.9303109437353
58848 69730.0 -62.36282768926406 121.34976616857779 816.7585816308647
58848 69740.0 -61.800374979703804 120.90843416252477 816.5841381268506
58848 69750.0 -61.236748620671946 120.4814467576192 816.4070550695973
58848 69760.0 -60.67201235484228 120.06799941378429 816.2274082422796
58848 69770.0 -60.10622520168337 119.66734424292689 816.0452745416351
58848 69780.0 -59.539441877177644 119.27878527503239 815.8607319457547
58848 69790.0 -58.97171317094002 118.90167417105971 815.673859481363
58848 69800.0 -58.40308628556629 118.53540633678855 815.4847371906881
58848 69810.0 -57.83360514244402 118.17941739668673 815.2934460977943
58848 69820.0 -57.26331065774049 117.83317999120507 815.1000681745962
58848 69830.0 -56.69224099183074 117.49620086492291 814.9046863062933
58848 69840.0 -56.120431775038675 117.16801821637739 814.7073842564571
58848 69850.0 -55.547916312221744 116.84819928358333 814.5082466317951
58848 69860.0 -54.9747257684325 116.53633814202225 814.3073588463425
58848 69870.0 -54.40088933763026 116.23205369429066 814.1048070854921
58848 69880.0 -53.82643439618966 115.93498783287683 813.9006782694589
58848 69890.0 -53.251386642754134 115.64480375940038 813.6950600165671
58848 69900.0 -52.675770225806765 115.3611844454342 813.4880406060716
58848 69910.0 -52.09960786017994 115.08383122158614 813.2797089407906
58848 69920.0 -51.52292093358902 114.81246248279822 813.0701545093001
58848 69930.0 -50.94572960415873 114.54681249918217 812.8594673479893
58848 69940.0 -50.36805288980487 114.286630322684 812.6477380026631
58848 69950.0 -49.7899087502433 114.03167878087737 812.4350574900998
58848 69960.0 -49.21131416231637 113.78173355009498 812.2215172591843
58848 69970.0 -48.63228518925441 113.53658230080435 812.0072091519397
58848 69980.0 -48.05283704442816 113.29602390888219 811.79222536428
58848 69990.0 -47.47298415008788 113.05986772704605 811.5766584066
58848 70000.0 -46.89274019153939 112.82793291124504 811.360601064192
58848 70010.0 -46.31211816715756 112.6000477973038 811.1441463575145
58848 70020.0 -45.731130434602676 112.37604932357303 810.927387502271
58848 70030.0 -45.14978875356548 112.15578249574631 810.7104178694085
58848 70040.0 -44.56810432533871 111.93909989031766 810.4933309450092
58848 70050.0 -43.98608782948119 111.72586119351826 810.2762202900313
58848 70060.0 -43.40374945781864 111.51593277286338 810.0591795000821
58848 70070.0 -42.821098945999196 111.30918727864199 809.8423021650333
58848 70080.0 -42.23814560280461 111.1055032730105 809.6256818286223
58848 70090.0 -41.65489833739679 110.90476488445871 809.4094119481074
58848 70100.0 -41.07136568466567 110.70686148571133 809.1935858537695
58848 70110.0 -40.48755582882696 110.51168739321092 808.9782967085695
58848 70120.0 -39.90347662540754 110.31914158653966 808.7636374677902
58848 70130.0 -39.319135621742056 110.12912744628059 808.5497008386473
58848 70140.0 -38.73454007609508 109.94155250888991 808.3365792401299
58848 70150.0 -38.14969697551213 109.75632823736058 808.1243647627381
58848 70160.0 -37.56461305249523 109.57336980645039 807.9131491284857
58848 70170.0 -36.97929480058917 109.39259590147759 807.7030236509114
58848 70180.0 -36.393748488958956 109.21392852964026 807.4940791952598
58848 70190.0 -35.80798017603106 109.03729284296266 807.2864061388777
58848 70200.0 -35.22199572227102 108.86261697210242 807.0800943316784
58848 70210.0 -34.63580080212693 108.68983187015698 806.8752330568823
58848 70220.0 -34.04940091527582 108.51887116584895 806.6719109918932
58848 70230.0 -33.462801397118135 108.34967102538857 806.4702161695106
58848 70240.0 -32.87600742864858 108.18217002243209 806.270235939263
58848 70250.0 -32.289024045715095 108.01630901559902 806.0720569290718
58848 70260.0 -31.701856147713283 107.85203103299712 805.8757650071925
58848 70270.0 -31.11450850575279 107.68928116333183 805.6814452444553
58848 70280.0 -30.526985770331496 107.52800645311316 805.489181876796
58848 70290.0 -29.939292478548897 107.36815580959522 805.2990582681231
58848 70300.0 -29.351433060889516 107.2096799090571 805.1111568735647
58848 70310.0 -28.76341184760351 107.0525311100601 804.925559203085
58848 70320.0 -28.17523307470983 106.89666337139992 804.7423457854114
58848 70330.0 -27.586900889646227 106.74203217440218 804.5615961324829
58848 70340.0 -26.998419356588272 106.58859444933421 804.3833887041671
58848 70350.0 -26.409792461457567 106.43630850563194 804.2078008736141
58848 70360.0 -25.8210241166385 106.28513396571948 804.0349088928316
58848 70370.0 -25.232118165421074 106.1350317022029 803.86478785892
58848 70380.0 -24.64307838618695 105.98596377821207 803.697511680685
58848 70390.0 -24.053908496353642 105.83789339071265 803.5331530457731
58848 70400.0 -23.464612156091533 105.690784816589 803.371783388374
58848 70410.0 -22.875192971826845 105.54460336133594 803.2134728573576
58848 70420.0 -22.28565449954388 105.39931531020925 803.0582902850654
58848 70430.0 -21.696000247897693 105.2548878816694 802.9063031565888
58848 70440.0 -21.106233681148442 105.11128918299566 802.7575775796595
58848 70450.0 -20.516358221927476 104.96848816792449 802.6121782551244
58848 70460.0 -19.92637725384561 104.82645459619621 802.4701684480399
58848 70470.0 -19.336294123952086 104.68515899491355 802.3316099593527
58848 70480.0 -18.746112145052717 104.54457262156564 802.1965630982719
58848 70490.0 -18.155834597895574 104.40466742865533 802.0650866552421
58848 70500.0 -17.565464733231906 104.26541602981894 801.9372378756134
58848 70510.0 -16.975005773758998 104.12679166733258 801.813072433936
58848 70520.0 -16.38446091595231 103.98876818096225 801.6926444090334
58848 70530.0 -15.79383333179259 103.85131997802903 801.5760062596786
58848 70540.0 -15.203126170394453 103.71442200465712 801.4632088010542
58848 70550.0 -14.612342559542157 103.57804971810687 801.354301181903
58848 70560.0 -14.021485607137926 103.44217906014357 801.2493308624145
58848 70570.0 -13.430558402567659 103.30678643136467 801.1483435928924
58848 70580.0 -12.839564017989195 103.17184866642175 801.0513833931614
58848 70590.0 -12.248505509547936 103.03734301012358 800.9584925326963
58848 70600.0 -11.657385918524033 102.90324709429316 800.869711511642
58848 70610.0 -11.06620827241528 102.76953891540023 800.7850790424807
58848 70620.0 -10.474975585959784 102.63619681287246 800.7046320326372
58848 70630.0 -9.883690862102632 102.50319944804654 800.6284055678011
58848 70640.0 -9.292357092910008 102.37052578375605 800.5564328960745
58848 70650.0 -8.700977260434085 102.23815506444033 800.488745412999
58848 70660.0 -8.109554337532396 102.10606679680808 800.4253726473148
58848 70670.0 -7.518091288645083 101.9742407309579 800.3663422476642
58848 70680.0 -6.9265910705331795 101.84265684195961 800.311679970113
58848 70690.0 -6.335056632980613 101.71129531184425 800.2614096664364
58848 70700.0 -5.74349091946323 101.58013651195243 800.2155532733917
58848 70710.0 -5.151896867787956 101.44916098564727 800.1741308027752
58848 70720.0 -4.560277410704679 101.3183494313114 800.1371603323571
58848 70730.0 -3.968635476493403 101.18768268563672 800.1046579977261
58848 70740.0 -3.376973989529566 101.0571417071613 800.0766379849598
58848 70750.0 -2.7852958708304065 100.92670755999816 800.0531125242187
58848 70760.0 -2.1936040385847257 100.79636139779088 800.0340918842022
58848 70770.0 -1.6019014086683674 100.6660844477849 800.0195843674883
58848 70780.0 -1.010190895148185 100.53585799506222 800.0095963067989
58848 70790.0 -0.4184754107771488 100.40566336685167 800.0041320621311
58848 70800.0 0.17324213251715195 100.27548191692931 800.0031940187401
58848 70810.0 0.7649588231483494 100.1452950100653 800.0067825860995
58848 70820.0 1.3566717493888703 100.01508400647548 800.0148961977035
58848 70830.0 1.9483779988865766 99.88483024627953 800.0275313117951
58848 70840.0 2.540074658178288 99.75451503392387 800.044682412904
58848 70850.0 3.1317588121978943 99.62411962252601 800.0663420144667
58848 70860.0 3.7234275437764706 99.49362519815465 800.092500662073
58848 70870.0 4.3150779331316365 99.36301286395795 800.1231469378578
58848 70880.0 4.9067070573439455 99.23226362418802 800.1582674656174
58848 70890.0 5.4983119898179345 99.10135836801052 800.1978469168829
58848 70900.0 6.089889799725031 98.97027785313459 800.24186801786
58848 70910.0 6.681437551425587 98.83900268920824 800.2903115572356
58848 70920.0 7.272952303867464 98.70751332093516 800.34315639487
58848 70930.0 7.864431109958748 98.57579001091138 800.4003794713832
58848 70940.0 8.455871015911528 98.44381282213475 800.4619558185648
58848 70950.0 9.04726906055369 98.31156160013974 800.5278585706693
58848 70960.0 9.638622274605908 98.17901595475412 800.5980589765527
58848 70970.0 10.229927679921405 98.04615524141616 800.6725264126816
58848 70980.0 10.821182288683962 97.91295854203652 800.7512283969451
58848 70990.0 11.412383102562597 97.77940464532942 800.8341306033583
58848 71000.0 12.003527111818103 97.64547202663971 800.9211968775115
58848 71010.0 12.594611294358618 97.51113882714338 801.0123892529448
58848 71020.0 13.185632614740678 97.3763828324422 801.1076679682087
58848 71030.0 13.776588023111795 97.24118145048236 801.2069914848454
58848 71040.0 14.3674744540903 97.10551168873477 801.3103165060737
58848 71050.0 14.958288825578611 96.96935013061763 801.417597996327
58848 71060.0 15.549028037505723 96.8326729110932 801.5287892015082
58848 71070.0 16.139688970494134 96.69545569136862 801.6438416700273
58848 71080.0 16.73026848444632 96.55767363267378 801.7627052746211
58848 71090.0 17.32076341704578 96.41930136902953 801.8853282348588
58848 71100.0 17.911170582167745 96.28031297894975 802.0116571404286
58848 71110.0 18.50148676819355 96.14068195601608 802.1416369751181
58848 71120.0 19.09170873622275 96.00038117822807 802.2752111414997
58848 71130.0 19.681833218176823 95.8593828760842 802.4123214863231
58848 71140.0 20.27185691478813 95.71765859928686 802.5529083265811
58848 71150.0 20.861776493467037 95.57517918199474 802.6969104762352
58848 71160.0 21.45158858603929 95.43191470652572 802.8442652736157
58848 71170.0 22.04128978634635 95.28783446542332 802.9949086094565
58848 71180.0 22.63087664770032 95.14290692175564 803.1487749555419
58848 71190.0 23.22034568018448 94.9970996675696 803.3057973939989
58848 71200.0 23.809693347789555 94.85037938035605 803.465907647143
58848 71210.0 24.39891606537634 94.70271177740938 803.6290361079788
58848 71220.0 24.98801019545344 94.55406156794221 803.7951118711578
58848 71230.0 25.57697204475907 94.4043924028217 803.9640627646397
58848 71240.0 26.16579786063421 94.25366682174672 804.1358153817532
58848 71250.0 26.754483827174095 94.10184619773479 804.3102951138527
58848 71260.0 27.34302606114433 93.94889067871398 804.4874261834964
58848 71270.0 27.93142060764665 93.79475912605135 804.6671316780496
58848 71280.0 28.519663435517426 93.6394090497868 804.8493335838239
58848 71290.0 29.107750432442494 93.48279654038836 805.0339528206608
58848 71300.0 29.695677399769455 93.32487619676868 805.2209092769389
58848 71310.0 30.283440046997537 93.16560105032222 805.4101218450088
58848 71320.0 30.871033985923326 93.00492248470869 805.6015084570724
58848 71330.0 31.45845472441953 92.84279015110299 805.7949861213979
58848 71340.0 32.04569765982199 92.67915187856343 805.9904709589864
58848 71350.0 32.63275807189779 92.51395357924629 806.1878782405033
58848 71360.0 33.21963111536596 92.34713914802272 806.3871224235995
58848 71370.0 33.80631181193872 92.17865035617322 806.5881171906077
58848 71380.0 34.39279504185067 92.00842673868887 806.7907754864086
58848 71390.0 34.97907553483851 91.83640547476749 806.9950095567323
58848 71400.0 35.56514786053191 91.6625212609511 807.200730986609
58848 71410.0 36.15100641821269 91.48670617642506 807.4078507391847
58848 71420.0 36.73664542589622 91.30888953987572 807.616279194644
58848 71430.0 37.32205890868411 91.12899775725525 807.8259261894603
58848 71440.0 37.90724068633368 90.94695415983718 808.0367010557932
58848 71450.0 38.492184359984684 90.76267883174435 808.2485126610786
58848 71460.0 39.07688329797816 90.5760884262019 808.461269447757
58848 71470.0 39.66133062069773 90.38709596964223 808.6748794731873
58848 71480.0 40.24551918435541 90.19561065266721 808.8892504496708
58848 71490.0 40.829441563638895 90.00153760688951 809.1042897845606
58848 71500.0 41.413090033127894 89.8047776665054 809.3199046204974
58848 71510.0 41.99645654738055 89.6052271133495 809.5360018757077
58848 71520.0 42.57953271957957 89.40277740414933 809.7524882843582
58848 71530.0 43.162309798618246 89.19731487845891 809.9692704369182
58848 71540.0 43.74477864449531 88.98872044572032 810.1862548205884
58848 71550.0 44.326929701874136 88.77686924965816 810.4033478597257
58848 71560.0 44.90875297164848 88.56163030816113 810.6204559562206
58848 71570.0 45.490237980339856 88.34286612647539 810.8374855298645
58848 71580.0 46.071373747135446 88.1204322814637 811.0543430586531
58848 71590.0 46.65214874835572 87.8941769744044 811.2709351190583
58848 71600.0 47.23255087911903 87.66394054950898 811.4871684261904
58848 71610.0 47.8125674119456 87.42955497516267 811.7029498738364
58848 71620.0 48.39218495201759 87.19084328449333 811.9181865744226
58848 71630.0 48.97138938878105 86.94761897157844 812.1327858988107
58848 71640.0 49.55016584354164 86.69968533920516 812.3466555159671
58848 71650.0 50.12849861266791 86.44683479367608 812.5597034324477
58848 71660.0 50.70637110597374 86.1888480816779 812.7718380316932
58848 71670.0 51.28376577980382 85.92549346371537 812.9829681131323
58848 71680.0 51.86066406429193 85.65652581797683 813.1930029310847
58848 71690.0 52.43704628420044 85.3816856679301 813.4018522333804
58848 71700.0 53.012891572682555 85.10069812609406 813.6094262998067
58848 71710.0 53.58817777723069 84.81327174569569 813.8156359801848
58848 71720.0 54.162881356986624 84.51909727096314 814.0203927322866
58848 71730.0 54.73697727049049 84.21784627573281 814.2236086593457
58848 71740.0 55.310438852833784 83.90916967898558 814.4251965473484
58848 71750.0 55.88323768105349 83.59269612445928 814.6250699019507
58848 71760.0 56.45534342645989 83.26803021019684 814.8231429850265
58848 71770.0 57.026723692424895 82.93475055207672 815.0193308509446
58848 71780.0 57.597343835970534 82.59240766362899 815.2135493824054
58848 71790.0 58.167166771281735 82.24052163227336 815.4057153259148
58848 71800.0 58.73615275302213 81.8785795698232 815.5957463268663
58848 71810.0 59.30425913704995 81.50603281243569 815.783560964223
58848 71820.0 59.87144011580916 81.12229384219373 815.9690787847461
58848 71830.0 60.43764642530158 80.72673289921693 816.1522203368039
58848 71840.0 61.002825020119396 80.31867424942178 816.3329072037219
58848 71850.0 61.56691871252908 79.89739206886524 816.5110620366845
58848 71860.0 62.12986577103476 79.46210590092171 816.6866085871361
58848 71870.0 62.691599473199695 79.01197563725908 816.8594717387198
58848 71880.0 63.252047606755035 78.54609596783887 817.0295775387069
58848 71890.0 63.811131912159844 78.063490238607 817.1968532288723
58848 71900.0 64.36876745877763 77.5631036484716 817.361227275931
58848 71910.0 64.92486194567893 77.04379570942376 817.5226294013435
58848 71920.0 65.47931491674319 76.5043318851234 817.6809906106604
58848 71930.0 66.03201687819143 75.9433743143337 817.8362432222494
58848 71940.0 66.582848304896 75.3594715160423 817.9883208954534
58848 71950.0 67.13167851975774 74.75104696343205 818.1371586582225
58848 71960.0 67.67836442806984 74.11638640415497 818.2826929341127
58848 71970.0 68.22274908606343 73.45362379551706 818.4248615686813
58848 71980.0 68.76466007970889 72.76072571568585 818.5636038552902
58848 71990.0 69.30390768629012 72.03547410723353 818.6988605602992
58848 72000.0 69.84028278723792 71.27544720917724 818.8305739476248
58848 72010.0 70.37355449618121 70.47799854020214 818.9586878026151
58848 72020.0 70.90346746114965 69.64023381290443 819.0831474553894
58848 72030.0 71.42973879437346 68.75898569133412 819.2038998033842
58848 72040.0 71.95205457727378 67.83078635844645 819.3208933333611
58848 72050.0 72.4700658822075 66.85183794581587 819.4340781426768
58848 72060.0 72.98338424666234 65.81798100725973 819.5434059598697
58848 72070.0 73.49157653043387 64.72466140774078 819.6488301646306
58848 72080.0 73.99415908271487 63.56689627104083 819.7503058070096
58848 72090.0 74.4905911452868 62.339240012858205 819.8477896259107
58848 72100.0 74.98026742205363 61.035752016605514 819.9412400669905
58848 72110.0 75.46250975678176 59.64996823179696 820.0306172997491
58848 72120.0 75.93655788405121 58.17487994251762 820.115883233886
58848 72130.0 76.40155925851589 56.60292422299266 820.197001535053
58848 72140.0 76.85655803190198 54.92599222403504 820.2739376397134
58848 72150.0 77.30048334514048 53.13546345495862 820.346658769433
58848 72160.0 77.7321372461505 51.22227663200555 820.4151339443125
58848 72170.0 78.15018274510558 49.17705035786753 820.4793339957158
58848 72180.0 78.55313279137519 46.99026961854856 820.5392315782645
58848 72190.0 78.93934130875847 44.652556319860985 820.5948011810498
58848 72200.0 79.30699785680333 42.15504295388358 820.6460191381254
58848 72210.0 79.65412797398054 39.48986663113208 820.6928636382011
58848 72220.0 79.97860174647559 36.650794290561294 820.735314733613
58848 72230.0 80.27815352663426 33.63397674993585 820.7733543484717
58848 72240.0 80.55041582703161 30.43880747913593 820.8069662861041
58848 72250.0 80.79297001047725 27.068831014114327 820.8361362356841
58848 72260.0 81.00341523302897 23.53260819381052 820.8608517780916
58848 72270.0 81.17945499345687 19.844407964900423 820.8811023910185
58848 72280.0 81.31899762040122 16.024570726969866 820.8968794532655
58848 72290.0 81.42026346190008 12.099391760956033 820.908176248299
58848 72300.0 81.48188822617645 8.100418444485847 820.9149879669369
58848 72310.0 81.50300995124365 4.063144057714478 820.917311709426
58848 72320.0 81.48332748029299 0.02519853115669547 820.9151464865474
58848 72330.0 81.42312154293008 -3.975750218435108 820.9084932200344
58848 72340.0 81.32323509316865 -7.904100203185505 820.8973547422167
58848 72350.0 81.18501603010496 -11.728139056642993 820.8817357948521
58848 72360.0 81.01023103883975 -15.421370426824806 820.8616430271642
58848 72370.0 80.80096260903454 -18.963238415804767 820.8370849931631
58848 72380.0 80.55950178473913 -22.33926344605604 820.8080721480943
58848 72390.0 80.28824729591003 -25.5406934173849 820.7746168441815
58848 72400.0 79.98961843416794 -28.56382078110233 820.7367333255326
58848 72410.0 79.66598546169467 -31.409121009396028 820.6944377223444
58848 72420.0 79.31961829193537 -34.080343892637224 820.6477480442691
58848 72430.0 78.95265204265766 -36.58365186730904 820.596684173011
58848 72440.0 78.5670668678238 -38.926861700426365 820.541267854196
58848 72450.0 78.16467904650533 -41.11881458848375 820.4815226884384
58848 72460.0 77.74714039526445 -43.16887762168941 820.4174741216756
58848 72470.0 77.31594344416317 -45.08656613833751 820.3491494346935
58848 72480.0 76.87243030292801 -46.881269870361756 820.2765777319302
58848 72490.0 76.41780363300101 -48.562063799407554 820.1997899295602
58848 72500.0 75.9531385749158 -50.13758544066613 820.1188187427226
58848 72510.0 75.47939483575995 -51.615962476962316 820.0336986721433
58848 72520.0 74.9974284165513 -53.00477738079923 819.9444659899065
58848 72530.0 74.5080026629724 -54.31105836203672 819.8511587245538
58848 72540.0 74.01179846785661 -55.54128839799933 819.7538166454248
58848 72550.0 73.50942355317157 -56.70142613772013 819.652481246275
58848 72560.0 73.00142082459062 -57.7969341121549 819.5471957282156
58848 72570.0 72.48827583256029 -58.83281096363207 819.4380049818757
58848 72580.0 71.97042339740233 -59.813625384898515 819.3249555689114
58848 72590.0 71.44825346795147 -60.74355018856122 819.2080957028086
58848 72600.0 70.92211628748964 -61.626395464285174 819.087475228948
58848 72610.0 70.39232694012922 -62.46564016878266 818.9631456040632
58848 72620.0 69.85916934727729 -63.26446176919468 818.8351598749509
58848 72630.0 69.32289977867923 -64.02576375263916 818.7035726565434
58848 72640.0 68.78374993669306 -64.75220094584664 818.5684401093152
58848 72650.0 68.24192966641178 -65.44620267583291 818.4298199160347
58848 72660.0 67.69762933838823 -66.1099938578138 818.2877712578811
58848 72670.0 67.15102194521695 -66.7456141297519 818.1423547898919
58848 72680.0 66.60226494818258 -67.35493517031003 817.9936326158166
58848 72690.0 66.05150190563795 -67.93967634409536 817.8416682623431
58848 72700.0 65.49886391073363 -68.50141881789386 817.6865266526761
58848 72710.0 64.94447086253734 -69.04161828699678 817.5282740796109
58848 72720.0 64.38843259145516 -69.56161644339005 817.3669781778987
58848 72730.0 63.83084985712397 -70.0626513085799 817.2027078961323
58848 72740.0 63.27181523456242 -70.54586654431527 817.0355334679804
58848 72750.0 62.711413902302695 -71.01231984466129 816.8655263829385
58848 72760.0 62.149724344430616 -71.46299050341024 816.6927593564704
58848 72770.0 61.58681897690949 -71.89878624177435 816.5173062996502
58848 72780.0 61.02276470722577 -72.32054937280697 816.3392422882829
58848 72790.0 60.457623435224896 -72.72906237125557 816.1586435314777
58848 72800.0 59.89145250201031 -73.1250529103562 815.975587339739
58848 72810.0 59.324305092902385 -73.50919842060155 815.7901520925752
58848 72820.0 58.75623059970354 -73.88213021972025 815.6024172056519
58848 72830.0 58.18727494686406 -74.24443725775201 815.4124630973979
58848 72840.0 57.617480885575894 -74.59666951649422 815.2203711552538
58848 72850.0 57.04688825932887 -74.93934109828052 815.0262237014509
58848 72860.0 56.47553424404183 -75.27293303538326 814.8301039583174
58848 72870.0 55.9034535655015 -75.59789584791535 814.6320960132512
58848 72880.0 55.33067869652552 -75.91465187517022 814.4322847832453
58848 72890.0 54.75724003597938 -76.22359740264166 814.2307559790391
58848 72900.0 54.183166071529854 -76.52510460466522 814.0275960688987
58848 72910.0 53.608483527805035 -76.8195233204654 813.8228922420454
58848 72920.0 53.03321750143884 -77.10718267957448 813.616732371759
58848 72930.0 52.45739158431161 -77.38839259088266 813.409204978109
58848 72940.0 51.881027976158194 -77.6634451081707 813.2003991904353
58848 72950.0 51.304147587578015 -77.93261568357566 812.9904047094831
58848 72960.0 50.72677013437777 -78.19616431935522 812.779311769264
58848 72970.0 50.14891422407238 -78.4543366272188 812.5672110986997
58848 72980.0 49.57059743528283 -78.70736480356415 812.3541938829383
58848 72990.0 48.991836390694715 -78.95546852818357 812.140351724516
58848 73000.0 48.412646824169656 -79.19885579317344 811.9257766042305
58848 73010.0 47.833043642540154 -79.43772366822057 811.7105608418605
58848 73020.0 47.25304098257048 -79.67225900774274 811.4947970566727
58848 73030.0 46.67265226350815 -79.90263910492472 811.2785781277973
58848 73040.0 46.091890235617846 -80.12903229715485 811.0619971543852
58848 73050.0 45.5107670250453 -80.35159852694437 810.8451474157229
58848 73060.0 44.92929417532536 -80.57048986208547 810.6281223310962
58848 73070.0 44.34748268582187 -80.78585097836893 810.4110154197097
58848 73080.0 43.76534304735463 -80.99781960796581 810.1939202603877
58848 73090.0 43.18288527524855 -81.20652695624011 809.976930451306
58848 73100.0 42.6001189400163 -81.41209808950991 809.7601395695797
58848 73110.0 42.017053195865834 -81.61465229610556 809.5436411309048
58848 73120.0 41.433696807208975 -81.8143034227779 809.3275285491238
58848 73130.0 40.850058173329366 -82.0111601884283 809.1118950958406
58848 73140.0 40.26614535135244 -82.20532647686379 808.8968338600137
58848 73150.0 39.68196607765394 -82.39690161021899 808.6824377075935
58848 73160.0 39.09752778782139 -82.58598060449667 808.468799241251
58848 73170.0 38.512837635283255 -82.77265440855072 808.2560107601372
58848 73180.0 37.92790250870372 -82.95701012778416 808.0441642197525
58848 73190.0 37.342729048235135 -83.1391312336388 807.8333511919153
58848 73200.0 36.75732366071307 -83.3190977599644 807.6236628248832
58848 73210.0 36.171692533870896 -83.49698648716846 807.4151898035682
58848 73220.0 35.585841649643 -83.67287111506177 807.2080223099684
58848 73230.0 34.999776796625504 -83.84682242518605 807.0022499837506
58848 73240.0 34.413503581748955 -84.01890843336245 806.7979618830202
58848 73250.0 33.8270274412225 -84.1891945331377 806.5952464453744
58848 73260.0 33.24035365079792 -84.35774363079946 806.3941914490422
58848 73270.0 32.65348733539969 -84.52461627247747 806.194883974481
58848 73280.0 32.066433478165635 -84.68987076391902 805.9974103660453
58848 73290.0 31.47919692893725 -84.85356328340411 805.8018561940937
58848 73300.0 30.89178241223439 -85.01574798829034 805.6083062172839
58848 73310.0 30.304194534752643 -85.17647711556964 805.4168443453087
58848 73320.0 29.716437792409263 -85.33580107687152 805.2275536018024
58848 73330.0 29.128516576970974 -85.4937685482592 805.0405160878302
58848 73340.0 28.54043518228898 -85.6504265551423 804.855812945538
58848 73350.0 27.95219781016497 -85.80582055266058 804.673524322318
58848 73360.0 27.363808575873474 -85.95999450178046 804.4937293353499
58848 73370.0 26.775271513360995 -86.1129909414179 804.3165060365685
58848 73380.0 26.186590580140535 -86.2648510568211 804.1419313780475
58848 73390.0 25.597769661903943 -86.41561474444067 803.9700811779047
58848 73400.0 25.008812576864425 -86.56532067352425 803.8010300866065
58848 73410.0 24.4197230798494 -86.71400634462094 803.634851553819
58848 73420.0 23.830504866157384 -86.86170814520322 803.4716177957334
58848 73430.0 23.241161575191605 -87.00846140257589 803.3113997629472
58848 73440.0 22.651696793885957 -87.15430043423035 803.154267108842
58848 73450.0 22.0621140599343 -87.29925859580642 803.0002881585452
58848 73460.0 21.47241686483302 -87.4433683268132 802.8495298784699
58848 73470.0 20.88260865675209 -87.58666119423744 802.7020578463872
58848 73480.0 20.2926928432391 -87.729167934161 802.5579362221537
58848 73490.0 19.702672793770134 -87.87091849151031 802.4172277190485
58848 73500.0 19.112551842154694 -88.01194205806863 802.2799935756558
58848 73510.0 18.522333288802255 -88.15226710881414 802.1462935285336
58848 73520.0 17.93202040286009 -88.29192143673276 802.016185785382
58848 73530.0 17.341616424228576 -88.4309321861558 801.8897269990036
58848 73540.0 16.751124565461147 -88.56932588472797 801.7669722418638
58848 73550.0 16.16054801355626 -88.70712847410263 801.6479749813935
58848 73560.0 15.569889931645973 -88.84436533940203 801.532787055971
58848 73570.0 14.979153460589007 -88.98106133756569 801.4214586516227
58848 73580.0 14.388341720473024 -89.11724082460387 801.3140382794761
58848 73590.0 13.797457812029988 -89.25292768187208 801.210572753927
58848 73600.0 13.206504817973405 -89.38814534138756 801.1111071715894
58848 73610.0 12.615485804257458 -89.52291681026286 801.0156848909604
58848 73620.0 12.024403821266477 -89.65726469432789 800.9243475129238
58848 73630.0 11.433261904937565 -89.7912112209529 800.8371348619597
58848 73640.0 10.842063077819665 -89.92477826117137 800.7540849682317
58848 73650.0 10.250810350074927 -90.05798735110936 800.6752340504123
58848 73660.0 9.659506720425274 -90.19085971278456 800.6006164993111
58848 73670.0 9.06815517704638 -90.32341627433262 800.5302648624053
58848 73680.0 8.476758698416374 -90.45567768966411 800.4642098290967
58848 73690.0 7.88532025411781 -90.58766435764073 800.4024802168759
58848 73700.0 7.293842805600075 -90.71939644075789 800.3451029582715
58848 73710.0 6.702329306903842 -90.8508938834202 800.2921030886964
58848 73720.0 6.110782705349697 -90.98217642980575 800.2435037351371
58848 73730.0 5.519205942195904 -91.11326364136691 800.1993261056493
58848 73740.0 4.9276019532671285 -91.24417491402751 800.159589479807
58848 73750.0 4.3359736695555355 -91.37492949504512 800.1243111999734
58848 73760.0 3.744324017800857 -91.50554649964064 800.0935066634364
58848 73770.0 3.1526559210471454 -91.6360449273858 800.0671893154508
58848 73780.0 2.560972299182842 -91.76644367837126 800.0453706431229
58848 73790.0 1.9692760694651126 -91.89676156922167 800.0280601702613
58848 73800.0 1.3775701470354433 -92.02701734894633 800.0152654530054
58848 73810.0 0.785857445399185 -92.15722971468038 800.0069920764751
58848 73820.0 0.1941408769498374 -92.28741732732566 800.0032436521545
58848 73830.0 -0.39757664656662534 -92.41759882714389 800.0040218163297
58848 73840.0 -0.9892922135617372 -92.54779284929958 800.0093262292991
58848 73850.0 -1.5810029121231315 -92.67801803939342 800.0191545755575
58848 73860.0 -2.172705829529979 -92.80829306903068 800.0335025648326
58848 73870.0 -2.7643980517644566 -92.93863665141068 800.0523639340222
58848 73880.0 -3.3560766630176286 -93.06906755701324 800.0757304500436
58848 73890.0 -3.947738745185432 -93.19960462936989 800.1035919135664
58848 73900.0 -4.539381377353126 -93.33026680096306 800.1359361636124
58848 73910.0 -5.1310016352672685 -93.46107310929719 800.1727490830536
58848 73920.0 -5.7225965907887 -93.59204271313807 800.2140146050577
58848 73930.0 -6.314163311328917 -93.72319490897816 800.2597147202885
58848 73940.0 -6.905698859263219 -93.85454914773548 800.309829485106
58848 73950.0 -7.497200291319547 -93.98612505174513 800.3643370305851
58848 73960.0 -8.088664657941031 -94.11794243204287 800.4232135723756
58848 73970.0 -8.680089002617686 -94.25002130598652 800.4864334215002
58848 73980.0 -9.271470361185045 -94.38238191527476 800.5539689959412
58848 73990.0 -9.862805761088472 -94.51504474433463 800.6257908331133
58848 74000.0 -10.45409222060602 -94.64803053918314 800.7018676031952
58848 74010.0 -11.04532674803156 -94.78136032677041 800.7821661232388
58848 74020.0 -11.636506340811092 -94.91505543481092 800.866651372202
58848 74030.0 -12.227627984630079 -95.04913751221605 800.9552865067358
58848 74040.0 -12.818688652449914 -95.18362855009488 801.0480328777824
58848 74050.0 -13.409685303485773 -95.3185509034275 801.1448500480535
58848 74060.0 -14.00061488212693 -95.45392731341519 801.2456958102226
58848 74070.0 -14.591474316791508 -95.58978093057216 801.3505262059724
58848 74080.0 -15.182260518713278 -95.72613533862452 801.4592955457658
58848 74090.0 -15.772970380656414 -95.86301457923926 801.5719564294503
58848 74100.0 -16.36360077555226 -96.00044317766617 801.688459767541
58848 74110.0 -16.95414855505361 -96.13844616933204 801.8087548033243
58848 74120.0 -17.544610548003412 -96.2770491274771 801.9327891356963
58848 74130.0 -18.134983558807924 -96.41627819186854 802.0605087426508
58848 74140.0 -18.72526436571431 -96.55616009867529 802.1918580055624
58848 74150.0 -19.315449718981906 -96.69672221160393 802.3267797341298
58848 74160.0 -19.90553633894305 -96.83799255430996 802.4652151920524
58848 74170.0 -20.495520913947203 -96.97999984425027 802.6071041233052
58848 74180.0 -21.085400098179292 -97.12277352799971 802.7523847791539
58848 74190.0 -21.675170509345932 -97.26634381815165 802.9009939458034
58848 74200.0 -22.264828726222703 -97.41074173192767 803.052866972613
58848 74210.0 -22.85437128605011 -97.55599913153745 803.2079378010643
58848 74220.0 -23.443794681774026 -97.70214876648629 803.3661389941996
58848 74230.0 -24.03309535911706 -97.84922431788515 803.5274017667547
58848 74240.0 -24.622269713472036 -97.99726044491858 803.6916560158335
58848 74250.0 -25.211314086607516 -98.14629283363375 803.8588303521225
58848 74260.0 -25.800224763171425 -98.2963582481333 804.0288521316874
58848 74270.0 -26.388997966981538 -98.44749458441211 804.2016474883254
58848 74280.0 -26.977629857090555 -98.59974092694317 804.3771413663471
58848 74290.0 -27.566116523607658 -98.75313760821946 804.5552575539533
58848 74300.0 -28.154453983265835 -98.90772627146013 804.735918717052
58848 74310.0 -28.74263817471471 -99.06354993665896 804.9190464335502
58848 74320.0 -29.33066495352262 -99.22065307022312 805.1045612281007
58848 74330.0 -29.918530086869623 -99.37908165843554 805.2923826072782
58848 74340.0 -30.506229247909044 -99.53888328499038 805.4824290951957
58848 74350.0 -31.0937580097767 -99.70010721290491 805.6746182694989
58848 74360.0 -31.68111183922519 -99.86280447107414 805.8688667977558
58848 74370.0 -32.268286089853845 -100.02702794581455 806.065090474223
58848 74380.0 -32.85527599491183 -100.19283247773497 806.2632042569326
58848 74390.0 -33.44207665964051 -100.3602749643098 806.4631223051753
58848 74400.0 -34.028683053124446 -100.5294144685611 806.6647580172048
58848 74410.0 -34.61508999961709 -100.70031233427324 806.868024068366
58848 74420.0 -35.201292169301816 -100.87303230824855 807.0728324493562
58848 74430.0 -35.78728406844815 -101.04764067004587 807.2790945048692
58848 74440.0 -36.373060028920854 -101.22420636983563 807.4867209724447
58848 74450.0 -36.95861419698949 -101.40280117490353 807.6956220215432
