CIC_OEM_VERS = 2.0
CREATION_DATE = 2023-03-16T10:50:10.944707
ORIGINATOR = ISAE-SUPAERO


META_START
OBJECT_NAME = horus_eye_46
OBJECT_ID = horus_eye_46
CENTER_NAME = Earth
REF_FRAME = EME2000
TIME_SYSTEM = UTC
START_TIME = 2019-12-31T19:00:00.000
USEABLE_START_TIME = 2019-12-31T19:00:00.000
USEABLE_STOP_TIME = 2019-12-31T20:40:50.000
STOP_TIME = 2019-12-31T20:40:50.000
INTERPOLATION = lagrange
INTERPOLATION_DEGREE = 5
META_STOP


58848 68400.0 -4932.946 5131.630099999999 926.34229 1.4711222000000002 0.095574719 7.304548700000001
58848 68410.0 -4917.9692000000005 5132.3093 999.3365500000001 1.5242048 0.040266461 7.2941719
58848 68420.0 -4902.462500000001 5132.4354 1072.2231000000002 1.5771232 -0.015046136000000002 7.2830091
58848 68430.0 -4886.4273 5132.008400000001 1144.9941000000001 1.6298716 -0.070357112 7.2710614
58848 68440.0 -4869.8656 5131.0283 1217.6417 1.6824444 -0.12566051 7.2583301
58848 68450.0 -4852.7791 5129.4952 1290.1581 1.7348358000000001 -0.18095036 7.2448166
58848 68460.0 -4835.1695 5127.4094000000005 1362.5355 1.7870403 -0.23622071 7.2305223
58848 68470.0 -4817.0389000000005 5124.7709 1434.766 1.8390522 -0.2914656 7.2154488
58848 68480.0 -4798.389099999999 5121.5801 1506.8418000000001 1.8908659 -0.34667908000000003 7.199597600000001
58848 68490.0 -4779.2223 5117.8374 1578.7553 1.9424758 -0.4018552 7.1829706
58848 68500.0 -4759.5403 5113.5432 1650.4987 1.9938763 -0.45698801 7.165569400000001
58848 68510.0 -4739.3454 5108.6978 1722.0641 2.045062 -0.5120715800000001 7.147396
58848 68520.0 -4718.6398 5103.3019 1793.444 2.0960273000000003 -0.56709995 7.1284524000000005
58848 68530.0 -4697.425700000001 5097.3561 1864.6306000000002 2.1467667 -0.6220672100000001 7.1087405
58848 68540.0 -4675.7052 5090.8607999999995 1935.6163000000001 2.1972748 -0.67696743 7.0882625
58848 68550.0 -4653.4809000000005 5083.816900000001 2006.3933000000002 2.247546 -0.73179469 7.0670206
58848 68560.0 -4630.755099999999 5076.2252 2076.9542 2.2975751 -0.78654309 7.045017
58848 68570.0 -4607.5303 5068.0864 2147.2911 2.3473565 -0.8412067200000001 7.0222543
58848 68580.0 -4583.8088 5059.401400000001 2217.3967000000002 2.3968849 -0.8957797000000001 6.9987347
58848 68590.0 -4559.593400000001 5050.1711 2287.2633 2.4461551 -0.95025613 6.9744609
58848 68600.0 -4534.8866 5040.3966 2356.8834 2.4951616 -1.0046302 6.9494355
58848 68610.0 -4509.6911 5030.0789 2426.2495 2.5438992 -1.0588959 6.9236611
58848 68620.0 -4484.009599999999 5019.219 2495.3542 2.5923626 -1.1130476 6.897140500000001
58848 68630.0 -4457.8448 5007.8183 2564.1899 2.6405467 -1.1670791999999999 6.8698767
58848 68640.0 -4431.1996 4995.8779 2632.7492 2.6884462 -1.2209852 6.841872400000001
58848 68650.0 -4404.0768 4983.399 2701.0249 2.736056 -1.2747594999999998 6.8131309
58848 68660.0 -4376.4794 4970.3831 2769.0094 2.7833709 -1.3283964000000001 6.7836549999999995
58848 68670.0 -4348.410400000001 4956.8315999999995 2836.6955000000003 2.8303858 -1.3818902000000002 6.7534481
58848 68680.0 -4319.8727 4942.7458 2904.0759 2.8770957 -1.4352351 6.7225133999999995
58848 68690.0 -4290.8695 4928.1274 2971.1434 2.9234955 -1.4884253 6.6908541999999995
58848 68700.0 -4261.4039 4912.977900000001 3037.8906 2.9695803 -1.541455 6.6584739
58848 68710.0 -4231.479 4897.298900000001 3104.3105 3.0153451000000002 -1.5943187 6.6253761
58848 68720.0 -4201.0981 4881.0921 3170.3958 3.0607848 -1.6470105000000002 6.5915642
58848 68730.0 -4170.2644 4864.3592 3236.1394 3.1058948 -1.6995248 6.557042000000001
58848 68740.0 -4138.9812999999995 4847.1022 3301.5342 3.1506700000000003 -1.751856 6.521813
58848 68750.0 -4107.252100000001 4829.322700000001 3366.5733 3.1951055999999998 -1.8039984 6.4858813
58848 68760.0 -4075.0803 4811.022900000001 3431.2495 3.2391969 -1.8559464 6.449250500000001
58848 68770.0 -4042.4692999999997 4792.2045 3495.556 3.2829391 -1.9076943000000002 6.4119247999999995
58848 68780.0 -4009.4227 4772.8697 3559.4857 3.3263276 -1.9592367 6.373908
58848 68790.0 -3975.944 4753.0205000000005 3623.0319 3.3693575 -2.0105679 6.335204300000001
58848 68800.0 -3942.0368 4732.659 3686.1875 3.4120243 -2.0616824 6.2958178
58848 68810.0 -3907.7047000000002 4711.7875 3748.946 3.4543234000000003 -2.1125747 6.255752800000001
58848 68820.0 -3872.9515 4690.4083 3811.3003 3.4962503000000003 -2.1632394 6.215013700000001
58848 68830.0 -3837.781 4668.5235 3873.244 3.5378003 -2.2136709000000003 6.173604800000001
58848 68840.0 -3802.1967999999997 4646.135700000001 3934.7702000000004 3.5789690999999997 -2.2638639 6.1315305
58848 68850.0 -3766.2028999999998 4623.2471 3995.8724 3.6197522 -2.3138129 6.088795500000001
58848 68860.0 -3729.8031 4599.8602 4056.5439 3.6601452 -2.3635124999999997 6.0454042
58848 68870.0 -3693.0013 4575.9777 4116.7783 3.7001437000000004 -2.4129574 6.0013615
58848 68880.0 -3655.8015 4551.602 4176.569 3.7397434 -2.4621423 5.956671900000001
58848 68890.0 -3618.2077999999997 4526.7357 4235.9096 3.7789402 -2.5110618 5.9113405000000006
58848 68900.0 -3580.2241000000004 4501.3816 4294.7937 3.8177296000000003 -2.5597107 5.8653719
58848 68910.0 -3541.8545 4475.5424 4353.214900000001 3.8561076 -2.6080837999999997 5.818771300000001
58848 68920.0 -3503.1032999999998 4449.2209 4411.167 3.8940701 -2.6561758 5.7715435
58848 68930.0 -3463.9745000000003 4422.419900000001 4468.6437000000005 3.9316129 -2.7039815 5.7236938
58848 68940.0 -3424.4725 4395.1422 4525.638900000001 3.968732 -2.7514958000000003 5.6752272
58848 68950.0 -3384.6013 4367.3909 4582.1462 4.0054233 -2.7987136 5.626149000000001
58848 68960.0 -3344.3654 4339.169 4638.1598 4.0416831 -2.8456297 5.5764644
58848 68970.0 -3303.7691 4310.4794 4693.6735 4.0775072 -2.8922392 5.5261789
58848 68980.0 -3262.8168 4281.3252 4748.6814 4.112891899999999 -2.9385369999999997 5.475297899999999
58848 68990.0 -3221.5128 4251.7097 4803.1775 4.1478333 -2.9845181 5.423826699999999
58848 69000.0 -3179.8616 4221.6359 4857.156 4.1823278 -3.0301776 5.3717711
58848 69010.0 -3137.8677000000002 4191.1072 4910.611 4.2163715 -3.0755105 5.3191365
58848 69020.0 -3095.5357000000004 4160.1268 4963.5368 4.2499608 -3.1205119 5.2659286000000005
58848 69030.0 -3052.87 4128.6981000000005 5015.9277 4.2830921 -3.1651770999999997 5.2121533
58848 69040.0 -3009.8754 4096.8244 5067.778 4.315761800000001 -3.2095011 5.1578163
58848 69050.0 -2966.5562999999997 4064.5092000000004 5119.082200000001 4.347966400000001 -3.2534793 5.1029233000000005
58848 69060.0 -2922.9176 4031.756 5169.8346 4.3797024 -3.2971068 5.0474805
58848 69070.0 -2878.9638999999997 3998.5683 5220.03 4.4109664 -3.340379 4.9914937
58848 69080.0 -2834.6998 3964.9496000000004 5269.6627 4.441755100000001 -3.3832912000000004 4.9349689
58848 69090.0 -2790.1303 3930.9037000000003 5318.7276 4.472065 -3.4258388 4.8779123
58848 69100.0 -2745.2602 3896.4341000000004 5367.2192000000005 4.501893 -3.4680172 4.82033
58848 69110.0 -2700.0941000000003 3861.5446 5415.1324 4.5312358999999995 -3.5098219 4.7622283
58848 69120.0 -2654.6371000000004 3826.2389 5462.4621 4.5600904 -3.5512482 4.7036133
58848 69130.0 -2608.8939 3790.5209 5509.203 4.588453400000001 -3.5922919 4.6444914
58848 69140.0 -2562.8696 3754.3943 5555.3502 4.616322 -3.6329484 4.584868900000001
58848 69150.0 -2516.5692000000004 3717.8632000000002 5600.898700000001 4.6436931 -3.6732134000000003 4.524752400000001
58848 69160.0 -2469.9975 3680.9314 5645.8437 4.6705637 -3.7130826000000003 4.4641481999999995
58848 69170.0 -2423.1596 3643.6029 5690.1801 4.696930900000001 -3.7525516 4.4030629
58848 69180.0 -2376.0605 3605.8817000000004 5733.9033 4.722792 -3.7916161 4.3415031
58848 69190.0 -2328.7054 3567.7719 5777.0086 4.7481441 -3.8302721 4.2794754
58848 69200.0 -2281.0993 3529.2776000000003 5819.4913 4.7729845 -3.8685152 4.2169865
58848 69210.0 -2233.2473999999997 3490.4030000000002 5861.3468 4.7973105 -3.9063415 4.1540431
58848 69220.0 -2185.1549 3451.1522000000004 5902.5707 4.8211195 -3.9437467 4.0906521
58848 69230.0 -2136.8268 3411.5295 5943.1584 4.8444089 -3.980727 4.0268202
58848 69240.0 -2088.2684 3371.5391 5983.1056 4.867176300000001 -4.017278200000001 3.9625543
58848 69250.0 -2039.4850000000001 3331.1854 6022.4081 4.8894191000000005 -4.0533965 3.8978614
58848 69260.0 -1990.4818 3290.4726 6061.0615 4.911135000000001 -4.089078 3.8327485
58848 69270.0 -1941.2641 3249.4053 6099.0616 4.932321600000001 -4.1243188 3.7672224
58848 69280.0 -1891.8371000000002 3207.9877 6136.404500000001 4.9529766 -4.1591151 3.7012904
58848 69290.0 -1842.2063 3166.2245000000003 6173.0860999999995 4.9730979 -4.1934631 3.6349595
58848 69300.0 -1792.377 3124.12 6209.102400000001 4.9926832 -4.2273593 3.5682368
58848 69310.0 -1742.3544 3081.6787999999997 6244.4496 5.0117304 -4.2607999 3.5011296
58848 69320.0 -1692.1442 3038.9055 6279.1238 5.0302376 -4.293781200000001 3.4336451
58848 69330.0 -1641.7515 2995.8047 6313.1213 5.0482026 -4.3262999 3.3657905
58848 69340.0 -1591.1819 2952.3811 6346.438400000001 5.0656236 -4.3583523 3.2975732
58848 69350.0 -1540.4408 2908.6392 6379.0715 5.0824987 -4.3899349 3.2290006
58848 69360.0 -1489.5338000000002 2864.584 6411.0172 5.098826 -4.4210445 3.1600799000000004
58848 69370.0 -1438.4662 2820.2199 6442.272 5.1146038 -4.4516777 3.0908187
58848 69380.0 -1387.2435 2775.552 6472.8325 5.1298304 -4.481831000000001 3.0212244
58848 69390.0 -1335.8714 2730.5849 6502.6954000000005 5.1445042 -4.5115014 2.9513044
58848 69400.0 -1284.3553000000002 2685.3236 6531.8575 5.1586235 -4.5406856 2.8810664000000004
58848 69410.0 -1232.7008 2639.7729 6560.3157 5.1721869 -4.5693804 2.810518
58848 69420.0 -1180.9134 2593.9376 6588.066900000001 5.1851929000000005 -4.5975828000000005 2.7396666
58848 69430.0 -1128.9988 2547.8228 6615.108 5.1976401 -4.6252896 2.66852
58848 69440.0 -1076.9625 2501.4335 6641.4363 5.2095272 -4.6524981 2.5970858
58848 69450.0 -1024.8101 2454.7746 6667.0488 5.220852799999999 -4.6792051 2.5253717
58848 69460.0 -972.5473000000001 2407.8511000000003 6691.9428 5.231615700000001 -4.7054078 2.4533854
58848 69470.0 -920.1796700000001 2360.6681000000003 6716.1156 5.2418149000000005 -4.731103500000001 2.3811348
58848 69480.0 -867.71288 2313.2307 6739.5647 5.2514491 -4.7562892 2.3086275
58848 69490.0 -815.15258 2265.544 6762.2874 5.2605173999999995 -4.780962400000001 2.2358714
58848 69500.0 -762.5044200000001 2217.6132000000002 6784.2813 5.2690188 -4.8051203 2.1628744
58848 69510.0 -709.77409 2169.4433 6805.5441 5.2769523 -4.8287604 2.0896443
58848 69520.0 -656.96727 2121.0397000000003 6826.0734 5.2843171 -4.851880100000001 2.0161889
58848 69530.0 -604.08965 2072.4075000000003 6845.8670999999995 5.2911125000000006 -4.8744768999999994 1.9425163
58848 69540.0 -551.14692 2023.5519 6864.9231 5.2973376 -4.8965483999999995 1.8686344
58848 69550.0 -498.1448 1974.4783 6883.2391 5.3029918 -4.9180922 1.794551
58848 69560.0 -445.08899 1925.1918 6900.813400000001 5.3080745 -4.939106 1.7202743
58848 69570.0 -391.98521999999997 1875.6979 6917.644 5.312585100000001 -4.9595874 1.6458122000000002
58848 69580.0 -338.8392 1826.0019 6933.7291 5.3165233 -4.9795343999999995 1.5711727000000002
58848 69590.0 -285.65666 1776.109 6949.066900000001 5.3198884 -4.9989447 1.4963638000000001
58848 69600.0 -232.44334 1726.0248000000001 6963.6557999999995 5.3226803 -5.017816300000001 1.4213938000000002
58848 69610.0 -179.20497 1675.7545 6977.4943 5.324898500000001 -5.0361472 1.3462705000000001
58848 69620.0 -125.94729 1625.3036000000002 6990.5808 5.3265428 -5.0539353 1.2710021
58848 69630.0 -72.676028 1574.6776000000002 7002.9139000000005 5.3276131 -5.071178700000001 1.1955968000000001
58848 69640.0 -19.396938 1523.8818999999999 7014.4923 5.3281092 -5.0878756 1.1200626
58848 69650.0 33.884243000000005 1472.9219 7025.3147 5.328031200000001 -5.1040241 1.0444077
58848 69660.0 87.161772 1421.8032 7035.38 5.3273789 -5.1196227 0.9686402500000001
58848 69670.0 140.42991 1370.5313 7044.6872 5.3261525 -5.1346694 0.8927684
58848 69680.0 193.68291000000002 1319.1117 7053.2351 5.3243521000000005 -5.1491628 0.81680035
58848 69690.0 246.91504 1267.5499 7061.022900000001 5.3219779 -5.1631013 0.7407442700000001
58848 69700.0 300.12055 1215.8515 7068.0497000000005 5.3190302 -5.1764834 0.66460835
58848 69710.0 353.29373 1164.0221000000001 7074.3148 5.3155092 -5.1893076 0.5884008199999999
58848 69720.0 406.42883 1112.0672 7079.8175 5.3114153 -5.2015725 0.51212987
58848 69730.0 459.52013 1059.9925 7084.5572 5.3067491 -5.2132769 0.43580373
58848 69740.0 512.5619 1007.8036 7088.5334 5.3015109 -5.2244193999999995 0.35943062
58848 69750.0 565.5484399999999 955.506 7091.7457 5.2957014000000004 -5.2349989 0.28301877000000003
58848 69760.0 618.4740300000001 903.10547 7094.193700000001 5.289321200000001 -5.2450142 0.20657643
58848 69770.0 671.33296 850.60761 7095.8772 5.2823709 -5.2544642 0.13011182
58848 69780.0 724.1195500000001 798.01807 7096.7959 5.274851399999999 -5.263348 0.053633192
58848 69790.0 776.8281 745.3425400000001 7096.9498 5.2667634 -5.2716646 -0.022851218
58848 69800.0 829.45293 692.58667 7096.338900000001 5.258107799999999 -5.279413 -0.099333165
58848 69810.0 881.9883600000001 639.7561700000001 7094.9632 5.2488855 -5.2865925 -0.17580441
58848 69820.0 934.42875 586.85672 7092.8228 5.2390976 -5.2932022 -0.2522567
58848 69830.0 986.7684300000001 533.89403 7089.9181 5.228745 -5.2992415 -0.32868181
58848 69840.0 1039.0018 480.8738 7086.2493 5.217828900000001 -5.304709600000001 -0.40507150000000003
58848 69850.0 1091.1231 427.80174 7081.8168 5.2063505999999995 -5.3096061 -0.48141753
58848 69860.0 1143.1269 374.68358 7076.6212000000005 5.1943111 -5.3139304 -0.55771168
58848 69870.0 1195.0075 321.52504 7070.6628 5.1817118 -5.317682 -0.63394573
58848 69880.0 1246.7593000000002 268.33185 7063.9425 5.168554100000001 -5.3208605 -0.71011146
58848 69890.0 1298.3767 215.10975 7056.4608 5.1548394 -5.3234656000000005 -0.7862006500000001
58848 69900.0 1349.8542 161.86446 7048.2187 5.1405691 -5.3254969 -0.8622051199999999
58848 69910.0 1401.1863 108.60172 7039.217000000001 5.1257449 -5.3269544 -0.93811667
58848 69920.0 1452.3673000000001 55.327281000000006 7029.456700000001 5.1103682 -5.3278377 -1.0139271
58848 69930.0 1503.3918 2.0468800000000003 7018.9389 5.0944408 -5.3281469 -1.0896283
58848 69940.0 1554.2543 -51.233742 7007.6646 5.0779644 -5.3278818 -1.165212
58848 69950.0 1604.9492 -104.50883999999999 6995.635 5.060940700000001 -5.3270425999999995 -1.2406702
58848 69960.0 1655.4713000000002 -157.77268 6982.8516 5.0433716 -5.3256293 -1.3159947
58848 69970.0 1705.8148999999999 -211.01951000000003 6969.3156 5.025259 -5.3236419999999995 -1.3911773
58848 69980.0 1755.9746000000002 -264.24361 6955.0286 5.0066048 -5.321081 -1.46621
58848 69990.0 1805.9451999999999 -317.43922 6939.991900000001 4.987411 -5.3179465 -1.5410847
58848 70000.0 1855.7211000000002 -370.60063 6924.2074 4.9676798 -5.314239 -1.6157933
58848 70010.0 1905.297 -423.72209000000004 6907.6767 4.9474130999999995 -5.3099587 -1.6903278000000002
58848 70020.0 1954.6676000000002 -476.79789000000005 6890.4015 4.9266133 -5.3051061 -1.7646801
58848 70030.0 2003.8275 -529.82231 6872.3837 4.9052826 -5.2996818999999995 -1.8388423
58848 70040.0 2052.7714 -582.78963 6853.6253 4.8834232 -5.2936863999999995 -1.9128062000000001
58848 70050.0 2101.4942 -635.6941400000001 6834.1283 4.8610375 -5.2871205 -1.9865641
58848 70060.0 2149.9904 -688.5301400000001 6813.894700000001 4.838128 -5.2799848 -2.0601078000000004
58848 70070.0 2198.255 -741.29194 6792.9268 4.814697 -5.2722801 -2.1334295
58848 70080.0 2246.2827 -793.97385 6771.226900000001 4.7907472 -5.2640071 -2.2065213
58848 70090.0 2294.0682 -846.5701899999999 6748.7972 4.7662811000000005 -5.2551669 -2.2793753000000003
58848 70100.0 2341.6066 -899.0753000000001 6725.640200000001 4.7413013 -5.2457603 -2.3519836
58848 70110.0 2388.8925 -951.48351 6701.758400000001 4.7158105 -5.235788400000001 -2.4243384999999997
58848 70120.0 2435.9211 -1003.7891999999999 6677.1543 4.6898115 -5.2252522 -2.4964321000000003
58848 70130.0 2482.6871 -1055.9867 6651.830599999999 4.6633071 -5.2141529 -2.5682567
58848 70140.0 2529.1855 -1108.0703999999998 6625.7901 4.636300100000001 -5.2024916999999995 -2.6398045000000003
58848 70150.0 2575.4114 -1160.0346000000002 6599.0355 4.6087935 -5.1902698 -2.7110677
58848 70160.0 2621.3597999999997 -1211.8738999999998 6571.5697 4.5807902 -5.177488500000001 -2.7820389
58848 70170.0 2667.0256 -1263.5826000000002 6543.3957 4.5522932 -5.1641493 -2.8527101
58848 70180.0 2712.404 -1315.155 6514.5165 4.5233056 -5.1502535 -2.923074
58848 70190.0 2757.4901 -1366.5858 6484.9353 4.4938305000000005 -5.1358026 -2.9931228
58848 70200.0 2802.279 -1417.8692 6454.6552 4.4638712 -5.120798300000001 -3.0628490999999998
58848 70210.0 2846.7659 -1468.9999 6423.679400000001 4.4334307 -5.105242100000001 -3.1322453
58848 70220.0 2890.946 -1519.9722 6392.0114 4.4025125 -5.0891358 -3.2013039
58848 70230.0 2934.8146 -1570.7808 6359.654500000001 4.371119800000001 -5.0724808999999995 -3.2700175
58848 70240.0 2978.3668 -1621.42 6326.6122000000005 4.3392561 -5.0552795 -3.3383788
58848 70250.0 3021.5981 -1671.8846 6292.8881 4.3069246 -5.0375332 -3.4063802
58848 70260.0 3064.5038 -1722.1689 6258.4858 4.274129100000001 -5.019244 -3.4740145000000004
58848 70270.0 3107.0792 -1772.2676000000001 6223.4091 4.2408729 -5.0004138000000005 -3.5412744
58848 70280.0 3149.3197000000005 -1822.1753999999999 6187.661599999999 4.2071597 -4.981044799999999 -3.6081527
58848 70290.0 3191.2209 -1871.8867 6151.2473 4.172993000000001 -4.961139 -3.6746421999999996
58848 70300.0 3232.7781 -1921.3963999999999 6114.170099999999 4.1383767 -4.940698500000001 -3.7407356000000003
58848 70310.0 3273.9869 -1970.6988999999999 6076.433900000001 4.1033143 -4.9197256 -3.8064259000000003
58848 70320.0 3314.8429 -2019.7891000000002 6038.0429 4.0678098 -4.8982224 -3.8717059
58848 70330.0 3355.3416 -2068.6616000000004 5999.001200000001 4.0318667999999995 -4.8761914 -3.9365687
58848 70340.0 3395.4788 -2117.3112 5959.313 3.9954893000000005 -4.8536349 -4.0010073
58848 70350.0 3435.25 -2165.7326000000003 5918.9825 3.9586813000000003 -4.8305553 -4.0650147
58848 70360.0 3474.6510000000003 -2213.9206 5878.014099999999 3.9214466000000003 -4.806955100000001 -4.128584
58848 70370.0 3513.6775000000002 -2261.87 5836.4123 3.8837893 -4.7828368 -4.1917083
58848 70380.0 3552.3254 -2309.5756 5794.1815 3.8457134 -4.7582031 -4.2543809
58848 70390.0 3590.5904 -2357.0323 5751.3262 3.8072231000000003 -4.733056700000001 -4.3165951
58848 70400.0 3628.4685 -2404.235 5707.8511 3.7683225000000005 -4.7074001 -4.378344
58848 70410.0 3665.9555 -2451.1786 5663.7609 3.7290158 -4.681236200000001 -4.439621
58848 70420.0 3703.0474 -2497.8581 5619.0603 3.6893072000000005 -4.6545678 -4.5004196
58848 70430.0 3739.7403 -2544.2682999999997 5573.7541 3.649201 -4.6273979 -4.5607332
58848 70440.0 3776.0302 -2590.4044 5527.8473 3.6087015 -4.5997292 -4.6205553
58848 70450.0 3811.913 -2636.2612000000004 5481.344700000001 3.5678131 -4.5715647 -4.6798794
58848 70460.0 3847.3851 -2681.834 5434.2514 3.5265402 -4.5429077 -4.7386992
58848 70470.0 3882.4426000000003 -2727.1178 5386.572400000001 3.4848873 -4.513761000000001 -4.797008300000001
58848 70480.0 3917.0816 -2772.1076000000003 5338.312900000001 3.4428588 -4.484127900000001 -4.8548004
58848 70490.0 3951.2985 -2816.7987000000003 5289.478099999999 3.4004592 -4.4540115 -4.912069300000001
58848 70500.0 3985.0896000000002 -2861.1862 5240.0733 3.3576932000000004 -4.423415100000001 -4.9688089
58848 70510.0 4018.4512000000004 -2905.2653999999998 5190.103700000001 3.3145653000000004 -4.392341999999999 -5.0250129
58848 70520.0 4051.3797000000004 -2949.0315 5139.5748 3.2710802 -4.3607955 -5.0806754000000005
58848 70530.0 4083.8716000000004 -2992.4798 5088.4920999999995 3.2272426000000003 -4.3287791 -5.1357904
58848 70540.0 4115.9234 -3035.6055 5036.860900000001 3.1830572000000004 -4.2962962 -5.1903518
58848 70550.0 4147.5316 -3078.4041 4984.686900000001 3.1385288 -4.2633502 -5.2443539
58848 70560.0 4178.6928 -3120.871 4931.9757 3.0936621 -4.2299448 -5.2977909
58848 70570.0 4209.4037 -3163.0015 4878.733 3.0484620000000002 -4.1960836 -5.350656799999999
58848 70580.0 4239.661 -3204.7912 4824.9645 3.0029334 -4.1617701 -5.402946200000001
58848 70590.0 4269.4613 -3246.2354 4770.676 2.9570811 -4.1270081 -5.4546532
58848 70600.0 4298.8015000000005 -3287.3298 4715.8734 2.9109102 -4.0918013 -5.5057724
58848 70610.0 4327.6785 -3328.07 4660.5625 2.8644255 -4.0561536 -5.556298300000001
58848 70620.0 4356.089 -3368.4515 4604.749400000001 2.8176322000000003 -4.0200686999999995 -5.6062254000000005
58848 70630.0 4384.0301 -3408.4699 4548.4400000000005 2.7705352 -3.9835506 -5.6555482
58848 70640.0 4411.4987 -3448.121 4491.6405 2.7231396 -3.9466032 -5.7042616
58848 70650.0 4438.491900000001 -3487.4006 4434.3568 2.6754505 -3.9092304 -5.7523602
58848 70660.0 4465.0068 -3526.3042 4376.5953 2.6274732 -3.8714364000000003 -5.7998389
58848 70670.0 4491.0405 -3564.8278999999998 4318.362099999999 2.5792126 -3.8332251000000004 -5.846692600000001
58848 70680.0 4516.590099999999 -3602.9674 4259.6636 2.5306741 -3.7946007 -5.892916100000001
58848 70690.0 4541.653 -3640.7185 4200.5059 2.4818628 -3.7555674 -5.9385046
58848 70700.0 4566.2265 -3678.0774 4140.8956 2.4327841 -3.7161293 -5.983453000000001
58848 70710.0 4590.3078 -3715.0398 4080.839 2.3834432000000003 -3.6762908000000003 -6.0277567
58848 70720.0 4613.8945 -3751.6019 4020.3427 2.3338455 -3.636056 -6.0714107
58848 70730.0 4636.9839 -3787.7596000000003 3959.413 2.2839962000000003 -3.5954294 -6.1144104
58848 70740.0 4659.5736 -3823.5092000000004 3898.0566000000003 2.2339008 -3.5544154 -6.1567511999999995
58848 70750.0 4681.661099999999 -3858.8466000000003 3836.2802 2.1835646000000004 -3.5130182 -6.1984284
58848 70760.0 4703.2441 -3893.7682999999997 3774.0903 2.1329931 -3.4712425 -6.2394376000000005
58848 70770.0 4724.3202 -3928.2702000000004 3711.4937000000004 2.0821917 -3.4290927000000004 -6.2797745
58848 70780.0 4744.8872 -3962.3489 3648.4971 2.031166 -3.3865733000000002 -6.319434500000001
58848 70790.0 4764.9428 -3996.0005 3585.1072999999997 1.9799213 -3.3436889 -6.3584135
58848 70800.0 4784.4849 -4029.2215 3521.3311000000003 1.9284633 -3.3004442 -6.3967072
58848 70810.0 4803.5114 -4062.0082 3457.1754 1.8767974 -3.2568438 -6.4343116
58848 70820.0 4822.0202 -4094.3572000000004 3392.6472000000003 1.8249293 -3.2128924000000003 -6.4712226
58848 70830.0 4840.0093 -4126.2649 3327.7533 1.7728644999999998 -3.1685947999999997 -6.5074361
58848 70840.0 4857.4768 -4157.7279 3262.5008 1.7206086 -3.1239557000000002 -6.5429484
58848 70850.0 4874.4209 -4188.7429 3196.8967000000002 1.6681673000000001 -3.0789798999999998 -6.5777555
58848 70860.0 4890.839599999999 -4219.3064 3130.948 1.6155462 -3.0336723 -6.6118537
58848 70870.0 4906.7312 -4249.4152 3064.6620000000003 1.562751 -2.9880377 -6.6452393
58848 70880.0 4922.094 -4279.0661 2998.0456000000004 1.5097874 -2.9420812 -6.6779088
58848 70890.0 4936.9264 -4308.2558 2931.1062 1.4566611 -2.8958075 -6.7098587
58848 70900.0 4951.2267 -4336.9812 2863.8509 1.4033778 -2.8492218 -6.7410854
58848 70910.0 4964.9935000000005 -4365.2392 2796.2869 1.3499432999999998 -2.8023290000000003 -6.771585600000001
58848 70920.0 4978.2251 -4393.0268 2728.4216 1.2963633 -2.7551342 -6.801356
58848 70930.0 4990.9203 -4420.3409 2660.2622 1.2426435 -2.7076425 -6.8303935000000005
58848 70940.0 5003.0775 -4447.1787 2591.8162 1.1887899 -2.659859 -6.8586948
58848 70950.0 5014.6956 -4473.5371 2523.0908 1.1348081 -2.6117889 -6.886257
58848 70960.0 5025.7733 -4499.4135 2454.0935 1.0807039999999999 -2.5634372 -6.913077100000001
58848 70970.0 5036.3093 -4524.805 2384.8317 1.0264835 -2.5148093 -6.9391521
58848 70980.0 5046.3026 -4549.7088 2315.313 0.97215235 -2.4659104000000003 -6.9644793
58848 70990.0 5055.752 -4574.1223 2245.5447000000004 0.9177164299999999 -2.4167457 -6.9890559
58848 71000.0 5064.656599999999 -4598.0428 2175.5343 0.8631816 -2.3673206 -7.0128794
58848 71010.0 5073.0153 -4621.4678 2105.2896 0.8085537500000001 -2.3176404 -7.035947
58848 71020.0 5080.8274 -4644.3948 2034.8179 0.7538387599999999 -2.2677103 -7.0582564
58848 71030.0 5088.0918 -4666.8212 1964.127 0.69904252 -2.2175359 -7.0798051
58848 71040.0 5094.808 -4688.7447 1893.2244 0.6441709600000001 -2.1671225 -7.1005908
58848 71050.0 5100.975 -4710.1629 1822.1177 0.58922997 -2.1164756000000002 -7.120611299999999
58848 71060.0 5106.5924 -4731.0735 1750.8147 0.53422547 -2.0656005 -7.1398644
58848 71070.0 5111.6594000000005 -4751.474200000001 1679.323 0.47916341 -2.0145029 -7.158348
58848 71080.0 5116.1755 -4771.3628 1607.6503 0.4240497 -1.9631881000000002 -7.1760602
58848 71090.0 5120.140200000001 -4790.7372000000005 1535.8044 0.36889030000000006 -1.9116618 -7.192999
58848 71100.0 5123.5531 -4809.5954 1463.7929 0.31369114000000003 -1.8599295 -7.2091627
58848 71110.0 5126.4139000000005 -4827.9351 1391.6236999999999 0.25845817 -1.8079967 -7.2245494
58848 71120.0 5128.7222 -4845.754599999999 1319.3045 0.20319735 -1.755869 -7.2391575
58848 71130.0 5130.4778 -4863.0519 1246.8432 0.14791463 -1.7035522 -7.2529854
58848 71140.0 5131.6804 -4879.8251 1174.2474 0.092615973 -1.6510517 -7.2660317
58848 71150.0 5132.3301 -4896.0723 1101.5251 0.037307332000000006 -1.5983733 -7.2782949
58848 71160.0 5132.4266 -4911.792 1028.6841 -0.018005329 -1.5455226 -7.2897738
58848 71170.0 5131.97 -4926.9822 955.7322800000001 -0.07331605100000001 -1.4925054 -7.300466999999999
58848 71180.0 5130.9603 -4941.6415 882.6774200000001 -0.12861887 -1.4393274 -7.3103735
58848 71190.0 5129.397599999999 -4955.7683 809.52744 -0.18390783 -1.3859942 -7.319492100000001
58848 71200.0 5127.282200000001 -4969.360900000001 736.29021 -0.23917697000000002 -1.3325117 -7.3278219
58848 71210.0 5124.6142 -4982.418 662.97364 -0.29442033 -1.2788855000000001 -7.3353619
58848 71220.0 5121.3939 -4994.9382000000005 589.58561 -0.34963196 -1.2251215 -7.342111500000001
58848 71230.0 5117.621700000001 -5006.92 516.13404 -0.40480592000000004 -1.1712255 -7.3480698
58848 71240.0 5113.2979000000005 -5018.3623 442.62685 -0.45993624 -1.1172033 -7.3532361
58848 71250.0 5108.4231 -5029.2637 369.07196000000005 -0.51501701 -1.0630607 -7.3576101
58848 71260.0 5102.9978 -5039.6231 295.4773 -0.57004226 -1.0088035 -7.361191
58848 71270.0 5097.0225 -5049.4394 221.85079000000002 -0.62500608 -0.95443754 -7.3639787
58848 71280.0 5090.4979 -5058.7115 148.20037 -0.67990255 -0.89996877 -7.3659728
58848 71290.0 5083.4247000000005 -5067.438400000001 74.53397700000001 -0.73472574 -0.845403 -7.367173
58848 71300.0 5075.8036 -5075.6193 0.85955368 -0.78946976 -0.79074613 -7.3675793
58848 71310.0 5067.6355 -5083.2531 -72.814962 -0.84412869 -0.7360040299999999 -7.3671915
58848 71320.0 5058.9213 -5090.3391 -146.48163 -0.89869664 -0.6811826200000001 -7.3660098
58848 71330.0 5049.6619 -5096.8765 -220.13251000000002 -0.95316775 -0.6262878 -7.3640343
58848 71340.0 5039.8583 -5102.8646 -293.75966999999997 -1.0075361 -0.5713254799999999 -7.3612651
58848 71350.0 5029.5116 -5108.3027999999995 -367.35517 -1.0617959000000001 -0.5163015900000001 -7.3577026
58848 71360.0 5018.6228 -5113.1904 -440.91108 -1.1159413 -0.46122205000000005 -7.3533472
58848 71370.0 5007.193200000001 -5117.527099999999 -514.4194699999999 -1.1699664 -0.40609282 -7.3481993
58848 71380.0 4995.223900000001 -5121.3122 -587.87243 -1.2238654 -0.35091981 -7.3422595
58848 71390.0 4982.7163 -5124.5453 -661.2620300000001 -1.2776326 -0.29570899 -7.3355284
58848 71400.0 4969.6717 -5127.2262 -734.58036 -1.331262 -0.2404663 -7.3280068
58848 71410.0 4956.0915 -5129.3546 -807.8195300000001 -1.3847479 -0.1851977 -7.3196954
58848 71420.0 4941.9772 -5130.9301 -880.97164 -1.4380847 -0.12990913 -7.3105952
58848 71430.0 4927.3303 -5131.952700000001 -954.02881 -1.4912664 -0.074606567 -7.3007070999999994
58848 71440.0 4912.152400000001 -5132.4222 -1026.9832 -1.5442875 -0.019295962 -7.2900322
58848 71450.0 4896.4451 -5132.3386 -1099.8268 -1.5971421000000001 0.036016722 -7.2785717000000005
58848 71460.0 4880.2102 -5131.701900000001 -1172.5520000000001 -1.6498245 0.091325525 -7.2663268
58848 71470.0 4863.4493 -5130.5121 -1245.1508000000001 -1.7023291999999999 0.14662449000000002 -7.2532987
58848 71480.0 4846.1642 -5128.7695 -1317.6153000000002 -1.7546504 0.20190764 -7.239489
58848 71490.0 4828.356900000001 -5126.474099999999 -1389.9379 -1.8067825 0.25716904 -7.2248991
58848 71500.0 4810.0292 -5123.626200000001 -1462.1107 -1.8587199 0.31240273 -7.2095306
58848 71510.0 4791.183099999999 -5120.2261 -1534.126 -1.910457 0.36760274 -7.193385
58848 71520.0 4771.8207 -5116.2743 -1605.9759 -1.9619882 0.42276314000000004 -7.1764643
58848 71530.0 4751.9441 -5111.771 -1677.6527 -2.013308 0.47787798 -7.1587701
58848 71540.0 4731.5553 -5106.7169 -1749.1487 -2.0644108 0.53294132 -7.1403045
58848 71550.0 4710.656599999999 -5101.112400000001 -1820.4562 -2.1152911 0.58794722 -7.1210693
58848 71560.0 4689.2502 -5094.9581 -1891.5675 -2.1659434 0.6428897600000001 -7.1010667000000005
58848 71570.0 4667.3385 -5088.2548 -1962.4750000000001 -2.2163622999999997 0.69776302 -7.0802988
58848 71580.0 4644.9238 -5081.0031 -2033.1708999999998 -2.2665424 0.75256108 -7.0587679
58848 71590.0 4622.0085 -5073.2039 -2103.6477999999997 -2.3164781 0.80727803 -7.0364762
58848 71600.0 4598.5951 -5064.857900000001 -2173.8979 -2.3661643 0.86190798 -7.0134262
58848 71610.0 4574.6861 -5055.966 -2243.9138 -2.4155954000000004 0.9164450500000001 -6.9896204
58848 71620.0 4550.284 -5046.5293 -2313.6877999999997 -2.4647662 0.9708833499999999 -6.9650613
58848 71630.0 4525.3916 -5036.5487 -2383.2125 -2.5136714000000002 1.025217 -6.9397516
58848 71640.0 4500.0115000000005 -5026.0253 -2452.4804 -2.5623057 1.0794402 -6.9136940000000005
58848 71650.0 4474.1464000000005 -5014.9603 -2521.4839 -2.6106637999999998 1.133547 -6.8868913
58848 71660.0 4447.7992 -5003.3548 -2590.2157 -2.6587406000000002 1.1875317 -6.859346400000001
58848 71670.0 4420.9726 -4991.210099999999 -2658.6684 -2.7065309 1.2413884000000002 -6.831062200000001
58848 71680.0 4393.6695 -4978.5275 -2726.8345 -2.7540295 1.2951114000000001 -6.802041900000001
58848 71690.0 4365.893 -4965.3083 -2794.7068 -2.8012312 1.3486947 -6.7722886
58848 71700.0 4337.6459 -4951.554 -2862.2779 -2.8481311000000002 1.4021327000000001 -6.7418053
58848 71710.0 4308.9314 -4937.2662 -2929.5405 -2.8947241 1.4554196 -6.7105955
58848 71720.0 4279.7525000000005 -4922.4462 -2996.4874 -2.941005 1.5085496 -6.6786626
58848 71730.0 4250.1123 -4907.0957 -3063.1113 -2.9869691 1.5615171 -6.6460098
58848 71740.0 4220.014099999999 -4891.2164 -3129.4052 -3.0326112 1.6143163 -6.6126408
58848 71750.0 4189.461200000001 -4874.81 -3195.3617999999997 -3.0779265000000002 1.6669414999999999 -6.5785592
58848 71760.0 4158.456700000001 -4857.8782 -3260.974 -3.1229101 1.719387 -6.543768600000001
58848 71770.0 4127.0041 -4840.4228 -3326.2347999999997 -3.1675571000000002 1.7716473000000001 -6.508272700000001
58848 71780.0 4095.1067000000003 -4822.445900000001 -3391.1371000000004 -3.2118627 1.8237166 -6.4720755
58848 71790.0 4062.768 -4803.9492 -3455.674 -3.2558222999999997 1.8755894000000002 -6.4351808
58848 71800.0 4029.9914 -4784.934700000001 -3519.8384 -3.2994309 1.9272601 -6.3975926
58848 71810.0 3996.7806 -4765.4046 -3583.6235 -3.342684 1.978723 -6.3593148
58848 71820.0 3963.139 -4745.361 -3647.0224 -3.3855768 2.0299727 -6.3203518
58848 71830.0 3929.0703 -4724.8059 -3710.0283 -3.4281047 2.0810037 -6.2807075999999995
58848 71840.0 3894.5781 -4703.7417000000005 -3772.6342999999997 -3.4702631999999998 2.1318103 -6.2403865
58848 71850.0 3859.6662 -4682.1705 -3834.8338 -3.5120478 2.1823873 -6.1993929
58848 71860.0 3824.3384 -4660.094700000001 -3896.6199 -3.5534537999999998 2.232729 -6.157731200000001
58848 71870.0 3788.5984 -4637.5167 -3957.9862000000003 -3.5944768 2.2828301 -6.1154059
58848 71880.0 3752.4502 -4614.4389 -4018.9259 -3.6351125000000004 2.3326852 -6.072421500000001
58848 71890.0 3715.8975 -4590.8638 -4079.4324 -3.6753565 2.3822889000000003 -6.0287827
58848 71900.0 3678.9444 -4566.794 -4139.4994 -3.7152043 2.4316358 -5.9844942
58848 71910.0 3641.5947 -4542.232 -4199.1202 -3.7546518 2.4807207 -5.9395607
58848 71920.0 3603.8527000000004 -4517.1805 -4258.2884 -3.7936946 2.5295382 -5.8939871
58848 71930.0 3565.7222 -4491.6421 -4316.9978 -3.8323285 2.5780832 -5.8477783
58848 71940.0 3527.2075 -4465.6197 -4375.241900000001 -3.8705495 2.6263503 -5.8009393000000005
58848 71950.0 3488.3126 -4439.116099999999 -4433.0145 -3.9083533000000004 2.6743343 -5.7534751
58848 71960.0 3449.0418 -4412.134 -4490.3093 -3.945736 2.7220302000000003 -5.7053909
58848 71970.0 3409.3993 -4384.6764 -4547.1203 -3.9826932999999998 2.7694327 -5.6566918
58848 71980.0 3369.3894 -4356.746400000001 -4603.4411 -4.0192215000000004 2.8165367000000003 -5.6073831
58848 71990.0 3329.0163 -4328.3467 -4659.2659 -4.0553165 2.8633372 -5.5574701
58848 72000.0 3288.2845 -4299.4806 -4714.5885 -4.0909745 2.9098291 -5.506958200000001
58848 72010.0 3247.1983 -4270.1512 -4769.4030999999995 -4.1261916 2.9560074 -5.4558527
58848 72020.0 3205.7621000000004 -4240.361599999999 -4823.7036 -4.160964 3.0018671 -5.404159300000001
58848 72030.0 3163.9805 -4210.1149000000005 -4877.4843 -4.195288 3.0474034000000003 -5.3518835000000005
58848 72040.0 3121.8579 -4179.4146 -4930.7394 -4.2291599 3.0926112 -5.2990309
58848 72050.0 3079.3988 -4148.2638 -4983.4631 -4.262576 3.1374857 -5.2456073
58848 72060.0 3036.6079 -4116.666 -5035.6496 -4.2955327 3.1820221 -5.1916183
58848 72070.0 2993.4897 -4084.6245 -5087.2936 -4.3280265 3.2262156 -5.1370698
58848 72080.0 2950.0489 -4052.1428 -5138.3892000000005 -4.3600538 3.2700613 -5.0819677
58848 72090.0 2906.2902000000004 -4019.2245000000003 -5188.9311 -4.3916113 3.3135547 -5.0263179000000004
58848 72100.0 2862.2183 -3985.8729 -5238.9138 -4.4226955 3.356691 -4.9701264
58848 72110.0 2817.8379 -3952.0919 -5288.3318 -4.453303 3.3994655 -4.9133993
58848 72120.0 2773.1538 -3917.8848 -5337.18 -4.4834306 3.4418736 -4.8561427
58848 72130.0 2728.1709 -3883.2556 -5385.4529 -4.5130751 3.4839109 -4.7983627
58848 72140.0 2682.8939 -3848.2079 -5433.1455000000005 -4.542233100000001 3.5255726 -4.7400656
58848 72150.0 2637.3278999999998 -3812.7454 -5480.2525000000005 -4.5709017 3.5668544000000004 -4.681257700000001
58848 72160.0 2591.4776 -3776.8721 -5526.769 -4.599077599999999 3.6077518 -4.6219452
58848 72170.0 2545.348 -3740.5917000000004 -5572.6898 -4.626757899999999 3.6482604000000003 -4.5621347
58848 72180.0 2498.9441 -3703.9082000000003 -5618.01 -4.6539396 3.6883759 -4.501832500000001
58848 72190.0 2452.2708 -3666.8255 -5662.7248 -4.6806197 3.7280938000000003 -4.4410451
58848 72200.0 2405.3333 -3629.3476 -5706.8293 -4.7067954 3.76741 -4.3797792
58848 72210.0 2358.1366000000003 -3591.4786000000004 -5750.3188 -4.7324638000000006 3.8063201 -4.3180412
58848 72220.0 2310.6857999999997 -3553.2226 -5793.1885999999995 -4.7576222 3.8448200000000003 -4.2558379
58848 72230.0 2262.9859 -3514.5836000000004 -5835.4340999999995 -4.7822679 3.8829056 -4.1931759
58848 72240.0 2215.0421 -3475.5659 -5877.0506 -4.806398199999999 3.9205727 -4.130062
58848 72250.0 2166.8596000000002 -3436.1736 -5918.0338 -4.8300105 3.9578173000000003 -4.066503
58848 72260.0 2118.4436 -3396.411 -5958.3792 -4.8531023 3.9946354000000004 -4.0025058
58848 72270.0 2069.7993 -3356.2823 -5998.0825 -4.8756711 4.0310229 -3.9380772000000004
58848 72280.0 2020.932 -3315.792 -6037.1393 -4.8977144 4.0669761 -3.8732242
58848 72290.0 1971.8468 -3274.9442999999997 -6075.5455999999995 -4.9192299 4.1024909 -3.8079538
58848 72300.0 1922.5491000000002 -3233.7436000000002 -6113.2971 -4.9402152 4.137563600000001 -3.7422730000000004
58848 72310.0 1873.0443 -3192.1945 -6150.389700000001 -4.9606681 4.172190400000001 -3.6761889
58848 72320.0 1823.3376 -3150.3013 -6186.8195000000005 -4.9805865 4.2063676 -3.6097086
58848 72330.0 1773.4343000000001 -3108.0686 -6222.5826 -4.999968 4.240091400000001 -3.5428393000000002
58848 72340.0 1723.3400000000001 -3065.501 -6257.675 -5.0188107 4.2733583 -3.4755882000000002
58848 72350.0 1673.0599 -3022.603 -6292.0931 -5.0371126 4.3061647 -3.4079625
58848 72360.0 1622.5996000000002 -2979.3792000000003 -6325.8331 -5.0548716 4.338507 -3.3399696
58848 72370.0 1571.9643 -2935.8344 -6358.8913 -5.0720858 4.3703817 -3.2716167
58848 72380.0 1521.1597 -2891.9732000000004 -6391.2642000000005 -5.0887534 4.4017854 -3.2029112
58848 72390.0 1470.1911000000002 -2847.8003 -6422.9484 -5.1048726 4.432714700000001 -3.1338606
58848 72400.0 1419.0641 -2803.3205000000003 -6453.9403 -5.1204416 4.4631664 -3.0644722000000004
58848 72410.0 1367.7841 -2758.5386000000003 -6484.2367 -5.1354588 4.493137 -2.9947535
58848 72420.0 1316.3567 -2713.4594 -6513.8342999999995 -5.1499226 4.5226234000000005 -2.9247121000000003
58848 72430.0 1264.7875000000001 -2668.0877 -6542.7299 -5.1638314 4.5516224 -2.8543555
58848 72440.0 1213.0819 -2622.4285 -6570.920400000001 -5.1771836 4.5801309 -2.7836913
58848 72450.0 1161.2457 -2576.4867000000004 -6598.402700000001 -5.1899779 4.6081458 -2.7127271
58848 72460.0 1109.2843 -2530.2673 -6625.173900000001 -5.2022129 4.635664 -2.6414705
58848 72470.0 1057.2033000000001 -2483.7751000000003 -6651.2312 -5.2138872 4.6626827 -2.5699292999999996
58848 72480.0 1005.0084 -2437.0153 -6676.5716 -5.2249996 4.6891988 -2.4981111
58848 72490.0 952.7051700000001 -2389.9928 -6701.1925 -5.235549 4.715209700000001 -2.4260237000000004
58848 72500.0 900.2992800000001 -2342.7128 -6725.091200000001 -5.2455340999999995 4.7407123 -2.3536748
58848 72510.0 847.79637 -2295.1803 -6748.265200000001 -5.2549539 4.7657041 -2.2810723
58848 72520.0 795.20209 -2247.4004 -6770.7118 -5.263807300000001 4.7901822 -2.2082240000000004
58848 72530.0 742.52212 -2199.3784 -6792.4288 -5.2720935 4.814144100000001 -2.1351376
58848 72540.0 689.76212 -2151.1193 -6813.4138 -5.2798115 4.8375872 -2.0618212
58848 72550.0 636.9277800000001 -2102.6284 -6833.6645 -5.2869605 4.8605089 -1.9882826
58848 72560.0 584.0248100000001 -2053.9108 -6853.1788 -5.2935397 4.8829069 -1.9145296
58848 72570.0 531.05889 -2004.972 -6871.9544000000005 -5.2995485 4.904778599999999 -1.8405704
58848 72580.0 478.03574 -1955.817 -6889.989500000001 -5.3049861 4.9261216999999995 -1.7664128000000001
58848 72590.0 424.96107 -1906.4513000000002 -6907.282 -5.309852 4.9469339 -1.6920648
58848 72600.0 371.84060999999997 -1856.8801 -6923.8302 -5.3141456 4.967213 -1.6175345
58848 72610.0 318.68007 -1807.1088 -6939.6322 -5.3178665 4.9869566999999995 -1.5428299
58848 72620.0 265.48519 -1757.1428 -6954.6862 -5.3210144 5.0061631 -1.4679589000000002
58848 72630.0 212.26170000000002 -1706.9874 -6968.9908 -5.3235888000000005 5.024829899999999 -1.3929297999999999
58848 72640.0 159.01532999999998 -1656.6480000000001 -6982.5443 -5.3255894 5.042955200000001 -1.3177506
58848 72650.0 105.75182000000001 -1606.1301 -6995.3453 -5.3270162 5.060537 -1.2424293
58848 72660.0 52.476917 -1555.4391 -7007.3925 -5.3278688 5.0775734 -1.1669742
58848 72670.0 -0.80364172 -1504.5803999999998 -7018.6844 -5.3281472 5.0940626 -1.0913933
58848 72680.0 -54.084114 -1453.5597 -7029.219900000001 -5.3278514999999995 5.1100028 -1.0156948
58848 72690.0 -107.35876 -1402.3822 -7038.9979 -5.3269815 5.1253924 -0.93988677
58848 72700.0 -160.62183 -1351.0537 -7048.0172999999995 -5.3255375 5.1402295 -0.86397749
58848 72710.0 -213.86759 -1299.5795 -7056.2772 -5.323519500000001 5.154512700000001 -0.78797509
58848 72720.0 -267.09031 -1247.9653 -7063.7766 -5.320927800000001 5.1682404 -0.7118877800000001
58848 72730.0 -320.28424 -1196.2165 -7070.514700000001 -5.3177627 5.1814111 -0.63572375
58848 72740.0 -373.44365000000005 -1144.3389 -7076.4908 -5.3140245 5.1940235 -0.5594912000000001
58848 72750.0 -426.56282 -1092.3379 -7081.7043 -5.3097135 5.206076 -0.48319836
58848 72760.0 -479.63601 -1040.2192 -7086.1546 -5.3048304 5.2175675 -0.40685344
58848 72770.0 -532.65752 -987.98845 -7089.841200000001 -5.2993756 5.2284967 -0.33046468
58848 72780.0 -585.62162 -935.6511800000001 -7092.7638 -5.2933496 5.2388624 -0.2540403
58848 72790.0 -638.52261 -883.21308 -7094.9219 -5.286753200000001 5.2486635999999995 -0.17758855
58848 72800.0 -691.3547900000001 -830.6798000000001 -7096.3155 -5.279587 5.257899 -0.10111765
58848 72810.0 -744.11245 -778.05699 -7096.9443 -5.2718518 5.2665679 -0.024635862
58848 72820.0 -796.78993 -725.35033 -7096.8082 -5.2635485 5.2746691000000006 0.051848584
58848 72830.0 -849.38153 -672.5655 -7095.9073 -5.254678 5.282202000000001 0.12832744
58848 72840.0 -901.8816 -619.70819 -7094.2417000000005 -5.2452411 5.2891655 0.20479247
58848 72850.0 -954.2844699999999 -566.78409 -7091.8115 -5.235239 5.295559 0.28123543
58848 72860.0 -1006.5845 -513.79891 -7088.6170999999995 -5.2246727 5.301381900000001 0.35764808
58848 72870.0 -1058.776 -460.75836 -7084.6587 -5.2135433 5.3066334 0.43402218
58848 72880.0 -1110.8535 -407.66815 -7079.9368 -5.201852 5.311313 0.51034952
58848 72890.0 -1162.8111999999999 -354.53401 -7074.451900000001 -5.1896001 5.315420199999999 0.58662185
58848 72900.0 -1214.6436 -301.36166 -7068.2046 -5.176789 5.3189545 0.66283096
58848 72910.0 -1266.3451000000002 -248.15682999999999 -7061.1955 -5.1634199 5.3219157 0.73896863
58848 72920.0 -1317.9102 -194.92526 -7053.4255 -5.1494944 5.3243032999999995 0.81502667
58848 72930.0 -1369.3332 -141.67267999999999 -7044.8953 -5.1350139 5.326117 0.8909968800000001
58848 72940.0 -1420.6086 -88.404828 -7035.6058 -5.11998 5.3273568 0.9668710600000001
58848 72950.0 -1471.7309 -35.127453 -7025.5582 -5.1043944 5.3280225 1.0426410000000002
58848 72960.0 -1522.6947 18.153707999999998 -7014.7534000000005 -5.0882586000000005 5.328113999999999 1.1182987
58848 72970.0 -1573.4943 71.432912 -7003.192599999999 -5.0715745 5.3276312 1.1938357000000002
58848 72980.0 -1624.1243000000002 124.70442 -6990.8771 -5.0543438 5.326574300000001 1.2692442000000002
58848 72990.0 -1674.5793 177.96249 -6977.8082 -5.0365684 5.3249434 1.3445158
58848 73000.0 -1724.8538999999998 231.20137 -6963.9873 -5.018250200000001 5.322738500000001 1.4196426
58848 73010.0 -1774.9425 284.41534 -6949.415900000001 -4.9993912 5.3199601 1.4946163
58848 73020.0 -1824.8399 337.59866 -6934.0955 -4.979993400000001 5.3166083 1.5694290000000002
58848 73030.0 -1874.5406 390.74559999999997 -6918.0278 -4.960059 5.312683600000001 1.6440726
58848 73040.0 -1924.0393000000001 443.85043 -6901.214599999999 -4.9395899 5.3081863 1.7185389
58848 73050.0 -1973.3307 496.90742 -6883.657700000001 -4.9185886000000005 5.3031169 1.7928201
58848 73060.0 -2022.4093 549.91086 -6865.3589 -4.8970571000000005 5.297476 1.866908
58848 73070.0 -2071.27 602.85504 -6846.3202 -4.8749979 5.2912642 1.9407948
58848 73080.0 -2119.9075000000003 655.73424 -6826.5437 -4.8524134000000005 5.2844822 2.0144724000000003
58848 73090.0 -2168.3166 708.54278 -6806.0315 -4.8293058 5.2771306000000004 2.0879328
58848 73100.0 -2216.4919 761.27496 -6784.7858 -4.8056779 5.2692104 2.1611683
58848 73110.0 -2264.4284 813.9251 -6762.808900000001 -4.781532 5.2607222 2.2341709
58848 73120.0 -2312.1207999999997 866.48751 -6740.1032000000005 -4.7568708 5.2516672 2.3069327
58848 73130.0 -2359.5641 918.9565500000001 -6716.671 -4.7316969 5.2420461 2.3794458
58848 73140.0 -2406.7531000000004 971.3265500000001 -6692.5151 -4.7060132 5.2318602 2.4517026
58848 73150.0 -2453.6827000000003 1023.5919 -6667.637900000001 -4.679822199999999 5.2211103 2.5236951
58848 73160.0 -2500.3478 1075.7468999999999 -6642.0421 -4.6531269 5.2097978000000005 2.5954156
58848 73170.0 -2546.7435 1127.786 -6615.730500000001 -4.6259302 5.1979239 2.6668564000000003
58848 73180.0 -2592.8648 1179.7035 -6588.705900000001 -4.5982349000000005 5.1854898 2.7380098
58848 73190.0 -2638.7066 1231.4939 -6560.9713 -4.5700441000000005 5.1724968 2.8088682
58848 73200.0 -2684.264 1283.1516000000001 -6532.5296 -4.5413607 5.1589464 2.8794238
58848 73210.0 -2729.5322 1334.671 -6503.3838 -4.5121879 5.14484 2.9496691
58848 73220.0 -2774.5062000000003 1386.0465 -6473.537200000001 -4.4825289 5.1301791 3.0195966
58848 73230.0 -2819.1811000000002 1437.2727 -6442.993 -4.4523867 5.1149654 3.0891986
58848 73240.0 -2863.5523 1488.344 -6411.754400000001 -4.4217648 5.0992004 3.1584677
58848 73250.0 -2907.6148 1539.2549 -6379.8248 -4.3906662 5.0828859 3.2273964
58848 73260.0 -2951.364 1589.9999 -6347.2076 -4.359094600000001 5.0660236 3.2959772
58848 73270.0 -2994.7952 1640.5735 -6313.906400000001 -4.3270531000000005 5.048615300000001 3.3642029000000004
58848 73280.0 -3037.9035 1690.9704 -6279.9248 -4.2945453 5.030663 3.432066
58848 73290.0 -3080.6845 1741.185 -6245.2663 -4.261574700000001 5.012168399999999 3.4995593
58848 73300.0 -3123.1335 1791.2119 -6209.9348 -4.2281448 4.9931338 3.5666753
58848 73310.0 -3165.2459 1841.0458999999998 -6173.9340999999995 -4.1942592 4.973561 3.6334071
58848 73320.0 -3207.0172000000002 1890.6814 -6137.268 -4.1599216 4.9534522 3.6997472
58848 73330.0 -3248.4428 1940.1131 -6099.9405 -4.1251358 4.9328096 3.7656886
58848 73340.0 -3289.5184 1989.3358 -6061.955599999999 -4.0899053 4.911635400000001 3.8312242000000003
58848 73350.0 -3330.2395 2038.3441 -6023.317400000001 -4.0542341 4.8899318 3.8963469
58848 73360.0 -3370.6016 2087.1327 -5984.03 -4.0181259 4.8677013 3.9610497000000002
58848 73370.0 -3410.6006 2135.6964 -5944.0978 -3.9815848000000003 4.8449461000000005 4.0253256
58848 73380.0 -3450.2318999999998 2184.0299 -5903.525000000001 -3.9446145 4.8216689 4.0891677
58848 73390.0 -3489.4914 2232.128 -5862.3159000000005 -3.9072191 4.797872000000001 4.1525691
58848 73400.0 -3528.3749 2279.9856 -5820.4751 -3.8694026 4.773558 4.215523
58848 73410.0 -3566.8781000000004 2327.5974 -5778.0070000000005 -3.8311691000000003 4.7487296 4.2780225000000005
58848 73420.0 -3604.9969 2374.9585 -5734.916200000001 -3.7925228000000004 4.7233894 4.3400611
58848 73430.0 -3642.7272000000003 2422.0635 -5691.2073 -3.7534677000000003 4.6975401 4.401631900000001
58848 73440.0 -3680.0649 2468.9076 -5646.8850999999995 -3.7140081 4.6711846999999995 4.4627283
58848 73450.0 -3717.006 2515.4855000000002 -5601.9544000000005 -3.6741482000000003 4.6443258 4.5233438
58848 73460.0 -3753.5465 2561.7924 -5556.419900000001 -3.6338924 4.6169663000000005 4.583471800000001
58848 73470.0 -3789.6826 2607.8232000000003 -5510.286599999999 -3.593245 4.589109400000001 4.643105800000001
58848 73480.0 -3825.4102000000003 2653.573 -5463.5594 -3.5522103 4.5607578 4.7022395
58848 73490.0 -3860.7255 2699.0367 -5416.2435000000005 -3.5107928000000004 4.531914700000001 4.7608664
58848 73500.0 -3895.6247000000003 2744.2096 -5368.3438 -3.4689969 4.5025833 4.8189802
58848 73510.0 -3930.1042 2789.0868 -5319.8656 -3.4268272000000004 4.4727665 4.8765747
58848 73520.0 -3964.1601 2833.6634 -5270.8141 -3.3842882 4.4424678 4.933643600000001
58848 73530.0 -3997.7887 2877.9345 -5221.1945000000005 -3.3413844 4.4116903 4.9901809
58848 73540.0 -4030.9865 2921.8956000000003 -5171.0122 -3.2981206000000003 4.3804373 5.0461803000000005
58848 73550.0 -4063.75 2965.5417 -5120.2727 -3.2545013 4.3487123 5.101635900000001
58848 73560.0 -4096.0754 3008.8683 -5068.981400000001 -3.2105313 4.3165186 5.1565417
58848 73570.0 -4127.9594 3051.8705 -5017.1437000000005 -3.1662152000000003 4.2838597 5.210891800000001
58848 73580.0 -4159.3986 3094.5439 -4964.7654 -3.1215580000000003 4.2507391 5.2646803
58848 73590.0 -4190.3895 3136.8838 -4911.852 -3.0765643000000003 4.2171604 5.3179015
58848 73600.0 -4220.9288 3178.8856 -4858.4093 -3.0312390999999996 4.1831273 5.3705495
58848 73610.0 -4251.0132 3220.5447999999997 -4804.442900000001 -2.9855872 4.1486433 5.4226187
58848 73620.0 -4280.6394 3261.857 -4749.9588 -2.9396135 4.1137123 5.4741036
58848 73630.0 -4309.804400000001 3302.8176000000003 -4694.9628 -2.8933231 4.0783379 5.5249985
58848 73640.0 -4338.5048 3343.4222999999997 -4639.4609 -2.8467208 4.0425239 5.5752979
58848 73650.0 -4366.7378 3383.6666 -4583.4589000000005 -2.7998117000000002 4.0062743 5.6249966
58848 73660.0 -4394.500099999999 3423.5463 -4526.9629 -2.7526009 3.969593 5.674089
58848 73670.0 -4421.7888 3463.0571 -4469.9791 -2.7050935 3.9324839000000003 5.722569900000001
58848 73680.0 -4448.601 3502.1946000000003 -4412.513599999999 -2.6572945 3.8949509 5.7704341
58848 73690.0 -4474.9337000000005 3540.9547000000002 -4354.5725 -2.6092092 3.8569982 5.817676400000001
58848 73700.0 -4500.7842 3579.3332 -4296.162200000001 -2.5608426 3.8186298 5.8642917
58848 73710.0 -4526.1497 3617.3259 -4237.2888 -2.5122001000000003 3.7798499000000003 5.9102751
58848 73720.0 -4551.0273 3654.9287999999997 -4177.9588 -2.4632868 3.7406626000000003 5.9556215
58848 73730.0 -4575.4145 3692.1378 -4118.1785 -2.4141081 3.7010722 6.000326
58848 73740.0 -4599.308599999999 3728.9489 -4057.9544 -2.3646692 3.661083 6.044384
58848 73750.0 -4622.707 3765.3582 -3997.293 -2.3149754 3.6206992000000002 6.0877905000000005
58848 73760.0 -4645.6073 3801.3616 -3936.2008 -2.2650322000000003 3.5799251 6.1305409
58848 73770.0 -4668.0069 3836.9554 -3874.6844 -2.2148448 3.5387653 6.172630600000001
58848 73780.0 -4689.9034 3872.1356 -3812.7504 -2.1644188 3.4972241 6.2140550999999995
58848 73790.0 -4711.2945 3906.8986 -3750.4055000000003 -2.1137595 3.455306 6.254809900000001
58848 73800.0 -4732.1777999999995 3941.2405 -3687.6565 -2.0628724000000003 3.4130155 6.2948907
58848 73810.0 -4752.5512 3975.1577 -3624.51 -2.0117629999999997 3.3703572 6.334293
58848 73820.0 -4772.4124 4008.6464 -3560.9728999999998 -1.9604368 3.3273357000000003 6.3730127
58848 73830.0 -4791.7592 4041.7032000000004 -3497.052 -1.9088993 3.2839555999999996 6.4110456000000005
58848 73840.0 -4810.5897 4074.3244 -3432.7543 -1.8571560999999999 3.2402216 6.4483875
58848 73850.0 -4828.9017 4106.5065 -3368.0866 -1.8052128 3.1961383000000003 6.4850345
58848 73860.0 -4846.6933 4138.246 -3303.0559 -1.7530748 3.1517107 6.520982600000001
58848 73870.0 -4863.962500000001 4169.5396 -3237.6693 -1.7007480000000001 3.1069433 6.556228
58848 73880.0 -4880.7076 4200.3837 -3171.9337 -1.6482379 3.0618412 6.590766800000001
58848 73890.0 -4896.9267 4230.7753 -3105.8563 -1.5955500999999999 3.0164090000000003 6.6245953
58848 73900.0 -4912.618 4260.7108 -3039.4442000000004 -1.5426904 2.9706518 6.6577098
58848 73910.0 -4927.78 4290.1872 -2972.7045000000003 -1.4896645000000002 2.9245745000000003 6.6901069
58848 73920.0 -4942.4108 4319.2013 -2905.6444 -1.4364780000000001 2.8781819 6.721783
58848 73930.0 -4956.509 4347.7498 -2838.2712 -1.3831366 2.8314792000000004 6.7527346
58848 73940.0 -4970.073 4375.829900000001 -2770.5922 -1.3296463 2.7844713000000003 6.7829584999999994
58848 73950.0 -4983.1014000000005 4403.4383 -2702.6145 -1.2760126 2.7371634 6.8124514000000005
58848 73960.0 -4995.5928 4430.572099999999 -2634.3456 -1.2222414000000001 2.6895604 6.841210200000001
58848 73970.0 -5007.5458 4457.2285 -2565.7927999999997 -1.1683385000000002 2.6416676000000003 6.8692317
58848 73980.0 -5018.9592 4483.4045 -2496.9634 -1.1143097 2.5934901 6.896512800000001
58848 73990.0 -5029.8315999999995 4509.097400000001 -2427.8650000000002 -1.0601608000000002 2.5450331 6.9230507
58848 74000.0 -5040.162 4534.3043 -2358.5049 -1.0058976 2.4963019 6.9488426
58848 74010.0 -5049.9492 4559.0225 -2288.8906 -0.9515260500000001 2.4473016 6.973885500000001
58848 74020.0 -5059.1922 4583.249400000001 -2219.0297 -0.89705194 2.3980375 6.998176900000001
58848 74030.0 -5067.8899 4606.982400000001 -2148.9296 -0.84248115 2.348515 7.0217141000000005
58848 74040.0 -5076.0415 4630.218900000001 -2078.5978999999998 -0.78781957 2.2987395000000004 7.0444945
58848 74050.0 -5083.646 4652.9564 -2008.0422 -0.73307308 2.2487162 7.0665158
58848 74060.0 -5090.702700000001 4675.192400000001 -1937.2702 -0.67824759 2.1984505 7.0877755
58848 74070.0 -5097.2108 4696.924599999999 -1866.2893000000001 -0.62334901 2.1479479 7.1082714
58848 74080.0 -5103.1695 4718.1506 -1795.1073000000001 -0.5683832400000001 2.0972138 7.1280012
58848 74090.0 -5108.5782 4738.8681 -1723.7318 -0.51335623 2.0462538 7.146962800000001
58848 74100.0 -5113.4364000000005 4759.0749000000005 -1652.1706000000001 -0.45827388 1.9950732 7.1651542
58848 74110.0 -5117.7435000000005 4778.7689 -1580.4313000000002 -0.40314215000000003 1.9436775 7.182573400000001
58848 74120.0 -5121.4991 4797.9478 -1508.5217 -0.34796698 1.8920724 7.1992185
58848 74130.0 -5124.702700000001 4816.6096 -1436.4495 -0.2927543 1.8402634 7.2150878
58848 74140.0 -5127.3541 4834.7524 -1364.2225 -0.23751007000000002 1.7882561000000001 7.2301795
58848 74150.0 -5129.4529 4852.3741 -1291.8485 -0.18224025000000002 1.7360561 7.244492
58848 74160.0 -5130.9988 4869.472900000001 -1219.3353 -0.12695077999999999 1.6836689 7.2580237
58848 74170.0 -5131.9918 4886.0469 -1146.6906999999999 -0.071647639 1.6311003000000002 7.2707733
58848 74180.0 -5132.4318 4902.0943 -1073.9225000000001 -0.016336772 1.578356 7.2827393
58848 74190.0 -5132.3186 4917.6134 -1001.0385 0.038975856 1.5254415 7.2939204
58848 74200.0 -5131.6523 4932.6026 -928.0466600000001 0.09428428300000001 1.4723625999999999 7.3043154999999995
58848 74210.0 -5130.432900000001 4947.0602 -854.9548100000001 0.14958255 1.4191251 7.3139234
58848 74220.0 -5128.6607 4960.9846 -781.77082 0.20486469 1.3657346000000001 7.322743000000001
58848 74230.0 -5126.3357000000005 4974.374400000001 -708.50258 0.26012476 1.3121969 7.3307735
58848 74240.0 -5123.4583 4987.228099999999 -635.15799 0.31535680000000005 1.2585179000000002 7.338014
58848 74250.0 -5120.0287 4999.5443 -561.7449399999999 0.37055484 1.2047031 7.3444636
58848 74260.0 -5116.0473 5011.3217 -488.27135 0.42571296000000003 1.1507585999999999 7.3501217
58848 74270.0 -5111.5145999999995 5022.559 -414.74514000000005 0.48082519 1.0966900000000002 7.3549877
58848 74280.0 -5106.4310000000005 5033.255099999999 -341.17424 0.53588561 1.0425033000000001 7.3590611
58848 74290.0 -5100.7970000000005 5043.4087 -267.56657 0.59088827 0.98820417 7.362341300000001
58848 74300.0 -5094.6134 5053.0188 -193.93006 0.6458272500000001 0.9337985599999999 7.3648280999999995
58848 74310.0 -5087.880700000001 5062.084400000001 -120.27265 0.70069663 0.87929232 7.3665213000000005
58848 74320.0 -5080.599700000001 5070.6044 -46.602279 0.7554905000000001 0.82469132 7.367420500000001
58848 74330.0 -5072.7712 5078.5779 27.073113000000003 0.81020295 0.77000145 7.367525700000001
58848 74340.0 -5064.396 5086.0041 100.74558999999999 0.86482808 0.71522859 7.3668369
58848 74350.0 -5055.4749 5092.8822 174.40721 0.91936001 0.66037864 7.3653543
58848 74360.0 -5046.009099999999 5099.2114 248.05003 0.9737928600000001 0.60545753 7.3630778
58848 74370.0 -5035.999400000001 5104.9911 321.66612 1.0281208 0.55047117 7.360007800000001
58848 74380.0 -5025.447 5110.2207 395.24754 1.0823379 0.49542549 7.3561447
58848 74390.0 -5014.353099999999 5114.8995 468.78637 1.1364383 0.44032641 7.3514887
58848 74400.0 -5002.7187 5119.027 542.27467 1.1904163 0.38517988000000003 7.3460405
58848 74410.0 -4990.5452000000005 5122.602900000001 615.7045400000001 1.244266 0.32999184000000004 7.3398007
58848 74420.0 -4977.8338 5125.6268 689.0680500000001 1.2979816000000002 0.27476824 7.3327698
58848 74430.0 -4964.586 5128.0982 762.3573 1.3515573 0.21951502 7.3249486
58848 74440.0 -4950.8031 5130.017 835.56439 1.4049874 0.16423815 7.316338
58848 74450.0 -4936.4868 5131.3829000000005 908.6814300000001 1.458266 0.10894356999999999 7.306939000000001

