CIC_OEM_VERS = 2.0
CREATION_DATE = 2023-03-16T10:50:06.042278
ORIGINATOR = ISAE-SUPAERO


META_START
OBJECT_NAME = horus_eye_8
OBJECT_ID = horus_eye_8
CENTER_NAME = Earth
REF_FRAME = EME2000
TIME_SYSTEM = UTC
START_TIME = 2019-12-31T19:00:00.000
USEABLE_START_TIME = 2019-12-31T19:00:00.000
USEABLE_STOP_TIME = 2019-12-31T20:40:50.000
STOP_TIME = 2019-12-31T20:40:50.000
INTERPOLATION = lagrange
INTERPOLATION_DEGREE = 5
META_STOP


58848 68400.0 -3589.07 932.13982 -6146.1684000000005 6.4534738 0.55869069 -3.6837896999999997
58848 68410.0 -3524.343 937.6764000000001 -6182.674400000001 6.4918052 0.5486150000000001 -3.6173545
58848 68420.0 -3459.2362000000003 943.11192 -6218.5142000000005 6.529436899999999 0.53848018 -3.5505294
58848 68430.0 -3393.7566 948.44581 -6253.6837000000005 6.5663649 0.52828733 -3.4833217
58848 68440.0 -3327.9112999999998 953.67748 -6288.179400000001 6.602585299999999 0.5180375500000001 -3.4157387
58848 68450.0 -3261.7073 958.80638 -6321.9973 6.6380941 0.50773194 -3.3477875
58848 68460.0 -3195.1518 963.8319399999999 -6355.133900000001 6.6728875 0.49737162 -3.2794755
58848 68470.0 -3128.2518999999998 968.75363 -6387.585599999999 6.7069618 0.48695769 -3.2108101000000002
58848 68480.0 -3061.015 973.5709200000001 -6419.348900000001 6.7403132999999995 0.47649128 -3.1417986
58848 68490.0 -2993.4481 978.2832800000001 -6450.4205 6.7729384 0.46597352000000003 -3.0724486000000004
58848 68500.0 -2925.5586000000003 982.89022 -6480.7968 6.8048335 0.45540554 -3.0027675
58848 68510.0 -2857.3539 987.39123 -6510.474700000001 6.8359952999999996 0.44478848 -2.9327627000000005
58848 68520.0 -2788.8412000000003 991.78583 -6539.451 6.8664204 0.43412349 -2.8624419
58848 68530.0 -2720.0279 996.0735400000001 -6567.7225 6.8961055 0.42341171000000005 -2.7918126
58848 68540.0 -2650.9215 1000.2539 -6595.2863 6.9250474 0.4126543 -2.7208824
58848 68550.0 -2581.5295 1004.3265 -6622.1392000000005 6.9532430000000005 0.40185242 -2.649659
58848 68560.0 -2511.8592000000003 1008.2908000000001 -6648.2785 6.9806892 0.39100723 -2.57815
58848 68570.0 -2441.9182 1012.1465000000001 -6673.7013 7.0073831 0.38011991 -2.5063632
58848 68580.0 -2371.714 1015.8931 -6698.4049 7.0333219 0.36919161000000006 -2.4343063000000003
58848 68590.0 -2301.2543 1019.5301999999999 -6722.3865000000005 7.0585026 0.35822353 -2.361987
58848 68600.0 -2230.5465 1023.0574 -6745.6437000000005 7.0829227 0.34721685 -2.2894132
58848 68610.0 -2159.5984 1026.4744 -6768.174 7.1065794 0.33617273999999997 -2.2165926
58848 68620.0 -2088.4175 1029.7808 -6789.9748 7.1294703 0.32509241 -2.1435332
58848 68630.0 -2017.0115 1032.9761 -6811.043900000001 7.1515928 0.31397704 -2.0702428
58848 68640.0 -1945.3882 1036.0602 -6831.378900000001 7.1729446 0.30282783 -1.9967292
58848 68650.0 -1873.5552 1039.0326 -6850.9777 7.1935233 0.29164598 -1.9230005000000001
58848 68660.0 -1801.5203000000001 1041.893 -6869.8382 7.2133268 0.28043271 -1.8490644999999999
58848 68670.0 -1729.2913 1044.6411 -6887.9584 7.232353 0.26918921 -1.7749292
58848 68680.0 -1656.8759 1047.2767 -6905.336200000001 7.2505996999999995 0.25791671000000005 -1.7006027
58848 68690.0 -1584.2819 1049.7993999999999 -6921.9698 7.268065 0.2466164 -1.6260929000000002
58848 68700.0 -1511.5172 1052.2088999999999 -6937.8575 7.284747 0.23528952 -1.5514078
58848 68710.0 -1438.5896 1054.5051 -6952.9974 7.3006439 0.22393728 -1.4765556
58848 68720.0 -1365.5068999999999 1056.6876000000002 -6967.388 7.3157541 0.21256091000000002 -1.4015442
58848 68730.0 -1292.2771 1058.7562 -6981.0278 7.3300757999999995 0.20116163 -1.3263818
58848 68740.0 -1218.9080000000001 1060.7107 -6993.9152 7.3436076 0.18974067 -1.2510763999999999
58848 68750.0 -1145.4076000000002 1062.551 -7006.048900000001 7.3563479 0.17829927 -1.1756362
58848 68760.0 -1071.7837 1064.2767 -7017.4275 7.3682955 0.16683865 -1.1000693000000001
58848 68770.0 -998.04433 1065.8877 -7028.049900000001 7.379449 0.15536004 -1.0243839000000001
58848 68780.0 -924.1973800000001 1067.3838 -7037.9148 7.3898072 0.1438647 -0.94858801
58848 68790.0 -850.25084 1068.7649 -7047.0213 7.399369 0.13235385 -0.8726899300000001
58848 68800.0 -776.21266 1070.0308 -7055.3683 7.4081333 0.12082873 -0.7966978
58848 68810.0 -702.09083 1071.1815 -7062.954900000001 7.4160993 0.1092906 -0.7206198100000001
58848 68820.0 -627.89334 1072.2166000000002 -7069.780400000001 7.423266 0.09774068500000001 -0.64446416
58848 68830.0 -553.62818 1073.1362 -7075.844 7.4296328 0.086180238 -0.56823906
58848 68840.0 -479.30334999999997 1073.9402 -7081.145 7.4351988 0.07461050400000001 -0.49195272
58848 68850.0 -404.92687 1074.6283999999998 -7085.682900000001 7.4399636000000005 0.063032728 -0.41561336
58848 68860.0 -330.50675 1075.2008 -7089.4571 7.4439266 0.05144816 -0.33922921
58848 68870.0 -256.05102 1075.6573999999998 -7092.4673 7.447087300000001 0.039858046 -0.2628085
58848 68880.0 -181.56768 1075.998 -7094.7132 7.4494454 0.028263638 -0.18635946
58848 68890.0 -107.06478 1076.2226 -7096.1945000000005 7.4510008 0.016666183 -0.10989035
58848 68900.0 -32.550345 1076.3313 -7096.911 7.4517531 0.0050669323 -0.033409386
58848 68910.0 41.967601 1076.324 -7096.8625999999995 7.4517024 -0.0065328645 0.043075174
58848 68920.0 116.48103 1076.2006000000001 -7096.0495 7.4508485 -0.018131957 0.11955509
58848 68930.0 190.9819 1075.9613000000002 -7094.4716 7.4491917 -0.029729096 0.19602213000000002
58848 68940.0 265.46218 1075.6061000000002 -7092.1291 7.4467321 -0.041323031 0.27246803
58848 68950.0 339.91386 1075.1349 -7089.0223 7.4434700000000005 -0.052912512 0.34888458000000006
58848 68960.0 414.32891 1074.5478 -7085.1515 7.4394057 -0.064496291 0.42526352000000006
58848 68970.0 488.69931 1073.845 -7080.5172 7.4345397 -0.07607311900000001 0.50159664
58848 68980.0 563.0170300000001 1073.0264 -7075.1198 7.4288724 -0.087641749 0.5778757000000001
58848 68990.0 637.27408 1072.0922 -7068.959900000001 7.4224045 -0.099200934 0.6540924800000001
58848 69000.0 711.46246 1071.0423999999998 -7062.0382 7.415136700000001 -0.11074943000000001 0.73023876
58848 69010.0 785.57415 1069.8772 -7054.3554 7.4070698 -0.12228599 0.80630635
58848 69020.0 859.60119 1068.5967 -7045.9123 7.398204600000001 -0.13380937 0.8822870500000001
58848 69030.0 933.53559 1067.2011000000002 -7036.71 7.3885421 -0.14531832 0.95817266
58848 69040.0 1007.3694 1065.6904 -7026.7492 7.3780833 -0.15681162 1.033955
58848 69050.0 1081.0946000000001 1064.0648999999999 -7016.0312 7.366829399999999 -0.16828801999999998 1.1096259
58848 69060.0 1154.7033000000001 1062.3247 -7004.5571 7.354781600000001 -0.17974628 1.1851773
58848 69070.0 1228.1876000000002 1060.47 -6992.3281 7.3419411000000006 -0.19118517000000002 1.2606009
58848 69080.0 1301.5395 1058.5011000000002 -6979.3455 7.3283095000000005 -0.20260346 1.3358886
58848 69090.0 1374.7511000000002 1056.4181 -6965.6108 7.313888 -0.21399991000000002 1.4110324
58848 69100.0 1447.8146000000002 1054.2212 -6951.125400000001 7.2986783 -0.2253733 1.4860241
58848 69110.0 1520.7221000000002 1051.9107 -6935.8909 7.2826821 -0.2367224 1.5608557
58848 69120.0 1593.4657 1049.4868000000001 -6919.9089 7.265901 -0.24804599 1.635519
58848 69130.0 1666.0375000000001 1046.9498 -6903.1811 7.248336800000001 -0.25934285 1.7100061000000002
58848 69140.0 1738.4298000000001 1044.3 -6885.7092999999995 7.229991500000001 -0.27061176000000003 1.7843089
58848 69150.0 1810.6347 1041.5377 -6867.4955 7.210867 -0.2818515 1.8584195000000001
58848 69160.0 1882.6445 1038.6631 -6848.5416 7.1909654000000005 -0.29306087000000003 1.9323297000000001
58848 69170.0 1954.4515000000001 1035.6766 -6828.8496 7.170288800000001 -0.30423865 2.0060317
58848 69180.0 2026.0477 1032.5784 -6808.4217 7.1488395 -0.31538365 2.0795175
58848 69190.0 2097.4257000000002 1029.369 -6787.26 7.1266198 -0.32649466 2.1527791
58848 69200.0 2168.5776 1026.0487 -6765.366900000001 7.103632 -0.33757048 2.2258088
58848 69210.0 2239.4957999999997 1022.6177 -6742.7447 7.0798786 -0.34860993 2.2985986
58848 69220.0 2310.1726000000003 1019.0766 -6719.3958 7.0553623 -0.35961180000000004 2.3711406999999998
58848 69230.0 2380.6005 1015.4256 -6695.322700000001 7.0300856000000005 -0.37057492000000003 2.4434272000000004
58848 69240.0 2450.7718 1011.6652 -6670.5280999999995 7.0040513 -0.3814981 2.5154505
58848 69250.0 2520.679 1007.7958000000001 -6645.0145999999995 6.9772621 -0.39238016 2.5872026
58848 69260.0 2590.3145 1003.8178 -6618.785 6.949720999999999 -0.40321994 2.6586759000000004
58848 69270.0 2659.6709 999.7315500000001 -6591.842000000001 6.921431 -0.41401627 2.7298627
58848 69280.0 2728.7407000000003 995.53759 -6564.188700000001 6.8923950000000005 -0.42476798000000004 2.8007552000000002
58848 69290.0 2797.5163 991.23634 -6535.8279 6.862616200000001 -0.4354739 2.871346
58848 69300.0 2865.9905 986.8282700000001 -6506.7627999999995 6.8320978 -0.4461329 2.9416273
58848 69310.0 2934.1558 982.31385 -6476.996400000001 6.8008431 -0.45674382 3.0115916000000005
58848 69320.0 3002.0049 977.69356 -6446.532099999999 6.7688556 -0.46730552000000003 3.0812313
58848 69330.0 3069.5305 972.9679000000001 -6415.3729 6.7361385 -0.47781685 3.1505389
58848 69340.0 3136.7253 968.13739 -6383.522400000001 6.7026955 -0.48827668999999996 3.2195071
58848 69350.0 3203.582 963.2025500000001 -6350.9839 6.6685301 -0.4986839 3.2881282
58848 69360.0 3270.0935 958.16389 -6317.761 6.633646 -0.50903738 3.356395
58848 69370.0 3336.2526000000003 953.02198 -6283.8572 6.5980471 -0.5193359900000001 3.4243001
58848 69380.0 3402.0521000000003 947.77736 -6249.2762 6.5617371 -0.52957864 3.4918361
58848 69390.0 3467.4849 942.4306 -6214.0217999999995 6.5247199 -0.5397642100000001 3.5589958000000004
58848 69400.0 3532.5441 936.9822700000001 -6178.0976 6.4869995000000005 -0.54989162 3.625772
58848 69410.0 3597.2226 931.43296 -6141.5076 6.4485801 -0.5599597599999999 3.6921574
58848 69420.0 3661.5134 925.78328 -6104.2558 6.409465600000001 -0.56996755 3.7581449
58848 69430.0 3725.4096 920.03382 -6066.3461 6.3696605 -0.57991392 3.8237274
58848 69440.0 3788.9042999999997 914.18521 -6027.7826 6.329168800000001 -0.58979779 3.8888978
58848 69450.0 3851.9907000000003 908.23807 -5988.5695000000005 6.2879951 -0.5996181 3.9536492
58848 69460.0 3914.6620000000003 902.1930600000001 -5948.7110999999995 6.2461437 -0.60937379 4.0179744
58848 69470.0 3976.9112999999998 896.0508199999999 -5908.2115 6.2036192 -0.61906381 4.0818666
58848 69480.0 4038.7321 889.81201 -5867.0752 6.1604261 -0.62868711 4.1453189
58848 69490.0 4100.117700000001 883.4773 -5825.3066 6.1165690999999995 -0.63824265 4.2083244
58848 69500.0 4161.0613 877.04738 -5782.9102 6.0720529 -0.6477294100000001 4.2708765
58848 69510.0 4221.5565 870.5229499999999 -5739.8906 6.026882400000001 -0.6571463700000001 4.332968200000001
58848 69520.0 4281.5968 863.90469 -5696.2524 5.9810623 -0.6664925100000001 4.3945929999999995
58848 69530.0 4341.1756 857.19333 -5652.0003 5.9345976 -0.6757668099999999 4.4557442
58848 69540.0 4400.286599999999 850.3896 -5607.139099999999 5.8874934 -0.68496829 4.516415200000001
58848 69550.0 4458.923400000001 843.49421 -5561.6736 5.8397546 -0.69409596 4.5765995
58848 69560.0 4517.0796 836.5079300000001 -5515.6088 5.7913866 -0.7031488100000001 4.6362905
58848 69570.0 4574.749 829.43149 -5468.9495 5.7423943 -0.71212589 4.6954819
58848 69580.0 4631.9254 822.2656700000001 -5421.7008 5.6927833 -0.7210262300000001 4.7541672
58848 69590.0 4688.6027 815.01123 -5373.8679 5.6425586999999995 -0.7298488599999999 4.8123401999999995
58848 69600.0 4744.7746 807.66895 -5325.4557 5.5917259999999995 -0.7385928300000001 4.8699946
58848 69610.0 4800.4352 800.23963 -5276.469700000001 5.5402907 -0.74725721 4.9271241
58848 69620.0 4855.5784 792.72408 -5226.915 5.488258300000001 -0.75584105 4.9837227
58848 69630.0 4910.1984 785.12308 -5176.7970000000005 5.4356344 -0.76434344 5.0397841
58848 69640.0 4964.2891 777.43748 -5126.1212000000005 5.3824248 -0.77276345 5.0953024
58848 69650.0 5017.8449 769.66809 -5074.8928 5.328635 -0.78110018 5.1502716
58848 69660.0 5070.8599 761.8157600000001 -5023.1176 5.274271 -0.78935273 5.2046857
58848 69670.0 5123.3284 753.88132 -4970.801 5.2193386 -0.79752022 5.2585389
58848 69680.0 5175.2447999999995 745.86564 -4917.9487 5.1638437999999995 -0.80560175 5.3118254
58848 69690.0 5226.6035 737.76958 -4864.566400000001 5.1077924 -0.81359647 5.3645395
58848 69700.0 5277.3988 729.594 -4810.6598 5.0511905 -0.8215035 5.4166754
58848 69710.0 5327.6255 721.3398000000001 -4756.2348 4.9940443 -0.8293220099999999 5.4682276000000005
58848 69720.0 5377.2779 713.00786 -4701.2972 4.9363598 -0.83705113 5.5191904
58848 69730.0 5426.3509 704.59908 -4645.853 4.8781434 -0.8446900500000001 5.5695585
58848 69740.0 5474.839 696.11436 -4589.9081 4.819401300000001 -0.85223793 5.6193263
58848 69750.0 5522.7372000000005 687.55463 -4533.4685 4.7601397 -0.85969397 5.6684885000000005
58848 69760.0 5570.0401 678.92079 -4476.5403 4.7003652 -0.86705736 5.7170399
58848 69770.0 5616.7428 670.21379 -4419.1297 4.6400841 -0.8743273 5.7649751
58848 69780.0 5662.840099999999 661.43456 -4361.2429 4.579303 -0.88150302 5.812289
58848 69790.0 5708.327200000001 652.58405 -4302.8861 4.5180283 -0.8885837400000001 5.8589765
58848 69800.0 5753.1991 643.6632099999999 -4244.0655 4.4562667000000005 -0.8955687000000001 5.905032599999999
58848 69810.0 5797.450900000001 634.673 -4184.7875 4.394024900000001 -0.90245714 5.9504523
58848 69820.0 5841.078 625.6143900000001 -4125.0586 4.331309500000001 -0.90924832 5.9952307000000005
58848 69830.0 5884.0756 616.48836 -4064.8851 4.2681274 -0.91594152 6.0393631
58848 69840.0 5926.439 607.29589 -4004.2735000000002 4.204485200000001 -0.9225359999999999 6.0828445
58848 69850.0 5968.1638 598.03797 -3943.2304 4.14039 -0.92903106 6.1256704
58848 69860.0 6009.2453 588.7156 -3881.7623 4.0758485 -0.9354260000000001 6.1678362
58848 69870.0 6049.6793 579.32978 -3819.8759 4.0108678 -0.9417201300000001 6.2093372
58848 69880.0 6089.461200000001 569.88153 -3757.5778 3.9454548000000003 -0.9479127700000001 6.2501691
58848 69890.0 6128.587 560.3718700000001 -3694.8747000000003 3.8796167 -0.95400325 6.290327400000001
58848 69900.0 6167.0522 550.80181 -3631.7735000000002 3.8133604 -0.95999092 6.329807700000001
58848 69910.0 6204.8528 541.1723900000001 -3568.2808 3.7466932 -0.96587514 6.3686058999999995
58848 69920.0 6241.9847 531.4846600000001 -3504.4036 3.6796221 -0.9716552500000001 6.406717800000001
58848 69930.0 6278.4439 521.73964 -3440.1488 3.6121545999999998 -0.97733066 6.4441391999999995
58848 69940.0 6314.2265 511.93839 -3375.5232 3.5442977 -0.98290074 6.4808661
58848 69950.0 6349.3286 502.08198 -3310.5337999999997 3.4760589 -0.98836488 6.5168946
58848 69960.0 6383.746400000001 492.17145000000005 -3245.1876 3.4074454000000003 -0.99372252 6.552220800000001
58848 69970.0 6417.4763 482.20788 -3179.4917 3.3384648 -0.9989730600000001 6.5868408
58848 69980.0 6450.5145 472.19235 -3113.4532000000004 3.2691243 -1.0041159 6.620751
58848 69990.0 6482.857599999999 462.12593 -3047.0791000000004 3.1994316 -1.0091506000000001 6.6539476
58848 70000.0 6514.502 452.0097 -2980.3766 3.129394 -1.0140765 6.6864272
58848 70010.0 6545.4443 441.84476 -2913.3529 3.0590192000000003 -1.0188931 6.7181861
58848 70020.0 6575.6813 431.6322 -2846.0153 2.9883147 -1.0236 6.7492209999999995
58848 70030.0 6605.2096 421.37313 -2778.3709 2.9172882 -1.0281965 6.7795286
58848 70040.0 6634.026 411.06864 -2710.4272 2.8459472000000003 -1.0326822 6.809105499999999
58848 70050.0 6662.1275000000005 400.71986 -2642.1913 2.7742996 -1.0370565999999999 6.8379486
58848 70060.0 6689.511 390.32788 -2573.6706 2.7023528999999997 -1.0413192 6.8660548
58848 70070.0 6716.1736 379.89385 -2504.8726 2.6301151 -1.0454695999999999 6.893421099999999
58848 70080.0 6742.112400000001 369.41887 -2435.8047 2.5575938000000003 -1.0495074 6.9200444
58848 70090.0 6767.3245 358.90408 -2366.4742 2.4847968000000002 -1.0534320000000001 6.9459219999999995
58848 70100.0 6791.807400000001 348.35061 -2296.8887999999997 2.4117321 -1.0572431 6.971051
58848 70110.0 6815.5583 337.75959000000006 -2227.0557000000003 2.3384074 -1.0609403 6.995428700000001
58848 70120.0 6838.5747 327.13218 -2156.9827 2.2648308000000004 -1.0645231000000002 7.0190525
58848 70130.0 6860.8541 316.46951 -2086.6772 2.1910101 -1.0679912 7.0419199
58848 70140.0 6882.3940999999995 305.77274 -2016.1468 2.1169531999999998 -1.0713442 7.064028400000001
58848 70150.0 6903.192400000001 295.04301000000004 -1945.3992 2.0426682 -1.0745818 7.085375600000001
58848 70160.0 6923.2468 284.28149 -1874.4419 1.9681631 -1.0777036 7.1059591
58848 70170.0 6942.555 273.48933 -1803.2825 1.8934458 -1.0807092 7.1257769
58848 70180.0 6961.115 262.66769 -1731.9288999999999 1.8185245 -1.0835983000000002 7.1448268
58848 70190.0 6978.9248 251.81775000000002 -1660.3886000000002 1.7434072 -1.0863706 7.1631066
58848 70200.0 6995.9825 240.94067 -1588.6693 1.6681020000000002 -1.0890259000000002 7.1806145
58848 70210.0 7012.2862000000005 230.03763 -1516.7789 1.5926171 -1.0915637999999999 7.1973485
58848 70220.0 7027.8342999999995 219.10979 -1444.7249 1.5169605 -1.0939841 7.2133069
58848 70230.0 7042.624900000001 208.15834 -1372.5153 1.4411404 -1.0962865 7.2284878
58848 70240.0 7056.656599999999 197.18445000000003 -1300.1578000000002 1.365165 -1.0984707 7.2428898
58848 70250.0 7069.9277 186.18932 -1227.6601 1.2890425 -1.1005365999999999 7.2565112
58848 70260.0 7082.437 175.17412 -1155.0302 1.2127811 -1.1024838 7.2693506
58848 70270.0 7094.182900000001 164.14004 -1082.2757 1.1363889999999999 -1.1043122 7.2814065
58848 70280.0 7105.1643 153.08827 -1009.4046 1.0598744 -1.1060217 7.2926777000000005
58848 70290.0 7115.38 142.02 -936.42479 0.9832455800000001 -1.1076119000000002 7.303163
58848 70300.0 7124.8289 130.93643 -863.34401 0.9065108000000001 -1.1090826999999999 7.3128613
58848 70310.0 7133.509900000001 119.83874 -790.1701899999999 0.82967832 -1.1104341 7.321771399999999
58848 70320.0 7141.4222 108.72815 -716.91121 0.75275643 -1.1116657 7.3298924
58848 70330.0 7148.5648 97.60583 -643.57498 0.67575341 -1.1127775999999998 7.337223600000001
58848 70340.0 7154.937 86.47299400000001 -570.16938 0.59867757 -1.1137695 7.3437639
58848 70350.0 7160.5381 75.33084 -496.70234000000005 0.52153721 -1.1146414 7.3495129
58848 70360.0 7165.3675 64.18056700000001 -423.18176 0.44434065 -1.1153932 7.3544698
58848 70370.0 7169.4248 53.023377 -349.61558 0.36709619 -1.1160246999999999 7.358634100000001
58848 70380.0 7172.7092999999995 41.860474 -276.01171999999997 0.28981218000000003 -1.116536 7.3620053
58848 70390.0 7175.2209 30.693058 -202.37812 0.21249693 -1.116927 7.3645832
58848 70400.0 7176.9592 19.522334999999998 -128.72271 0.13515878 -1.1171976 7.3663673
58848 70410.0 7177.924 8.349508400000001 -55.053419000000005 0.057806064 -1.1173478000000001 7.3673576
58848 70420.0 7178.1153 -2.8242184000000004 18.6218 -0.019552881 -1.1173775000000001 7.367554
58848 70430.0 7177.533 -13.997641 92.29501300000001 -0.09690971899999999 -1.1172869 7.3669563
58848 70440.0 7176.1771 -25.169555000000003 165.95828 -0.17425611000000002 -1.1170758 7.3655646
58848 70450.0 7174.0479000000005 -36.338756000000004 239.60366000000002 -0.25158373 -1.1167444 7.363379200000001
58848 70460.0 7171.1455000000005 -47.504041 313.22321999999997 -0.32888423 -1.1162926 7.3604003
58848 70470.0 7167.4703 -58.664207000000005 386.80902000000003 -0.40614929 -1.1157205 7.3566281
58848 70480.0 7163.0227 -69.81805 460.35314 -0.48337057 -1.1150281 7.3520631000000005
58848 70490.0 7157.8031 -80.964369 533.8476400000001 -0.56053977 -1.1142156 7.3467057
58848 70500.0 7151.8121 -92.10196300000001 607.28461 -0.63764855 -1.1132831 7.3405566
58848 70510.0 7145.0504 -103.22963 680.65614 -0.71468862 -1.1122305 7.3336164
58848 70520.0 7137.518599999999 -114.34617 753.9543100000001 -0.79165166 -1.1110581 7.3258859
58848 70530.0 7129.2176 -125.45039 827.17122 -0.8685293900000001 -1.1097659000000002 7.3173658
58848 70540.0 7120.1483 -136.54109 900.29899 -0.94531351 -1.1083541000000001 7.3080572
58848 70550.0 7110.3117 -147.61708 973.32974 -1.0219958 -1.1068228999999998 7.2979609000000005
58848 70560.0 7099.7088 -158.67715 1046.2556 -1.0985679 -1.1051724 7.2870782
58848 70570.0 7088.340700000001 -169.72013 1119.0687 -1.1750216 -1.1034028 7.2754101
58848 70580.0 7076.2088 -180.74481 1191.7612 -1.2513487 -1.1015143 7.262957999999999
58848 70590.0 7063.314200000001 -191.75002 1264.3252 -1.3275409 -1.0995071 7.249723100000001
58848 70600.0 7049.6584 -202.73456000000002 1336.753 -1.40359 -1.0973814 7.2357070000000006
58848 70610.0 7035.2429 -213.69725 1409.0368 -1.4794879 -1.0951374 7.220911
58848 70620.0 7020.0692 -224.63691 1481.1687 -1.5552264 -1.0927754 7.2053368
58848 70630.0 7004.138900000001 -235.55237 1553.1408999999999 -1.6307972 -1.0902956 7.1889862
58848 70640.0 6987.4538 -246.44243 1624.9458000000002 -1.7061922999999999 -1.0876983 7.171860700000001
58848 70650.0 6970.0157 -257.30594 1696.5756000000001 -1.7814035 -1.0849838 7.1539624
58848 70660.0 6951.826400000001 -268.14171999999996 1768.0225 -1.8564228 -1.0821524 7.135293
58848 70670.0 6932.887900000001 -278.9486 1839.2789 -1.9312419 -1.0792043000000002 7.1158547
58848 70680.0 6913.2023 -289.72542 1910.337 -2.005853 -1.07614 7.0956496
58848 70690.0 6892.7716 -300.47101000000004 1981.1893 -2.0802478 -1.0729596 7.0746797
58848 70700.0 6871.5981 -311.18423 2051.8281 -2.1544185000000002 -1.0696637 7.0529474
58848 70710.0 6849.684 -321.86390000000006 2122.2457000000004 -2.228357 -1.0662524000000002 7.030455
58848 70720.0 6827.0317000000005 -332.50889 2192.4346 -2.3020553 -1.0627263 7.0072049
58848 70730.0 6803.6437000000005 -343.11805 2262.3873 -2.3755056 -1.0590856000000002 6.9831996
58848 70740.0 6779.5225 -353.69021999999995 2332.0961 -2.4486998 -1.0553308 6.9584418
58848 70750.0 6754.6705999999995 -364.22428 2401.5536 -2.5216302 -1.0514622 6.932934100000001
58848 70760.0 6729.0908 -374.71909000000005 2470.7522999999997 -2.5942887000000003 -1.0474804 6.9066792
58848 70770.0 6702.7857 -385.17351 2539.6847000000002 -2.6666678000000004 -1.0433856000000001 6.8796799
58848 70780.0 6675.758400000001 -395.58643 2608.3433999999997 -2.7387594 -1.0391784 6.8519393
58848 70790.0 6648.0115000000005 -405.95671000000004 2676.7211 -2.8105558 -1.0348592 6.8234602
58848 70800.0 6619.5483 -416.28324 2744.8102000000003 -2.8820494 -1.0304285 6.7942457
58848 70810.0 6590.3715999999995 -426.56491 2812.6035 -2.9532324 -1.0258867 6.764299
58848 70820.0 6560.4847 -436.80061 2880.0937999999996 -3.0240971 -1.0212344 6.733623400000001
58848 70830.0 6529.8907 -446.98922999999996 2947.2736 -3.0946358000000003 -1.016472 6.702222
58848 70840.0 6498.5931 -457.12968 3014.1358 -3.1648411000000003 -1.0116001000000001 6.6700984
58848 70850.0 6466.595 -467.22087 3080.6732 -3.2347053000000003 -1.0066191 6.6372559
58848 70860.0 6433.9001 -477.2617 3146.8785000000003 -3.3042209 -1.0015297 6.6036981
58848 70870.0 6400.5118 -487.2511 3212.7447 -3.3733804000000003 -0.99633229 6.5694286
58848 70880.0 6366.4337000000005 -497.18799 3278.2647 -3.4421763999999997 -0.9910275500000001 6.5344512
58848 70890.0 6331.6695 -507.0713 3343.4314 -3.5106014 -0.98561599 6.498769500000001
58848 70900.0 6296.223 -516.8999600000001 3408.2378 -3.5786480000000003 -0.98009822 6.4623875
58848 70910.0 6260.0978 -526.67291 3472.6767999999997 -3.6463090000000005 -0.97447483 6.425309
58848 70920.0 6223.2981 -536.3891 3536.7417 -3.7135770000000003 -0.96874641 6.387537999999999
58848 70930.0 6185.8276 -546.04749 3600.4253 -3.7804448 -0.96291359 6.3490787
58848 70940.0 6147.6905 -555.6470300000001 3663.7209 -3.8469052 -0.956977 6.3099351
58848 70950.0 6108.8909 -565.18669 3726.6217 -3.912951 -0.95093728 6.2701115000000005
58848 70960.0 6069.432900000001 -574.66543 3789.1209 -3.9785752000000003 -0.9447950700000001 6.2296122
58848 70970.0 6029.3207999999995 -584.08225 3851.2118 -4.0437705 -0.93855105 6.1884415
58848 70980.0 5988.559 -593.43612 3912.8875000000003 -4.10853 -0.93220587 6.146603900000001
58848 70990.0 5947.1517 -602.72603 3974.1416000000004 -4.1728468 -0.92576023 6.1041038
58848 71000.0 5905.1035 -611.95099 4034.9674 -4.2367138 -0.91921483 6.060946
58848 71010.0 5862.419 -621.11 4095.3584 -4.3001243 -0.91257035 6.0171349
58848 71020.0 5819.1026 -630.2020699999999 4155.308 -4.3630714 -0.90582753 5.9726754
58848 71030.0 5775.1591 -639.22622 4214.809700000001 -4.425548200000001 -0.89898709 5.927572199999999
58848 71040.0 5730.5932 -648.18149 4273.8573 -4.4875481 -0.89204977 5.8818301
58848 71050.0 5685.4098 -657.0669 4332.4442 -4.5490643 -0.88501631 5.8354542
58848 71060.0 5639.6136 -665.88149 4390.5643 -4.6100904 -0.87788747 5.7884494
58848 71070.0 5593.2096 -674.62433 4448.2110999999995 -4.6706195 -0.8706640200000001 5.740820800000001
58848 71080.0 5546.2029 -683.29446 4505.3786 -4.7306454 -0.86334674 5.692573500000001
58848 71090.0 5498.598400000001 -691.89095 4562.0606 -4.7901614 -0.85593642 5.6437127
58848 71100.0 5450.4012999999995 -700.41288 4618.2508 -4.849161199999999 -0.84843385 5.5942437
58848 71110.0 5401.616900000001 -708.85933 4673.9434 -4.9076382999999995 -0.8408398499999999 5.5441718
58848 71120.0 5352.2503 -717.22938 4729.1323 -4.9655866 -0.83315522 5.4935023
58848 71130.0 5302.307 -725.5221300000001 4783.8115 -5.0229998 -0.82538081 5.4422409
58848 71140.0 5251.7922 -733.7366999999999 4837.9751 -5.079871600000001 -0.8175174500000001 5.390393
58848 71150.0 5200.7114 -741.8721899999999 4891.6174 -5.1361959 -0.8095659900000001 5.337964100000001
58848 71160.0 5149.0701 -749.92773 4944.7325 -5.1919668 -0.8015272800000001 5.2849599
58848 71170.0 5096.8739000000005 -757.9024499999999 4997.3147 -5.247178 -0.7934021800000001 5.2313862
58848 71180.0 5044.1284000000005 -765.79548 5049.3584 -5.3018238 -0.78519159 5.1772487
58848 71190.0 4990.8393 -773.60599 5100.8578 -5.3558983 -0.7768963700000001 5.1225533
58848 71200.0 4937.0124000000005 -781.33313 5151.8076 -5.4093955 -0.76851742 5.067305800000001
58848 71210.0 4882.6533 -788.9760699999999 5202.2020999999995 -5.4623097 -0.76005566 5.0115122
58848 71220.0 4827.768099999999 -796.53397 5252.036 -5.5146353 -0.75151198 4.9551784
58848 71230.0 4772.3625999999995 -804.0060400000001 5301.303900000001 -5.5663666 -0.74288731 4.8983107
58848 71240.0 4716.4428 -811.39145 5350.0005 -5.6174979 -0.73418258 4.8409151
58848 71250.0 4660.014700000001 -818.68942 5398.1205 -5.668023900000001 -0.72539873 4.7829978
58848 71260.0 4603.084400000001 -825.89917 5445.6587 -5.717939 -0.7165367 4.724565
58848 71270.0 4545.658 -833.0199 5492.6101 -5.7672379000000005 -0.70759745 4.6656230999999995
58848 71280.0 4487.7417000000005 -840.0508600000001 5538.9695 -5.8159152999999995 -0.6985819400000001 4.6061783
58848 71290.0 4429.3417 -846.99129 5584.732 -5.8639659 -0.68949114 4.546237100000001
58848 71300.0 4370.4645 -853.84044 5629.8926 -5.9113845000000005 -0.6803260400000001 4.485805999999999
58848 71310.0 4311.1162 -860.59757 5674.4465 -5.958166100000001 -0.67108762 4.4248915
58848 71320.0 4251.3033 -867.26195 5718.3888 -6.004305500000001 -0.66177688 4.3635
58848 71330.0 4191.032200000001 -873.83287 5761.714900000001 -6.0497979 -0.65239482 4.3016383
58848 71340.0 4130.3095 -880.30961 5804.420099999999 -6.0946383 -0.64294245 4.2393131
58848 71350.0 4069.1416000000004 -886.69148 5846.4997 -6.1388218 -0.6334207900000001 4.1765308999999995
58848 71360.0 4007.5353 -892.9778000000001 5887.9492 -6.1823438 -0.6238308600000001 4.1132987000000005
58848 71370.0 3945.4970000000003 -899.16788 5928.7642000000005 -6.2251994999999996 -0.6141737100000001 4.0496232
58848 71380.0 3883.0335 -905.2610500000001 5968.9402 -6.2673843 -0.6044503600000001 3.9855112
58848 71390.0 3820.1516 -911.2566700000001 6008.473 -6.3088937 -0.59466188 3.9209697
58848 71400.0 3756.8579 -917.15408 6047.358200000001 -6.349723200000001 -0.5848093 3.8560057000000003
58848 71410.0 3693.1594 -922.9526400000001 6085.5917 -6.3898683 -0.5748937 3.7906261
58848 71420.0 3629.0627999999997 -928.65174 6123.1693 -6.4293249 -0.5649161500000001 3.7248379000000003
58848 71430.0 3564.5752 -934.25076 6160.0871 -6.4680885 -0.55487771 3.6586484
58848 71440.0 3499.7034 -939.7491 6196.341 -6.5061551 -0.5447794800000001 3.5920646
58848 71450.0 3434.4544 -945.14616 6231.9271 -6.5435205 -0.53462253 3.5250936000000004
58848 71460.0 3368.8352999999997 -950.44136 6266.8416 -6.5801807 -0.52440797 3.4577427
58848 71470.0 3302.8532000000005 -955.63413 6301.0807 -6.6161317 -0.5141369 3.3900192000000002
58848 71480.0 3236.5151 -960.72391 6334.6408 -6.6513698 -0.50381041 3.3219304000000003
58848 71490.0 3169.8282000000004 -965.71015 6367.518099999999 -6.685891 -0.49342963 3.2534836
58848 71500.0 3102.7996000000003 -970.59233 6399.7092999999995 -6.7196917 -0.48299567000000004 3.1846861
58848 71510.0 3035.4367 -975.36989 6431.2107000000005 -6.7527681 -0.47250966 3.1155454000000002
58848 71520.0 2967.7467 -980.0423499999999 6462.0190999999995 -6.7851169 -0.46197273 3.0460689000000003
58848 71530.0 2899.7367999999997 -984.60918 6492.131 -6.8167344000000005 -0.45138601 2.9762642
58848 71540.0 2831.4145 -989.06991 6521.5433 -6.8476173000000005 -0.44075063999999997 2.9061387
58848 71550.0 2762.7870000000003 -993.4240400000001 6550.2527 -6.8777622 -0.43006777 2.8357001
58848 71560.0 2693.8617000000004 -997.67111 6578.2563 -6.9071659 -0.41933855999999997 2.7649558
58848 71570.0 2624.6461 -1001.8107 6605.5508 -6.9358252 -0.40856415 2.6939135000000003
58848 71580.0 2555.1477000000004 -1005.8421999999999 6632.1336 -6.963737 -0.39774572 2.6225810000000003
58848 71590.0 2485.3739 -1009.7654 6658.0015 -6.9908984 -0.38688441 2.5509657000000003
58848 71600.0 2415.3322000000003 -1013.5798000000001 6683.152 -7.0173063 -0.37598142 2.4790756000000003
58848 71610.0 2345.0303 -1017.2849 6707.5821 -7.042958 -0.36503789999999997 2.4069183
58848 71620.0 2274.4756 -1020.8804 6731.2895 -7.0678507 -0.35405504000000004 2.3345016000000003
58848 71630.0 2203.6758 -1024.3659 6754.2713 -7.091981700000001 -0.34303403 2.2618332999999997
58848 71640.0 2132.6385 -1027.741 6776.5253 -7.1153483 -0.33197604999999997 2.1889213
58848 71650.0 2061.3714 -1031.0053 6798.049 -7.1379482 -0.32088229 2.1157733
58848 71660.0 1989.8821 -1034.1585 6818.84 -7.1597787 -0.30975395 2.0423974
58848 71670.0 1918.1784 -1037.2003 6838.8962 -7.1808377000000005 -0.29859222999999996 1.9688013000000002
58848 71680.0 1846.2679 -1040.1302 6858.2153 -7.2011228 -0.28739832000000004 1.8949931
58848 71690.0 1774.1585 -1042.9481 6876.795400000001 -7.2206318000000005 -0.27617345 1.8209806000000002
58848 71700.0 1701.8579 -1045.6536 6894.6343 -7.2393627 -0.26491881 1.7467719
58848 71710.0 1629.3739 -1048.2464 6911.7302 -7.2573134 -0.25363562 1.6723749
58848 71720.0 1556.7142 -1050.7262 6928.0812000000005 -7.2744819 -0.2423251 1.5977977
58848 71730.0 1483.8868 -1053.0928000000001 6943.6856 -7.2908665 -0.23098846 1.5230483
58848 71740.0 1410.8995 -1055.3459 6958.5416 -7.3064653 -0.21962693 1.4481348
58848 71750.0 1337.7602 -1057.4853 6972.6477 -7.3212768 -0.20824172999999999 1.3730652
58848 71760.0 1264.4766000000002 -1059.5107 6986.0024 -7.335299200000001 -0.19683409000000002 1.2978476
58848 71770.0 1191.0568 -1061.4218999999998 6998.604200000001 -7.348531100000001 -0.18540523 1.2224902
58848 71780.0 1117.5086000000001 -1063.2187 7010.4518 -7.360970999999999 -0.17395639000000002 1.147001
58848 71790.0 1043.84 -1064.901 7021.5438 -7.3726176 -0.16248881 1.0713882000000001
58848 71800.0 970.05894 -1066.4684 7031.8792 -7.3834697 -0.15100371 0.9956599
58848 71810.0 896.1732900000001 -1067.921 7041.456700000001 -7.3935261 -0.13950234 0.9198243300000001
58848 71820.0 822.19107 -1069.2584 7050.2753 -7.402785700000001 -0.12798594 0.8438896300000001
58848 71830.0 748.12024 -1070.4807 7058.3342 -7.411247500000001 -0.11645574 0.7678639899999999
58848 71840.0 673.96878 -1071.5875 7065.6323 -7.4189105 -0.10491299 0.69175559
58848 71850.0 599.74469 -1072.5789 7072.169 -7.4257741 -0.093358941 0.61557264
58848 71860.0 525.45597 -1073.4547 7077.9436 -7.431837300000001 -0.081794826 0.53932335
58848 71870.0 451.11062 -1074.2147 7082.9553 -7.4370997 -0.070221896 0.46301594
58848 71880.0 376.71665 -1074.8591000000001 7087.2037 -7.4415605 -0.058641398000000004 0.38665863
58848 71890.0 302.28208 -1075.3876 7090.6883 -7.4452193 -0.047054580000000006 0.31025965000000005
58848 71900.0 227.81493 -1075.8001000000002 7093.4088 -7.4480758 -0.035462692 0.23382723
58848 71910.0 153.32324 -1076.0968 7095.3648 -7.4501296 -0.023866981 0.15736961
58848 71920.0 78.815019 -1076.2775 7096.5561 -7.4513805 -0.012268698000000001 0.080895037
58848 71930.0 4.2983049 -1076.3422 7096.9827000000005 -7.4518284 -0.0006690934 0.004411742099999999
58848 71940.0 -70.218872 -1076.2909 7096.6444 -7.451473200000001 0.010930584 -0.07207202800000001
58848 71950.0 -144.72848000000002 -1076.1236000000001 7095.541200000001 -7.4503149 0.022529083000000002 -0.14854803000000003
58848 71960.0 -219.22249 -1075.8403 7093.6735 -7.4483537 0.034125154000000005 -0.22500803
58848 71970.0 -293.69288 -1075.4411 7091.041200000001 -7.4455898 0.045717547000000004 -0.30144377
58848 71980.0 -368.13162 -1074.9259 7087.644700000001 -7.4420235 0.057305014 -0.37784703000000003
58848 71990.0 -442.53068 -1074.295 7083.4844 -7.4376552 0.068886304 -0.45420957
58848 72000.0 -516.88205 -1073.5482 7078.5607 -7.432485300000001 0.08046017100000001 -0.5305231499999999
58848 72010.0 -591.1777099999999 -1072.6858 7072.8741 -7.4265144 0.09202536700000001 -0.60677957
58848 72020.0 -665.40967 -1071.7078000000001 7066.4253 -7.4197431 0.10358064 -0.68297059
58848 72030.0 -739.56991 -1070.6142 7059.214900000001 -7.4121723 0.11512475999999999 -0.759088
58848 72040.0 -813.65045 -1069.4053000000001 7051.2438 -7.403802600000001 0.12665647 -0.83512361
58848 72050.0 -887.6433000000001 -1068.0811 7042.5127999999995 -7.394635 0.13817453000000002 -0.91106922
58848 72060.0 -961.54049 -1066.6418999999999 7033.0227 -7.3846705 0.14967769 -0.9869166500000001
58848 72070.0 -1035.3341 -1065.0876 7022.7748 -7.3739101 0.16116473 -1.0626577
58848 72080.0 -1109.016 -1063.4186000000002 7011.77 -7.3623551 0.1726344 -1.1382842
58848 72090.0 -1182.5785 -1061.635 7000.0095 -7.3500065999999995 0.18408546 -1.2137881
58848 72100.0 -1256.0135 -1059.737 6987.4946 -7.3368660000000006 0.19551668 -1.2891612000000001
58848 72110.0 -1329.3132 -1057.7248 6974.2267 -7.3229347 0.20692684 -1.3643953
58848 72120.0 -1402.4696000000001 -1055.5985 6960.207200000001 -7.3082142 0.21831469 -1.4394824000000002
58848 72130.0 -1475.4749 -1053.3585 6945.4376 -7.2927061 0.22967902 -1.5144142999999999
58848 72140.0 -1548.3211000000001 -1051.005 6929.9195 -7.2764121 0.24101859 -1.5891831
58848 72150.0 -1621.0005 -1048.5383000000002 6913.654500000001 -7.2593339 0.25233219 -1.6637805
58848 72160.0 -1693.5052 -1045.9585 6896.6445 -7.2414734 0.26361859 -1.7381986999999999
58848 72170.0 -1765.8274 -1043.266 6878.8912 -7.222832400000001 0.27487658 -1.8124296
58848 72180.0 -1837.9592 -1040.461 6860.3965 -7.2034131 0.28610494999999997 -1.8864651
58848 72190.0 -1909.893 -1037.544 6841.1625 -7.1832174 0.29730249 -1.9602973
58848 72200.0 -1981.621 -1034.5151 6821.1913 -7.1622476 0.30846798999999997 -2.0339182
58848 72210.0 -2053.1354 -1031.3747 6800.4849 -7.1405059 0.31960024 -2.10732
58848 72220.0 -2124.4285 -1028.1232 6779.0455999999995 -7.117994700000001 0.33069805 -2.1804946
58848 72230.0 -2195.4927000000002 -1024.7609 6756.8758 -7.0947163 0.34176022 -2.2534343
58848 72240.0 -2266.3203 -1021.2881 6733.9778 -7.0706733999999996 0.35278556 -2.3261311
58848 72250.0 -2336.9037000000003 -1017.7053000000001 6710.354 -7.0458685 0.36377288 -2.3985772
58848 72260.0 -2407.2352 -1014.0128000000001 6686.0071 -7.0203042 0.37472099 -2.4707649000000003
58848 72270.0 -2477.3072 -1010.211 6660.9396 -6.9939834 0.38562872 -2.5426862000000003
58848 72280.0 -2547.1123 -1006.3004000000001 6635.1543 -6.966908800000001 0.39649489 -2.6143335000000003
58848 72290.0 -2616.6429 -1002.2813000000001 6608.6539 -6.9390834 0.40731834 -2.6856991
58848 72300.0 -2685.8915 -998.1541500000001 6581.4412999999995 -6.9105102 0.41809788 -2.7567752000000003
58848 72310.0 -2754.8506 -993.91946 6553.5194 -6.881192200000001 0.42883237 -2.8275542999999996
58848 72320.0 -2823.5129 -989.57766 6524.8912 -6.8511326 0.43952064 -2.8980286
58848 72330.0 -2891.8707999999997 -985.12921 6495.5598 -6.8203347 0.45016154 -2.9681906
58848 72340.0 -2959.9171 -980.57459 6465.5284 -6.7888018 0.46075393000000003 -3.0380327000000005
58848 72350.0 -3027.6444 -975.91429 6434.8003 -6.7565371999999995 0.47129667000000003 -3.1075474
58848 72360.0 -3095.0454 -971.14882 6403.3786 -6.7235445 0.48178861 -3.1767271999999998
58848 72370.0 -3162.1129 -966.27869 6371.2669000000005 -6.6898271000000005 0.49222863 -3.2455647
58848 72380.0 -3228.8396000000002 -961.30443 6338.4685 -6.6553889 0.50261561 -3.3140522999999997
58848 72390.0 -3295.2183 -956.2265600000001 6304.987 -6.6202333 0.51294841 -3.3821828000000003
58848 72400.0 -3361.2419 -951.04564 6270.826 -6.584364300000001 0.52322594 -3.4499489
58848 72410.0 -3426.9032 -945.76223 6235.9893 -6.5477857 0.5334470800000001 -3.5173431
58848 72420.0 -3492.1952 -940.37689 6200.4804 -6.5105015 0.54361073 -3.5843582
58848 72430.0 -3557.1109 -934.89021 6164.303400000001 -6.4725155999999995 0.5537157899999999 -3.6509871
58848 72440.0 -3621.6432000000004 -929.3027800000001 6127.462 -6.4338322 0.56376118 -3.7172225
58848 72450.0 -3685.7852000000003 -923.61519 6089.9603 -6.3944554 0.57374581 -3.7830573
58848 72460.0 -3749.53 -917.8280699999999 6051.8022 -6.3543894000000005 0.5836686099999999 -3.8484844
58848 72470.0 -3812.8707000000004 -911.94203 6012.992 -6.3136387 0.59352851 -3.9134967
58848 72480.0 -3875.8005000000003 -905.95771 5973.5337 -6.2722075 0.60332444 -3.9780873000000003
58848 72490.0 -3938.3126 -899.87576 5933.4317 -6.2301004 0.6130553599999999 -4.0422492000000005
58848 72500.0 -4000.4003 -893.69682 5892.6902 -6.187321799999999 0.6227202 -4.1059754
58848 72510.0 -4062.0568 -887.42158 5851.3135999999995 -6.1438765 0.63231793 -4.169259200000001
58848 72520.0 -4123.2756 -881.0506899999999 5809.3065 -6.099769 0.64184752 -4.232093600000001
58848 72530.0 -4184.05 -874.58486 5766.6733 -6.055004200000001 0.65130794 -4.2944719
58848 72540.0 -4244.3735 -868.02477 5723.4186 -6.0095868 0.66069816 -4.3563874
58848 72550.0 -4304.2396 -861.37113 5679.5471 -5.9635217 0.67001719 -4.4178334
58848 72560.0 -4363.6418 -854.6246600000001 5635.0635 -5.9168140000000005 0.679264 -4.4788033
58848 72570.0 -4422.5738 -847.7861 5589.9726 -5.8694686 0.6884376099999999 -4.5392905
58848 72580.0 -4481.0291 -840.85616 5544.2793 -5.821490600000001 0.69753703 -4.5992886
58848 72590.0 -4539.0015 -833.83561 5497.9885 -5.7728853 0.70656127 -4.6587909
58848 72600.0 -4596.4847 -826.72519 5451.1052 -5.7236578 0.71550937 -4.7177912
58848 72610.0 -4653.4726 -819.5256700000001 5403.634400000001 -5.6738135000000005 0.72438035 -4.776283
58848 72620.0 -4709.9589000000005 -812.23784 5355.5812000000005 -5.6233577 0.73317327 -4.834260100000001
58848 72630.0 -4765.9377 -804.86247 5306.950900000001 -5.5722959 0.74188718 -4.891716300000001
58848 72640.0 -4821.4029 -797.40036 5257.7487 -5.5206336 0.75052113 -4.9486452
58848 72650.0 -4876.348400000001 -789.85232 5207.9798 -5.4683763 0.7590742 -5.0050408
58848 72660.0 -4930.768400000001 -782.21915 5157.6496 -5.4155296 0.76754546 -5.060897
58848 72670.0 -4984.657 -774.5016899999999 5106.7637 -5.3620994 0.77593401 -5.116207800000001
58848 72680.0 -5038.0085 -766.70075 5055.3273 -5.3080913 0.78423893 -5.1709673
58848 72690.0 -5090.817 -758.81719 5003.3462 -5.2535111 0.7924593400000001 -5.2251693999999995
58848 72700.0 -5143.0768 -750.85185 4950.8258 -5.1983647 0.80059434 -5.2788085
58848 72710.0 -5194.7824 -742.8055899999999 4897.771900000001 -5.142658099999999 0.80864306 -5.3318786000000005
58848 72720.0 -5245.9281 -734.6792800000001 4844.1902 -5.0863973 0.81660463 -5.3843742
58848 72730.0 -5296.5085 -726.47379 4790.0864 -5.0295884 0.8244782 -5.4362894
58848 72740.0 -5346.518099999999 -718.19001 4735.4663 -4.9722374 0.83226292 -5.4876188
58848 72750.0 -5395.9515 -709.8288299999999 4680.336 -4.914350499999999 0.83995794 -5.5383568
58848 72760.0 -5444.8033 -701.39115 4624.7012 -4.855934 0.84756244 -5.5884979
58848 72770.0 -5493.0684 -692.87789 4568.568 -4.7969942 0.85507559 -5.6380368
58848 72780.0 -5540.7415 -684.28995 4511.9425 -4.7375374 0.8624966 -5.686968
58848 72790.0 -5587.8175 -675.62827 4454.8307 -4.6775701 0.8698246500000001 -5.7352863
58848 72800.0 -5634.291200000001 -666.89377 4397.2388 -4.6170986 0.8770589700000001 -5.7829866
58848 72810.0 -5680.1578 -658.0874 4339.173 -4.5561296 0.88419876 -5.830063600000001
58848 72820.0 -5725.412200000001 -649.21011 4280.6395999999995 -4.4946695 0.89124326 -5.876512300000001
58848 72830.0 -5770.0495 -640.26286 4221.6449 -4.4327251 0.89819172 -5.9223277
58848 72840.0 -5814.0651 -631.2466 4162.1952 -4.370303 0.90504337 -5.9675049
58848 72850.0 -5857.454 -622.16231 4102.2969 -4.3074098 0.9117974900000001 -6.012038899999999
58848 72860.0 -5900.211700000001 -613.01098 4041.9566 -4.2440525 0.91845334 -6.0559251000000005
58848 72870.0 -5942.3336 -603.79358 3981.1806 -4.1802377 0.92501022 -6.0991585
58848 72880.0 -5983.8150000000005 -594.51111 3919.9756 -4.1159725 0.9314674000000001 -6.1417347
58848 72890.0 -6024.6515 -585.16456 3858.3481 -4.0512637 0.9378242 -6.183649000000001
58848 72900.0 -6064.8387999999995 -575.75496 3796.3048 -3.9861183000000002 0.94407993 -6.224896800000001
58848 72910.0 -6104.3725 -566.2833 3733.8523999999998 -3.9205432 0.9502339200000001 -6.2654738
58848 72920.0 -6143.2483 -556.75062 3670.9976 -3.8545457 0.9562855 -6.3053756000000005
58848 72930.0 -6181.462 -547.1579399999999 3607.7472000000002 -3.7881328 0.96223402 -6.3445978
58848 72940.0 -6219.009599999999 -537.50629 3544.1079 -3.7213116 0.96807884 -6.3831363
58848 72950.0 -6255.8869 -527.79671 3480.0867000000003 -3.6540893999999997 0.9738193300000001 -6.4209869
58848 72960.0 -6292.09 -518.03025 3415.6905 -3.5864734 0.9794548700000001 -6.4581455
58848 72970.0 -6327.6151 -508.20796 3350.9262000000003 -3.5184709 0.9849848600000001 -6.494608100000001
58848 72980.0 -6362.4582 -498.33090999999996 3285.8007000000002 -3.4500891 0.99040869 -6.530370700000001
58848 72990.0 -6396.6156 -488.40014 3220.3211 -3.3813356 0.9957257899999999 -6.565429600000001
58848 73000.0 -6430.0837 -478.41675000000004 3154.4944 -3.3122176 1.0009356 -6.5997809
58848 73010.0 -6462.8588 -468.38178999999997 3088.3278 -3.2427427 1.0060375000000001 -6.633421
58848 73020.0 -6494.937400000001 -458.29636 3021.8284 -3.1729184 1.011031 -6.6663462
58848 73030.0 -6526.316 -448.16154 2955.0033 -3.1027521 1.0159155 -6.6985529
58848 73040.0 -6556.9913 -437.97841 2887.8597999999997 -3.0322514000000003 1.0206906 -6.7300378
58848 73050.0 -6586.959900000001 -427.74809000000005 2820.405 -2.9614238999999998 1.0253556000000001 -6.7607973
58848 73060.0 -6616.2187 -417.47167 2752.6462 -2.8902772 1.0299102 -6.7908283
58848 73070.0 -6644.764400000001 -407.15026 2684.5908 -2.8188191000000002 1.0343536999999998 -6.8201274000000005
58848 73080.0 -6672.594099999999 -396.78497 2616.2461000000003 -2.7470572000000004 1.0386858 -6.8486915
58848 73090.0 -6699.7046 -386.37691 2547.6195000000002 -2.6749992000000002 1.0429059999999999 -6.8765175
58848 73100.0 -6726.0931 -375.92722 2478.7183 -2.6026529999999997 1.0470137 -6.9036024
58848 73110.0 -6751.7567 -365.43701000000004 2409.5499 -2.5300262 1.0510085999999998 -6.9299433
58848 73120.0 -6776.6927000000005 -354.90743 2340.1219 -2.4571269000000004 1.0548903 -6.9555374
58848 73130.0 -6800.898400000001 -344.33959000000004 2270.4417000000003 -2.3839627 1.0586583 -6.9803819
58848 73140.0 -6824.371099999999 -333.73464 2200.5168 -2.3105415 1.0623121000000002 -7.0044741
58848 73150.0 -6847.1084 -323.09373 2130.3547000000003 -2.2368714 1.0658515 -7.0278114
58848 73160.0 -6869.1077000000005 -312.41799 2059.9631 -2.1629602 1.0692760000000001 -7.0503913
58848 73170.0 -6890.3668 -301.70859 1989.3494 -2.0888159 1.0725853 -7.072211500000001
58848 73180.0 -6910.8832999999995 -290.96666999999997 1918.5213999999999 -2.0144465 1.075779 -7.0932694000000005
58848 73190.0 -6930.655 -280.19340000000005 1847.4866000000002 -1.93986 1.0788568 -7.1135629
58848 73200.0 -6949.6798 -269.38991999999996 1776.2527 -1.8650644 1.0818182 -7.1330898
58848 73210.0 -6967.955599999999 -258.55742000000004 1704.8273000000002 -1.7900679000000002 1.0846631 -7.1518479
58848 73220.0 -6985.480500000001 -247.69705 1633.2183 -1.7148784000000001 1.0873911 -7.1698353
58848 73230.0 -7002.2526 -236.80999 1561.4332 -1.6395041000000001 1.090002 -7.18705
58848 73240.0 -7018.27 -225.8974 1489.4799 -1.5639531 1.0924953000000002 -7.2034902
58848 73250.0 -7033.5311 -214.96047000000002 1417.366 -1.4882336 1.0948708999999999 -7.2191540000000005
58848 73260.0 -7048.0342 -204.00038 1345.0993999999998 -1.4123537 1.0971285 -7.2340398
58848 73270.0 -7061.777700000001 -193.01829999999998 1272.6878000000002 -1.3363216 1.0992679 -7.248146
58848 73280.0 -7074.7600999999995 -182.01542 1200.1390000000001 -1.2601454 1.1012888 -7.2614711
58848 73290.0 -7086.9801 -170.99292000000003 1127.461 -1.1838335 1.103191 -7.2740136
58848 73300.0 -7098.4363 -159.95199 1054.6614 -1.1073939000000002 1.1049743 -7.2857722
58848 73310.0 -7109.1276 -148.89382999999998 981.74814 -1.0308351 1.1066386 -7.2967456
58848 73320.0 -7119.0527 -137.81962 908.7291 -0.95416511 1.1081836 -7.3069326000000006
58848 73330.0 -7128.2105 -126.73055000000001 835.61212 -0.8773923200000001 1.1096091 -7.3163322
58848 73340.0 -7136.600200000001 -115.62783 762.40508 -0.8005249700000001 1.1109151 -7.3249432
58848 73350.0 -7144.2208 -104.51265 689.1158800000001 -0.7235713500000001 1.1121014 -7.3327649
58848 73360.0 -7151.071400000001 -93.386206 615.75242 -0.64653974 1.1131678 -7.3397963
58848 73370.0 -7157.1512999999995 -82.249697 542.32259 -0.56943846 1.1141142 -7.3460367
58848 73380.0 -7162.459900000001 -71.10432300000001 468.83432 -0.49227581 1.1149405 -7.3514854
58848 73390.0 -7166.996700000001 -59.951286 395.29553000000004 -0.41506011000000004 1.1156468 -7.3561419
58848 73400.0 -7170.761 -48.791789 321.71413 -0.33779968000000005 1.1162327 -7.360005600000001
58848 73410.0 -7173.7525000000005 -37.627033000000004 248.09806 -0.26050284 1.1166984 -7.363076100000001
58848 73420.0 -7175.9710000000005 -26.458222000000003 174.45525 -0.18317793000000002 1.1170437 -7.365353
58848 73430.0 -7177.416 -15.28656 100.79364 -0.10583328 1.1172687000000001 -7.3668362
58848 73440.0 -7178.0876 -4.113249700000001 27.121173 -0.028477218000000002 1.1173732 -7.3675255
58848 73450.0 -7177.9856 7.0605034 -46.55422 0.048881909 1.1173572999999999 -7.3674208
58848 73460.0 -7177.110000000001 18.233496 -120.22460000000001 0.12623577 1.117221 -7.3665221
58848 73470.0 -7175.460900000001 29.404523 -193.88201999999998 0.20357602 1.1169643 -7.3648295
58848 73480.0 -7173.038500000001 40.572381 -267.51854 0.28089434 1.1165873 -7.362343200000001
58848 73490.0 -7169.8431 51.735867 -341.12624 0.35818238 1.1160898 -7.3590635
58848 73500.0 -7165.875 62.893777 -414.69716999999997 0.43543183 1.1154721 -7.3549906
58848 73510.0 -7161.134599999999 74.044909 -488.22341 0.51263434 1.1147342000000002 -7.350125200000001
58848 73520.0 -7155.6225 85.188061 -561.69703 0.5897816100000001 1.1138762 -7.3444676
58848 73530.0 -7149.3392 96.322033 -635.11012 0.66686532 1.1128981000000002 -7.3380184
58848 73540.0 -7142.285400000001 107.44561999999999 -708.4547600000001 0.74387716 1.1118001 -7.3307785
58848 73550.0 -7134.4619 118.55764 -781.7230500000001 0.8208088299999999 1.1105823000000001 -7.322748499999999
58848 73560.0 -7125.8695 129.65687 -854.9071 0.89765205 1.1092447 -7.3139294
58848 73570.0 -7116.5092 140.74213 -927.9990200000001 0.9743985199999999 1.1077877 -7.304322
58848 73580.0 -7106.3819 151.81222 -1000.9909 1.05104 1.1062112 -7.2939275
58848 73590.0 -7095.4888 162.86596 -1073.8749 1.1275682 1.1045155 -7.2827468
58848 73600.0 -7083.831 173.90214000000003 -1146.6432 1.2039748 1.1027008 -7.2707814
58848 73610.0 -7071.4097 184.91958 -1219.288 1.2802518 1.1007673 -7.2580323
58848 73620.0 -7058.2264000000005 195.91709 -1291.8013 1.3563907 1.0987151 -7.244501100000001
58848 73630.0 -7044.282400000001 206.89348 -1364.1753999999999 1.4323835 1.0965445 -7.2301891
58848 73640.0 -7029.5792 217.84758 -1436.4025 1.5082219000000001 1.0942557 -7.2150979
58848 73650.0 -7014.1185000000005 228.77821 -1508.4747 1.5838978 1.0918491 -7.199229099999999
58848 73660.0 -6997.901900000001 239.68417000000002 -1580.3845000000001 1.6594029000000001 1.0893247 -7.1825845
58848 73670.0 -6980.9310000000005 250.56431 -1652.1239 1.7347293 1.0866829 -7.1651658
58848 73680.0 -6963.2079 261.41744 -1723.6852 1.8098686000000002 1.0839241 -7.1469749
58848 73690.0 -6944.7343 272.24240000000003 -1795.0608 1.884813 1.0810484 -7.1280138
58848 73700.0 -6925.5123 283.03802 -1866.2429 1.9595542000000001 1.0780562 -7.1082845
58848 73710.0 -6905.543900000001 293.80314000000004 -1937.2239 2.0340842 1.0749479 -7.0877891
58848 73720.0 -6884.831400000001 304.53659000000005 -2007.9962 2.1083950000000002 1.0717236 -7.066529900000001
58848 73730.0 -6863.3768 315.23723 -2078.552 2.1824786 1.0683839000000002 -7.0445092
58848 73740.0 -6841.1826 325.90389000000005 -2148.8838 2.256327 1.0649291 -7.0217292
58848 73750.0 -6818.2510999999995 336.53543 -2218.984 2.3299322000000005 1.0613595 -6.9981925
58848 73760.0 -6794.5848 347.13069 -2288.8451 2.4032863000000004 1.0576755 -6.9739016000000005
58848 73770.0 -6770.1862 357.68855 -2358.4596 2.4763814 1.0538775 -6.9488592
58848 73780.0 -6745.058 368.20787 -2427.8197999999998 2.5492096 1.0499659 -6.9230678
58848 73790.0 -6719.2029 378.68749 -2496.9184 2.6217631999999997 1.0459412 -6.8965304
58848 73800.0 -6692.6237 389.12631 -2565.748 2.6940341 1.0418037 -6.8692497
58848 73810.0 -6665.323200000001 399.52320000000003 -2634.301 2.7660147000000004 1.037554 -6.841228699999999
58848 73820.0 -6637.304400000001 409.87702 -2702.5701000000004 2.8376973 1.0331925000000002 -6.8124704000000005
58848 73830.0 -6608.5703 420.18667 -2770.5479 2.909074 1.0287195999999998 -6.782978
58848 73840.0 -6579.124 430.45104 -2838.2272000000003 2.9801372 1.0241359 -6.7527546
58848 73850.0 -6548.9686 440.66902000000005 -2905.6006 3.0508792 1.0194417 -6.7218034
58848 73860.0 -6518.1075 450.83951 -2972.6607999999997 3.1212925 1.0146378 -6.6901278
58848 73870.0 -6486.543900000001 460.96141 -3039.4007 3.1913693 1.0097244 -6.657731200000001
58848 73880.0 -6454.2812 471.03364000000005 -3105.8131000000003 3.2611022 1.0047023000000002 -6.624617100000001
58848 73890.0 -6421.323 481.0551 -3171.8907000000004 3.3304837000000003 0.9995718600000001 -6.5907891
58848 73900.0 -6387.6728 491.02472 -3237.6265 3.3995063 0.99433371 -6.5562507
58848 73910.0 -6353.3341 500.94142 -3303.0134 3.4681624 0.9889884 -6.5210059000000005
58848 73920.0 -6318.3108 510.80413000000004 -3368.0443 3.5364449000000002 0.9835365100000001 -6.4850582
58848 73930.0 -6282.6065 520.61179 -3432.7122000000004 3.6043462 0.97797862 -6.448411600000001
58848 73940.0 -6246.2251 530.36335 -3497.0102 3.671859 0.97231534 -6.4110701
58848 73950.0 -6209.1705999999995 540.05775 -3560.9312999999997 3.7389761 0.9665472700000001 -6.3730377
58848 73960.0 -6171.446900000001 549.69395 -3624.4687000000004 3.8056903 0.96067503 -6.3343185
58848 73970.0 -6133.0582 559.2709100000001 -3687.6154 3.8719944 0.95469926 -6.2949166
58848 73980.0 -6094.0085 568.78759 -3750.3647 3.9378812 0.9486206100000001 -6.2548363
58848 73990.0 -6054.302 578.24298 -3812.7099 4.0033435 0.94243972 -6.2140819
58848 74000.0 -6013.943 587.6360500000001 -3874.6441 4.0683745 0.93615727 -6.1726578
58848 74010.0 -5972.9359 596.9657900000001 -3936.1608 4.132967 0.92977392 -6.130568500000001
58848 74020.0 -5931.2852 606.23119 -3997.2533 4.197114 0.92329037 -6.087818599999999
58848 74030.0 -5888.9952 615.4312600000001 -4057.915 4.2608087999999995 0.91670732 -6.044412500000001
58848 74040.0 -5846.0705 624.56501 -4118.1394 4.3240444 0.91002548 -6.000355
58848 74050.0 -5802.5158 633.63144 -4177.9199 4.3868139 0.90324557 -5.9556509
58848 74060.0 -5758.3358 642.62959 -4237.2503 4.4491107 0.89636831 -5.9103049
58848 74070.0 -5713.5352 651.55849 -4296.1239000000005 4.510928 0.88939444 -5.8643219
58848 74080.0 -5668.1189 660.4171600000001 -4354.5346 4.5722592 0.8823247300000001 -5.817707
58848 74090.0 -5622.0917 669.2046700000001 -4412.476 4.6330976 0.87515993 -5.770465100000001
58848 74100.0 -5575.4586 677.9200500000001 -4469.9418 4.693436800000001 0.86790082 -5.7226013
58848 74110.0 -5528.2246 686.56237 -4526.9259 4.7532701 0.8605481700000001 -5.6741208
58848 74120.0 -5480.3949 695.1306999999999 -4583.4222 4.8125911 0.8531027800000001 -5.6250288
58848 74130.0 -5431.9745 703.6241200000001 -4639.4245 4.8713935 0.84556545 -5.5753306
58848 74140.0 -5382.9688 712.04171 -4694.9268 4.9296709000000005 0.8379369900000001 -5.5250315
58848 74150.0 -5333.3829000000005 720.3825600000001 -4749.9231 4.987417000000001 0.83021823 -5.474137
58848 74160.0 -5283.2222 728.6457700000001 -4804.4076 5.044625600000001 0.82241 -5.4226525
58848 74170.0 -5232.492200000001 736.83046 -4858.3742 5.1012906000000005 0.81451313 -5.3705836
58848 74180.0 -5181.198200000001 744.93574 -4911.8173 5.1574058 0.80652849 -5.3179359999999996
58848 74190.0 -5129.3459 752.96074 -4964.731 5.2129652 0.7984569300000001 -5.2647151999999995
58848 74200.0 -5076.9408 760.9046 -5017.1097 5.2679628 0.79029931 -5.2109271
58848 74210.0 -5023.9886 768.76645 -5068.947700000001 5.322392700000001 0.78205653 -5.156577400000001
58848 74220.0 -4970.494900000001 776.54545 -5120.2394 5.376248899999999 0.77372946 -5.1016719
58848 74230.0 -4916.4655 784.24076 -5170.9793 5.4295258 0.76531901 -5.0462167
58848 74240.0 -4861.9063 791.8515500000001 -5221.1619 5.4822175 0.7568260800000001 -4.9902176
58848 74250.0 -4806.8231 799.37701 -5270.781900000001 5.5343184 0.74825159 -4.9336807
58848 74260.0 -4751.2219000000005 806.81631 -5319.8338 5.5858229 0.7395964500000001 -4.8766121
58848 74270.0 -4695.108700000001 814.16867 -5368.312400000001 5.6367254 0.73086161 -4.819018
58848 74280.0 -4638.4894 821.4332800000001 -5416.2124 5.687020400000001 0.72204801 -4.7609045
58848 74290.0 -4581.3703 828.60937 -5463.528700000001 5.7367026 0.7131565900000001 -4.7022779
58848 74300.0 -4523.7575 835.6961600000001 -5510.2563 5.785766400000001 0.70418832 -4.643144599999999
58848 74310.0 -4465.657099999999 842.6928800000001 -5556.39 5.8342068000000005 0.69514415 -4.5835109
58848 74320.0 -4407.075400000001 849.59879 -5601.924900000001 5.8820184 0.68602507 -4.5233832000000005
58848 74330.0 -4348.0188 856.41314 -5646.856 5.9291961 0.67683205 -4.4627680000000005
58848 74340.0 -4288.4936 863.13519 -5691.1786 5.975734800000001 0.6675661 -4.4016719
58848 74350.0 -4228.5063 869.76422 -5734.887900000001 6.0216295 0.6582282 -4.3401014
58848 74360.0 -4168.0632000000005 876.29952 -5777.9791 6.0668752 0.64881936 -4.278063100000001
58848 74370.0 -4107.1709 882.7403800000001 -5820.4475999999995 6.1114672 0.6393406 -4.2155639
58848 74380.0 -4045.8360000000002 889.0861 -5862.2888 6.1554005 0.6297929299999999 -4.1526103
58848 74390.0 -3984.0651000000003 895.33601 -5903.4983 6.1986704 0.6201774000000001 -4.0892092
58848 74400.0 -3921.8649 901.4894300000001 -5944.071599999999 6.241272299999999 0.61049502 -4.0253674
58848 74410.0 -3859.2419 907.5456899999999 -5984.0042 6.2832015000000006 0.60074686 -3.9610917
58848 74420.0 -3796.2031 913.5041500000001 -6023.292 6.3244537 0.59093395 -3.8963892
58848 74430.0 -3732.7551000000003 919.3641600000001 -6061.9306 6.3650242 0.5810573600000001 -3.8312668
58848 74440.0 -3668.9049 925.12509 -6099.915900000001 6.4049088 0.57111814 -3.7657315
58848 74450.0 -3604.6593 930.7863100000001 -6137.2439 6.4441031 0.56111738 -3.6997903

