CIC_MEM_VERS = 1.0
CREATION_DATE = 2023-03-16T10:50:05.676071
ORIGINATOR = CS Group

META_START
OBJECT_NAME = horus_eye_5
OBJECT_ID = horus_eye_5
USER_DEFINED_PROTOCOL = NONE
USER_DEFINED_CONTENT = COLOR
USER_DEFINED_SIZE = 3
USER_DEFINED_TYPE = REAL
USER_DEFINED_UNIT = [n/a]
TIME_SYSTEM = UTC
META_STOP

58848 68400.0 0.5058823529411764 0.23921568627450981 0.611764705882353
