CIC_MEM_VERS = 1.0
CREATION_DATE = 2023-03-16T10:50:06.824103
ORIGINATOR = CS Group

META_START
OBJECT_NAME = horus_eye_14
OBJECT_ID = horus_eye_14
USER_DEFINED_PROTOCOL = NONE
USER_DEFINED_CONTENT = ECLIPSE
USER_DEFINED_SIZE = 1.0
USER_DEFINED_TYPE = STRING
USER_DEFINED_UNIT = [n/a]
TIME_SYSTEM = UTC
META_STOP

58848 72890.34954352275 NIGHT
58848 74164.30529941287 DAY
