CIC_AEM_VERS = 1.0
CREATION_DATE = 2023-03-16T10:50:08.092Z
ORIGINATOR = CS Group

META_START
OBJECT_NAME = horus_eye_24
OBJECT_ID = horus_eye_24
CENTER_NAME = null
REF_FRAME_A = EME2000
REF_FRAME_B = SC_BODY_1
ATTITUDE_DIR = A2B
TIME_SYSTEM = UTC
START_TIME = 2019-12-31T19:00:00.0
STOP_TIME = 2019-12-31T20:40:53.0
ATTITUDE_TYPE = QUATERNION
QUATERNION_TYPE = LAST
META_STOP

58848 68400.0 -0.7005502745527497 -0.2901774248439442 -0.6023144555938706 -0.24948681632034858
58848 68410.0 -0.702047037303991 -0.2865372270363566 -0.6036013323169475 -0.24635707126082243
58848 68420.0 -0.7035248850162763 -0.2828893091437552 -0.6048719463936375 -0.2432206886779506
58848 68430.0 -0.704983777872406 -0.2792337694508778 -0.6061262635901735 -0.24007775307433116
58848 68440.0 -0.7064236765658753 -0.27557070644781423 -0.6073642501118706 -0.23692834912911837
58848 68450.0 -0.7078445423019335 -0.2719002188273523 -0.6085858726040354 -0.23377256169574104
58848 68460.0 -0.7092463367986289 -0.26822240548231924 -0.6097910981528664 -0.2306104757996165
58848 68470.0 -0.7106290222878403 -0.2645373655029171 -0.6109798942863397 -0.22744217663585944
58848 68480.0 -0.711992561516295 -0.2608451981740526 -0.6121522289750839 -0.22426774956698664
58848 68490.0 -0.7133369177465716 -0.2571460029726629 -0.6133080706332436 -0.22108728012061757
58848 68500.0 -0.714662054758091 -0.2534398795650346 -0.61444738811933 -0.2179008539871692
58848 68510.0 -0.7159679368480911 -0.249726927804119 -0.6155701507370598 -0.21470855701754782
58848 68520.0 -0.7172545288325897 -0.2460072477268419 -0.6166763282361828 -0.2115104752208361
58848 68530.0 -0.7185217960473316 -0.2422809395514075 -0.6177658908132961 -0.2083066947619752
58848 68540.0 -0.7197697043487233 -0.2385481036745994 -0.6188388091126483 -0.2050973019594438
58848 68550.0 -0.7209982201147525 -0.23480884066907462 -0.6198950542269291 -0.20188238328293223
58848 68560.0 -0.7222073102458939 -0.23106325128065458 -0.6209345976980489 -0.19866202535101266
58848 68570.0 -0.7233969421660016 -0.22731143642561052 -0.6219574115179053 -0.19543631492880556
58848 68580.0 -0.7245670838231858 -0.22355349718794434 -0.6229634681291378 -0.19220533892564176
58848 68590.0 -0.7257177036906772 -0.21978953481666558 -0.6239527404258707 -0.18896918439272126
58848 68600.0 -0.7268487707676761 -0.21601965072306298 -0.6249252017544421 -0.1857279385207674
58848 68610.0 -0.7279602545801875 -0.2122439464779726 -0.6258808259141236 -0.18248168863767802
58848 68620.0 -0.7290521251818424 -0.20846252380904096 -0.6268195871578256 -0.17923052220617247
58848 68630.0 -0.7301243531547048 -0.20467548459798438 -0.62774146019279 -0.1759745268214352
58848 68640.0 -0.7311769096100637 -0.2008829308778439 -0.6286464201812733 -0.17271379020875557
58848 68650.0 -0.7322097661892119 -0.19708496483023652 -0.6295344427412151 -0.1694484002211646
58848 68660.0 -0.7332228950642099 -0.19328168878260152 -0.6304055039468942 -0.16617844483706753
58848 68670.0 -0.734216268938636 -0.1894732052054443 -0.6312595803295751 -0.16290401215787378
58848 68680.0 -0.735189861048321 -0.18565961670957487 -0.6320966488781385 -0.1596251904056233
58848 68690.0 -0.7361436451620702 -0.1818410260433437 -0.6329166870397018 -0.15634206792060923
58848 68700.0 -0.7370775955823693 -0.17801753608987295 -0.6337196727202273 -0.15305473315899826
58848 68710.0 -0.7379916871460773 -0.17418924986428497 -0.6345055842851169 -0.14976327469044703
58848 68720.0 -0.7388858952251043 -0.17035627051092672 -0.6352744005597959 -0.14646778119571616
58848 68730.0 -0.7397601957270752 -0.16651870130059035 -0.6360261008302815 -0.1431683414642804
58848 68740.0 -0.7406145650959786 -0.1626766456277313 -0.636760664843743 -0.13986504439193703
58848 68750.0 -0.7414489803128012 -0.15883020700768244 -0.6374780728090467 -0.13655797897841043
58848 68760.0 -0.7422634188961488 -0.15497948907386497 -0.6381783053972886 -0.1332472343249542
58848 68770.0 -0.7430578589028513 -0.1511245955749964 -0.638861343742316 -0.1299328996319506
58848 68780.0 -0.7438322789285541 -0.1472656303722952 -0.6395271694412354 -0.12661506419650723
58848 68790.0 -0.744586658108295 -0.1434026974366824 -0.6401757645549082 -0.12329381741005117
58848 68800.0 -0.7453209761170663 -0.13953590084598066 -0.6408071116084342 -0.11996924875592042
58848 68810.0 -0.7460352131703618 -0.13566534478210968 -0.6414211935916228 -0.11664144780695303
58848 68820.0 -0.7467293500247107 -0.13179113352827967 -0.6420179939594504 -0.11331050422307387
58848 68830.0 -0.747403367978196 -0.12791337146618142 -0.642597496632507 -0.1099765077488788
58848 68840.0 -0.7480572488709573 -0.12403216307317418 -0.6431596859974292 -0.1066395482112168
58848 68850.0 -0.7486909750856818 -0.1201476129194704 -0.6437045469073203 -0.1032997155167697
58848 68860.0 -0.7493045295480772 -0.1162598256653189 -0.6442320646821595 -0.09995709964963004
58848 68870.0 -0.7498978957273336 -0.1123689060581844 -0.644742225109196 -0.09661179066887643
58848 68880.0 -0.7504710576365665 -0.1084749589299259 -0.6452350144433339 -0.09326387870614729
58848 68890.0 -0.75102399983325 -0.10457808919397175 -0.6457104194075 -0.08991345396321226
58848 68900.0 -0.7515567074196313 -0.10067840184249334 -0.6461684271930036 -0.08656060670954217
58848 68910.0 -0.7520691660431326 -0.09677600194357629 -0.646609025459881 -0.0832054272798768
58848 68920.0 -0.7525613618967374 -0.09287099463838944 -0.6470322023372277 -0.07984800607179104
58848 68930.0 -0.7530332817193633 -0.08896348513835221 -0.6474379464235183 -0.07648843354325931
58848 68940.0 -0.7534849127962188 -0.08505357872229989 -0.6478262467869135 -0.0731268002102183
58848 68950.0 -0.7539162429591454 -0.08114138073364723 -0.6481970929655554 -0.06976319664412857
58848 68960.0 -0.7543272605869464 -0.07722699657754992 -0.6485504749678485 -0.06639771346953381
58848 68970.0 -0.7547179546056993 -0.07331053171806512 -0.6488863832727294 -0.06303044136161962
58848 68980.0 -0.7550883144890544 -0.06939209167530963 -0.6492048088299235 -0.05966147104377017
58848 68990.0 -0.7554383302585187 -0.06547178202261701 -0.6495057430601879 -0.056290893285124016
58848 69000.0 -0.755767992483724 -0.061549708383693176 -0.6497891778555438 -0.05291879889812852
58848 69010.0 -0.7560772922826815 -0.057625976429770555 -0.6500551055794939 -0.04954527873609305
58848 69020.0 -0.7563662213220214 -0.05370069187676109 -0.6503035190672288 -0.04617042369074128
58848 69030.0 -0.7566347718172167 -0.0497739604824079 -0.6505344116258196 -0.04279432468976213
58848 69040.0 -0.7568829365327935 -0.045845888043436006 -0.6507477770343988 -0.03941707269436019
58848 69050.0 -0.7571107087825255 -0.04191658039270151 -0.6509436095443272 -0.036038758696804604
58848 69060.0 -0.7573180824296146 -0.03798614339634074 -0.6511219038793494 -0.032659473717977866
58848 69070.0 -0.7575050518868559 -0.03405468295091752 -0.6512826552357357 -0.029279308804923326
58848 69080.0 -0.7576716121167886 -0.030122304980570138 -0.6514258592824109 -0.0258983550283921
58848 69090.0 -0.7578177586318311 -0.02618911543415753 -0.6515515121610727 -0.0225167034803894
58848 69100.0 -0.7579434874944025 -0.022255220282404616 -0.6516596104862935 -0.019134445271720313
58848 69110.0 -0.7580487953170285 -0.018320725515047258 -0.6517501513456132 -0.015751671529534973
58848 69120.0 -0.7581336792624325 -0.014385737137976598 -0.6518231322996173 -0.012368473394873385
58848 69130.0 -0.7581981370436124 -0.010450361170382914 -0.6518785513820021 -0.008984942020209837
58848 69140.0 -0.7582421669239018 -0.006514703641899233 -0.6519164070996283 -0.005601168566996987
58848 69150.0 -0.758265767717017 -0.002578870589744595 -0.6519366984325605 -0.0022172442032097578
58848 69160.0 -0.7582689387870892 0.0013570319441327994 -0.6519394248340961 0.0011667398991109324
58848 69170.0 -0.7582516800486812 0.0052928979159129795 -0.651924586230778 0.004550692566314857
58848 69180.0 -0.7582139919667898 0.009228621282760795 -0.6518921830223983 0.007934522625598524
58848 69190.0 -0.7581558755568336 0.013164096005683348 -0.6518422160819868 0.011318138907461892
58848 69200.0 -0.7580773323846254 0.017099216052386883 -0.6517746867557874 0.014701450248164674
58848 69210.0 -0.7579783645663296 0.021033875400133562 -0.6516895968632223 0.018084365492182508
58848 69220.0 -0.757858974768406 0.024967968038598038 -0.6515869486968424 0.021466793494662947
58848 69230.0 -0.7577191662075375 0.028901387972723624 -0.6514667450222661 0.02484864312388116
58848 69240.0 -0.7575589426505436 0.03283402922557809 -0.6513289890781039 0.028229823263695216
58848 69250.0 -0.7573783084142787 0.036765785841209014 -0.6511736845758723 0.031610242816001055
58848 69260.0 -0.7571772683655156 0.04069655188749846 -0.6510008356998932 0.034989810703186894
58848 69270.0 -0.7569558279208151 0.04462622145901707 -0.6508104471071808 0.03836843587058708
58848 69280.0 -0.7567139930463794 0.04855468867987756 -0.6506025239273174 0.041746027288935436
58848 69290.0 -0.7564517702578919 0.05248184770658712 -0.6503770717623132 0.04512249395681769
58848 69300.0 -0.7561691666203408 0.056407592730899264 -0.6501340966864573 0.048497744903123426
58848 69310.0 -0.7558661897478299 0.060331817982664494 -0.6498736052461528 0.05187168918949702
58848 69320.0 -0.7555428478033726 0.06425441773268017 -0.6495956044597411 0.05524423591278782
58848 69330.0 -0.7551991494986717 0.06817528629553897 -0.6493001018173126 0.05861529420749925
58848 69340.0 -0.7548351040938862 0.07209431803247643 -0.6489871052805046 0.06198477324823704
58848 69350.0 -0.75445072139738 0.07601140735421716 -0.6486566232822873 0.06535258225215625
58848 69360.0 -0.7540460117654588 0.07992644872381961 -0.6483086647267364 0.06871863048140725
58848 69370.0 -0.7536209861020906 0.08383933665951968 -0.6479432389887929 0.07208282724558046
58848 69380.0 -0.7531756558586122 0.08774996573757249 -0.6475603559140107 0.07544508190414968
58848 69390.0 -0.7527100330334203 0.09165823059509283 -0.6471600258182918 0.0788053038689143
58848 69400.0 -0.7522241301716484 0.09556402593289418 -0.6467422594876078 0.08216340260644002
58848 69410.0 -0.751717960364829 0.09946724651832525 -0.6463070681777091 0.08551928764049789
58848 69420.0 -0.7511915372505406 0.10336778718810571 -0.6458544636138224 0.0888728685545022
58848 69430.0 -0.7506448750120405 0.10726554285115937 -0.6453844579903345 0.0922240549939464
58848 69440.0 -0.7500779883778824 0.11116040849144548 -0.644897063970463 0.09557275666883747
58848 69450.0 -0.74949089262152 0.11505227917078839 -0.6443922946859162 0.09891888335612876
58848 69460.0 -0.7488836035608947 0.11894105003170494 -0.6438701637365392 0.10226234490215072
58848 69470.0 -0.7482561375580103 0.12282661630022909 -0.6433306851899462 0.10560305122503978
58848 69480.0 -0.747608511518492 0.12670887328873542 -0.6427738735811434 0.10894091231716559
58848 69490.0 -0.7469407428911299 0.13058771639875932 -0.642199743912136 0.11227583824755599
58848 69500.0 -0.7462528496674107 0.13446304112381519 -0.6416083116515237 0.11560773916431992
58848 69510.0 -0.7455448503810312 0.13833474305221244 -0.6409995927340859 0.11893652529706836
58848 69520.0 -0.7448167641074002 0.14220271786986816 -0.6403736035603504 0.12226210695933298
58848 69530.0 -0.7440686104631236 0.14606686136311783 -0.6397303609961522 0.12558439455098258
58848 69540.0 -0.7433004096054767 0.14992706942152345 -0.6390698823721797 0.128903298560637
58848 69550.0 -0.7425121822318608 0.15378323804067784 -0.6383921854835062 0.13221872956807895
58848 69560.0 -0.7417039495792451 0.1576352633250074 -0.6376972885891125 0.13553059824666314
58848 69570.0 -0.7408757334235954 0.16148304149057108 -0.6369852104113932 0.13883881536572293
58848 69580.0 -0.7400275560792864 0.16532646886785698 -0.6362559701356533 0.14214329179297505
58848 69590.0 -0.7391594403985016 0.16916544190457428 -0.6355095874095907 0.1454439384969195
58848 69600.0 -0.7382714097706163 0.1729998571684455 -0.6347460823427677 0.14874066654924073
58848 69610.0 -0.737363488121569 0.17682961134999 -0.633965475506068 0.15203338712720071
58848 69620.0 -0.7364356999132152 0.1806546012653113 -0.6331677879311429 0.1553220115160351
58848 69630.0 -0.7354880701426695 0.18447472385887329 -0.6323530411098456 0.15860645111134047
58848 69640.0 -0.7345206243416311 0.18828987620628004 -0.6315212569936506 0.1618866174214644
58848 69650.0 -0.7335333885756972 0.19209995551704623 -0.6306724579930637 0.16516242206988693
58848 69660.0 -0.7325263894436592 0.19590485913736888 -0.6298066669770168 0.16843377679760424
58848 69670.0 -0.7314996540767876 0.199704484552891 -0.6289239072722532 0.1717005934655043
58848 69680.0 -0.7304532101380996 0.2034987293914659 -0.628024202662698 0.1749627840567436
58848 69690.0 -0.7293870858216149 0.20728749142591313 -0.6271075773888175 0.1782202606791169
58848 69700.0 -0.7283013098515954 0.21107066857677406 -0.626174056146967 0.18147293556742633
58848 69710.0 -0.7271959114817712 0.2148481589150621 -0.6252236640887239 0.18472072108584553
58848 69720.0 -0.7260709204945536 0.21861986066500824 -0.6242564268202113 0.18796352973028094
58848 69730.0 -0.7249263672002307 0.2223856722068042 -0.6232723704014078 0.19120127413072965
58848 69740.0 -0.7237622824361527 0.22614549207933932 -0.6222715213454448 0.19443386705363272
58848 69750.0 -0.7225786975659 0.22989921898293492 -0.6212539066178929 0.1976612214042262
58848 69760.0 -0.7213756444784383 0.2336467517820732 -0.6202195536360349 0.2008832502288872
58848 69770.0 -0.7201531555872595 0.23738798950812232 -0.6191684902681275 0.204099866717477
58848 69780.0 -0.7189112638295084 0.2411228313620565 -0.61810074483265 0.20731098420567973
58848 69790.0 -0.7176500026650958 0.2448511767171722 -0.6170163460975412 0.2105165161773375
58848 69800.0 -0.7163694060757958 0.2485729251217989 -0.6159153232794259 0.2137163762667811
58848 69810.0 -0.7150695085643314 0.25228797630200595 -0.6147977060428252 0.2169104782611573
58848 69820.0 -0.7137503451534443 0.25599623016430356 -0.6136635244993591 0.2200987361027514
58848 69830.0 -0.7124119513849514 0.2596975867983404 -0.6125128092069347 0.22328106389130578
58848 69840.0 -0.7110543633187875 0.2633919464795948 -0.6113455911689226 0.22645737588633466
58848 69850.0 -0.7096776175320331 0.26707920967206183 -0.6101619018333222 0.2296275865094338
58848 69860.0 -0.7082817511179298 0.2707592770309354 -0.6089617730919135 0.2327916103465864
58848 69870.0 -0.7068668016848799 0.2744320494052844 -0.6077452372793991 0.2359493621504645
58848 69880.0 -0.7054328073554342 0.2780974278407239 -0.6065123271725317 0.23910075684272517
58848 69890.0 -0.7039798067652638 0.28175531358208233 -0.6052630759892319 0.24224570951630373
58848 69900.0 -0.7025078390621202 0.2854056080760609 -0.6039975173876928 0.24538413543770052
58848 69910.0 -0.7010169439047794 0.2890482129738898 -0.6027156854654736 0.2485159500492644
58848 69920.0 -0.6995071614619748 0.29268303013397723 -0.6014176147585801 0.25164106897147026
58848 69930.0 -0.6979785324113134 0.2963099616245548 -0.600103340240535 0.2547594080051937
58848 69940.0 -0.696431097938181 0.29992890972631436 -0.5987728973214356 0.2578708831339778
58848 69950.0 -0.6948648997346321 0.30353977693504286 -0.597426321846999 0.2609754105262989
58848 69960.0 -0.6932799799982668 0.3071424659642469 -0.596063650097597 0.2640729065378227
58848 69970.0 -0.6916763814310936 0.31073687974777675 -0.5946849187872784 0.26716328771366055
58848 69980.0 -0.6900541472383789 0.3143229214424388 -0.5932901650627803 0.2702464707906157
58848 69990.0 -0.6884133211274832 0.31790049443060725 -0.5918794265025258 0.27332237269942833
58848 70000.0 -0.6867539473066836 0.32146950232282495 -0.5904527411156137 0.2763909105670121
58848 70010.0 -0.6850760704839819 0.3250298489604026 -0.5890101473407925 0.2794520017186888
58848 70020.0 -0.6833797358659014 0.32858143841800724 -0.5875516840454259 0.2825055636804135
58848 70030.0 -0.6816649891562674 0.33212417500624936 -0.5860773905244449 0.2855515141809993
58848 70040.0 -0.6799318765549771 0.3356579632742582 -0.5845873064992898 0.2885897711543316
58848 70050.0 -0.678180444756754 0.3391827080122558 -0.5830814721168395 0.29162025274158077
58848 70060.0 -0.6764107409498904 0.3426983142541209 -0.5815599279483301 0.2946428772934063
58848 70070.0 -0.6746228128149753 0.3462046872799481 -0.5800227149882612 0.29765756337215854
58848 70080.0 -0.6728167085236109 0.3497017326185992 -0.5784698746532924 0.3006642297540702
58848 70090.0 -0.6709924767371132 0.35318935605025037 -0.5769014487811266 0.3036627954314478
58848 70100.0 -0.6691501666052025 0.35666746360892737 -0.5753174796293834 0.30665317961485133
58848 70110.0 -0.6672898277646779 0.3601359615850413 -0.5737180098744595 0.30963530173527326
58848 70120.0 -0.6654115103380811 0.3635947565279093 -0.5721030826103808 0.31260908144630756
58848 70130.0 -0.6635152649323446 0.3670437552482762 -0.5704727413476387 0.31557443862631573
58848 70140.0 -0.6616011426374294 0.37048286482082216 -0.5688270300120205 0.3185312933805846
58848 70150.0 -0.6596691950249484 0.37391199258666813 -0.5671659929434241 0.3214795660434795
58848 70160.0 -0.6577194741467756 0.37733104615587215 -0.5654896748946641 0.3244191771805904
58848 70170.0 -0.6557520325336457 0.3807399334099174 -0.5637981210302655 0.3273500475908719
58848 70180.0 -0.6537669231937371 0.3841385625041961 -0.562091376925248 0.3302720983087776
58848 70190.0 -0.6517641996112448 0.38752684187048175 -0.5603694885638967 0.33318525060638704
58848 70200.0 -0.6497439157449386 0.3909046802193982 -0.5586325023385237 0.33608942599552766
58848 70210.0 -0.6477061260267098 0.3942719865428785 -0.5568804650482189 0.3389845462298886
58848 70220.0 -0.6456508853601046 0.3976286701166163 -0.5551134238975879 0.34187053330712946
58848 70230.0 -0.6435782491188448 0.40097464050251114 -0.5533314264954805 0.3447473094709816
58848 70240.0 -0.6414882731453356 0.40430980755110446 -0.551534520853709 0.3476147972133433
58848 70250.0 -0.6393810137491617 0.407634081404009 -0.5497227553857532 0.35047291927636787
58848 70260.0 -0.6372565277055692 0.4109473724963294 -0.5478961789054569 0.35332159865454543
58848 70270.0 -0.6351148722539373 0.4142495915590755 -0.5460548406257126 0.35616075859677704
58848 70280.0 -0.6329561050962345 0.4175406496215674 -0.5441987901571352 0.3589903226084436
58848 70290.0 -0.6307802843954653 0.42082045801383255 -0.5423280775067257 0.3618102144534659
58848 70300.0 -0.6285874687741025 0.4240889283689949 -0.540442753076524 0.36462035815635896
58848 70310.0 -0.6263777173125078 0.427345972625656 -0.5385428676622503 0.367420678004279
58848 70320.0 -0.6241510895473401 0.43059150303026666 -0.5366284724519373 0.37021109854906353
58848 70330.0 -0.6219076454699513 0.4338254321394924 -0.5346996190245507 0.3729915446092639
58848 70340.0 -0.61964744552477 0.4370476728225686 -0.5327563593485992 0.3757619412721709
58848 70350.0 -0.6173705506076735 0.4402581382636485 -0.530798745780735 0.37852221389583307
58848 70360.0 -0.6150770220643461 0.4434567419641421 -0.5288268310643427 0.3812722881110681
58848 70370.0 -0.6127669216886271 0.44664339774504636 -0.5268406683281183 0.384012089823466
58848 70380.0 -0.6104403117208455 0.449818019749268 -0.524840311084638 0.38674154521538606
58848 70390.0 -0.6080972548461431 0.45298052244393555 -0.5228258132289163 0.3894605807479448
58848 70400.0 -0.605737814192786 0.4561308206227043 -0.5207972290369536 0.3921691231629983
58848 70410.0 -0.6033620533304632 0.45926882940805286 -0.5187546131642745 0.3948670994851155
58848 70420.0 -0.6009700362685743 0.4623944642535683 -0.5166980206444547 0.39755443702354376
58848 70430.0 -0.5985618274545044 0.4655076409462255 -0.5146275068876384 0.40023106337416864
58848 70440.0 -0.5961374917718882 0.46860827560865564 -0.5125431276790456 0.40289690642146364
58848 70450.0 -0.593697094538862 0.4716962847014055 -0.5104449391774689 0.40555189434043365
58848 70460.0 -0.591240701506303 0.47477158502518935 -0.5083329979137603 0.40819595559854954
58848 70470.0 -0.5887683788560588 0.47783409372312935 -0.5062073607893085 0.4108290189576766
58848 70480.0 -0.5862801931991636 0.48088372828298864 -0.5040680850745053 0.4134510134759924
58848 70490.0 -0.5837762115740436 0.48392040653939494 -0.5019152284072034 0.4160618685098997
58848 70500.0 -0.5812565014447115 0.4869440466760528 -0.4997488487911623 0.4186615137159279
58848 70510.0 -0.5787211306989476 0.4899545672279497 -0.49756900459448655 0.42124987905263067
58848 70520.0 -0.5761701676464719 0.4929518870835494 -0.4953757545480527 0.4238268947824707
58848 70530.0 -0.5736036810171028 0.49593592548697835 -0.49316915774392733 0.4263924914737003
58848 70540.0 -0.571021739958906 0.498906602040201 -0.49094927363377394 0.42894660000223106
58848 70550.0 -0.5684244140363311 0.5018638367051859 -0.4887161620272524 0.4314891515534968
58848 70560.0 -0.5658117732283373 0.5048075498060627 -0.4864698830904069 0.4340200776243075
58848 70570.0 -0.5631838879265081 0.5077376620312681 -0.484210497344045 0.43653931002469487
58848 70580.0 -0.5605408289331547 0.5106540944356831 -0.4819380656621069 0.4390467808797496
58848 70590.0 -0.5578826674594085 0.5135567684427602 -0.47965264927002554 0.4415424226314501
58848 70600.0 -0.5552094751233027 0.5164456058466397 -0.47735430974307674 0.4440261680404825
58848 70610.0 -0.5525213239478417 0.5193205288142575 -0.47504310900472074 0.44649795018805305
58848 70620.0 -0.549818286359062 0.5221814598874421 -0.4727191093249334 0.4489577024776898
58848 70630.0 0.5471004351840801 -0.5250283219850012 0.4703823733185283 -0.4514053586370379
58848 70640.0 0.5443678436491302 -0.5278610384047983 0.4680329639434702 -0.45384085271964497
58848 70650.0 0.5416205853775916 -0.5306795328258203 0.46567094449917845 -0.45626411910673753
58848 70660.0 0.5388587343880051 -0.5334837293102322 0.46329637862482176 -0.45867509250898936
58848 70670.0 0.5360823650920786 -0.5362735523054247 0.46090933029760334 -0.4610737079682802
58848 70680.0 0.5332915522926822 -0.5390489266460486 0.4585098638310374 -0.4634599008594461
58848 70690.0 0.5304863711818332 -0.5418097775560407 0.4560980438732165 -0.4658336068920207
58848 70700.0 0.5276668973386692 -0.5445560306506377 0.4536739354050689 -0.46819476211196714
58848 70710.0 0.5248332067274135 -0.547287611938381 0.45123760373860916 -0.47054330290340135
58848 70720.0 0.5219853756953269 -0.5500044478231102 0.4487891145151772 -0.4728791659903058
58848 70730.0 0.5191234809706511 -0.5527064651059458 0.44632853370367087 -0.4752022884382348
58848 70740.0 0.5162475996605419 -0.5553935909872608 0.4438559275987673 -0.4775126076560094
58848 70750.0 0.5133578092489914 -0.5580657530686435 0.44137136281913786 -0.4798100613974045
58848 70760.0 0.51045418759474 -0.5607228793548465 0.4388749063056529 -0.4820945877628254
58848 70770.0 0.5075368129291796 -0.563364898255728 0.4363666253195778 -0.48436612520097583
58848 70780.0 0.5046057638542448 -0.5659917385881792 0.43384658744076116 -0.4866246125105162
58848 70790.0 0.501661119340296 -0.5686033295780434 0.43131486056581436 -0.4888699888417126
58848 70800.0 0.4987029587239911 -0.5711996008620219 0.4287715129062814 -0.4911021936980761
58848 70810.0 0.4957313617061483 -0.57378048248957 0.42621661298680164 -0.49332116693799294
58848 70820.0 0.49274640834959854 -0.5763459049247825 0.4236502296432633 -0.4955268487763447
58848 70830.0 0.48974817907702894 -0.5788957990482659 0.42107243202094946 -0.49771917978611896
58848 70840.0 0.48673675466881505 -0.5814300961590014 0.4184832895726743 -0.49989810090001086
58848 70850.0 0.4837122162608453 -0.5839487279761958 0.4158828720569119 -0.5020635534120141
58848 70860.0 0.48067464534233423 -0.5864516266411212 0.41327124953591743 -0.5042154789790031
58848 70870.0 0.477624123753628 -0.588938724718943 0.4106484923738395 -0.5063538196223041
58848 70880.0 0.474560733683998 -0.5914099552005373 0.40801467123482293 -0.5084785177292581
58848 70890.0 0.4714845576694274 -0.5938652515042956 0.40536985708110645 -0.5105895160547731
58848 70900.0 0.46839567859038744 -0.5963045474779196 0.4027141211711107 -0.5126867577228654
58848 70910.0 0.46529417966960385 -0.5987277774002024 0.4000475350575168 -0.5147701862281935
58848 70920.0 0.46218014446981504 -0.6011348759828004 0.39737017058534035 -0.5168397454375792
58848 70930.0 0.45905365689152056 -0.6035257783719912 0.3946820998899949 -0.5188953795915205
58848 70940.0 0.45591480117072053 -0.6059004201504222 0.39198339539534854 -0.5209370333056943
58848 70950.0 0.4527636618766463 -0.608258737338845 0.389274129811772 -0.5229646515724479
58848 70960.0 0.4496003239094815 -0.6106006663978389 0.3865543761341809 -0.5249781797622814
58848 70970.0 0.44642487249807516 -0.6129261442295254 0.383824207640068 -0.5269775636253199
58848 70980.0 0.443237393197645 -0.6152351081792652 0.38108369788752955 -0.5289627492927741
58848 70990.0 0.4400379718874724 -0.6175274960373471 0.37833292071328267 -0.5309336832783931
58848 71000.0 0.43682669476858876 -0.6198032460406657 0.37557195023067713 -0.5328903124799041
58848 71010.0 0.4336036483614532 -0.6220622968743832 0.37280086082769753 -0.5348325841804441
58848 71020.0 0.4303689195036208 -0.6243045876735825 0.3700197271649593 -0.5367604460499797
58848 71030.0 0.4271225953474034 -0.6265300580249077 0.3672286241736976 -0.5386738461467173
58848 71040.0 0.42386476335752143 -0.6287386479681905 0.3644276270537481 -0.5405727329185023
58848 71050.0 0.42059551130874745 -0.6309302979980667 0.361616811271521 -0.5424570552042081
58848 71060.0 0.4173149272835412 -0.6331049490655783 0.3587962525579675 -0.5443267622351149
58848 71070.0 0.41402309966967615 -0.6352625425797662 0.3559660269065398 -0.5461818036362771
58848 71080.0 0.41072011715785894 -0.6374030204092468 0.35312621057114346 -0.5480221294278805
58848 71090.0 0.4074060687393385 -0.6395263248837793 0.3502768800640827 -0.5498476900265894
58848 71100.0 0.40408104370350945 -0.6416323987958201 0.34741811215399965 -0.5516584362468819
58848 71110.0 0.40074513163550607 -0.6437211854020627 0.34454998386380487 -0.5534543193023757
58848 71120.0 0.3973984224137887 -0.6457926284249673 0.3416725724686031 -0.5552352908071417
58848 71130.0 0.3940410062077218 -0.647846672054277 0.3387859554936112 -0.5570013027770088
58848 71140.0 0.3906729734751451 -0.6498832609485217 0.33589021071206876 -0.5587523076308555
58848 71150.0 0.38729441495993616 -0.6519023402365086 0.3329854161431433 -0.5604882581918927
58848 71160.0 0.3839054216895653 -0.6539038555188009 0.3300716500498277 -0.5622091076889347
58848 71170.0 0.38050608497264343 -0.6558877528691835 0.3271489909368323 -0.5639148097576588
58848 71180.0 0.3770964963964618 -0.6578539788361162 0.324217517548469 -0.5656053184418551
58848 71190.0 0.3736767478245241 -0.6598024804441729 0.3212773088665304 -0.5672805881946642
58848 71200.0 0.370246931394072 -0.6617332051954692 0.3183284441081608 -0.5689405738798049
58848 71210.0 0.36680713951360233 -0.6636461010710788 0.3153710027237234 -0.5705852307727894
58848 71220.0 0.3633574648603774 -0.6655411165324314 0.3124050643946582 -0.5722145145621296
58848 71230.0 0.3598980003779279 -0.6674182005227044 0.30943070903133585 -0.5738283813505296
58848 71240.0 0.3564288392735491 -0.6692773024681969 0.30644801677090483 -0.5754267876560696
58848 71250.0 0.3529500750157894 -0.6711183722796931 0.3034570679751319 -0.5770096904133762
58848 71260.0 0.3494618013319319 -0.6729413603538107 0.30045794322823705 -0.5785770469747842
58848 71270.0 0.34596411220546924 -0.6747462175743391 0.2974507233347227 -0.580128815111484
58848 71280.0 0.34245710187357165 -0.6765328953135612 0.29443548931719626 -0.5816649530146606
58848 71290.0 0.3389408648245476 -0.6783013454335645 0.291412322414187 -0.5831854192966196
58848 71300.0 0.33541549579529817 -0.6800515202875369 0.2883813040779577 -0.5846901729919023
58848 71310.0 0.3318810897687647 -0.681783372721052 0.2853425159723099 -0.5861791735583892
58848 71320.0 0.3283377419713695 -0.6834968560733387 0.28229603997038355 -0.5876523808783929
58848 71330.0 0.3247855478704504 -0.6851919241785379 0.27924195815245156 -0.5891097552597382
58848 71340.0 0.32122460317168827 -0.6868685313669476 0.27618035280370756 -0.5905512574368322
58848 71350.0 0.3176550038165289 -0.6885266324662519 0.2731113064120496 -0.5919768485717222
58848 71360.0 0.31407684597959756 -0.6901661828027391 0.27003490166585753 -0.5933864902551412
58848 71370.0 0.31049022606610854 -0.6917871382025057 0.2669512214517652 -0.5947801445075438
58848 71380.0 0.30689524070926677 -0.6933894549926448 0.2638603488524268 -0.5961577737801292
58848 71390.0 0.3032919867676651 -0.6949730900024248 0.26076236714427914 -0.5975193409558525
58848 71400.0 0.2996805613226742 -0.6965380005644509 0.25765735979529725 -0.598864809350425
58848 71410.0 0.29606106167582696 -0.6980841445158156 0.25454541046274615 -0.6001941427133026
58848 71420.0 0.29243358534619734 -0.6996114801992346 0.2514266029909263 -0.6015073052286625
58848 71430.0 0.28879823006777255 -0.7011199664641692 0.24830102140891538 -0.6028042615163678
58848 71440.0 0.28515509378681947 -0.7026095626679344 0.2451687499283033 -0.6040849766329214
58848 71450.0 0.2815042746592466 -0.7040802286767945 0.24202987294092418 -0.6053494160724071
58848 71460.0 0.27784587104795894 -0.7055319248670445 0.2388844750165823 -0.606597545767419
58848 71470.0 0.27417998152020795 -0.7069646121260769 0.23573264090077342 -0.6078293320899799
58848 71480.0 0.27050670484493555 -0.7083782518534365 0.23257445551240175 -0.6090447418524472
58848 71490.0 0.266826139990114 -0.7097728059618598 0.22941000394149175 -0.6102437423084065
58848 71500.0 0.26313838612007817 -0.7111482368783013 0.22623937144689618 -0.6114263011535548
58848 71510.0 0.2594435425928541 -0.7125045075449459 0.22306264345399762 -0.6125923865265702
58848 71520.0 0.2557417089574831 -0.7138415814202069 0.21987990555240866 -0.6137419670099707
58848 71530.0 0.2520329849513387 -0.7151594224797113 0.21669124349366517 -0.61487501163096
58848 71540.0 0.2483174704974391 -0.7164579952172696 0.21349674318891468 -0.6159914898622633
58848 71550.0 0.24459526570175527 -0.7177372646458338 0.2102964907066036 -0.6170913716229481
58848 71560.0 0.2408664708505149 -0.7189971962984376 0.20709057227015742 -0.6181746272792363
58848 71570.0 0.23713118640749925 -0.7202377562291271 0.20387907425565796 -0.6192412276453014
58848 71580.0 0.23338951301133637 -0.7214589110138755 0.20066208318951534 -0.6202911439840554
58848 71590.0 0.22964155147278947 -0.7226606277514818 0.19743968574613716 -0.6213243480079231
58848 71600.0 0.22588740277204233 -0.7238428740644595 0.19421196874559427 -0.6223408118796039
58848 71610.0 0.2221271680559775 -0.7250056180999065 0.19097901915128043 -0.6233405082128218
58848 71620.0 0.21836094863545016 -0.7261488285303653 0.18774092406756895 -0.6243234100730642
58848 71630.0 0.21458884598256003 -0.7272724745546671 0.1844977707374668 -0.6252894909783062
58848 71640.0 0.2108109617279173 -0.7283765258987596 0.1812496465402641 -0.6262387248997251
58848 71650.0 0.20702739765790415 -0.7294609528165246 0.17799663898917947 -0.6271710862624008
58848 71660.0 0.20323825571193185 -0.7305257260905789 0.17473883572900198 -0.6280865499460062
58848 71670.0 0.19944363797969436 -0.731570817033061 0.17147632453372957 -0.6289850912854829
58848 71680.0 0.19564364669841888 -0.7325961974864053 0.1682091933042056 -0.6298666860717056
58848 71690.0 0.1918383842501106 -0.7336018398240989 0.1649375300657494 -0.6307313105521353
58848 71700.0 0.18802795315879328 -0.7345877169514275 0.16166142296578434 -0.6315789414314587
58848 71710.0 0.18421245608774803 -0.7355538023062047 0.15838096027146334 -0.6324095558722158
58848 71720.0 0.18039199583674778 -0.736500069859488 0.15509623036729148 -0.6332231314954154
58848 71730.0 0.1765666753392866 -0.7374264941162791 0.15180732175274358 -0.634019646381138
58848 71740.0 0.17273659765980653 -0.7383330501162128 0.14851432303988024 -0.6347990790691258
58848 71750.0 0.16890186599092047 -0.7392197134342272 0.1452173229509598 -0.6355614085593624
58848 71760.0 0.16506258365063328 -0.7400864601812235 0.1419164103160492 -0.6363066143126369
58848 71770.0 0.16121885407955694 -0.7409332670047084 0.1386116740706299 -0.6370346762510983
58848 71780.0 0.1573707808381233 -0.7417601110894243 0.13530320325320122 -0.637745574758796
58848 71790.0 0.15351846760379448 -0.7425669701579639 0.13199108700288187 -0.6384392906822087
58848 71800.0 0.14966201816826988 -0.7433538224713696 0.1286754145570089 -0.6391158053307601
58848 71810.0 0.14580153643468935 -0.7441206468297192 0.12535627524873283 -0.6397751004773224
58848 71820.0 0.14193712641483316 -0.7448674225726987 0.12203375850461022 -0.6404171583587082
58848 71830.0 0.13806889222632027 -0.7455941295801574 0.11870795384219508 -0.6410419616761476
58848 71840.0 0.1341969380898034 -0.7463007482726501 0.11537895086762706 -0.6416494935957557
58848 71850.0 0.130321368326161 -0.746987259611965 0.11204683927321704 -0.6422397377489857
58848 71860.0 0.12644228735368537 -0.7476536451016365 0.10871170883502988 -0.6428126782330695
58848 71870.0 0.12255979968527042 -0.7482998867874443 0.10537364941046652 -0.6433682996114467
58848 71880.0 0.11867400992559624 -0.7489259672578963 0.10203275093584299 -0.6439065869141799
58848 71890.0 0.11478502276831005 -0.7495318696446966 0.09868910342396695 -0.6444275256383588
58848 71900.0 0.11089294299320505 -0.7501175776232029 0.09534279696171208 -0.6449311017484906
58848 71910.0 0.10699787546339815 -0.7506830754128636 0.09199392170759159 -0.6454173016768776
58848 71920.0 0.10309992512250414 -0.7512283477776447 0.08864256788932863 -0.6458861123239839
58848 71930.0 0.0991991969918091 -0.7517533800264394 0.08528882580142605 -0.6463375210587872
58848 71940.0 0.09529579616744034 -0.7522581580134639 0.08193278580273312 -0.6467715157191197
58848 71950.0 0.091389827817534 -0.752742668138639 0.07857453831401048 -0.6471880846119962
58848 71960.0 0.08748139717940237 -0.7532068973479569 0.07521417381549456 -0.6475872165139277
58848 71970.0 0.08357060955669898 -0.7536508331338311 0.07185178284446013 -0.6479689006712256
58848 71980.0 0.07965757031658091 -0.7540744635354354 0.06848745599278078 -0.6483331268002901
58848 71990.0 0.07574238488686927 -0.7544777771390256 0.06512128390448725 -0.6486798850878878
58848 72000.0 0.07182515875320923 -0.7548607630782462 0.061753357273325996 -0.649009166191416
58848 72010.0 0.06790599745622872 -0.755223411034424 0.05838376684031615 -0.6493209612391546
58848 72020.0 0.06398500658869416 -0.7555657112368459 0.05501260339130406 -0.6496152618305047
58848 72030.0 0.060062291792664944 -0.7558876544630218 0.051639957754516914 -0.6498920600362154
58848 72040.0 0.05613795875664763 -0.756189232038934 0.04826592079811597 -0.6501513483985972
58848 72050.0 0.05221211321274929 -0.75647043583927 0.04489058342774897 -0.6503931199317228
58848 72060.0 0.048284860933827944 -0.7567312582876413 0.04151403658410031 -0.6506173681216157
58848 72070.0 0.04435630773064225 -0.7569716923567885 0.03813637124044025 -0.6508240869264255
58848 72080.0 0.04042655944900125 -0.7571917315687701 0.03475767840017455 -0.6510132707765903
58848 72090.0 0.03649572196691326 -0.7573913699951366 0.031378049094392964 -0.6511849145749876
58848 72100.0 0.03256390119173263 -0.7575706022570906 0.027997574379416214 -0.6513390136970709
58848 72110.0 0.02863120305730557 -0.7577294235256324 0.02461634533434202 -0.6514755639909946
58848 72120.0 0.02469773352111675 -0.7578678295216889 0.02123445305859179 -0.6515945617777259
58848 72130.0 0.020763598561435132 -0.7579858165162298 0.01785198866945676 -0.6516960038511436
58848 72140.0 0.016828904174457968 -0.7580833813303671 0.014469043299642388 -0.6517798874781249
58848 72150.0 0.012893756371454347 -0.7581605213354422 0.011085708094812524 -0.651846210398619
58848 72160.0 0.008958261175909579 -0.7582172344530953 0.007702074211134195 -0.6518949708257077
58848 72170.0 0.0050225246206693505 -0.7582535191553221 0.00431823281282222 -0.6519261674456537
58848 72180.0 0.0010866527450822372 -0.7582693744645155 9.342750696824374E-4 -0.6519397994179357
58848 72190.0 -0.002849248407857979 -0.75826479995349 -0.0024497078453452692 -0.651935866375272
58848 72200.0 -0.0067850727943686955 -0.7582397957454957 -0.005833624758642809 -0.6519143684236293
58848 72210.0 -0.010720714372734938 -0.7581943625142132 -0.009217384498369768 -0.6518753061422202
58848 72220.0 -0.014656067106167075 -0.7581285014837363 -0.012600895896920435 -0.6518186805834879
58848 72230.0 -0.01859102496565839 -0.7580422144285384 -0.01598406779338063 -0.6517444932730776
58848 72240.0 -0.022525481932841172 -0.7579355036734254 -0.01936680903598329 -0.6516527462097953
58848 72250.0 -0.026459332002842395 -0.7578083720934727 -0.022749028484563765 -0.651543441865554
58848 72260.0 -0.03039246918714049 -0.7576608231139477 -0.026130635013015904 -0.6514165831853075
58848 72270.0 -0.03432478751642162 -0.7574928607102173 -0.029511537511747885 -0.6512721735869703
58848 72280.0 -0.038256181043434104 -0.7573044894076411 -0.03289164489013631 -0.6511102169613262
58848 72290.0 -0.042186543845841924 -0.7570957142814498 -0.036270866078979655 -0.6509307176719231
58848 72300.0 -0.04611577002908091 -0.7568665409566079 -0.039649110032953815 -0.6507336805549555
58848 72310.0 -0.05004375372920913 -0.7566169756076625 -0.04302628573306295 -0.6505191109191343
58848 72320.0 -0.053970389115761824 -0.7563470249585763 -0.046402302189093955 -0.6502870145455437
58848 72330.0 -0.057895570394600096 -0.7560566962825472 -0.0497770684420657 -0.6500373976874854
58848 72340.0 -0.06181919181076397 -0.7557459974018121 -0.05315049356668215 -0.6497702670703102
58848 72350.0 -0.06574114765131907 -0.7554149366874363 -0.056522486673779675 -0.6494856298912367
58848 72360.0 -0.06966133224820738 -0.7550635230590872 -0.05989295691277816 -0.6491834938191576
58848 72370.0 -0.07357963998109171 -0.7546917659847953 -0.06326181347412661 -0.6488638669944328
58848 72380.0 -0.07749596528020392 -0.7542996754806972 -0.06662896559175185 -0.6485267580286701
58848 72390.0 -0.0814102026291866 -0.7538872621107684 -0.06999432254550207 -0.6481721760044937
58848 72400.0 -0.08532224656793884 -0.7534545369865363 -0.07335779366359303 -0.6478001304752985
58848 72410.0 -0.08923199169545461 -0.7530015117667814 -0.07671928832504883 -0.6474106314649939
58848 72420.0 -0.09313933267266547 -0.752528198657224 -0.08007871596214577 -0.6470036894677326
58848 72430.0 -0.09704416422527586 -0.7520346104101948 -0.08343598606285031 -0.6465793154476286
58848 72440.0 -0.10094638114660236 -0.7515207603242912 -0.08679100817325985 -0.6461375208384615
58848 72450.0 -0.10484587830040525 -0.750986662244019 -0.09014369190003753 -0.6456783175433687
58848 72460.0 -0.10874255062372414 -0.7504323305594199 -0.09349394691285003 -0.6452017179345242
58848 72470.0 -0.11263629312970579 -0.7498577802056832 -0.09684168294679896 -0.6447077348528059
58848 72480.0 -0.11652700091043551 -0.7492630266627438 -0.10018680980485523 -0.6441963816074489
58848 72490.0 -0.12041456913976084 -0.7486480859548642 -0.10352923736028655 -0.6436676719756877
58848 72500.0 -0.12429889307611876 -0.7480129746502043 -0.10686887555908865 -0.6431216202023846
58848 72510.0 -0.12817986806535495 -0.7473577098603748 -0.11020563442240876 -0.6425582409996455
58848 72520.0 -0.1320573895435459 -0.7466823092399739 -0.11353942404897219 -0.6419775495464244
58848 72530.0 -0.1359313530398138 -0.7459867909861149 -0.11687015461750246 -0.6413795614881138
58848 72540.0 -0.13980165417914373 -0.7452711738379333 -0.12019773638914347 -0.6407642929361234
58848 72550.0 -0.14366818868519315 -0.7445354770760837 -0.12352207970987503 -0.6401317604674458
58848 72560.0 -0.14753085238310434 -0.7437797205222193 -0.12684309501293076 -0.6394819811242102
58848 72570.0 -0.15138954120230802 -0.7430039245384579 -0.13016069282120882 -0.6388149724132232
58848 72580.0 -0.15524415117933013 -0.7422081100268341 -0.13347478374968505 -0.6381307523054965
58848 72590.0 -0.1590945784605906 -0.7413922984287353 -0.13678527850781905 -0.6374293392357638
58848 72600.0 -0.16294071930520315 -0.740556511724324 -0.1400920879019615 -0.6367107521019832
58848 72610.0 -0.16678247008776964 -0.7397007724319463 -0.14339512283775704 -0.6359750102648285
58848 72620.0 -0.1706197273011714 -0.7388251036075248 -0.1466942943225435 -0.6352221335471672
58848 72630.0 -0.1744523875593595 -0.7379295288439369 -0.14998951346775127 -0.6344521422335269
58848 72640.0 -0.17828034760013828 -0.7370140722703805 -0.1532806914912968 -0.6336650570695485
58848 72650.0 -0.18210350428794997 -0.7360787585517221 -0.15656773971997603 -0.632860899261427
58848 72660.0 -0.18592175461665064 -0.7351236128878338 -0.15985056959185168 -0.6320396904753409
58848 72670.0 -0.18973499571228825 -0.7341486610129135 -0.1631290926586415 -0.6312014528368677
58848 72680.0 -0.1935431248358716 -0.7331539291947919 -0.16640322058809903 -0.6303462089303882
58848 72690.0 -0.1973460393861413 -0.7321394442342246 -0.1696728651663957 -0.6294739817984777
58848 72700.0 -0.20114363690233106 -0.7311052334641703 -0.17293793830049561 -0.6285847949412856
58848 72710.0 -0.20493581506693134 -0.7300513247490538 -0.17619835202053077 -0.6276786723159018
58848 72720.0 -0.20872247170844316 -0.7289777464840159 -0.17945401848216938 -0.6267556383357116
58848 72730.0 -0.2125035048041334 -0.7278845275941477 -0.18270484996898456 -0.6258157178697376
58848 72740.0 -0.2162788124827815 -0.7267716975337122 -0.1859507588948157 -0.62485893624197
58848 72750.0 -0.2200482930274258 -0.7256392862853499 -0.18919165780613034 -0.6238853192306838
58848 72760.0 -0.22381184487810257 -0.7244873243592714 -0.1924274593843781 -0.6228948930677451
58848 72770.0 -0.22756936663458407 -0.7233158427924347 -0.19565807644834562 -0.6218876844379035
58848 72780.0 -0.23132075705910832 -0.7221248731477105 -0.19888342195650344 -0.6208637204780736
58848 72790.0 -0.23506591507910937 -0.7209144475130297 -0.20210340900935275 -0.6198230287766036
58848 72800.0 -0.2388047397899374 -0.719684598500521 -0.20531795085176524 -0.6187656373725324
58848 72810.0 -0.24253713045758074 -0.7184353592456306 -0.208526960875322 -0.6176915747548335
58848 72820.0 -0.2462629865213765 -0.7171667634062304 -0.2117303526206453 -0.6166008698616483
58848 72830.0 -0.24998220759672324 -0.7158788451617107 -0.21492803977973018 -0.6154935520795054
58848 72840.0 -0.2536946934777824 -0.7145716392120596 -0.21811993619826725 -0.61436965124253
58848 72850.0 -0.2574003441401813 -0.7132451807769277 -0.22130595587796664 -0.6132291976316389
58848 72860.0 -0.26109905974370484 -0.7118995055946795 -0.22448601297887225 -0.6120722219737257
58848 72870.0 -0.26479074063498875 -0.7105346499214307 -0.22766002182167727 -0.610898755440832
58848 72880.0 -0.2684752873502012 -0.7091506505300709 -0.23082789689003005 -0.6097088296493087
58848 72890.0 -0.2721526006177259 -0.7077475447092731 -0.23398955283284062 -0.6085024766589626
58848 72900.0 -0.2758225813608336 -0.7063253702624891 -0.23714490446657766 -0.6072797289721944
58848 72910.0 -0.2794851307003545 -0.7048841655069303 -0.2402938667775661 -0.6060406195331213
58848 72920.0 -0.28314014995733944 -0.703423969272537 -0.2434363549242755 -0.6047851817266907
58848 72930.0 -0.2867875406557213 -0.7019448209009301 -0.2465722842396077 -0.6035134493777801
58848 72940.0 -0.2904272045249656 -0.7004467602443527 -0.24970157023317627 -0.6022254567502857
58848 72950.0 -0.29405904350272066 -0.6989298276645952 -0.2528241285935847 -0.6009212385461997
58848 72960.0 -0.2976829597374571 -0.6973940640319096 -0.255939875190696 -0.5996008299046751
58848 72970.0 -0.30129885559110736 -0.695839510723906 -0.2590487260779017 -0.5982642664010783
58848 72980.0 -0.30490663364169274 -0.6942662096244396 -0.2621505974943808 -0.5969115840460322
58848 72990.0 -0.3085061966859514 -0.6926742031224815 -0.26524540586735973 -0.5955428192844439
58848 73000.0 -0.31209744774195497 -0.6910635341109771 -0.2683330678143608 -0.5941580089945248
58848 73010.0 -0.31568029005172327 -0.6894342459856893 -0.27141350014545157 -0.5927571904867954
58848 73020.0 -0.31925462708382935 -0.6877863826440307 -0.2744866198654838 -0.5913404015030814
58848 73030.0 -0.3228203625360027 -0.6861199884838801 -0.2775523441763316 -0.5899076802154954
58848 73040.0 -0.32637740033772117 -0.6844351084023867 -0.28061059047912074 -0.5884590652254099
58848 73050.0 -0.329925644652802 -0.6827317877947597 -0.28366127637645533 -0.586994595562416
58848 73060.0 -0.3334649998819815 -0.6810100725530468 -0.28670431967463633 -0.5855143106832728
58848 73070.0 -0.3369953706654928 -0.6792700090648954 -0.2897396383858775 -0.5840182504708437
58848 73080.0 -0.340516661885634 -0.6775116442123048 -0.2927671507305139 -0.582506455233022
58848 73090.0 -0.3440287786693305 -0.6757350253703627 -0.29578677513920437 -0.5809789657016456
58848 73100.0 -0.34753162639069307 -0.6739402004059676 -0.2987984302551311 -0.5794358230313981
58848 73110.0 -0.3510251106735642 -0.6721272176765406 -0.30180203493618923 -0.5778770687987016
58848 73120.0 -0.3545091373940642 -0.6702961260287219 -0.30479750825717566 -0.5763027450005952
58848 73130.0 -0.3579836126831246 -0.668446974797055 -0.3077847695119669 -0.5747128940536044
58848 73140.0 -0.36144844292901906 -0.6665798138026561 -0.31076373821569553 -0.5731075587925977
58848 73150.0 -0.3649035347798837 -0.6646946933518741 -0.3137343341069168 -0.571486782469633
58848 73160.0 -0.3683487951462345 -0.6627916642349339 -0.3166964771497735 -0.5698506087527916
58848 73170.0 -0.3717841312034726 -0.6608707777245678 -0.3196500875361492 -0.5681990817250027
58848 73180.0 -0.3752094503943885 -0.6589320855746341 -0.3225950856878219 -0.5665322458828543
58848 73190.0 -0.37862466043165216 -0.656975640018724 -0.3255313922586051 -0.5648501461353961
58848 73200.0 -0.3820296693003032 -0.6550014937687524 -0.3284589281364881 -0.5631528278029273
58848 73210.0 -0.3854243852602268 -0.6530097000135389 -0.33137761444576475 -0.5614403366157781
58848 73220.0 -0.388808716848628 -0.6510003124173744 -0.3342873725491621 -0.559712718713075
58848 73230.0 -0.39218257288249375 -0.6489733851185757 -0.3371881240499551 -0.5579700206415003
58848 73240.0 -0.39554586246105156 -0.6469289727280257 -0.3400797907940827 -0.5562122893540353
58848 73250.0 -0.3988984949682168 -0.6448671303277037 -0.34296229487225 -0.5544395722086979
58848 73260.0 -0.40224038007503593 -0.642787913469199 -0.34583555862203025 -0.5526519169672647
58848 73270.0 -0.40557142774211863 -0.6406913781722173 -0.34869950462995536 -0.550849371793985
58848 73280.0 -0.40889154822206536 -0.6385775809230687 -0.351554055733603 -0.5490319852542827
58848 73290.0 -0.41220065206188305 -0.636446578673147 -0.35439913502367354 -0.547199806313449
58848 73300.0 -0.415498650105398 -0.6342984288373951 -0.3572346658460655 -0.545352884335321
58848 73310.0 -0.4187854534956555 -0.6321331892927583 -0.36006057180393686 -0.5434912690809542
58848 73320.0 -0.4220609736773159 -0.629950918376624 -0.3628767767597668 -0.5416150107072795
58848 73330.0 -0.42532512239903864 -0.6277516748852516 -0.36568320483740485 -0.5397241597657536
58848 73340.0 -0.42857781171586184 -0.6255355180721868 -0.36847978042411644 -0.537818767200996
58848 73350.0 -0.43181895399157005 -0.6233025076466661 -0.3712664281726193 -0.5358988843494167
58848 73360.0 -0.4350484619010571 -0.6210527037720072 -0.3740430730031143 -0.533964562937833
58848 73370.0 -0.4382662484326769 -0.6187861670639891 -0.3768096401053073 -0.5320158550820764
58848 73380.0 -0.4414722268905901 -0.616502958589218 -0.37956605494042606 -0.5300528132855873
58848 73390.0 -0.4446663108970976 -0.6142031398634833 -0.3823122432432269 -0.5280754904380016
58848 73400.0 -0.4478484143949697 -0.611886772850098 -0.3850481310239972 -0.5260839398137248
58848 73410.0 -0.4510184516497632 -0.6095539199582315 -0.3877736445705476 -0.5240782150704976
58848 73420.0 -0.4541763372521326 -0.6072046440412269 -0.3904887104501994 -0.5220583702479489
58848 73430.0 -0.45732198612012986 -0.604839008394908 -0.39319325551176104 -0.5200244597661413
58848 73440.0 -0.46045531350149876 -0.6024570767558736 -0.39588720688750134 -0.5179765384241036
58848 73450.0 -0.46357623497595574 -0.6000589132997804 -0.3985704919951104 -0.5159146613983555
58848 73460.0 -0.4666846664574671 -0.5976445826396142 -0.40124303853965726 -0.5138388842414199
58848 73470.0 -0.46978052419651206 -0.5952141498239488 -0.40390477451553625 -0.511749262880327
58848 73480.0 -0.47286372478234134 -0.5927676803351933 -0.40655562820840807 -0.5096458536151068
58848 73490.0 -0.47593418514522257 -0.5903052400878284 -0.40919552819713056 -0.5075287131172733
58848 73500.0 -0.47899182255868045 -0.5878268954266295 -0.41182440335568504 -0.505397898428296
58848 73510.0 -0.4820365546417229 -0.5853327131248802 -0.41444218285509027 -0.5032534669580648
58848 73520.0 -0.4850682993610633 -0.5828227603825725 -0.41704879616531276 -0.5010954764833421
58848 73530.0 -0.4880869750333303 -0.5802971048245967 -0.4196441730571663 -0.49892398514620556
58848 73540.0 -0.49109250032726603 -0.5777558144989196 -0.4222282436042033 -0.4967390514524841
58848 73550.0 -0.4940847942659207 -0.5751989578747502 -0.42480093818460063 -0.4945407342701784
58848 73560.0 -0.49706377622883235 -0.572626603840696 -0.42736218748303334 -0.4923290928278775
58848 73570.0 -0.5000293659541996 -0.5700388217029058 -0.4299119224925439 -0.49010418671316114
58848 73580.0 -0.5029814835410437 -0.567435681183204 -0.4324500745164001 -0.48786607587099573
58848 73590.0 -0.5059200494513625 -0.5648172524172106 -0.43497657516994753 -0.4856148206021179
58848 73600.0 -0.5088449845122713 -0.5621836059524523 -0.43749135638245007 -0.48335048156141125
58848 73610.0 -0.5117562099181387 -0.5595348127464618 -0.4399943503989258 -0.4810731197562709
58848 73620.0 -0.5146536472327068 -0.5568709441648653 -0.44248548978197094 -0.47878279654496086
58848 73630.0 -0.5175372183912073 -0.5541920719794609 -0.4449647074135782 -0.47647957363495963
58848 73640.0 -0.5204068457024623 -0.5514982683662837 -0.44743193649694324 -0.4741635130812993
58848 73650.0 -0.5232624518509802 -0.5487896059036619 -0.4498871105582669 -0.4718346772848917
58848 73660.0 -0.5261039598990359 -0.5460661575702613 -0.4523301634485436 -0.46949312899084894
58848 73670.0 -0.5289312932887462 -0.5433279967431185 -0.45476102934534585 -0.4671389312867914
58848 73680.0 -0.5317443758441305 -0.5405751971956649 -0.45717964275459544 -0.4647721476011493
58848 73690.0 -0.5345431317731646 -0.5378078330957378 -0.4595859385123304 -0.46239284170145245
58848 73700.0 -0.5373274856698221 -0.5350259790035836 -0.4619798517864588 -0.4600010776926135
58848 73710.0 -0.5400973625161064 -0.5322297098698471 -0.46436131807850606 -0.4575969200151994
58848 73720.0 -0.5428526876840709 -0.5294191010335539 -0.4667302732253527 -0.4551804334436969
58848 73730.0 -0.5455933869378315 -0.5265942282200797 -0.46908665340096434 -0.45275168308476527
58848 73740.0 -0.5483193864355648 -0.5237551675391104 -0.4714303951181088 -0.4503107343754843
58848 73750.0 -0.5510306127314988 -0.5209019954825906 -0.47376143523006925 -0.4478576530815893
58848 73760.0 -0.5537269927778911 -0.5180347889226642 -0.4760797109323429 -0.44539250529570085
58848 73770.0 -0.5564084539269977 -0.5151536251096015 -0.47838515976433643 -0.4429153574355426
58848 73780.0 -0.5590749239330294 -0.5122585816697202 -0.48067771961104505 -0.4404262762421535
58848 73790.0 -0.5617263309540993 -0.5093497366032907 -0.48295732870472935 -0.4379253287780876
58848 73800.0 -0.5643626035541573 -0.5064271682824381 -0.4852239256265773 -0.4354125824256092
58848 73810.0 -0.5669836707049162 -0.503490955449028 -0.48747744930836046 -0.4328881048848756
58848 73820.0 -0.5695894617877636 -0.5005411772125463 -0.4897178390340779 -0.43035196417211463
58848 73830.0 -0.5721799065956663 -0.4975779130479672 -0.491945034441594 -0.4278042286177909
58848 73840.0 -0.5747549353350607 -0.4946012427936125 -0.4941589755242623 -0.4252449668647658
58848 73850.0 -0.5773144786277341 -0.4916112466489995 -0.4963596026325448 -0.42267424786644675
58848 73860.0 -0.5798584675126927 -0.4886080051726819 -0.4985468564756168 -0.42009214088493124
58848 73870.0 -0.582386833448021 -0.485591599280077 -0.5007206781229663 -0.4174987154891389
58848 73880.0 -0.5848995083127275 -0.4825621102412885 -0.50288100900598 -0.4148940415529387
58848 73890.0 -0.5873964244085809 -0.47951961967891393 -0.5050277909195231 -0.41227818925326454
58848 73900.0 -0.5898775144619327 -0.47646420956584795 -0.5071609660235055 -0.40965122906822676
58848 73910.0 -0.5923427116255318 -0.4733959622230718 -0.5092804768444422 -0.40701323177521115
58848 73920.0 -0.5947919494803232 -0.47031496031743725 -0.511386266277 -0.40436426844897344
58848 73930.0 -0.5972251620372397 -0.4672212868594372 -0.5134782775855374 -0.4017044104597234
58848 73940.0 -0.5996422837389781 -0.4641150252009719 -0.5155564544056324 -0.399033729471203
58848 73950.0 -0.6020432494617668 -0.46099625903309965 -0.5176207407456017 -0.3963522974387543
58848 73960.0 -0.6044279945171189 -0.4578650723837859 -0.5196710809880085 -0.39366018660738217
58848 73970.0 -0.6067964546535771 -0.45472154961563577 -0.5217074198911619 -0.39095746950980614
58848 73980.0 -0.6091485660584429 -0.45156577542362375 -0.5237297025906045 -0.38824421896450817
58848 73990.0 -0.6114842653594967 -0.4483978348328105 -0.5257378746005913 -0.3855205080737693
58848 74000.0 -0.6138034896267061 -0.44521781319605125 -0.5277318818155569 -0.3827864102216998
58848 74010.0 -0.6161061763739192 -0.44202579619169863 -0.5297116705115734 -0.3800419990722637
58848 74020.0 -0.6183922635605505 -0.4388218698212915 -0.531677187347799 -0.3772873485672923
58848 74030.0 -0.6206616895932507 -0.4356061204072404 -0.5336283793679136 -0.3745225329244933
58848 74040.0 -0.6229143933275675 -0.43237863459049913 -0.5355651940015465 -0.37174762663545013
58848 74050.0 -0.6251503140695915 -0.4291394993282335 -0.5374875790656919 -0.368962704463616
58848 74060.0 -0.6273693915775936 -0.4258888018914749 -0.539395482766117 -0.36616784144229786
58848 74070.0 -0.6295715660636455 -0.4226266298627723 -0.5412888536987539 -0.36336311287263745
58848 74080.0 -0.6317567781952329 -0.41935307113383 -0.5431676408510885 -0.36054859432157976
58848 74090.0 -0.6339249690968521 -0.41606821390314214 -0.5450317936035318 -0.3577243616198389
58848 74100.0 -0.6360760803515983 -0.41277214667361317 -0.5468812617307857 -0.3548904908598538
58848 74110.0 -0.6382100540027372 -0.40946495825017687 -0.5487159954031948 -0.35204705839373973
58848 74120.0 -0.6403268325552689 -0.40614673773740023 -0.5505359451880906 -0.3491941408312287
58848 74130.0 -0.6424263589774747 -0.40281757453708583 -0.552341062051121 -0.34633181503760785
58848 74140.0 -0.6445085767024556 -0.3994775583458609 -0.5541312973575742 -0.3434601581316467
58848 74150.0 -0.6465734296296551 -0.3961267791527623 -0.5559066028736868 -0.3405792474835209
58848 74160.0 -0.6486208621263716 -0.39276532723680985 -0.557666930767944 -0.3376891607127257
58848 74170.0 -0.650650819029256 -0.38939329316457705 -0.5594122336123695 -0.33478997568598723
58848 74180.0 -0.6526632456457998 -0.38601076778774746 -0.5611424643838012 -0.33188177051516166
58848 74190.0 -0.6546580877558067 -0.38261784224067014 -0.56285757646516 -0.32896462355513356
58848 74200.0 -0.6566352916128554 -0.3792146079379014 -0.5645575236467048 -0.3260386134017021
58848 74210.0 -0.6585948039457455 -0.3758011565717445 -0.5662422601272774 -0.32310381888946593
58848 74220.0 -0.6605365719599352 -0.37237758010977673 -0.5679117405155378 -0.320160319089697
58848 74230.0 -0.6624605433389613 -0.3689439707923739 -0.5695659198311852 -0.31720819330821204
58848 74240.0 -0.6643666662458508 -0.3655004211302227 -0.5712047535061717 -0.314247521083234
58848 74250.0 -0.6662548893245159 -0.3620470239018309 -0.5728281973859018 -0.31127838218325127
58848 74260.0 -0.668125161701139 -0.35858387215102505 -0.5744362077304231 -0.30830085660486606
58848 74270.0 -0.6699774329855425 -0.3551110591844457 -0.5760287412156037 -0.3053150245706412
58848 74280.0 -0.6718116532725468 -0.35162867856903157 -0.5776057549343 -0.30232096652693713
58848 74290.0 -0.6736277731433145 -0.348136824129501 -0.5791672063975132 -0.2993187631417459
58848 74300.0 -0.675425743666683 -0.3446355899458211 -0.5807130535355332 -0.296308495302516
58848 74310.0 -0.677205516400481 -0.3411250703506762 -0.5822432546990723 -0.2932902441139753
58848 74320.0 -0.6789670433928355 -0.3376053599269231 -0.5837577686603885 -0.29026409089594346
58848 74330.0 -0.6807102771834624 -0.33407655350504567 -0.5852565546143937 -0.287230117181143
58848 74340.0 -0.6824351708049463 -0.33053874616059703 -0.5867395721797566 -0.2841884047130008
58848 74350.0 -0.6841416777840047 -0.32699203321164105 -0.5882067813999868 -0.28113903544344765
58848 74360.0 -0.6858297521427414 -0.32343651021618103 -0.5896581427445151 -0.2780820915307082
58848 74370.0 -0.6874993483998842 -0.3198722729695878 -0.5910936171097554 -0.2750176553370892
58848 74380.0 -0.6891504215720112 -0.31629941750201684 -0.5925131658201607 -0.27194580942675883
58848 74390.0 -0.6907829271747619 -0.31271804007582227 -0.5939167506292627 -0.2688666365635241
58848 74400.0 -0.6923968212240363 -0.3091282371829623 -0.5953043337207056 -0.26578021970859855
58848 74410.0 -0.6939920602371799 -0.3055301055424005 -0.596675877709261 -0.2626866420183698
58848 74420.0 -0.6955686012341552 -0.30192374209749834 -0.5980313456418384 -0.25958598684215617
58848 74430.0 -0.6971264017386992 -0.2983092440134058 -0.5993707009984791 -0.256478337719964
58848 74440.0 -0.6986654197794689 -0.2946867086744401 -0.6006939076933406 -0.25336377838023405
58848 74450.0 -0.700185613891171 -0.29105623368146555 -0.6020009300756695 -0.2502423927375881
