CIC_MEM_VERS = 1.0
CREATION_DATE = 2023-03-16T10:50:10.071187
ORIGINATOR = CS Group

META_START
OBJECT_NAME = horus_eye_39
OBJECT_ID = horus_eye_39
USER_DEFINED_PROTOCOL = NONE
USER_DEFINED_CONTENT = KEPLERIAN
USER_DEFINED_SIZE = 6.0
USER_DEFINED_TYPE = REAL
USER_DEFINED_UNIT = [deg] [km]
TIME_SYSTEM = UTC
META_STOP

58848 68400.0 7178.140000000003 4.483555317690521e-16 98.62386964 135.0 165.41039471539995 -7.910394715399939
58848 68410.0 7178.140000000002 2.4897183817227515e-16 98.62386964 135.0 184.98863072209488 -26.89382706484774
58848 68420.0 7178.14 1.2272759047722184e-16 98.62386964 135.0 313.46227363311635 -154.7726663186221
58848 68430.0 7178.139999999999 1.4187634292521116e-16 98.62386964 135.0 300.7770933971189 -141.49268242537747
58848 68440.0 7178.139999999999 7.39354996147373e-17 98.62386964 135.0 249.87921462898854 -90.0
58848 68450.0 7178.140000000002 2.2243550920980887e-16 98.62386964 135.0 163.8713222727672 -3.3973039865314965
58848 68460.0 7178.140000000003 2.242599466011966e-16 98.62386964 135.0 153.00872446185193 8.060097481630931
58848 68470.0 7178.140000000003 2.22305747837608e-16 98.62386964 135.0 164.4410607617875 -2.7774351610574772
58848 68480.0 7178.140000000003 2.227540384888149e-16 98.62386964 135.0 157.68443059967953 4.573998658297622
58848 68490.0 7178.139999999999 1.1299667823047082e-16 98.62386964 135.0 -6.4203643853584955 169.2735973005828
58848 68500.0 7178.140000000002 2.220471818506093e-16 98.62386964 135.0 163.72407297295211 -0.2760364004806624
58848 68510.0 7178.140000000003 2.220951116046374e-16 98.62386964 135.0 165.26478272962808 -1.221942499909478
58848 68520.0 7178.140000000003 2.2204462056672834e-16 98.62386964 135.0 164.6161378969665 0.02150598999923743
58848 68530.0 7178.140000000002 2.2244817642691303e-16 98.62386964 135.0 168.6842754208287 -3.451827876615803
58848 68540.0 7178.139999999999 1.112121844140793e-16 98.62386964 135.0 342.47863711656197 -176.65138591510194
58848 68550.0 7178.140000000003 2.2217618617811036e-16 98.62386964 135.0 168.39405672500533 -1.9720018662981753
58848 68560.0 7178.140000000001 7.419778014429623e-19 98.62386964 135.0 77.01685851595433 90.0
58848 68570.0 7178.140000000002 2.247503174102356e-16 98.62386964 135.0 176.5111488628801 -8.899486689678634
58848 68580.0 7178.140000000002 2.2229484610697846e-16 98.62386964 135.0 170.92536482550656 -2.718898995057956
58848 68590.0 7178.140000000002 2.258807555237169e-16 98.62386964 135.0 179.37583176724408 -10.574562279548308
58848 68600.0 7178.140000000003 2.2422998999537146e-16 98.62386964 135.0 177.40193561468524 -8.005862469742326
58848 68610.0 7178.140000000001 2.2232960417370674e-16 98.62386964 135.0 172.89227437894652 -2.9013975767564766
58848 68620.0 7178.140000000002 2.220781158895051e-16 98.62386964 135.0 171.58104845617595 -0.9953679967387887
58848 68630.0 7178.140000000003 2.237652733198263e-16 98.62386964 135.0 178.29046718528102 -7.109983068596679
58848 68640.0 7178.14 1.1213840549699425e-16 98.62386964 135.0 343.68482333738626 -171.90953556345482
58848 68650.0 7178.140000000004 4.441543838430389e-16 98.62386964 135.0 171.3885398449657 0.9815515862129326
58848 68660.0 7178.140000000004 4.441094959295045e-16 98.62386964 135.0 173.51253275924466 -0.5476376708189088
58848 68670.0 7178.140000000002 2.2204852964583636e-16 98.62386964 135.0 173.90035683233532 -0.3406580866624059
58848 68680.0 7178.140000000002 2.2205919603916425e-16 98.62386964 135.0 174.811327674474 -0.6568252715539876
58848 68690.0 7178.140000000003 2.221106006022523e-16 98.62386964 135.0 173.35254703588777 1.3967590242794155
58848 68700.0 7178.140000000002 2.2230091504151417e-16 98.62386964 135.0 178.09574972890022 -2.7516400114859043
58848 68710.0 7178.14 4.459228763617634e-18 98.62386964 135.0 265.93891337466147 -90.0
58848 68720.0 7178.14 1.1220139086080672e-16 98.62386964 135.0 4.8473864173964785 171.68633061451214
58848 68730.0 7178.14 9.500305528807763e-18 98.62386964 135.0 87.12852068915576 90.0
58848 68740.0 7178.139999999996 3.3317051453542517e-16 98.62386964 135.0 356.294395956492 -178.57107161008906
58848 68750.0 7178.14 1.0825922449391511e-18 98.62386964 135.0 268.3181280036501 -90.0
58848 68760.0 7178.139999999999 5.519505631440508e-18 98.62386964 135.0 268.9129316608972 -90.0
58848 68770.0 7178.140000000004 4.441271437355987e-16 98.62386964 135.0 178.75887515571543 0.7488601624289092
58848 68780.0 7178.139999999999 1.1149216461665057e-16 98.62386964 135.0 -5.159491125509885 -174.73796989909863
58848 68790.0 7178.14 1.797650526374378e-17 98.62386964 135.0 -89.30265736736138 -90.0
58848 68800.0 7178.139999999999 1.111006934639907e-16 98.62386964 135.0 -0.8603275950683643 -177.84752611504587
58848 68810.0 7178.14 8.482145116236836e-18 98.62386964 135.0 -268.1130500528671 90.0
58848 68820.0 7178.140000000001 2.2300715769958483e-16 98.62386964 135.0 -182.84358022796016 5.325333832340216
58848 68830.0 7178.140000000002 2.2260371719760943e-16 98.62386964 135.0 -180.98518049290675 4.061737754533949
58848 68840.0 7178.139999999999 1.1224270554204694e-16 98.62386964 135.0 -347.87186937056947 171.54323028944384
58848 68850.0 7178.14 1.121380562978518e-16 98.62386964 135.0 -3.8230446241978426 -171.91079079968065
58848 68860.0 7178.139999999999 1.1260378622850887e-16 98.62386964 135.0 -345.52505407155564 170.38602230492424
58848 68870.0 7178.139999999999 1.17042444384647e-16 98.62386964 135.0 -336.08775880220435 161.54353069282013
58848 68880.0 7178.14 8.758117270912286e-18 98.62386964 135.0 -83.94942445213707 -90.0
58848 68890.0 7178.140000000001 2.2205541555738884e-16 98.62386964 135.0 -173.91999274334722 0.5653719484572856
58848 68900.0 7178.140000000001 7.124315886909964e-18 98.62386964 135.0 -262.7598171376428 90.0
58848 68910.0 7178.140000000002 2.227899248878552e-16 98.62386964 135.0 -176.85295711891263 4.687943638516989
58848 68920.0 7178.140000000001 2.2625318655871075e-16 98.62386964 135.0 -182.63857969103327 11.068369867884796
58848 68930.0 7178.139999999999 1.110276600451907e-16 98.62386964 135.0 8.461723676241014 -179.43712984214235
58848 68940.0 7178.140000000002 2.2207703363737437e-16 98.62386964 135.0 -171.3597676487474 0.9791651400932104
58848 68950.0 7178.140000000003 2.222130646569478e-16 98.62386964 135.0 -172.01694659035653 2.231147738949515
58848 68960.0 7178.139999999997 3.369128849919828e-16 98.62386964 135.0 -340.52544388717575 171.33444869301587
58848 68970.0 7178.140000000003 2.2300367540631484e-16 98.62386964 135.0 -173.91191833296975 5.315726796056987
58848 68980.0 7178.14 6.638982413295478e-17 98.62386964 135.0 -258.0013878796656 90.0
58848 68990.0 7178.140000000003 2.2340531389153744e-16 98.62386964 135.0 -161.079637422613 -6.326946799805489
58848 69000.0 7178.140000000002 2.2210269414652784e-16 98.62386964 135.0 -168.12222303917213 1.3104424740008074
58848 69010.0 7178.14 1.4235938516339115e-17 98.62386964 135.0 -256.21697690792416 90.0
58848 69020.0 7178.140000000003 2.2442797115860677e-16 98.62386964 135.0 -173.97973552339224 8.357562272715217
58848 69030.0 7178.140000000002 2.345372376694062e-16 98.62386964 135.0 -183.81212503840408 18.78475544497421
58848 69040.0 7178.140000000003 2.243635496466454e-16 98.62386964 135.0 -156.18774082441843 -8.244825111764332
58848 69050.0 7178.140000000002 2.2818820326512777e-16 98.62386964 135.0 -177.16320596602654 13.325443687090896
58848 69060.0 7178.140000000003 2.254650983663109e-16 98.62386964 135.0 -173.23589066133098 9.992932039642543
58848 69070.0 7178.140000000003 2.245802372104071e-16 98.62386964 135.0 -171.2661147921292 8.617959827687862
58848 69080.0 7178.140000000003 2.220454368965089e-16 98.62386964 135.0 -162.2101964443464 0.15684513715222698
58848 69090.0 7178.140000000002 2.3579848147394946e-16 98.62386964 135.0 -181.1244386771736 19.66589102722656
58848 69100.0 7178.140000000002 2.430438427526209e-16 98.62386964 135.0 -184.85620444989382 23.99246045719394
58848 69110.0 7178.14 1.6958908229889348e-17 98.62386964 135.0 -70.26894033545275 -90.0
58848 69120.0 7178.139999999999 1.1548057708674974e-16 98.62386964 135.0 -323.7016045886931 164.02746791048756
58848 69130.0 7178.139999999999 1.1190124999670202e-16 98.62386964 135.0 -331.89334783373727 172.8140148127788
58848 69140.0 7178.140000000003 2.33220858049037e-16 98.62386964 135.0 -176.29403329345962 17.809503929748335
58848 69150.0 7178.140000000002 2.373339539516327e-16 98.62386964 135.0 -178.56787700216796 20.678151295703774
58848 69160.0 7178.139999999999 1.4243623025276205e-16 98.62386964 135.0 -247.29492204921704 89.99999999999999
58848 69170.0 7178.140000000002 2.2215848313485797e-16 98.62386964 135.0 -158.53473385033632 1.8346154583664454
58848 69180.0 7178.140000000003 2.3136909676152163e-16 98.62386964 135.0 -172.4270749921003 16.32176025737759
58848 69190.0 7178.140000000003 2.29426417352715e-16 98.62386964 135.0 -170.08417689108464 14.573665813609065
58848 69200.0 7178.140000000002 2.3097871271480485e-16 98.62386964 135.0 -170.9034494575337 15.987742037305267
58848 69210.0 7178.140000000001 2.4615400121933287e-16 98.62386964 135.0 -179.8913024136406 25.570398650659325
58848 69220.0 7178.140000000002 2.4231072205596953e-16 98.62386964 135.0 -177.32604679616054 23.599946690426393
58848 69230.0 7178.14 1.0671859741930544e-16 98.62386964 135.0 -243.13129644848698 90.0
58848 69240.0 7178.140000000003 4.446310813347484e-16 98.62386964 135.0 -155.36547349965494 2.828980708415117
58848 69250.0 7178.140000000002 2.317645151319385e-16 98.62386964 135.0 -168.5940151737274 16.65232603973472
58848 69260.0 7178.139999999999 1.9458261435955243e-17 98.62386964 135.0 -241.34688547674557 90.0
58848 69270.0 7178.140000000001 2.5684545921606366e-16 98.62386964 135.0 -180.9256641772378 30.173582357739367
58848 69280.0 7178.140000000002 2.227873573962409e-16 98.62386964 135.0 -154.8371627600038 4.679884597752515
58848 69290.0 7178.140000000004 4.493523543749964e-16 98.62386964 135.0 -158.34039369867043 8.777919193666294
58848 69300.0 7178.14 9.444563276907735e-17 98.62386964 135.0 -238.96767084775698 90.0
58848 69310.0 7178.139999999999 1.4415402999442968e-16 98.62386964 135.0 -288.741521591877 140.3686544013672
58848 69320.0 7178.139999999999 1.1373053162115526e-16 98.62386964 135.0 -315.24932351132935 167.47125997806666
58848 69330.0 7178.140000000003 2.2377403898432107e-16 98.62386964 135.0 -140.05530594638998 -7.127953929625591
58848 69340.0 7178.139999999999 6.350539634744997e-17 98.62386964 135.0 -236.5884562187684 90.0
58848 69350.0 7178.140000000003 2.2484937972590905e-16 98.62386964 135.0 -136.9343812263039 -9.059271335217357
58848 69360.0 7178.140000000002 2.2627505727049335e-16 98.62386964 135.0 -156.4954929829042 11.09664407863008
58848 69370.0 7178.140000000003 2.2311568263875516e-16 98.62386964 135.0 -139.18765904603978 -5.6163862009872085
58848 69380.0 7178.140000000002 2.3389557051643506e-16 98.62386964 135.0 -162.52624824724316 18.317006657463335
58848 69390.0 7178.140000000002 2.4721014229170463e-16 98.62386964 135.0 -117.53714267144711 -26.07729526108555
58848 69400.0 7178.14 1.3195975418806227e-16 98.62386964 135.0 -290.3009501993444 147.28131592405893
58848 69410.0 7178.140000000002 2.2205034056563025e-16 98.62386964 135.0 -142.01301405628465 -0.411816561753754
58848 69420.0 7178.140000000002 2.2217013236903794e-16 98.62386964 135.0 -143.75615248609535 1.9261255253040928
58848 69430.0 7178.140000000002 2.3585725928831706e-16 98.62386964 135.0 -160.94102905260272 19.705805749058616
58848 69440.0 7178.140000000002 2.2625886790713324e-16 98.62386964 135.0 -151.71614167635605 11.075722030059106
58848 69450.0 7178.140000000004 4.491087294113245e-16 98.62386964 135.0 -148.61990828360467 8.574292294554851
58848 69460.0 7178.140000000003 2.2269097253243145e-16 98.62386964 135.0 -143.81728974717245 4.366477415369787
58848 69470.0 7178.140000000002 2.6587158334925435e-16 98.62386964 135.0 -172.22378337747605 33.367774702920535
58848 69480.0 7178.140000000002 2.24289828246549e-16 98.62386964 135.0 -146.3750287243348 8.113823707026453
58848 69490.0 7178.140000000002 2.3116489357035655e-16 98.62386964 135.0 -153.8144220654353 16.148020705374076
58848 69500.0 7178.140000000002 2.268885139816883e-16 98.62386964 135.0 -148.93215412993948 11.860556427125386
58848 69510.0 7178.140000000002 2.302277175462417e-16 98.62386964 135.0 -151.79870450973436 15.321910464167424
58848 69520.0 7178.140000000001 7.286706327367028e-17 98.62386964 135.0 -225.8819903883198 90.0
58848 69530.0 7178.14 1.2377395731106472e-16 98.62386964 135.0 -289.0506012980928 153.76341456702013
58848 69540.0 7178.140000000002 2.240841839691055e-16 98.62386964 135.0 -142.42866443314605 7.736281359320537
58848 69550.0 7178.14 6.48627241600885e-17 98.62386964 135.0 -224.09757941657836 90.0
58848 69560.0 7178.14 1.4687990417562485e-16 98.62386964 135.0 -272.60433516052694 139.10155940119574
58848 69570.0 7178.14 1.163375938717333e-16 98.62386964 135.0 -295.5216115738388 162.61363947175474
58848 69580.0 7178.139999999997 3.3308116407755193e-16 98.62386964 135.0 -311.78304929151096 179.46988084667402
58848 69590.0 7178.140000000002 2.3227116500835223e-16 98.62386964 135.0 -114.6531705932838 -17.06519419430597
58848 69600.0 7178.140000000001 8.24686758322618e-17 98.62386964 135.0 -221.12356113034267 90.0
58848 69610.0 7178.14 5.3179151848403855e-20 98.62386964 135.0 -220.52875747309548 90.0
58848 69620.0 7178.140000000003 2.327061108795035e-16 98.62386964 135.0 -147.34461366478803 17.410659848939655
58848 69630.0 7178.14 1.1310021084350923e-16 98.62386964 135.0 -298.3393122323467 169.0001620737455
58848 69640.0 7178.140000000002 2.550291546586336e-16 98.62386964 135.0 -158.20849922377548 29.464152722421417
58848 69650.0 7178.139999999999 1.1158757362665787e-16 98.62386964 135.0 46.08091124175905 -174.23045408586594
58848 69660.0 7178.140000000003 2.699616594982234e-16 98.62386964 135.0 -162.21847170958333 34.663732522723535
58848 69670.0 7178.140000000004 4.702176775493954e-16 98.62386964 135.0 -146.15002320473303 19.190087675120417
58848 69680.0 7178.139999999999 1.3259455240774345e-16 98.62386964 135.0 -273.22192532796475 146.85679345559927
58848 69690.0 7178.140000000002 2.296144672545852e-16 98.62386964 135.0 -140.52339864065624 14.753070425537944
58848 69700.0 7178.140000000003 2.3769498610224005e-16 98.62386964 135.0 -146.08303340322863 20.907508845357437
58848 69710.0 7178.140000000003 2.2564074967030393e-16 98.62386964 135.0 -114.33775010337766 -10.242970797246395
58848 69720.0 7178.140000000003 2.259452054335076e-16 98.62386964 135.0 -134.64766920676533 10.66175196338841
58848 69730.0 7178.140000000002 2.2212907761700867e-16 98.62386964 135.0 -121.8109325158616 -1.5801810702681438
58848 69740.0 7178.140000000002 2.226586476117881e-16 98.62386964 135.0 -118.5401593337863 -4.256150595096283
58848 69750.0 7178.140000000003 2.222926555928182e-16 98.62386964 135.0 -124.90849013287836 2.7069838612428585
58848 69760.0 7178.139999999999 1.1226096101904514e-16 98.62386964 135.0 49.87408999832806 -171.48079261271639
58848 69770.0 7178.140000000003 2.231150974131276e-16 98.62386964 135.0 -126.62675672146875 5.6148577643275965
58848 69780.0 7178.14 1.3011887791683402e-16 98.62386964 135.0 -268.98265567142766 148.56556037153365
58848 69790.0 7178.140000000001 4.094466059086558e-17 98.62386964 135.0 -209.82229164264692 90.0
58848 69800.0 7178.140000000004 4.510599611490488e-16 98.62386964 135.0 -129.31353948512614 10.086051499726418
58848 69810.0 7178.140000000001 4.546910431321293e-17 98.62386964 135.0 -208.63268432815258 90.0
58848 69820.0 7178.14 1.5641106703186003e-16 98.62386964 135.0 -208.03788067090548 89.99999999999999
58848 69830.0 7178.140000000003 2.2502358155996697e-16 98.62386964 135.0 -126.77642475425756 9.333347740599242
58848 69840.0 7178.140000000002 2.508355131872769e-16 98.62386964 135.0 -144.56967057401522 27.721397217604046
58848 69850.0 7178.140000000001 1.425336239767653e-16 98.62386964 135.0 -206.253469699164 89.99999999999999
58848 69860.0 7178.140000000003 4.447170566278537e-16 98.62386964 135.0 -118.70357056534819 3.0449045234313217
58848 69870.0 7178.140000000001 1.2997288443373951e-16 98.62386964 135.0 -205.06386238466973 89.99999999999999
58848 69880.0 7178.139999999999 1.1181977916010744e-16 98.62386964 135.0 58.6840132452019 -173.15307197262447
58848 69890.0 7178.140000000001 1.0158515733936132e-16 98.62386964 135.0 -203.8742550701754 90.0
58848 69900.0 7178.14 9.31673531617942e-17 98.62386964 135.0 -203.27945141292827 90.0
58848 69910.0 7178.14 3.9934495111078864e-17 98.62386964 135.0 -202.68464775568114 90.0
58848 69920.0 7178.140000000003 2.222032564559084e-16 98.62386964 135.0 -114.25510581717941 2.165261718745414
58848 69930.0 7178.140000000003 2.257674102431292e-16 98.62386964 135.0 -121.91439356144186 10.419353120254977
58848 69940.0 7178.14 7.773631523649477e-17 98.62386964 135.0 -200.9002367839397 90.0
58848 69950.0 7178.140000000003 2.657566559060314e-16 98.62386964 135.0 -143.635565561639 33.330132434946414
58848 69960.0 7178.14 1.1965322030667379e-16 98.62386964 135.0 -267.8153887762758 158.1047593068304
58848 69970.0 7178.140000000003 2.2206955823789315e-16 98.62386964 135.0 -109.9747627678269 0.8589369556286038
58848 69980.0 7178.140000000004 4.442677218064858e-16 98.62386964 135.0 -106.89673261402685 -1.62428954092428
58848 69990.0 7178.140000000001 5.744393617089003e-17 98.62386964 135.0 -197.92621849770399 90.0
58848 70000.0 7178.14 1.2009699431239202e-16 98.62386964 135.0 -264.91527367198887 157.58385883153207
58848 70010.0 7178.140000000002 2.248266083997617e-16 98.62386964 135.0 -115.7594138456167 9.022802662406999
58848 70020.0 7178.140000000003 2.2545240054942526e-16 98.62386964 135.0 -116.11640857571642 9.97460104975387
58848 70030.0 7178.140000000003 2.247668860789608e-16 98.62386964 135.0 -114.47342276016032 8.92641889144488
58848 70040.0 7178.140000000001 2.6318101140688544e-17 98.62386964 135.0 -194.95220021146824 90.0
58848 70050.0 7178.14 1.5406746359773182e-17 98.62386964 135.0 -194.3573965542211 90.0
58848 70060.0 7178.140000000003 2.224505158714095e-16 98.62386964 135.0 -107.22439601183592 3.461803114861953
58848 70070.0 7178.139999999998 3.3310488298078044e-16 98.62386964 135.0 75.96703659976433 -179.13482583949116
58848 70080.0 7178.140000000001 2.907828970264462e-17 98.62386964 135.0 -192.57298558247965 90.0
58848 70090.0 7178.139999999999 1.8895599132837498e-17 98.62386964 135.0 -11.978181925232557 -90.0
58848 70100.0 7178.14 1.1107690603988802e-16 98.62386964 135.0 76.82001060955263 -178.203388877538
58848 70110.0 7178.14 1.849054069642979e-17 98.62386964 135.0 -10.788574610738266 -90.0
58848 70120.0 7178.140000000002 2.246097526724339e-16 98.62386964 135.0 -108.86126807870396 8.667497125212858
58848 70130.0 7178.139999999997 3.3312625681944667e-16 98.62386964 135.0 -278.51741399092356 178.91844669467957
58848 70140.0 7178.140000000003 2.221011298677939e-16 98.62386964 135.0 -97.711482170162 -1.2926814688347954
58848 70150.0 7178.140000000003 2.2210460253041543e-16 98.62386964 135.0 -99.74114948202985 1.3317895002801738
58848 70160.0 7178.140000000002 2.2525194495703144e-16 98.62386964 135.0 -107.49493912594258 9.680382801440016
58848 70170.0 7178.14 1.167946773856023e-17 98.62386964 135.0 -187.21975266725536 90.0
58848 70180.0 7178.140000000003 2.221101498834684e-16 98.62386964 135.0 -98.01693144314144 1.39198243313322
58848 70190.0 7178.14 1.721020135745915e-17 98.62386964 135.0 -186.03014535276108 90.0
58848 70200.0 7178.14 1.1107171369211761e-16 98.62386964 135.0 82.85556872591657 -178.29091042143054
58848 70210.0 7178.140000000003 2.221704292172911e-16 98.62386964 135.0 -96.7689386032024 1.9284005649356
58848 70220.0 7178.140000000003 2.2208498367251975e-16 98.62386964 135.0 -95.338333975565 1.0925995945453673
58848 70230.0 7178.140000000001 1.1490283850992335e-17 98.62386964 135.0 -183.6509307237725 90.0
58848 70240.0 7178.140000000001 7.062392468145228e-18 98.62386964 135.0 -183.0561270665254 90.0
58848 70250.0 7178.140000000001 1.1261058372083154e-16 98.62386964 135.0 -262.8269493540991 170.36562594482086
58848 70260.0 7178.140000000003 2.2228871801714826e-16 98.62386964 135.0 -94.55195205078337 2.685432298752309
58848 70270.0 7178.140000000003 2.220453669494518e-16 98.62386964 135.0 -91.4218232315903 0.1501071368063637
58848 70280.0 7178.140000000003 2.220608713103965e-16 98.62386964 135.0 -91.37041774646309 0.6935053089262694
58848 70290.0 7178.14 1.1196325161342307e-16 98.62386964 135.0 82.48448990571777 -172.5665986860074
58848 70300.0 7178.139999999999 1.1118851318070355e-16 98.62386964 135.0 -266.35408218517836 176.8667770621359
58848 70310.0 7178.140000000003 2.224405624635226e-16 98.62386964 135.0 -85.47334173934166 -3.4191597264536844
58848 70320.0 7178.14 1.1146997260356247e-16 98.62386964 135.0 86.5656140396484 -174.86331184819662
58848 70330.0 7178.140000000003 2.2296840643896206e-16 98.62386964 135.0 -82.48547940500757 -5.217414746293495
58848 70340.0 7178.140000000003 2.222334237335869e-16 98.62386964 135.0 -84.74605552705394 -2.3620349669999454
58848 70350.0 7178.139999999998 3.3448070552581793e-16 98.62386964 135.0 88.21685543063802 -174.7301422674448
58848 70360.0 7178.140000000005 4.441115387785371e-16 98.62386964 135.0 -85.34393379652452 -0.5745493830351269
58848 70370.0 7178.139999999999 1.1106697536556362e-16 98.62386964 135.0 93.05121406756751 -178.37489358988
58848 70380.0 7178.140000000002 2.223747372899815e-16 98.62386964 135.0 -81.60644593661378 -3.122429928451519
58848 70390.0 7178.139999999998 3.332196028305479e-16 98.62386964 135.0 94.13131724431642 -178.2653894521346
58848 70400.0 7178.140000000003 2.2394114970474695e-16 98.62386964 135.0 -76.07720046324037 -7.4620680873307
58848 70410.0 7178.14 1.4252858125706367e-17 98.62386964 135.0 7.055535106676094 -90.0
58848 70420.0 7178.14 1.4265215216043365e-17 98.62386964 135.0 -172.3496612360767 90.0
58848 70430.0 7178.140000000004 4.452444862890919e-16 98.62386964 135.0 -77.62651942366391 -4.128338155165699
58848 70440.0 7178.140000000003 2.234898444025037e-16 98.62386964 135.0 -74.64057392782588 -6.51947999375661
58848 70450.0 7178.140000000001 5.0368109284606057e-17 98.62386964 135.0 9.434749735664674 -90.0
58848 70460.0 7178.14 1.1386079370643813e-16 98.62386964 135.0 87.20917963367833 -167.17962624076648
58848 70470.0 7178.140000000003 2.2208281351909596e-16 98.62386964 135.0 -78.31280534899497 -1.0628376008460634
58848 70480.0 7178.14 2.139348920023691e-17 98.62386964 135.0 11.219160707406084 -90.0
58848 70490.0 7178.140000000003 2.2901091334879834e-16 98.62386964 135.0 -64.01772774512605 -14.168307890220673
58848 70500.0 7178.14 1.1596794753542344e-16 98.62386964 135.0 85.61547898525316 -163.20671096335278
58848 70510.0 7178.140000000003 2.2367838006944014e-16 98.62386964 135.0 -70.06717453194004 -6.92925378891241
58848 70520.0 7178.140000000001 3.91492367180844e-17 98.62386964 135.0 13.598375336394666 -90.0
58848 70530.0 7178.140000000003 2.2643016681379197e-16 98.62386964 135.0 -64.51181223026491 -11.295008776093285
58848 70540.0 7178.140000000004 4.443211958026091e-16 98.62386964 135.0 -77.06358189511006 1.8515645459990289
58848 70550.0 7178.140000000003 2.4178791687917866e-16 98.62386964 135.0 -51.30246110251226 -23.314752589351595
58848 70560.0 7178.140000000002 2.2205042722350273e-16 98.62386964 135.0 -73.6074942039133 -0.4149158307034458
58848 70570.0 7178.140000000003 2.3818694839803505e-16 98.62386964 135.0 -52.21247429279613 -21.21513208457348
58848 70580.0 7178.14 9.398334237124105e-18 98.62386964 135.0 17.167197279877538 -90.0
58848 70590.0 7178.140000000003 2.3692481419763146e-16 98.62386964 135.0 -51.82360370374669 -20.414395359128598
58848 70600.0 7178.140000000003 2.2791962723424354e-16 98.62386964 135.0 -58.605859404482246 -13.037336001145915
58848 70610.0 7178.14 2.0110922013966506e-17 98.62386964 135.0 18.95160825161895 -90.0
58848 70620.0 7178.140000000002 2.229820939504847e-16 98.62386964 135.0 -75.70937814515261 5.2557900540187426
58848 70630.0 7178.14 1.1610946535702402e-16 98.62386964 135.0 93.11805497052698 -162.97683940441368
58848 70640.0 7178.140000000001 5.3614984955164554e-17 98.62386964 135.0 20.736019223360408 -90.0
58848 70650.0 7178.140000000004 4.469187130879824e-16 98.62386964 135.0 -62.218462100227086 -6.450715019165378
58848 70660.0 7178.140000000003 2.4334947431055893e-16 98.62386964 135.0 -43.92074033770065 -24.153633124444635
58848 70670.0 7178.139999999999 1.1244611190934522e-16 98.62386964 135.0 -238.3520944360592 170.87252463116107
58848 70680.0 7178.140000000004 4.500363362072944e-16 98.62386964 135.0 -57.55980900684009 -9.324957140810913
58848 70690.0 7178.140000000004 4.449252317882841e-16 98.62386964 135.0 -62.77702051148394 -3.5129419789199456
58848 70700.0 7178.140000000002 2.2573446376355303e-16 98.62386964 135.0 -55.32138120514096 -10.373777628015757
58848 70710.0 7178.140000000003 2.306778613486146e-16 98.62386964 135.0 -49.37552874720773 -15.72482642870181
58848 70720.0 7178.140000000002 2.22311508578995e-16 98.62386964 135.0 -67.31342397843474 2.807872459772321
58848 70730.0 7178.140000000003 2.292590711710936e-16 98.62386964 135.0 -49.498823163793645 -14.411924697621657
58848 70740.0 7178.140000000003 2.2553619091749356e-16 98.62386964 135.0 -73.41086146122124 10.094917257053112
58848 70750.0 7178.140000000003 2.309703715136658e-16 98.62386964 135.0 -46.74062196290038 -15.980518584020583
58848 70760.0 7178.140000000003 2.227309096962549e-16 98.62386964 135.0 -57.627321553823506 -4.499015335850338
58848 70770.0 7178.140000000002 2.232356592186575e-16 98.62386964 135.0 -67.45280384216679 5.921270609740062
58848 70780.0 7178.140000000003 2.222289644120333e-16 98.62386964 135.0 -63.27072539037383 2.3339958151942786
58848 70790.0 7178.140000000002 2.3371929746783603e-16 98.62386964 135.0 -42.15590558216098 -18.186020335771406
58848 70800.0 7178.140000000002 2.3590408527101736e-16 98.62386964 135.0 -40.009587690834465 -19.7375345698508
58848 70810.0 7178.14 7.175597638285261e-18 98.62386964 135.0 30.847681396561853 -90.0
58848 70820.0 7178.140000000002 2.245833348837257e-16 98.62386964 135.0 -49.934342258812464 -8.623172687378508
58848 70830.0 7178.14 1.2722650374870236e-16 98.62386964 135.0 92.80359335800831 -150.7663046469521
58848 70840.0 7178.14 5.714014807933621e-17 98.62386964 135.0 32.632092368303304 -90.0
58848 70850.0 7178.140000000002 2.2583018018203974e-16 98.62386964 135.0 -67.27871037419973 10.505606399750178
58848 70860.0 7178.140000000003 2.419643899803577e-16 98.62386964 135.0 -32.76677580843348 -23.411524508768906
58848 70870.0 7178.139999999999 1.6572378083975925e-18 98.62386964 135.0 -145.58349665995522 90.0
58848 70880.0 7178.14 1.8336806410858662e-16 98.62386964 135.0 72.27336511053316 -127.26205811324127
58848 70890.0 7178.14 1.1551958185118646e-16 98.62386964 135.0 109.56612847247048 -163.96001781793146
58848 70900.0 7178.140000000003 2.505799501019507e-16 98.62386964 135.0 -26.189096365387986 -27.60998932282581
58848 70910.0 7178.140000000002 2.346818347961481e-16 98.62386964 135.0 -34.31601115898648 -18.88827087198016
58848 70920.0 7178.140000000002 2.4739917584562377e-16 98.62386964 135.0 -26.44287206791515 -26.166606305804354
58848 70930.0 7178.140000000002 2.312269619916809e-16 98.62386964 135.0 -35.8136208228343 -16.20105389363809
58848 70940.0 7178.14 1.778275782086066e-16 98.62386964 135.0 77.21283144300361 -128.63270250222885
58848 70950.0 7178.140000000002 2.222978242898572e-16 98.62386964 135.0 -48.09005238192601 -2.7350150200520513
58848 70960.0 7178.140000000002 2.2609733731715363e-16 98.62386964 135.0 -61.094888469285785 10.864624724554847
58848 70970.0 7178.139999999999 1.4508941781517277e-16 98.62386964 135.0 40.364539912516186 -89.99999999999999
58848 70980.0 7178.139999999999 4.9499052839729495e-17 98.62386964 135.0 40.9593435697633 -90.0
58848 70990.0 7178.140000000003 2.27519700848765e-16 98.62386964 135.0 -61.040870278585125 12.595017505595592
58848 71000.0 7178.140000000002 2.3350550272799243e-16 98.62386964 135.0 -29.82539936857466 -18.025649747167694
58848 71010.0 7178.140000000002 2.643039556691347e-16 98.62386964 135.0 -14.408066050038927 -32.8481794084563
58848 71020.0 7178.14 1.159229169459071e-16 98.62386964 135.0 -209.94205973000476 163.28061792875664
58848 71030.0 7178.140000000002 2.2777937536281305e-16 98.62386964 135.0 -33.18254467925416 -12.884093464746783
58848 71040.0 7178.140000000002 2.5997366601267385e-16 98.62386964 135.0 -14.132747684359417 -31.339086802394345
58848 71050.0 7178.14 1.0628427198362008e-16 98.62386964 135.0 45.122969170493334 -90.0
58848 71060.0 7178.140000000002 2.2883814652456223e-16 98.62386964 135.0 -30.286294422004882 -13.99593275025465
58848 71070.0 7178.140000000002 2.379294939700605e-16 98.62386964 135.0 -22.63258342834538 -21.05484008666697
58848 71080.0 7178.139999999999 1.1235092149767407e-16 98.62386964 135.0 -214.2724193034399 171.1797994456747
58848 71090.0 7178.140000000001 5.633093501647529e-17 98.62386964 135.0 47.50218379948192 -90.0
58848 71100.0 7178.14 1.2511835289686547e-16 98.62386964 135.0 -194.44366970510757 152.5406571618366
58848 71110.0 7178.140000000002 2.3840824195035572e-16 98.62386964 135.0 -19.95649030247439 -21.35171858354938
58848 71120.0 7178.139999999999 1.2185602564605534e-16 98.62386964 135.0 114.94357932917892 -155.65698455795552
58848 71130.0 7178.140000000002 2.3936223579182707e-16 98.62386964 135.0 -18.190153725181393 -21.928447846348096
58848 71140.0 7178.140000000002 2.6474112657925125e-16 98.62386964 135.0 -6.529367016117357 -32.99443089816501
58848 71150.0 7178.140000000003 2.6229892322993994e-16 98.62386964 135.0 -6.7655156002871655 -32.16347865674803
58848 71160.0 7178.140000000003 2.240919044024997e-16 98.62386964 135.0 -30.58339236407883 -7.750798235709209
58848 71170.0 7178.14 6.216108774350623e-18 98.62386964 135.0 52.260613057459075 -90.0
58848 71180.0 7178.140000000001 1.0000268928748532e-16 98.62386964 135.0 52.8554167147062 -90.0
58848 71190.0 7178.14 5.934444331324958e-17 98.62386964 135.0 53.45022037195338 -90.0
58848 71200.0 7178.139999999997 4.481106005880262e-16 98.62386964 135.0 136.3633039531467 -172.31827992394614
58848 71210.0 7178.14 9.743044548432725e-17 98.62386964 135.0 54.63982768644766 -90.0
58848 71220.0 7178.14 9.59960533052122e-19 98.62386964 135.0 55.23463134369478 -90.0
58848 71230.0 7178.139999999997 3.3734558761940875e-16 98.62386964 135.0 136.6942967103951 -170.86486170945315
58848 71240.0 7178.140000000001 5.727469234629781e-17 98.62386964 135.0 56.424238658189125 -90.0
58848 71250.0 7178.140000000003 2.2736634242771614e-16 98.62386964 135.0 -20.560087663875816 -12.420870020687925
58848 71260.0 7178.140000000004 4.544714155187304e-16 98.62386964 135.0 -20.11573440283859 -12.270419624478034
58848 71270.0 7178.140000000002 2.223751566488888e-16 98.62386964 135.0 -28.666940354083803 -3.1244100159856565
58848 71280.0 7178.139999999997 3.356694721840145e-16 98.62386964 135.0 141.66402417318122 -172.86057088600353
58848 71290.0 7178.140000000002 2.307965213232274e-16 98.62386964 135.0 -14.772628895250948 -15.829114160324213
58848 71300.0 7178.14 4.715483848434993e-17 98.62386964 135.0 59.99306060167195 -90.0
58848 71310.0 7178.139999999999 1.2119928721460579e-16 98.62386964 135.0 126.94043172932597 -156.35256747040685
58848 71320.0 7178.139999999999 1.4708326016802789e-16 98.62386964 135.0 110.19285618278172 -139.01018826661544
58848 71330.0 7178.140000000002 2.3703095290105363e-16 98.62386964 135.0 -7.739309842092952 -20.483218584493635
58848 71340.0 7178.140000000002 2.4264516608025127e-16 98.62386964 135.0 -3.84766500823915 -23.780059761100308
58848 71350.0 7178.139999999999 5.800399055488678e-17 98.62386964 135.0 62.967078887907704 -90.0
58848 71360.0 7178.139999999999 1.163127168166541e-16 98.62386964 135.0 136.21470149730928 -162.6528189521544
58848 71370.0 7178.14 1.114791145579836e-17 98.62386964 135.0 64.15668620240197 -90.0
58848 71380.0 7178.139999999999 6.322046665176659e-17 98.62386964 135.0 64.7514898596491 -90.0
58848 71390.0 7178.140000000002 2.403319999578219e-16 98.62386964 135.0 -2.1579363421469226 -22.49577014095679
58848 71400.0 7178.139999999999 1.1507780560908982e-16 98.62386964 135.0 140.6848412311053 -164.74374405696187
58848 71410.0 7178.140000000003 2.222525510660094e-16 98.62386964 135.0 -25.942796806696265 2.478697638086842
58848 71420.0 7178.139999999999 7.631271840180325e-17 98.62386964 135.0 67.13070448863769 -90.0
58848 71430.0 7178.140000000002 2.2213956380569296e-16 98.62386964 135.0 -20.599132641186877 -1.675359212928309
58848 71440.0 7178.140000000002 2.242783932416385e-16 98.62386964 135.0 -13.586380719580292 -8.093307477287722
58848 71450.0 7178.140000000002 2.2357108600624844e-16 98.62386964 135.0 -27.784084461326813 6.6991999217059695
58848 71460.0 7178.140000000002 2.254288587516266e-16 98.62386964 135.0 -10.549559565874025 -9.940521316499696
58848 71470.0 7178.139999999999 1.1179952502498428e-16 98.62386964 135.0 153.34479165382245 -173.24006887894907
58848 71480.0 7178.140000000002 2.252149269559533e-16 98.62386964 135.0 -9.675456402129804 -9.625017165749625
58848 71490.0 7178.140000000002 2.3218646492567434e-16 98.62386964 135.0 -1.7086953311811568 -16.9969745794511
58848 71500.0 7178.139999999999 1.18001424445171e-16 98.62386964 135.0 142.0848790864286 -160.19574533981375
58848 71510.0 7178.140000000002 2.2209293639946625e-16 98.62386964 135.0 -18.71140728287908 1.1953446867410555
58848 71520.0 7178.140000000004 4.443037430393211e-16 98.62386964 135.0 -15.140675353912068 -1.780583584978779
58848 71530.0 7178.140000000002 2.2281797881610384e-16 98.62386964 135.0 -11.551349867281786 -4.775105414361895
58848 71540.0 7178.140000000002 2.2235223017869607e-16 98.62386964 135.0 -18.745892543282707 3.014240918886141
58848 71550.0 7178.139999999999 7.849620071520671e-17 98.62386964 135.0 74.86315203285054 -90.0
58848 71560.0 7178.139999999999 1.2652718156636322e-16 98.62386964 135.0 136.79519712856904 -151.33724143847132
58848 71570.0 7178.139999999999 1.149894276329984e-16 98.62386964 135.0 150.9587994212082 -164.9060400738633
58848 71580.0 7178.139999999999 4.2964743661754786e-17 98.62386964 135.0 76.64756300459202 -90.0
58848 71590.0 7178.140000000004 4.443446663279092e-16 98.62386964 135.0 -10.814704415798433 -1.9429289223624295
58848 71600.0 7178.140000000002 2.246229796367225e-16 98.62386964 135.0 -3.473228209056616 -8.68960147185707
58848 71610.0 7178.139999999999 1.9508076051229128e-17 98.62386964 135.0 78.43197397633348 -90.0
58848 71620.0 7178.139999999999 1.1112106070615737e-16 98.62386964 135.0 -188.5574373132366 177.58421494681718
58848 71630.0 7178.139999999999 3.693921275916289e-17 98.62386964 135.0 79.62158129082772 -90.0
58848 71640.0 7178.140000000003 2.226345438138471e-16 98.62386964 135.0 -5.611648532245762 -4.17196651967935
58848 71650.0 7178.140000000002 2.221332594687743e-16 98.62386964 135.0 -7.57000176082547 -1.6188096338524693
58848 71660.0 7178.14 9.65967865064545e-18 98.62386964 135.0 -98.59400773743081 90.0
58848 71670.0 7178.14 9.484115302185866e-18 98.62386964 135.0 82.0007959198163 -90.0
58848 71680.0 7178.139999999999 1.1108281856932433e-16 98.62386964 135.0 170.70426050912863 -178.10866093206516
58848 71690.0 7178.140000000002 2.2332638573897678e-16 98.62386964 135.0 -0.6679839615106928 -6.141612804178662
58848 71700.0 7178.139999999999 1.1179440023147312e-16 98.62386964 135.0 167.04747039742466 -173.2622635058669
58848 71710.0 7178.139999999999 2.683433076001572e-17 98.62386964 135.0 84.38001054880488 -90.0
58848 71720.0 7178.139999999999 1.114241124678875e-16 98.62386964 135.0 -180.15787578159362 175.13268998764565
58848 71730.0 7178.140000000004 4.441811930831443e-16 98.62386964 135.0 -3.2643262193164726 -1.1660559173843033
58848 71740.0 7178.14 1.111700252167447e-16 98.62386964 135.0 173.21038691307973 -177.0459653925334
58848 71750.0 7178.140000000002 2.2210636965813e-16 98.62386964 135.0 -1.889519328141562 -1.3512554940649744
58848 71760.0 7178.140000000002 2.2212221720243683e-16 98.62386964 135.0 -1.131296049730272 -1.5146751152290936
58848 71770.0 7178.139999999997 3.330894003185275e-16 98.62386964 135.0 177.28297284991154 -179.33414035762374
58848 71780.0 7178.139999999999 1.1118667792491092e-16 98.62386964 135.0 175.4277379129366 -176.88410176340167
58848 71790.0 7178.140000000002 2.2214057632259107e-16 98.62386964 135.0 0.8227040534838833 -1.684264246701839
58848 71800.0 7178.139999999999 9.759916930982987e-18 98.62386964 135.0 -90.26675653597079 90.0
58848 71810.0 7178.140000000003 2.221274769363945e-16 98.62386964 135.0 1.8931897906881028 -1.5651426694117165
58848 71820.0 7178.140000000004 4.443523310966641e-16 98.62386964 135.0 -1.0489965692648546 1.9718473477883591
58848 71830.0 7178.140000000001 2.221861041232148e-16 98.62386964 135.0 -0.5272792251820537 2.0449336609526783
58848 71840.0 7178.140000000002 2.2212117937921856e-16 98.62386964 135.0 3.616975016441386 -1.5045169234235887
58848 71850.0 7178.139999999999 1.1119308680884753e-16 98.62386964 135.0 179.5312772780018 -176.82401552773683
58848 71860.0 7178.140000000004 4.44316409793458e-16 98.62386964 135.0 1.4696916174907642 1.8323737900213208
58848 71870.0 7178.139999999999 1.110817844859387e-16 98.62386964 135.0 -174.22801357480694 178.12488263956615
58848 71880.0 7178.14 2.308403476822414e-18 98.62386964 135.0 94.49167272200637 -90.0
58848 71890.0 7178.140000000002 2.231171190134785e-16 98.62386964 135.0 -0.5336594182545105 5.620135797508056
58848 71900.0 7178.140000000001 2.221278350412335e-16 98.62386964 135.0 4.112760434821042 1.568519601679624
58848 71910.0 7178.14 3.51174628379383e-17 98.62386964 135.0 -83.7239163062522 90.0
58848 71920.0 7178.139999999999 4.956516295978588e-17 98.62386964 135.0 -83.1291126490051 90.0
58848 71930.0 7178.140000000002 2.220731755770818e-16 98.62386964 135.0 8.384773115094903 -0.9190821068528248
58848 71940.0 7178.140000000003 2.2248551863469335e-16 98.62386964 135.0 11.668235283366 -3.6077406178767486
58848 71950.0 7178.140000000002 2.2249523538213727e-16 98.62386964 135.0 5.0080874794991885 3.647210843237179
58848 71960.0 7178.14 2.797160087541604e-17 98.62386964 135.0 -80.7498980200165 90.0
58848 71970.0 7178.140000000001 2.2627073517637366e-16 98.62386964 135.0 -1.2461569628415892 11.091062600072242
58848 71980.0 7178.140000000003 2.2974600715430795e-16 98.62386964 135.0 -4.437423912626385 14.877133207104208
58848 71990.0 7178.140000000001 1.5528617072027187e-17 98.62386964 135.0 101.03451295172495 -90.0
58848 72000.0 7178.140000000004 4.44347200834659e-16 98.62386964 135.0 13.581855468474899 -1.952538859502828
58848 72010.0 7178.140000000002 2.283278427293747e-16 98.62386964 135.0 -1.2484647371152722 13.47258500333451
58848 72020.0 7178.14 2.5989874475728693e-17 98.62386964 135.0 102.81892392346641 -90.0
58848 72030.0 7178.140000000003 2.226465687970763e-16 98.62386964 135.0 9.199550912974823 4.2141766677387045
58848 72040.0 7178.140000000002 2.2226585531875416e-16 98.62386964 135.0 16.565228540453976 -2.556697302493326
58848 72050.0 7178.14 5.468954537756897e-18 98.62386964 135.0 -75.39666510479218 90.0
58848 72060.0 7178.140000000002 2.2319465545456096e-16 98.62386964 135.0 9.37923908462751 5.81889946782748
58848 72070.0 7178.139999999998 3.3423541096666086e-16 98.62386964 135.0 191.00054252153643 -175.2076003118343
58848 72080.0 7178.139999999999 5.441315307679999e-18 98.62386964 135.0 -73.61225413305077 90.0
58848 72090.0 7178.140000000002 2.3118983211079126e-16 98.62386964 135.0 0.8131967859454181 16.169352738250982
58848 72100.0 7178.140000000001 2.232217748813568e-16 98.62386964 135.0 11.69054374669076 5.88680943475281
58848 72110.0 7178.140000000003 2.2665335181734066e-16 98.62386964 135.0 6.598072212936186 11.574084625754505
58848 72120.0 7178.139999999999 5.318146831974557e-17 98.62386964 135.0 -71.23303950406218 90.0
58848 72130.0 7178.140000000002 2.2270151600175615e-16 98.62386964 135.0 14.959904938437148 4.40185921474783
58848 72140.0 7178.140000000002 2.338093050626283e-16 98.62386964 135.0 1.7035258244634575 18.253041985968693
58848 72150.0 7178.140000000002 2.518737359308357e-16 98.62386964 135.0 -7.616160360320921 28.16753182800019
58848 72160.0 7178.140000000003 4.5758979580362665e-16 98.62386964 135.0 7.193760594665891 13.952414530260489
58848 72170.0 7178.14 5.643596223881414e-17 98.62386964 135.0 -68.25902121782643 90.0
58848 72180.0 7178.139999999999 4.091129265058218e-18 98.62386964 135.0 112.33578243942074 -90.0
58848 72190.0 7178.139999999997 3.3753711226819513e-16 98.62386964 135.0 -147.73426931696383 170.66485541363167
58848 72200.0 7178.140000000002 2.2396879672436463e-16 98.62386964 135.0 16.00951605439575 7.515873699519221
58848 72210.0 7178.14 1.1295116691062506e-16 98.62386964 135.0 -145.27596810621412 169.39616151737627
58848 72220.0 7178.140000000003 2.250775400400992e-16 98.62386964 135.0 15.298443134677598 9.41655393373172
58848 72230.0 7178.140000000001 5.3519785832958994e-18 98.62386964 135.0 -64.69019927434356 90.0
58848 72240.0 7178.139999999999 1.4225478702775683e-17 98.62386964 135.0 -64.09539561709644 90.0
58848 72250.0 7178.140000000002 2.249731300832002e-16 98.62386964 135.0 17.24456576295833 9.254842277192393
58848 72260.0 7178.140000000001 2.4841593671566513e-16 98.62386964 135.0 0.4542889947254005 26.639922702672486
58848 72270.0 7178.140000000002 2.3847102912297523e-16 98.62386964 135.0 6.29874076333919 21.39027459130582
58848 72280.0 7178.140000000002 2.367845236062692e-16 98.62386964 135.0 7.9608294338218695 20.322989578070267
58848 72290.0 7178.140000000002 2.3505950484423e-16 98.62386964 135.0 9.723115754256476 19.155506914882775
58848 72300.0 7178.139999999999 1.127486773376978e-16 98.62386964 135.0 -140.48723356938694 169.96065989577343
58848 72310.0 7178.140000000002 2.397052307226829e-16 98.62386964 135.0 7.937021781039018 22.13120820259457
58848 72320.0 7178.140000000003 2.325482733989382e-16 98.62386964 135.0 13.376816901501806 17.286216739378908
58848 72330.0 7178.139999999999 9.347409574718956e-17 98.62386964 135.0 -58.74216270187215 90.0
58848 72340.0 7178.14 3.713016920130369e-17 98.62386964 135.0 -58.147359044624935 90.0
58848 72350.0 7178.139999999997 3.348325279841542e-16 98.62386964 135.0 206.56085813038027 -174.1134135177581
58848 72360.0 7178.139999999999 4.628805758230158e-17 98.62386964 135.0 -56.957751730130695 90.0
58848 72370.0 7178.140000000002 2.412991035656644e-16 98.62386964 135.0 10.593099635445899 23.04395229167051
58848 72380.0 7178.140000000002 2.270931669458472e-16 98.62386964 135.0 22.127900051427396 12.103955532936244
58848 72390.0 7178.140000000002 2.248561896524024e-16 98.62386964 135.0 25.756511367143748 9.07014787446702
58848 72400.0 7178.14 1.1131648050410896e-16 98.62386964 135.0 211.25508448376107 -175.83362158490317
58848 72410.0 7178.14 1.1267190523662641e-16 98.62386964 135.0 -134.16736625282786 170.18363280893286
58848 72420.0 7178.139999999999 3.790397941971977e-18 98.62386964 135.0 -53.38892978664778 90.0
58848 72430.0 7178.139999999999 1.3065783695298068e-16 98.62386964 135.0 185.3868734418088 -148.18099957120947
58848 72440.0 7178.14 1.2434916415013815e-16 98.62386964 135.0 -115.42999868116324 153.23067620900972
58848 72450.0 7178.140000000002 2.2781924011629887e-16 98.62386964 135.0 51.3233326884121 -12.927851503318509
58848 72460.0 7178.140000000001 5.096374150308652e-17 98.62386964 135.0 -51.009715157659194 90.0
58848 72470.0 7178.139999999999 1.1581132709464963e-16 98.62386964 135.0 -123.88031121524979 163.4653997148377
58848 72480.0 7178.140000000002 2.2748614215119423e-16 98.62386964 135.0 52.73702491944376 -12.557132762608719
58848 72490.0 7178.140000000002 2.9138269764191585e-16 98.62386964 135.0 0.4188649147151271 40.35583089936702
58848 72500.0 7178.14 1.439326939095314e-16 98.62386964 135.0 -99.10566025048475 140.47515972181415
58848 72510.0 7178.14 1.300988435084921e-16 98.62386964 135.0 -106.61569540952442 148.57999853810094
58848 72520.0 7178.140000000002 2.233351384486861e-16 98.62386964 135.0 48.72155237595004 -6.162445590126414
58848 72530.0 7178.140000000002 3.075328593563483e-16 98.62386964 135.0 -0.6246541220173419 43.77856456508807
58848 72540.0 7178.140000000002 2.250254069064222e-16 98.62386964 135.0 53.08488926519739 -9.336175164879423
58848 72550.0 7178.14 2.3574259831313288e-17 98.62386964 135.0 -45.65648224243491 90.0
58848 72560.0 7178.140000000003 4.440956928813669e-16 98.62386964 135.0 45.24791284990516 -0.3095914350929626
58848 72570.0 7178.140000000002 2.238242655565992e-16 98.62386964 135.0 52.763167153371604 -7.230042081312279
58848 72580.0 7178.140000000003 2.364078571556034e-16 98.62386964 135.0 26.052870080867354 20.075058648439192
58848 72590.0 7178.14 5.460256084943642e-17 98.62386964 135.0 136.72273238655367 -90.0
58848 72600.0 7178.140000000002 2.7485003697096445e-16 98.62386964 135.0 11.206412218239153 36.11112382556163
58848 72610.0 7178.140000000001 1.1050607659536143e-16 98.62386964 135.0 -42.08766029895208 90.0
58848 72620.0 7178.140000000002 2.603995394804693e-16 98.62386964 135.0 79.99977364168205 -31.49263028338702
58848 72630.0 7178.140000000003 2.6069717122670823e-16 98.62386964 135.0 17.502703074033484 31.599243941508753
58848 72640.0 7178.140000000003 2.325194538248658e-16 98.62386964 135.0 32.433368222266154 17.26338245052321
58848 72650.0 7178.140000000002 2.504973240324796e-16 98.62386964 135.0 22.71772174743773 27.573832582598747
58848 72660.0 7178.140000000002 2.3353724469820647e-16 98.62386964 135.0 32.836792448752774 18.049565538530835
58848 72670.0 7178.139999999997 3.368988926812019e-16 98.62386964 135.0 -119.86891487386936 171.35007651840021
58848 72680.0 7178.140000000003 2.3501051357367924e-16 98.62386964 135.0 32.95487292597267 19.121092375805276
58848 72690.0 7178.139999999998 3.3831941435410835e-16 98.62386964 135.0 -117.21993362388699 169.89070258291204
58848 72700.0 7178.140000000003 2.4282024233376056e-16 98.62386964 135.0 29.3919334693371 23.873639146935076
58848 72710.0 7178.140000000002 2.2971466884613787e-16 98.62386964 135.0 39.01269518726949 14.847681086249912
58848 72720.0 7178.139999999997 3.3332069835285925e-16 98.62386964 135.0 -123.30881837947587 177.76399831024239
58848 72730.0 7178.140000000002 2.2261277946193156e-16 98.62386964 135.0 50.95553066979077 4.094452918222881
58848 72740.0 7178.140000000001 7.064174849503227e-17 98.62386964 135.0 -34.35521275473922 90.0
58848 72750.0 7178.140000000002 2.226257965795033e-16 98.62386964 135.0 60.38058010946 -4.140989206952008
58848 72760.0 7178.139999999997 3.3350806007777826e-16 98.62386964 135.0 -120.21828868397273 177.05268324372784
58848 72770.0 7178.14 1.2829907163080523e-16 98.62386964 135.0 -92.49233887107893 149.92153708808115
58848 72780.0 7178.14 4.3404557813089494e-17 98.62386964 135.0 -31.975998125750642 90.0
58848 72790.0 7178.140000000002 2.230111654244467e-16 98.62386964 135.0 53.282436804782456 5.336368726714106
58848 72800.0 7178.140000000002 2.220868238766606e-16 98.62386964 135.0 60.33082439009574 -1.11721520135205
58848 72810.0 7178.140000000002 2.2204888290858955e-16 98.62386964 135.0 59.45275402315155 0.3556588228392684
58848 72820.0 7178.140000000003 2.3630671470693234e-16 98.62386964 135.0 40.39536947840247 20.00784702483547
58848 72830.0 7178.14 1.0170459064092369e-16 98.62386964 135.0 -29.001979839514842 90.0
58848 72840.0 7178.140000000002 2.238655430454992e-16 98.62386964 135.0 54.279977958021504 7.312845859710768
58848 72850.0 7178.140000000004 4.451132218106221e-16 98.62386964 135.0 66.0748391710184 -3.8872116960390004
58848 72860.0 7178.14 4.1264462106878245e-17 98.62386964 135.0 -27.21756886777348 90.0
58848 72870.0 7178.140000000003 2.2880207226506747e-16 98.62386964 135.0 49.41759083502778 13.959643954445948
58848 72880.0 7178.140000000003 2.226889764471658e-16 98.62386964 135.0 59.612292141883586 4.359746304837269
58848 72890.0 7178.140000000003 2.285233081718229e-16 98.62386964 135.0 50.89119676920071 13.675645334767259
58848 72900.0 7178.140000000003 2.2444103338950315e-16 98.62386964 135.0 56.78141613534078 8.380229625874318
58848 72910.0 7178.140000000002 2.2241420939538227e-16 98.62386964 135.0 62.452867096739844 3.3035823217224753
58848 72920.0 7178.140000000002 2.2258281424926267e-16 98.62386964 135.0 70.33649760432226 -3.985244528612821
58848 72930.0 7178.140000000003 2.574126917818923e-16 98.62386964 135.0 36.55601644908114 30.390040283875404
58848 72940.0 7178.14 1.2037726380145157e-16 98.62386964 135.0 -89.72178684487498 157.26264723507865
58848 72950.0 7178.140000000001 6.185418195781322e-17 98.62386964 135.0 -21.864335952549098 90.0
58848 72960.0 7178.14 1.1766743534417934e-16 98.62386964 135.0 -91.92195124139317 160.6524189460912
58848 72970.0 7178.14 1.181949993430444e-16 98.62386964 135.0 -90.61151750640758 159.93678886835272
58848 72980.0 7178.140000000003 2.2636679489439317e-16 98.62386964 135.0 58.705659274500526 11.214415744691724
58848 72990.0 7178.14 1.24363493594325e-16 98.62386964 135.0 -82.70271384509424 153.21759252153373
58848 73000.0 7178.140000000003 2.221891163103919e-16 98.62386964 135.0 69.04310903807169 2.0665732956149045
58848 73010.0 7178.140000000003 2.220484866372876e-16 98.62386964 135.0 71.36569954760873 0.3387864433250038
58848 73020.0 7178.139999999997 4.45317678877161e-16 98.62386964 135.0 -103.44389652701244 175.74318617519327
58848 73030.0 7178.140000000003 2.2591731398790676e-16 98.62386964 135.0 62.269980767509104 10.624112537918947
58848 73040.0 7178.140000000001 5.1237194748412814e-17 98.62386964 135.0 -16.511103037324816 90.0
58848 73050.0 7178.140000000001 4.8682763981831045e-17 98.62386964 135.0 -15.916299380077694 90.0
58848 73060.0 7178.139999999997 3.330842985693729e-16 98.62386964 135.0 254.0930041585857 -179.41449988141625
58848 73070.0 7178.140000000002 2.2254275397675157e-16 98.62386964 135.0 79.10765658799184 -3.834348653575299
58848 73080.0 7178.139999999997 4.487021957084364e-16 98.62386964 135.0 -95.90903837484937 171.77714996651312
58848 73090.0 7178.14 4.0352412251152874e-17 98.62386964 135.0 -13.537084751089115 90.0
58848 73100.0 7178.140000000003 2.220619435367602e-16 98.62386964 135.0 76.34172298458306 0.7159959215749331
58848 73110.0 7178.14 5.1084350871364745e-17 98.62386964 135.0 -12.347477436594874 90.0
58848 73120.0 7178.14 1.413744264075398e-17 98.62386964 135.0 168.24732622065235 -90.0
58848 73130.0 7178.140000000003 2.224923253120897e-16 98.62386964 135.0 82.47756503094698 -3.6354351530475086
58848 73140.0 7178.140000000003 2.2325295364273e-16 98.62386964 135.0 73.4730212878817 5.9639122472648705
58848 73150.0 7178.139999999998 3.3339537226270295e-16 98.62386964 135.0 -97.42472629524782 177.45646348764154
58848 73160.0 7178.140000000003 2.223133082625556e-16 98.62386964 135.0 77.80922730769755 2.8173135419433666
58848 73170.0 7178.140000000001 2.343857105526286e-17 98.62386964 135.0 -8.778655493111952 90.0
58848 73180.0 7178.140000000003 2.2260113500344284e-16 98.62386964 135.0 77.76378100001997 4.0523671641151875
58848 73190.0 7178.140000000003 2.2248071680894294e-16 98.62386964 135.0 78.82287798370263 3.588073837679658
58848 73200.0 7178.139999999999 1.124205924811981e-16 98.62386964 135.0 -87.94807959807987 170.95383507670937
58848 73210.0 7178.14 1.1348280388530664e-16 98.62386964 135.0 -84.44656974240402 168.04712887828066
58848 73220.0 7178.140000000001 7.473416243637437e-18 98.62386964 135.0 -5.80463720687625 90.0
58848 73230.0 7178.139999999999 1.112652600446453e-16 98.62386964 135.0 261.0031069950251 -176.21294054465426
58848 73240.0 7178.139999999999 1.1113646156098824e-16 98.62386964 135.0 -92.01785141450188 177.40282152211998
58848 73250.0 7178.140000000003 2.220717530773733e-16 98.62386964 135.0 86.8756861348368 -0.8959123699715825
58848 73260.0 7178.139999999999 1.112748969994382e-16 98.62386964 135.0 262.7132805349467 -176.13870311283435
58848 73270.0 7178.140000000001 1.7063466638708781e-18 98.62386964 135.0 177.16938107935945 -90.0
58848 73280.0 7178.14 1.1933674404866793e-17 98.62386964 135.0 177.76418473660667 -90.0
58848 73290.0 7178.14 1.1130028646605345e-16 98.62386964 135.0 264.30866384190716 -175.94967544805334
58848 73300.0 7178.140000000002 2.220749581889154e-16 98.62386964 135.0 89.90110937894124 -0.9473173278403327
58848 73310.0 7178.140000000003 2.2247154917765216e-16 98.62386964 135.0 93.09881725447069 -3.5502215461226494
58848 73320.0 7178.140000000002 2.221022939088736e-16 98.62386964 135.0 88.83747822145014 1.3059211441451084
58848 73330.0 7178.14 1.1203086062241523e-16 98.62386964 135.0 263.0443193031814 -172.306116280339
58848 73340.0 7178.140000000003 2.2212889146934305e-16 98.62386964 135.0 92.9114462637326 -1.5784395836431053
58848 73350.0 7178.140000000004 4.4411772443845e-16 98.62386964 135.0 92.57707901868132 -0.649268681344714
58848 73360.0 7178.14 1.111606239825842e-16 98.62386964 135.0 269.664022724085 -177.14140872950117
58848 73370.0 7178.140000000004 4.442701343009567e-16 98.62386964 135.0 94.75264236455342 -1.6352247127224822
58848 73380.0 7178.140000000003 2.2218447868804107e-16 98.62386964 135.0 95.74538192119999 -2.033160612121919
58848 73390.0 7178.140000000003 2.224000971437143e-16 98.62386964 135.0 97.54701041476221 -3.2399854484370167
58848 73400.0 7178.140000000004 4.447371950022036e-16 98.62386964 135.0 97.99512245964853 -3.0932938360761106
58848 73410.0 7178.139999999998 3.33630623571105e-16 98.62386964 135.0 272.16546764524753 -176.668835364428
58848 73420.0 7178.140000000002 2.220620200090686e-16 98.62386964 135.0 95.37386289916735 0.7175730388993041
58848 73430.0 7178.140000000002 2.22337966480871e-16 98.62386964 135.0 99.62984898372382 -2.9436093884100427
58848 73440.0 7178.14 1.1248907133324787e-16 98.62386964 135.0 268.01837001225215 -170.73732675969114
58848 73450.0 7178.140000000003 2.2294745115547984e-16 98.62386964 135.0 103.0339490475618 -5.158102137753681
58848 73460.0 7178.140000000004 4.445967788346094e-16 98.62386964 135.0 101.20871294805598 -2.738062381000751
58848 73470.0 7178.14 1.6006786976455622e-17 98.62386964 135.0 189.06545422430236 -90.0
58848 73480.0 7178.140000000003 2.2206904460596077e-16 98.62386964 135.0 98.81020612894324 0.8500517526063402
58848 73490.0 7178.140000000001 3.291920928426888e-17 98.62386964 135.0 190.2550615387967 -90.0
58848 73500.0 7178.139999999997 3.3318093317735685e-16 98.62386964 135.0 -77.65110077635659 178.5009659724004
58848 73510.0 7178.140000000002 2.2848329673318304e-16 98.62386964 135.0 115.07901779420371 -13.63434894091277
58848 73520.0 7178.140000000001 4.1012344629011285e-17 98.62386964 135.0 192.03947251053808 -90.0
58848 73530.0 7178.140000000001 7.724672428179736e-17 98.62386964 135.0 192.6342761677853 -90.0
58848 73540.0 7178.140000000004 4.449295638228377e-16 98.62386964 135.0 106.75109729921992 -3.522017474187512
58848 73550.0 7178.14 1.0385851366804524e-17 98.62386964 135.0 193.8238834822795 -90.0
58848 73560.0 7178.140000000004 4.448836010376442e-16 98.62386964 135.0 107.84318015817453 -3.4244930186478904
58848 73570.0 7178.140000000003 2.272085015755838e-16 98.62386964 135.0 117.25232634827668 -12.238835551502826
58848 73580.0 7178.140000000002 2.2611803672801423e-16 98.62386964 135.0 94.71637585002766 10.891918603993302
58848 73590.0 7178.14 3.7944293715265096e-18 98.62386964 135.0 16.2030981112681 90.0
58848 73600.0 7178.140000000003 2.2506125081399354e-16 98.62386964 135.0 116.18941822987816 -9.391516461362949
58848 73610.0 7178.140000000003 2.2602418664376604e-16 98.62386964 135.0 118.16028692468099 -10.767581498918545
58848 73620.0 7178.140000000003 2.263906302621292e-16 98.62386964 135.0 119.23230957383123 -11.244800490821667
58848 73630.0 7178.140000000002 2.254585203473646e-16 98.62386964 135.0 118.56575295039195 -9.983440210135257
58848 73640.0 7178.140000000001 3.9406056225794854e-17 98.62386964 135.0 199.1771163975038 -90.0
58848 73650.0 7178.14 1.9039177148285472e-17 98.62386964 135.0 19.77192005475102 90.0
58848 73660.0 7178.140000000003 2.3142787461811553e-16 98.62386964 135.0 126.73810426604186 -16.37138055404372
58848 73670.0 7178.140000000003 2.3774494640403095e-16 98.62386964 135.0 131.9005315237144 -20.93900415446912
58848 73680.0 7178.140000000001 1.4541234683272578e-16 98.62386964 135.0 251.33004552520833 -139.77371449871598
58848 73690.0 7178.140000000002 2.223379171686513e-16 98.62386964 135.0 115.09449693275249 -2.943362249012893
58848 73700.0 7178.14 3.768692628825793e-17 98.62386964 135.0 202.74593834098673 -90.0
58848 73710.0 7178.14 1.7535041837906e-17 98.62386964 135.0 203.34074199823385 -90.0
58848 73720.0 7178.14 5.988397146710331e-17 98.62386964 135.0 203.93554565548098 -90.0
58848 73730.0 7178.140000000003 2.289824254087167e-16 98.62386964 135.0 128.67039344261474 -14.140044129886556
58848 73740.0 7178.140000000002 2.2259535395517114e-16 98.62386964 135.0 111.09384442999723 4.0313085399780615
58848 73750.0 7178.14 1.8053989752569773e-17 98.62386964 135.0 205.71995662722242 -90.0
58848 73760.0 7178.140000000003 2.4479135945637227e-16 98.62386964 135.0 141.21027502671694 -24.895514742247407
58848 73770.0 7178.14 5.613407382069907e-18 98.62386964 135.0 206.90956394171678 -90.0
58848 73780.0 7178.14 8.527444577768548e-18 98.62386964 135.0 207.50436759896385 -90.0
58848 73790.0 7178.14 2.888804996102066e-17 98.62386964 135.0 208.09917125621098 -90.0
58848 73800.0 7178.140000000003 2.293317071413914e-16 98.62386964 135.0 133.1763488518719 -14.482373938413778
58848 73810.0 7178.140000000003 2.295817305948184e-16 98.62386964 135.0 134.01079212073464 -14.722013550029299
58848 73820.0 7178.140000000003 2.3142115472853517e-16 98.62386964 135.0 136.24929853149328 -16.365716303540815
58848 73830.0 7178.14 8.687098638045407e-17 98.62386964 135.0 210.47838588519957 -90.0
58848 73840.0 7178.140000000003 2.232468285388972e-16 98.62386964 135.0 127.0220351410299 -5.948845598583202
58848 73850.0 7178.14 1.1909995970152268e-16 98.62386964 135.0 280.4448250224434 -158.77683182274947
58848 73860.0 7178.140000000002 2.221849883953992e-16 98.62386964 135.0 124.29965662542902 -2.0368597684879526
58848 73870.0 7178.139999999997 3.3938816045713534e-16 98.62386964 135.0 291.7820004341895 -168.92439992000138
58848 73880.0 7178.140000000002 2.2495766072638676e-16 98.62386964 135.0 132.68303554700714 -9.230631375571853
58848 73890.0 7178.14 1.3275353635705076e-16 98.62386964 135.0 270.79906389605316 -146.75185606737065
58848 73900.0 7178.140000000003 2.296633148181743e-16 98.62386964 135.0 139.4412881196048 -14.799276633675158
58848 73910.0 7178.140000000002 2.243988956097225e-16 98.62386964 135.0 133.54369154863494 -8.306876405458192
58848 73920.0 7178.139999999999 4.4907051275652777e-17 98.62386964 135.0 215.83161880042385 -90.0
58848 73930.0 7178.14 2.530951896688701e-16 98.62386964 135.0 242.44472835368495 -116.01830589601383
58848 73940.0 7178.14 1.1906390228447045e-16 98.62386964 135.0 285.8427841474753 -158.8215580325571
58848 73950.0 7178.140000000004 4.680373285562857e-16 98.62386964 135.0 146.0238559701921 -18.40782619802677
58848 73960.0 7178.139999999999 1.4750447721435703e-16 98.62386964 135.0 267.0330907938662 -138.82225736445378
58848 73970.0 7178.140000000002 2.5098326237899637e-16 98.62386964 135.0 156.5911520001303 -27.785514913470625
58848 73980.0 7178.14 1.173863670873722e-16 98.62386964 135.0 -31.646558359660958 161.04699910356777
58848 73990.0 7178.14 1.1165772229924497e-16 98.62386964 135.0 -43.88928610856334 173.88453050971725
58848 74000.0 7178.140000000003 2.418738981518846e-16 98.62386964 135.0 153.9520147974349 -23.361966739033882
58848 74010.0 7178.14 5.634352610084186e-17 98.62386964 135.0 221.18485171564814 -90.0
58848 74020.0 7178.14 2.6800845230320512e-17 98.62386964 135.0 41.779655372895384 90.0
58848 74030.0 7178.139999999997 3.618230778862621e-16 98.62386964 135.0 -24.628381334784095 157.00284036492658
58848 74040.0 7178.140000000003 2.4640270235770786e-16 98.62386964 135.0 158.66025739335157 -25.690994705961973
58848 74050.0 7178.14 1.1172452788742763e-16 98.62386964 135.0 -40.008621731424725 173.57268807606144
58848 74060.0 7178.140000000003 2.424608621308908e-16 98.62386964 135.0 157.83989500895407 -23.681025007070122
58848 74070.0 7178.139999999999 2.955121944461502e-17 98.62386964 135.0 44.75367365913106 90.0
58848 74080.0 7178.140000000002 2.6228545683513264e-16 98.62386964 135.0 167.50727770403995 -32.15880038766176
58848 74090.0 7178.14 1.6571187040809475e-16 98.62386964 135.0 225.94328097362532 -89.99999999999999
58848 74100.0 7178.140000000002 2.3813180820882372e-16 98.62386964 135.0 115.35715650029825 21.180928130574284
58848 74110.0 7178.140000000002 2.2707626097819917e-16 98.62386964 135.0 149.21693665313455 -12.084048365014912
58848 74120.0 7178.140000000002 2.685658968174614e-16 98.62386964 135.0 171.9584353631332 -34.230743417766426
58848 74130.0 7178.140000000002 2.553177106563839e-16 98.62386964 135.0 167.90106711940714 -29.57857151679325
58848 74140.0 7178.140000000002 2.257421329305859e-16 98.62386964 135.0 128.53289387300873 10.384405386852395
58848 74150.0 7178.139999999999 1.0466670137738322e-16 98.62386964 135.0 229.51210291710825 -90.0
58848 74160.0 7178.140000000001 3.755830964546839e-17 98.62386964 135.0 50.10690657435537 90.0
58848 74170.0 7178.139999999999 1.952727836801098e-17 98.62386964 135.0 230.70171023160248 -90.0
58848 74180.0 7178.140000000003 2.2434727211298266e-16 98.62386964 135.0 133.08042778404547 8.216086104804205
58848 74190.0 7178.14 1.045283654914344e-16 98.62386964 135.0 231.89131754609681 -90.0
58848 74200.0 7178.140000000003 2.2406228517240473e-16 98.62386964 135.0 150.1810722630984 -7.6949510597544775
58848 74210.0 7178.140000000003 2.6203969377641246e-16 98.62386964 135.0 175.15415469049495 -32.07322982990389
58848 74220.0 7178.139999999997 3.408185760650058e-16 98.62386964 135.0 311.4323803795646 -167.7566518617263
58848 74230.0 7178.139999999999 1.0270583175456808e-16 98.62386964 135.0 234.2705321750854 -90.0
58848 74240.0 7178.140000000002 2.2204654133811306e-16 98.62386964 135.0 145.1046205394513 -0.23928470711881064
58848 74250.0 7178.140000000004 4.485891343117182e-16 98.62386964 135.0 153.58244986020622 -8.122310370626595
58848 74260.0 7178.140000000003 2.3846262644374326e-16 98.62386964 135.0 167.44006288266144 -21.385119735834582
58848 74270.0 7178.14 2.5173539077922544e-17 98.62386964 135.0 236.649746804074 -90.0
58848 74280.0 7178.139999999999 1.2317089985497702e-16 98.62386964 135.0 301.58301631825015 -154.33846585692905
58848 74290.0 7178.139999999999 1.3494272626466868e-16 98.62386964 135.0 293.1990248363432 -145.359670717775
58848 74300.0 7178.140000000002 2.310918624180857e-16 98.62386964 135.0 164.51952379836155 -16.08536602254613
58848 74310.0 7178.140000000002 2.332852982479769e-16 98.62386964 135.0 166.88766613123664 -17.85870469817409
58848 74320.0 7178.140000000003 2.238016372727008e-16 98.62386964 135.0 156.80799828182728 -7.184233191517613
58848 74330.0 7178.140000000002 2.4346182890142844e-16 98.62386964 135.0 174.43109648366868 -24.21252773611188
58848 74340.0 7178.139999999999 3.2436487910706533e-17 98.62386964 135.0 240.81337240480403 -90.0
58848 74350.0 7178.140000000002 2.3174259562945437e-16 98.62386964 135.0 168.0423741093409 -16.634198047289775
58848 74360.0 7178.139999999997 3.341314114927696e-16 98.62386964 135.0 327.4282228672287 -175.42524314793053
58848 74370.0 7178.14 1.2101990481552065e-16 98.62386964 135.0 309.14505911539294 -156.54727573884756
58848 74380.0 7178.139999999999 1.120490201428822e-16 98.62386964 135.0 243.19258703379262 -89.99999999999999
58848 74390.0 7178.14 8.137155601378201e-17 98.62386964 135.0 243.78739069103972 -90.0
58848 74400.0 7178.140000000003 2.24480605366263e-16 98.62386964 135.0 162.83071012893728 -8.448515780650464
58848 74410.0 7178.14 1.1113409697294913e-16 98.62386964 135.0 -22.45283927401118 177.42983727954513
58848 74420.0 7178.139999999999 1.4283098281675422e-16 98.62386964 135.0 296.585687469867 -141.01388580708587
58848 74430.0 7178.14 2.6818539465058634e-17 98.62386964 135.0 246.1666053200283 -90.0
58848 74440.0 7178.140000000002 2.318221865091177e-16 98.62386964 135.0 173.46132306989668 -16.699914092621228
58848 74450.0 7178.140000000003 2.2205801159309604e-16 98.62386964 135.0 156.72660929867115 0.6296033358513772
