CIC_MEM_VERS = 1.0
CREATION_DATE = 2023-03-16T10:50:11.100758
ORIGINATOR = CS Group

META_START
OBJECT_NAME = horus_eye_47
OBJECT_ID = horus_eye_47
USER_DEFINED_PROTOCOL = NONE
USER_DEFINED_CONTENT = ECLIPSE
USER_DEFINED_SIZE = 1.0
USER_DEFINED_TYPE = STRING
USER_DEFINED_UNIT = [n/a]
TIME_SYSTEM = UTC
META_STOP

58848 69280.68997618863 DAY
58848 73371.18141997485 NIGHT
