CIC_AEM_VERS = 1.0
CREATION_DATE = 2023-03-16T10:50:04.993Z
ORIGINATOR = CS Group

META_START
OBJECT_NAME = horus_eye_2
OBJECT_ID = horus_eye_2
CENTER_NAME = null
REF_FRAME_A = EME2000
REF_FRAME_B = SC_BODY_1
ATTITUDE_DIR = A2B
TIME_SYSTEM = UTC
START_TIME = 2019-12-31T19:00:00.0
STOP_TIME = 2019-12-31T20:40:53.0
ATTITUDE_TYPE = QUATERNION
QUATERNION_TYPE = LAST
META_STOP

58848 68400.0 -0.6566812155062355 0.3791350765442956 -0.3259702344290825 -0.5645970077863087
58848 68410.0 -0.6547044238475977 0.38253855029183786 -0.32889645045074867 -0.5628974150019721
58848 68420.0 -0.6527099926875823 0.38593171742002763 -0.3318138051157789 -0.5611826562444638
58848 68430.0 -0.650697975761539 0.38931448650779943 -0.3347222198227774 -0.5594527777140055
58848 68440.0 -0.6486684272786254 0.3926867664142383 -0.33762161621121456 -0.5577078260181862
58848 68450.0 -0.6466214019203466 0.3960484662810366 -0.3405119161635389 -0.5559478481707067
58848 68460.0 -0.6445569548390817 0.3993994955349414 -0.3433930418072814 -0.5541728915901127
58848 68470.0 -0.6424751416565982 0.4027397638901947 -0.3462649155171536 -0.5523830040985174
58848 68480.0 -0.640376018462553 0.40606918135096615 -0.34912745991713906 -0.5505782339203127
58848 68490.0 -0.6382596418129813 0.40938765821377776 -0.35198059788257824 -0.5487586296808706
58848 68500.0 -0.6361260687287724 0.41269510506992046 -0.3548242525422457 -0.5469242404052327
58848 68510.0 -0.6339753566941355 0.415991432807864 -0.3576583472804227 -0.5450751155167888
58848 68520.0 -0.6318075636550473 0.4192765526156563 -0.3604828057389599 -0.5432113048359464
58848 68530.0 -0.6296227480176942 0.42255037598331774 -0.36329755181933565 -0.5413328585787872
58848 68540.0 -0.6274209686468966 0.4258128147052247 -0.3661025096847055 -0.5394398273557156
58848 68550.0 -0.6252022848645237 0.4290637808824871 -0.36889760376194647 -0.5375322621700934
58848 68560.0 -0.6229667564478952 0.4323031869253159 -0.37168275874369217 -0.5356102144168672
58848 68570.0 -0.6207144436281709 0.43553094555538313 -0.37445789959036235 -0.5336737358811826
58848 68580.0 -0.6184454070887269 0.43874696980817374 -0.3772229515321847 -0.5317228787369894
58848 68590.0 -0.6161597079635224 0.4419511730353282 -0.379977840071209 -0.5297576955456361
58848 68600.0 -0.6138574078354506 0.4451434689069775 -0.38272249098331457 -0.5277782392544532
58848 68610.0 -0.6115385687346807 0.4483237714140686 -0.3854568303202098 -0.5257845631953273
58848 68620.0 -0.6092032531369871 0.4514919948706822 -0.3881807844114251 -0.5237767210832635
58848 68630.0 -0.6068515239620642 0.4546480539163412 -0.3908942798662971 -0.5217547670149388
58848 68640.0 -0.6044834445718333 0.45779186351831014 -0.3935972435759461 -0.5197187554672446
58848 68650.0 -0.6020990787687346 0.46092333897388715 -0.3962896027152465 -0.5176687412958177
58848 68660.0 -0.5996984907940076 0.4640423959126853 -0.398971284744788 -0.5156047797335643
58848 68670.0 -0.5972817453259611 0.46714895029890585 -0.4016422174128305 -0.5135269263891706
58848 68680.0 -0.5948489074782305 0.4702429184336024 -0.40430232875725086 -0.5114352372456047
58848 68690.0 -0.5924000427980225 0.4733242169569361 -0.4069515471074811 -0.5093297686586086
58848 68700.0 -0.5899352172643512 0.4763927628504222 -0.4095898010864404 -0.5072105773551793
58848 68710.0 -0.5874544972862576 0.4794484734391653 -0.4122170196124574 -0.5050777204320411
58848 68720.0 -0.5849579497010231 0.4824912663940882 -0.4148331319011854 -0.5029312553541069
58848 68730.0 -0.582445641772367 0.4855210597341494 -0.41743806746751 -0.5007712399529297
58848 68740.0 -0.5799176411886342 0.48853777182855207 -0.42003175612744764 -0.4985977324251451
58848 68750.0 -0.5773740160609727 0.49154132139894335 -0.4226141280000365 -0.4964107913309026
58848 68760.0 -0.5748148349214979 0.49453162752160457 -0.42518511350921995 -0.49421047559228837
58848 68770.0 -0.5722401667214454 0.49750860962963056 -0.42774464338572044 -0.49199684449173753
58848 68780.0 -0.5696500808293147 0.5004721875151016 -0.4302926486689061 -0.4897699576704368
58848 68790.0 -0.5670446470289987 0.5034222813312438 -0.43282906070864857 -0.48752987512671786
58848 68800.0 -0.5644239355179054 0.5063588115945802 -0.43535381116717287 -0.4852766572144407
58848 68810.0 -0.5617880169050637 0.5092816991870723 -0.4378668320208981 -0.4830103646413675
58848 68820.0 -0.5591369622092249 0.5121908653582525 -0.44036805556227093 -0.48073105846752695
58848 68830.0 -0.556470842856946 0.515086231727345 -0.44285741440158916 -0.47843880010356943
58848 68840.0 -0.5537897306806662 0.5179677202853775 -0.44533484146881774 -0.47613365130911206
58848 68850.0 -0.5510936979167724 0.5208352533972841 -0.44780027001539563 -0.47381567419107495
58848 68860.0 -0.5483828172036521 0.5236887538039954 -0.45025363361603427 -0.4714849312020078
58848 68870.0 -0.5456571615797369 0.5265281446245214 -0.45269486617050764 -0.4691414851384072
58848 68880.0 -0.5429168044815336 0.529353349358022 -0.45512390190543206 -0.46678539913902495
58848 68890.0 -0.5401618197416468 0.5321642918858692 -0.4575406753760396 -0.46441673668316663
58848 68900.0 -0.5373922815867891 0.5349608964736964 -0.4599451214679405 -0.46203556158898157
58848 68910.0 -0.5346082646357816 0.5377430877734406 -0.4623371753988781 -0.45964193801174325
58848 68920.0 -0.5318098438975425 0.5405107908253705 -0.4647167727204735 -0.4572359304421208
58848 68930.0 -0.5289970947690676 0.5432639310601082 -0.4670838493199629 -0.45481760370444146
58848 68940.0 -0.5261700930333976 0.546002434300637 -0.46943834142192403 -0.45238702295494415
58848 68950.0 -0.5233289148575772 0.5487262267643005 -0.47178018558999557 -0.4499442536800238
58848 68960.0 -0.5204736367906022 0.55143523506479 -0.47410931872858453 -0.447489361694467
58848 68970.0 -0.5176043357613579 0.5541293862141218 -0.47642567808456854 -0.445022413139679
58848 68980.0 -0.5147210890765457 0.5568086076246044 -0.47872920124898455 -0.44254347448190157
58848 68990.0 -0.5118239744186006 0.5594728271107933 -0.4810198261587113 -0.4400526125104216
58848 69000.0 -0.5089130698435984 0.5621219728914363 -0.48329749109814135 -0.437549894335773
58848 69010.0 -0.5059884537791519 0.5647559735914078 -0.4855621347008436 -0.4350353873879273
58848 69020.0 -0.5030502050222989 0.5673747582436313 -0.4878136959512171 -0.43250915941447726
58848 69030.0 -0.5000984027373785 0.569978256290991 -0.4900521141861344 -0.4299712784788117
58848 69040.0 -0.4971331264538981 0.5725663975882346 -0.49227732909657695 -0.4274218129582821
58848 69050.0 -0.49415445606439146 0.5751391124038612 -0.49448928072925835 -0.42486083154235904
58848 69060.0 -0.4911624718222651 0.5776963314220012 -0.4966879094882415 -0.42228840323078326
58848 69070.0 -0.4881572543396369 0.5802379857442831 -0.49887315613654304 -0.4197045973317049
58848 69080.0 -0.485138884585164 0.5827640068916909 -0.5010449617977296 -0.4171094834598174
58848 69090.0 -0.48210744388186094 0.5852743268064081 -0.5032032679575047 -0.41450313153448165
58848 69100.0 -0.47906301390490885 0.5877688778536517 -0.5053480164652846 -0.41188561177784144
58848 69110.0 -0.4760056766794551 0.5902475928234946 -0.5074791495357647 -0.4092569947129325
58848 69120.0 -0.47293551457840294 0.5927104049326763 -0.5095966097504777 -0.40661735116178155
58848 69130.0 -0.46985261032019243 0.595157247826402 -0.5117003400593395 -0.4039667522434989
58848 69140.0 -0.4667570469665716 0.597588055580131 -0.5137902837821869 -0.401305269372362
58848 69150.0 -0.4636489079203587 0.6000027627013518 -0.5158663846103044 -0.39863297425589084
58848 69160.0 -0.46052827692319487 0.6024013041313482 -0.5179285866079409 -0.39594993889291696
58848 69170.0 -0.45739523805328836 0.6047836152469506 -0.5199768342138181 -0.3932562355716429
58848 69180.0 -0.45424987572314857 0.6071496318622781 -0.5220110722426262 -0.3905519368676945
58848 69190.0 -0.4510922746773124 0.6094992902304679 -0.5240312458865111 -0.38783711564216644
58848 69200.0 0.4479225199900607 -0.6118325270453914 0.5260373007165507 0.3851118450396575
58848 69210.0 0.44474069706312613 -0.6141492794433618 0.528029182684223 0.3823761984863017
58848 69220.0 0.4415468916233923 -0.6164494850048268 0.5300068381228599 0.3796302496877887
58848 69230.0 0.4383411897205836 -0.6187330817560502 0.5319702137490948 0.3768740726273785
58848 69240.0 0.435123677724948 -0.6210000081707822 0.5339192566642978 0.37410774156390797
58848 69250.0 0.4318944423249284 -0.6232502031719163 0.5358539143560008 0.3713313310297904
58848 69260.0 0.4286535705248283 -0.6254836061331359 0.5377741346993125 0.36854491582900695
58848 69270.0 0.42540114964246706 -0.6277001568805469 0.5396798659583224 0.3657485710350915
58848 69280.0 0.42213726730682716 -0.6298997956942994 0.5415710567874948 0.3629423719891081
58848 69290.0 0.418862011455694 -0.6320824633101965 0.5434476562330534 0.3601263942976207
58848 69300.0 0.4155754703332856 -0.6342481009212911 0.5453096137343515 0.3573007138306562
58848 69310.0 0.4122777324878761 -0.6363966501794703 0.5471568791252372 0.35446540671966087
58848 69320.0 0.40896888676940935 -0.6385280531970274 0.5489894026354031 0.35162054935544845
58848 69330.0 0.40564902232710476 -0.640642252548222 0.550807134891728 0.3487662183861419
58848 69340.0 0.4023182286070569 -0.6427391912708262 0.5526100269196061 0.34590249071510937
58848 69350.0 0.39897659534982327 -0.6448188128676607 0.5543980301442686 0.3430294434988907
58848 69360.0 0.39562421258800895 -0.6468810613081154 0.5561710963920905 0.3401471541451202
58848 69370.0 0.3922611706438386 -0.6489258810296606 0.5579291778918893 0.3372557003104392
58848 69380.0 0.3888875601267248 -0.6509532169393426 0.5596722272762117 0.3343551598984061
58848 69390.0 0.385503471930825 -0.6529630144152695 0.5614001975826107 0.33144561105739495
58848 69400.0 0.38210899723259484 -0.6549552193080812 0.5631130422549095 0.3285271321784922
58848 69410.0 0.37870422748832905 -0.6569297779424098 0.5648107151444579 0.3255998018933828
58848 69420.0 0.3752892544316997 -0.6588866371183246 0.566493170511373 0.32266369907223325
58848 69430.0 0.3718641700712823 -0.6608257441127671 0.5681603630257738 0.31971890282156457
58848 69440.0 0.36842906668807995 -0.6627470466809688 0.5698122477690012 0.31676549248212377
58848 69450.0 0.3649840368330335 -0.6646504930578617 0.5714487802348295 0.3138035476267432
58848 69460.0 0.36152917332453055 -0.6665360319594714 0.5730699163306637 0.31083314805819884
58848 69470.0 0.3580645692459037 -0.6684036125842987 0.5746756123787293 0.3078543738070594
58848 69480.0 0.3545903179429226 -0.6702531846146894 0.5762658251172477 0.3048673051295297
58848 69490.0 0.3511065130212795 -0.6720846982181888 0.577840511701603 0.3018720225052893
58848 69500.0 0.3476132483440665 -0.6738981040488853 0.5793996297054951 0.29886860663532316
58848 69510.0 0.3441106180292469 -0.6756933532487394 0.5809431371220835 0.2958571384397479
58848 69520.0 0.3405987164471202 -0.6774703974488997 0.5824709923651199 0.29283769905563173
58848 69530.0 0.33707763821777786 -0.6792291887710074 0.5839831542700662 0.2898103698348079
58848 69540.0 0.3335474782085559 -0.6809696798284846 0.5854795820952066 0.28677523234168334
58848 69550.0 0.3300083315314773 -0.6826918237278123 0.5869602355227427 0.28373236835104054
58848 69560.0 0.3264602935406903 -0.6843955740697935 0.5884250746598815 0.280681859845835
58848 69570.0 0.32290345982989915 -0.6860808849508028 0.5898740600399095 0.27762378901498586
58848 69580.0 0.3193379262297884 -0.6877477109640235 0.5913071526232558 0.27455823825116177
58848 69590.0 0.31576378880544115 -0.6893960072006717 0.592724313798545 0.2714852901485608
58848 69600.0 0.3121811438537505 -0.6910257292512051 0.5941255053836355 0.2684050275006855
58848 69610.0 0.30859008790082565 -0.69263683320652 0.5955106896266509 0.26531753329811175
58848 69620.0 0.30499071769939046 -0.6942292756591345 0.5968798292069951 0.26222289072625304
58848 69630.0 0.3013831302261773 -0.6958030137043579 0.5982328872363583 0.2591211831631194
58848 69640.0 0.2977674226793137 -0.6973580049414467 0.599569827259711 0.2560124941770702
58848 69650.0 0.29414369247570427 -0.6988942074747466 0.6008906132562866 0.2528969075245641
58848 69660.0 0.2905120372484053 -0.700411579914822 0.6021952096405513 0.2497745071479006
58848 69670.0 0.2868725548439945 -0.7019100813795704 0.6034835812631629 0.2466453771729596
58848 69680.0 0.28322534331993526 -0.7033896714953246 0.6047556934119185 0.24350960190693474
58848 69690.0 0.2795705009419338 -0.7048503103979398 0.6060115118126885 0.24036726583606136
58848 69700.0 0.27590812618129223 -0.7062919587338681 0.6072510026303416 0.23721845362334062
58848 69710.0 0.27223831771225576 -0.7077145776612185 0.6084741324696548 0.23406325010625884
58848 69720.0 0.2685611744093528 -0.7091181288508037 0.6096808683762147 0.2309017402945003
58848 69730.0 0.2648767953447334 -0.7105025744871725 0.610871177837304 0.22773400936765928
58848 69740.0 0.2611852797854967 -0.7118678772696291 0.6120450287827783 0.22456014267294216
58848 69750.0 0.25748672719102 -0.7132140004132372 0.6132023895859301 0.2213802257228706
58848 69760.0 0.25378123721027596 -0.7145409076498123 0.614343229064341 0.21819434419297576
58848 69770.0 0.25006890967915024 -0.7158485632288974 0.6154675164807208 0.21500258391949126
58848 69780.0 0.24634984461774914 -0.7171369319187283 0.616575221543737 0.21180503089703887
58848 69790.0 0.24262414222770792 -0.7184059790071801 0.6176663144088307 0.20860177127631413
58848 69800.0 0.23889190288948756 -0.7196556703027048 0.6187407656790197 0.2053928913617621
58848 69810.0 0.23515322715967363 -0.7208859721352516 0.6197985464056914 0.20217847760925514
58848 69820.0 0.23140821576826417 -0.7220968513571738 0.6208396280893831 0.19895861662376094
58848 69830.0 0.22765696961595802 -0.7232882753441222 0.6218639826805482 0.19573339515701135
58848 69840.0 0.22389958977143437 -0.724460211995924 0.6228715825803148 0.192502900105163
58848 69850.0 0.2201361774686316 -0.7256126297374481 0.6238624006412254 0.18926721850645814
58848 69860.0 0.21636683410401744 -0.7267454975194552 0.6248364101679722 0.18602643753887754
58848 69870.0 0.21259166123386 -0.7278587848194343 0.6257935849181134 0.18278064451779377
58848 69880.0 0.20881076057148854 -0.7289524616424259 0.6267338991027825 0.17952992689361666
58848 69890.0 0.20502423398455574 -0.730026498521829 0.6276573273873813 0.17627437224943893
58848 69900.0 0.20123218349229047 -0.7310808665201963 0.6285638448922636 0.1730140682986748
58848 69910.0 0.19743471126275194 -0.7321155372300123 0.629453427193405 0.16974910288269868
58848 69920.0 0.19363191961007453 -0.7331304827744605 0.6303260503230611 0.16647956396847635
58848 69930.0 0.1898239109917125 -0.7341256758081727 0.6311816907704135 0.16320553964619658
58848 69940.0 0.18601078800567947 -0.7351010895179669 0.6320203254822029 0.15992711812689697
58848 69950.0 0.18219265338778354 -0.7360566976235695 0.6328419318633504 0.15664438774008743
58848 69960.0 0.17836961000885992 -0.7369924743783229 0.6336464877775659 0.15335743693137036
58848 69970.0 0.17454176087199902 -0.73790839456988 0.6344339715479452 0.15006635426005777
58848 69980.0 0.17070920910977133 -0.7388044335208827 0.6352043619575537 0.1467712283967851
58848 69990.0 0.1668720579814486 -0.7396805670896268 0.6359576382499977 0.14347214812112236
58848 70000.0 0.1630304108702221 -0.7405367716707134 0.636693780129984 0.140169202319182
58848 70010.0 0.15918437128041693 -0.741373024195684 0.6374127677638667 0.13686247998122433
58848 70020.0 0.15533404283470326 -0.742189302133642 0.6381145817801817 0.1335520701992594
58848 70030.0 0.1514795292713048 -0.7429855834918601 0.6387992032701683 0.1302380621646473
58848 70040.0 0.14762093444120344 -0.7437618468163729 0.6394666137882783 0.12692054516569445
58848 70050.0 0.14375836230534145 -0.7445180711925548 0.6401167953526743 0.1235996085852484
58848 70060.0 0.13989191693182063 -0.7452542362456832 0.6407497304457128 0.12027534189828948
58848 70070.0 0.13602170249309786 -0.7459703221414877 0.6413654020144172 0.11694783466951982
58848 70080.0 0.13214782326317906 -0.7466663095866851 0.6419637934709358 0.11361717655095066
58848 70090.0 0.12827038361480944 -0.7473421798294978 0.6425448886929908 0.11028345727948678
58848 70100.0 0.12438948801666147 -0.7479979146601604 0.6431086720243108 0.10694676667450845
58848 70110.0 0.12050524103052015 -0.7486334964114096 0.6436551282750537 0.10360719463545179
58848 70120.0 0.11661774730846611 -0.7492489079589604 0.6441842427222156 0.10026483113938653
58848 70130.0 0.11272711159005552 -0.7498441327219671 0.6446960011100278 0.09691976623859182
58848 70140.0 0.10883343869949863 -0.750419154663471 0.6451903896503399 0.09357209005812973
58848 70150.0 0.10493683354283516 -0.7509739582908312 0.6456673950229928 0.09022189279341748
58848 70160.0 0.10103740110510816 -0.7515085286561433 0.646127004376176 0.08686926470779711
58848 70170.0 0.09713524644753466 -0.752022851356641 0.6465692053267752 0.08351429613010301
58848 70180.0 0.0932304747046767 -0.7525169125350848 0.6469939859607053 0.08015707745222961
58848 70190.0 0.08932319108160638 -0.7529906988801354 0.6474013348332315 0.07679769912669412
58848 70200.0 0.08541350085107395 -0.7534441976267117 0.6477912409692773 0.07343625166420155
58848 70210.0 0.08150150935066873 -0.7538773965563358 0.6481636938637206 0.07007282563120383
58848 70220.0 0.07758732197998393 -0.7542902839974609 0.6485186834816772 0.06670751164746216
58848 70230.0 0.073671044197774 -0.754682848825787 0.64885620025877 0.06334040038360307
58848 70240.0 0.06975278151911603 -0.7550550804645594 0.6491762351013874 0.059971582558677704
58848 70250.0 0.06583263951256425 -0.7554069688848553 0.6494787793869286 0.0566011489377155
58848 70260.0 0.06191072379730843 -0.755738504605852 0.6497638249640351 0.053229190329280925
58848 70270.0 0.05798714004032548 -0.7560496786950839 0.6500313641528113 0.04985579758302457
58848 70280.0 0.05406199395353512 -0.7563404827686826 0.6502813897450298 0.0464810615872377
58848 70290.0 0.050135391290949176 -0.7566109089916027 0.6505138950043284 0.043105073266401187
58848 70300.0 0.04620743784582486 -0.756860950077833 0.6507288736663882 0.03972792357873807
58848 70310.0 0.042278239447811776 -0.7570905992905931 0.6509263199391049 0.03634970351376062
58848 70320.0 0.03834790196010325 -0.7572998504425141 0.6511062285027438 0.032970504089821086
58848 70330.0 0.03441653127658142 -0.7574886978958062 0.6512685945100836 0.029590416351657108
58848 70340.0 0.030484233318966814 -0.7576571365624102 0.6514134135865465 0.026209531367941085
58848 70350.0 0.02655111403396193 -0.7578051619041345 0.6515406818303161 0.02282794022882421
58848 70360.0 0.022617279390399356 -0.7579327699327775 0.6516503958124433 0.019445734043484555
58848 70370.0 0.018682835376384016 -0.758039957210235 0.6517425525769377 0.016063003937670038
58848 70380.0 0.014747887996440277 -0.7581267208485929 0.6518171496408478 0.012679841051245564
58848 70390.0 0.010812543268653175 -0.7581930585102051 0.6518741849943274 0.009296336535735137
58848 70400.0 0.006876907221814738 -0.7582389684077563 0.6519136571006905 0.005912581551868359
58848 70410.0 0.002941085892564551 -0.7582644493043099 0.6519355648964523 0.002528667267121946
58848 70420.0 -9.94814677464443E-4 -0.7582695005133422 0.6519399077913576 -8.55315146734227E-4
58848 70430.0 -0.004930688444505684 -0.7582541218987597 0.6519266856683972 -0.004239274516095861
58848 70440.0 -0.008866429365513418 -0.7582183138749038 0.6518958988838109 -0.007623119667978381
58848 70450.0 -0.012801931401022456 -0.7581620774065393 0.6518475482670775 -0.011006759432475699
58848 70460.0 -0.016737088518002485 -0.7580854140088282 0.6517816351208924 -0.01439010264521425
58848 70470.0 -0.020671794692717595 -0.7579883257472888 0.6516981612211344 -0.017773058149811546
58848 70480.0 -0.024605943913580088 -0.7578708152377407 0.6515971288168143 -0.02115553480032982
58848 70490.0 -0.028539430184009493 -0.7577328856462334 0.651478540630018 -0.024537441463734114
58848 70500.0 -0.03247214752528561 -0.7575745406889621 0.6513423998558304 -0.027918687022345255
58848 70510.0 -0.03640398997940633 -0.7573957846321665 0.651188710162251 -0.03129918037629693
58848 70520.0 -0.04033485161194136 -0.7571966222920165 0.6510174756900943 -0.034678830445989246
58848 70530.0 -0.044264626514885295 -0.756977059034482 0.6508287010528783 -0.038057546174541726
58848 70540.0 -0.04819320880951361 -0.756737100775189 0.6506223913367004 -0.041435236530248803
58848 70550.0 -0.05212049264923242 -0.7564767539792595 0.6503985521001003 -0.04481181050902999
58848 70560.0 -0.056046372222433125 -0.7561960256611379 0.6501571893739103 -0.04818717713688424
58848 70570.0 -0.05997074175534046 -0.7558949233844015 0.6498983096610926 -0.051561245472338556
58848 70580.0 -0.06389349551486508 -0.7555734552615568 0.649621919936564 -0.05493392460890061
58848 70590.0 -0.0678145278114496 -0.7552316299538214 0.649328027647009 -0.058305123677505725
58848 70600.0 -0.07173373300191882 -0.7548694566708904 0.6490166407106773 -0.06167475184896738
58848 70610.0 -0.07565100549232333 -0.7544869451706877 0.6486877675171723 -0.06504271833642207
58848 70620.0 -0.07956623974078722 -0.754084105759104 0.6483414169272239 -0.06840893239777769
58848 70630.0 -0.08347933026034902 -0.7536609492897184 0.6479775982724505 -0.07177330333815611
58848 70640.0 -0.08739017162180637 -0.7532174871635066 0.6475963213551066 -0.075135740512339
58848 70650.0 -0.09129865845655397 -0.7527537313285332 0.6471975964478202 -0.07849615332720762
58848 70660.0 -0.09520468545942518 -0.7522696942796299 0.6467814342933147 -0.0818544512441863
58848 70670.0 -0.09910814739152649 -0.7517653890580593 0.6463478461041197 -0.08521054378167905
58848 70680.0 -0.10300893908307562 -0.751240829251163 0.6458968435622694 -0.08856434051751005
58848 70690.0 -0.10690695543623252 -0.7506960289919957 0.6454284388189877 -0.09191575109135733
58848 70700.0 -0.11080209142793343 -0.7501310029589443 0.6449426444943606 -0.0952646852071897
58848 70710.0 -0.11469424211271818 -0.7495457663753328 0.6444394736769963 -0.09861105263569736
58848 70720.0 -0.11858330262555983 -0.7489403350090118 0.6439189399236721 -0.10195476321672499
58848 70730.0 -0.12246916818468798 -0.7483147251719335 0.6433810572589705 -0.10529572686169893
58848 70740.0 -0.12635173409441403 -0.747668953719713 0.6428258401748995 -0.10863385355605636
58848 70750.0 -0.13023089574794952 -0.7470030380511732 0.6422533036305037 -0.1119690533616685
58848 70760.0 -0.1341065486302273 -0.7463169961078766 0.6416634630514603 -0.115301236419266
58848 70770.0 -0.13797858832071433 -0.745610846373642 0.6410563343296637 -0.11863031295085755
58848 70780.0 -0.14184691049622847 -0.7448846078740456 0.6404319338227982 -0.12195619326215139
58848 70790.0 -0.1457114109337457 -0.7441383001759101 0.6397902783538956 -0.1252787877449692
58848 70800.0 -0.14957198551321146 -0.7433719433867757 0.6391313852108831 -0.12859800687966297
58848 70810.0 -0.15342853022034303 -0.7425855581543592 0.638455272146118 -0.13191376123752455
58848 70820.0 -0.1572809411494346 -0.7417791656659979 0.6377619573759076 -0.13522596148319715
58848 70830.0 -0.16112911450615428 -0.7409527876480785 0.6370514595800205 -0.1385345183770806
58848 70840.0 -0.1649729466103429 -0.7401064463654514 0.6363237979011815 -0.14183934277773722
58848 70850.0 -0.16881233389880515 -0.7392401646208315 0.6355789919445574 -0.1451403456442917
58848 70860.0 -0.17264717292810242 -0.7383539657541833 0.6348170617772273 -0.14843743803883247
58848 70870.0 -0.1764773603773369 -0.7374478736420924 0.6340380279276431 -0.1517305311288052
58848 70880.0 -0.1803027930509385 -0.7365219126971215 0.6332419113850761 -0.15501953618940895
58848 70890.0 -0.18412336788144212 -0.735576107867154 0.6324287335990513 -0.15830436460598415
58848 70900.0 -0.18793898193226724 -0.7346104846347203 0.6315985164787692 -0.16158492787640222
58848 70910.0 -0.19174953240048903 -0.7336250690163127 0.6307512823925163 -0.16486113761344823
58848 70920.0 -0.1955549166196105 -0.732619887561683 0.6298870541670618 -0.1681329055472042
58848 70930.0 -0.1993550320623258 -0.7315949673531283 0.6290058550870431 -0.17140014352742516
58848 70940.0 -0.20314977634328565 -0.7305503360047607 0.6281077088943378 -0.17466276352591636
58848 70950.0 -0.206939047221853 -0.729486021661764 0.6271926397874243 -0.17792067763890287
58848 70960.0 -0.21072274260485996 -0.7284020529996341 0.6262606724207306 -0.1811737980893999
58848 70970.0 -0.2145007605493574 -0.7272984592234079 0.6253118319039683 -0.18442203722957679
58848 70980.0 -0.2182729992653608 -0.7261752700668755 0.6243461438014584 -0.18766530754311747
58848 70990.0 -0.22203935711859507 -0.7250325157917794 0.6233636341314399 -0.19090352164758098
58848 71000.0 -0.22579973263322986 -0.7238702271869991 0.6223643293653714 -0.1941365922967528
58848 71010.0 -0.22955402449461668 -0.7226884355677214 0.6213482564272158 -0.19736443238299836
58848 71020.0 -0.2333021315520155 -0.7214871727745975 0.6203154426927159 -0.20058695493960715
58848 71030.0 -0.2370439528213231 -0.7202664711728836 0.6192659159886569 -0.20380407314313853
58848 71040.0 -0.24077938748779096 -0.7190263636515702 0.6181997045921166 -0.20701570031575864
58848 71050.0 -0.2445083349087439 -0.7177668836224959 0.6171168372297025 -0.21022174992757756
58848 71060.0 -0.24823069461628988 -0.7164880650194462 0.6160173430767798 -0.21342213559897916
58848 71070.0 -0.25194636632002837 -0.7151899422972404 0.6149012517566834 -0.21661677110295005
58848 71080.0 -0.2556552499097507 -0.7138725504308026 0.6137685933399214 -0.21980557036740092
58848 71090.0 -0.2593572454581393 -0.7125359249142196 0.612619398343363 -0.22298844747748722
58848 71100.0 -0.26305225322345793 -0.7111801017597846 0.6114536977294186 -0.22616531667792233
58848 71110.0 -0.2667401736522414 -0.7098051174970268 0.6102715229052036 -0.2293360923752902
58848 71120.0 -0.27042090738197494 -0.7084110091717274 0.6090729057216936 -0.23250068914034863
58848 71130.0 -0.27409435524377423 -0.7069978143449211 0.6078578784728652 -0.23565902171033398
58848 71140.0 -0.2777604182650546 -0.705565571091885 0.6066264738948264 -0.23881100499125557
58848 71150.0 -0.2814189976722002 -0.7041143180011112 0.6053787251649351 -0.241956554060191
58848 71160.0 -0.2850699948932225 -0.7026440941732692 0.604114665900904 -0.24509558416757152
58848 71170.0 -0.2887133115604189 -0.70115493922015 0.6028343301598962 -0.24822801073946812
58848 71180.0 -0.2923488495130202 -0.6996468932636014 0.6015377524376063 -0.25135374937986743
58848 71190.0 -0.2959765107998382 -0.6981199969344447 0.600224967667332 -0.25447271587294845
58848 71200.0 -0.29959619768190177 -0.6965742913713818 0.5988960112190328 -0.25758482618534867
58848 71210.0 -0.30320781263509333 -0.6950098182198853 0.5975509188983762 -0.2606899964684308
58848 71220.0 -0.30681125835277323 -0.693426619631078 0.5961897269457739 -0.26378814306053955
58848 71230.0 -0.3104064377484045 -0.6918247382605957 0.5948124720354051 -0.2668791824892578
58848 71240.0 -0.31399325395816585 -0.6902042172674393 0.5934191912742285 -0.2699630314736536
58848 71250.0 -0.317571610343564 -0.6885651003128109 0.5920099222009817 -0.2730396069265259
58848 71260.0 -0.32114141049403483 -0.6869074315589384 0.5905847027851715 -0.27610882595664116
58848 71270.0 -0.32470255822954364 -0.6852312556678845 0.5891435714260492 -0.2791706058709688
58848 71280.0 -0.3282549576031738 -0.6835366178003447 0.5876865669515772 -0.282224864176907
58848 71290.0 -0.33179851290371415 -0.6818235636144293 0.5862137286173816 -0.2852715185845073
58848 71300.0 -0.3353331286582358 -0.6800921392644345 0.5847250961056968 -0.2883104870086899
58848 71310.0 -0.3388587096346662 -0.6783423913995976 0.5832207095242931 -0.2913416875714568
58848 71320.0 -0.34237516084435327 -0.6765743671628413 0.5817006094053994 -0.2943650386040964
58848 71330.0 -0.34588238754462625 -0.6747881141895024 0.5801648367046086 -0.2973804586493856
58848 71340.0 -0.34938029524134645 -0.6729836806060496 0.5786134327997762 -0.3003878664637823
58848 71350.0 -0.35286878969145574 -0.6711611150287858 0.5770464394899031 -0.30338718101961665
58848 71360.0 -0.3563477769055125 -0.6693204665625391 0.5754638989940124 -0.3063783215072718
58848 71370.0 -0.3598171631502274 -0.6674617847993386 0.5738658539500089 -0.3093612073373635
58848 71380.0 -0.3632768549509853 -0.6655851198170799 0.5722523474135325 -0.31233575814290915
58848 71390.0 -0.36672675909436714 -0.6636905221781745 0.570623422856797 -0.31530189378149504
58848 71400.0 -0.37016678263065844 -0.6617780429281881 0.5689791241674195 -0.3182595343374341
58848 71410.0 -0.3735968328763562 -0.6598477335944648 0.5673194956472372 -0.32120860012392033
58848 71420.0 -0.37701681741666326 -0.6578996461847402 0.5656445820111149 -0.3241490116851742
58848 71430.0 -0.38042664410798077 -0.6559338331857381 0.5639544283857392 -0.32708068979858523
58848 71440.0 -0.3838262210803898 -0.6539503475617576 0.5622490803084028 -0.3300035554768454
58848 71450.0 -0.38721545674012525 -0.651949242753247 0.5605285837257787 -0.33291752997007673
58848 71460.0 -0.39059425977204637 -0.6499305726753613 0.5587929849926805 -0.3358225347679547
58848 71470.0 -0.393962539142094 -0.6478943917165126 0.5570423308708152 -0.3387184916018216
58848 71480.0 -0.39732020409974644 -0.6458407547369024 0.5552766685275222 -0.34160532244679725
58848 71490.0 -0.4006671641804614 -0.6437697170670449 0.553496045534503 -0.3444829495238792
58848 71500.0 -0.4040033292081158 -0.6416813345062755 0.551700509866539 -0.3473512953020403
58848 71510.0 -0.4073286092974335 -0.6395756633212483 0.5498901099001994 -0.3502102825003155
58848 71520.0 -0.410642914856409 -0.6374527602444183 0.5480648944125376 -0.3530598340898864
58848 71530.0 -0.413946156588719 -0.6353126824725157 0.5462249125797777 -0.355899873296154
58848 71540.0 -0.4172382454961311 -0.6331554876650017 0.5443702139759876 -0.3587303236008096
58848 71550.0 -0.42051909288089806 -0.6309812339425179 0.5425008485717461 -0.3615511087438946
58848 71560.0 -0.42378861034815135 -0.628789979885318 0.540616866732794 -0.3643621527258567
58848 71570.0 -0.42704670980827986 -0.6265817845316912 0.5387183192186792 -0.3671633798095955
58848 71580.0 -0.43029330347930483 -0.6243567073763705 0.5368052571813873 -0.36995471452250595
58848 71590.0 -0.433528303889244 -0.6221148083689305 0.5348777321639646 -0.37273608165850824
58848 71600.0 -0.4367516238784698 -0.6198561479121713 0.5329357960991293 -0.37550740628007784
58848 71610.0 -0.43996317660205514 -0.6175807868604922 0.5309795013078717 -0.378268613720261
58848 71620.0 -0.4431628755321165 -0.6152887865182509 0.5290089004980448 -0.38101962958468916
58848 71630.0 -0.44635063446014195 -0.6129802086381131 0.5270240467629451 -0.38376037975358174
58848 71640.0 -0.44952636749931657 -0.6106551154193873 0.52502499357988 -0.38649079038374395
58848 71650.0 -0.45268998908683433 -0.6083135695063507 0.5230117948087294 -0.3892107879105557
58848 71660.0 -0.4558414139862053 -0.605955633986559 0.5209845046904928 -0.3919202990499546
58848 71670.0 -0.4589805572895503 -0.60358137238915 0.5189431778458293 -0.39461925080040877
58848 71680.0 -0.46210733441989016 -0.6011908486831279 0.5168878692735843 -0.39730757044488596
58848 71690.0 -0.46522166113342306 -0.5987841272756438 0.5148186343493093 -0.3999851855528105
58848 71700.0 -0.4683234535217957 -0.5963612730102571 0.5127355288237689 -0.40265202398201627
58848 71710.0 -0.47141262801436257 -0.5939223511651908 0.5106386088214394 -0.40530801388068954
58848 71720.0 -0.474489101380439 -0.591467427451571 0.5085279308389957 -0.4079530836893058
58848 71730.0 -0.47755279073154194 -0.5889965680116582 0.5064035517437907 -0.4105871621425565
58848 71740.0 -0.48060361352362524 -0.5865098394170637 0.5042655287723213 -0.41321017827127077
58848 71750.0 -0.4836414875593015 -0.5840073086669565 0.502113919528688 -0.41582206140432537
58848 71760.0 -0.4866663309900587 -0.5814890431862586 0.4999487819830409 -0.41842274117055106
58848 71770.0 -0.4896780623184634 -0.5789551108238279 0.4977701744700205 -0.42101214750062665
58848 71780.0 -0.4926766004003585 -0.5764055798506303 0.4955781556871835 -0.42359021062896846
58848 71790.0 -0.49566186444704763 -0.5738405189579004 0.4933727846934228 -0.42615686109560835
58848 71800.0 -0.49863377402747366 -0.5712599972552903 0.49115412090737526 -0.42871202974806694
58848 71810.0 -0.5015922490703837 -0.5686640842690086 0.4889222241058223 -0.4312556477432153
58848 71820.0 -0.5045372098664885 -0.5660528499399456 0.48667715442207765 -0.4337876465491304
58848 71830.0 -0.5074685770706081 -0.5634263646217917 0.4844189723443684 -0.43630795794694166
58848 71840.0 -0.5103862717038116 -0.5607846990791375 0.48214773871420435 -0.4388165140326687
58848 71850.0 -0.5132902151555426 -0.5581279244855722 0.47986351472474054 -0.44131324721905074
58848 71860.0 -0.5161803291857404 -0.5554561124217614 0.4775663619191254 -0.4437980902373681
58848 71870.0 -0.5190565359269443 -0.5527693348735226 0.47525634218884616 -0.4462709761392538
58848 71880.0 -0.521918757886395 -0.5500676642298823 0.47293351777205894 -0.44873183829849855
58848 71890.0 -0.5247669179481196 -0.5473511732811279 0.4705979512519126 -0.451180610412844
58848 71900.0 -0.5276009393750115 -0.5446199352168457 0.4682497055548631 -0.45361722650577124
58848 71910.0 -0.5304207458108973 -0.5418740236239484 0.4658888439489765 -0.456041620928277
58848 71920.0 -0.5332262612825923 -0.5391135124846942 0.4635154300422269 -0.45845372836064224
58848 71930.0 -0.5360174102019506 -0.5363384761746911 0.4611295277807801 -0.46085348381419333
58848 71940.0 -0.5387941173678985 -0.5335489894608958 0.45873120144727225 -0.4632408226330515
58848 71950.0 -0.5415563079684633 -0.5307451274995965 0.4563205156590773 -0.46561568049587626
58848 71960.0 -0.5443039075827865 -0.52792696583439 0.45389753536656663 -0.4679779934175971
58848 71970.0 -0.5470368421831311 -0.5250945803941457 0.45146232585135815 -0.47032769775113853
58848 71980.0 -0.5497550381368745 -0.5222480474909597 0.4490149527245583 -0.4726647301891339
58848 71990.0 -0.5524584222084932 -0.5193874438180983 0.44655548192499395 -0.47498902776563223
58848 72000.0 -0.5551469215615353 -0.5165128464479333 0.444083979717436 -0.4773005278577932
58848 72010.0 -0.5578204637605844 -0.5136243328298636 0.44160051269081346 -0.4795991681875761
58848 72020.0 -0.5604789767732083 -0.5107219807882298 0.43910514775642034 -0.48188488682341596
58848 72030.0 -0.5631223889719039 -0.5078058685202166 0.43659795214611186 -0.4841576221818939
58848 72040.0 -0.5657506291360226 -0.5048760745937465 0.43407899341049416 -0.48641731302939484
58848 72050.0 -0.5683636264536929 -0.5019326779453626 0.43154833941710297 -0.4886638984837585
58848 72060.0 -0.5709613105237251 -0.498975757878102 0.4290060583485762 -0.4908973180159188
58848 72070.0 -0.5735436113575112 -0.4960053940593591 0.4264522187008163 -0.4931175114515355
58848 72080.0 -0.5761104593809078 -0.49302166651873935 0.4238868892811454 -0.4953244189726145
58848 72090.0 -0.578661785436113 -0.49002465564590286 0.42131013920645033 -0.4975179811191206
58848 72100.0 -0.5811975207835276 -0.4870144421883985 0.41872203790132184 -0.4996981387905784
58848 72110.0 -0.5837175971036085 -0.48399110724948796 0.4161226550961828 -0.5018648332476658
58848 72120.0 -0.5862219464987085 -0.4809547322859617 0.4135120608254107 -0.5040180061137954
58848 72130.0 -0.5887105014949073 -0.477905399105943 0.41089032542544973 -0.5061575993766884
58848 72140.0 -0.5911831950438269 -0.4748431898666846 0.40825751953291634 -0.5082835553899364
58848 72150.0 -0.5936399605244407 -0.47176818707235507 0.4056137140826954 -0.5103958168745562
58848 72160.0 -0.5960807317448656 -0.46868047357181564 0.40295898030603045 -0.5124943269205312
58848 72170.0 -0.5985054429441488 -0.46558013255638836 0.4002933897286023 -0.5145790289883464
58848 72180.0 -0.6009140287940362 -0.46246724755761487 0.3976170141686048 -0.51664986691051
58848 72190.0 -0.6033064244007351 -0.4593419024450046 0.39492992573480645 -0.5187067848930688
58848 72200.0 -0.6056825653066609 -0.45620418142377683 0.3922321968246113 -0.5207497275171092
58848 72210.0 -0.6080423874921751 -0.45305416903259094 0.389523900122105 -0.5227786397402523
58848 72220.0 -0.6103858273773087 -0.4498919501412692 0.3868051085960991 -0.5247934668981352
58848 72230.0 -0.6127128218234769 -0.4467176099485091 0.384075895498163 -0.5267941547058853
58848 72240.0 -0.6150233081351781 -0.4435312339795896 0.38133633436065234 -0.5287806492595818
58848 72250.0 -0.6173172240616863 -0.4403329080840651 0.37858649899472596 -0.5307528970377086
58848 72260.0 -0.619594507798724 -0.437122718433454 0.37582646348835874 -0.5327108449025958
58848 72270.0 -0.6218550979901315 -0.43390075151891566 0.3730563022043444 -0.5346544401018521
58848 72280.0 -0.6240989337295175 -0.43066709414892057 0.37027608977829235 -0.5365836302697857
58848 72290.0 -0.6263259545619007 -0.42742183344691237 0.36748590111661755 -0.5384983634288146
58848 72300.0 -0.6285361004853387 -0.42416505684895833 0.36468581139452044 -0.5403985879908685
58848 72310.0 -0.6307293119525449 -0.42089685210139705 0.36187589605396414 -0.5422842527587766
58848 72320.0 -0.6329055298724924 -0.4176173072584701 0.35905623080163895 -0.5441553069276494
58848 72330.0 -0.6350646956120063 -0.4143265106799535 0.3562268916069255 -0.5460117000862453
58848 72340.0 -0.6372067509973436 -0.411024551028774 0.353387954699845 -0.5478533822183308
58848 72350.0 -0.6393316383157596 -0.40771151726862276 0.35053949656900846 -0.549680303704026
58848 72360.0 -0.6414393003170649 -0.40438749866155627 0.34768159395955284 -0.5514924153211436
58848 72370.0 -0.6435296802151649 -0.40105258476559336 0.34481432387107597 -0.5532896682465134
58848 72380.0 -0.645602721689593 -0.3977068654323003 0.34193776355556 -0.5550720140572988
58848 72390.0 -0.6476583688870253 -0.39435043080437204 0.3390519905152915 -0.5568394047323005
58848 72400.0 -0.6496965664227874 -0.3909833713132012 0.3361570825007718 -0.5585917926532518
58848 72410.0 -0.651717259382345 -0.3876057776764443 0.3332531175086241 -0.5603291306060995
58848 72420.0 -0.6537203933227853 -0.38421774089557453 0.33034017377949004 -0.5620513717822779
58848 72430.0 -0.6557059142742816 -0.380819352253433 0.32741832979592356 -0.5637584697799688
58848 72440.0 -0.6576737687415498 -0.3774107033117667 0.32448766428027437 -0.5654503786053522
58848 72450.0 -0.6596239037052872 -0.37399188590876387 0.32154825619256894 -0.567127052673845
58848 72460.0 -0.6615562666236036 -0.370562992156577 0.3186001847283816 -0.5687884468113301
58848 72470.0 -0.6634708054334344 -0.3671241144388443 0.3156435293167018 -0.5704345162553722
58848 72480.0 -0.6653674685519455 -0.36367534540819724 0.3126783696177933 -0.5720652166564253
58848 72490.0 -0.6672462048779212 -0.3602167779837675 0.30970478552104874 -0.573680504079026
58848 72500.0 -0.6691069637931429 -0.3567485053486806 0.30672285714283604 -0.5752803350029788
58848 72510.0 -0.6709496951637506 -0.35327062094754746 0.30373266482434147 -0.5768646663245275
58848 72520.0 -0.6727743493415965 -0.3497832184839451 0.3007342891294031 -0.5784334553575171
58848 72530.0 -0.6745808771655796 -0.34628639191789373 0.2977278108423422 -0.5799866598345437
58848 72540.0 -0.6763692299629727 -0.3427802354633233 0.2947133109657847 -0.5815242379080934
58848 72550.0 -0.6781393595507321 -0.339264843585537 0.2916908707184809 -0.5830461481516696
58848 72560.0 -0.679891218236797 -0.3357403109986642 0.2886605715331148 -0.5845523495609094
58848 72570.0 -0.681624758821374 -0.33220673266311085 0.28562249505411286 -0.586042801554688
58848 72580.0 -0.6833399345982082 -0.3286642037829984 0.28257672313544113 -0.5875174639762127
58848 72590.0 -0.6850366993558424 -0.32511281980360135 0.27952333783840305 -0.5889762970941039
58848 72600.0 -0.686715007378862 -0.32155267640877355 0.2764624214294261 -0.5904192616034664
58848 72610.0 -0.6883748134491263 -0.31798386951837115 0.2733940563778463 -0.5918463186269483
58848 72620.0 -0.690016072846987 -0.31440649528566905 0.27031832535368655 -0.5932574297157875
58848 72630.0 -0.6916387413524936 -0.3108206500947682 0.2672353112254282 -0.5946525568508494
58848 72640.0 -0.693242775246584 -0.3072264305580013 0.2641450970577803 -0.596031662443649
58848 72650.0 -0.6948281313122624 -0.3036239335133271 0.26104776610943864 -0.5973947093373659
58848 72660.0 -0.6963947668357647 -0.3000132560217243 0.25794340183084596 -0.5987416608078436
58848 72670.0 -0.6979426396077087 -0.29639449536457313 0.25483208786194056 -0.6000724805645801
58848 72680.0 -0.6994717079242303 -0.29276774904103786 0.2517139080299052 -0.6013871327517047
58848 72690.0 -0.7009819305881093 -0.28913311476543646 0.24858894634690631 -0.6026855819489454
58848 72700.0 -0.7024732669098772 -0.2854906904646111 0.24545728700783304 -0.6039677931725816
58848 72710.0 -0.7039456767089152 -0.28184057427528686 0.24231901438802592 -0.6052337318763883
58848 72720.0 -0.7053991203145353 -0.2781828645414303 0.23917421304100667 -0.6064833639525649
58848 72730.0 -0.7068335585670505 -0.27451765981159726 0.23602296769619704 -0.6077166557326564
58848 72740.0 -0.7082489528188289 -0.27084505883628013 0.2328653632566386 -0.6089335739884588
58848 72750.0 -0.7096452649353355 -0.2671651605652451 0.22970148479670321 -0.6101340859329153
58848 72760.0 -0.7110224572961593 -0.26347806414486824 0.22653141755980258 -0.6113181592209989
58848 72770.0 -0.7123804927960269 -0.2597838689154618 0.22335524695608971 -0.6124857619505847
58848 72780.0 -0.7137193348458024 -0.25608267440860044 0.22017305856015987 -0.6136368626633089
58848 72790.0 -0.7150389473734736 -0.2523745803444372 0.21698493810874286 -0.6147714303454164
58848 72800.0 -0.7163392948251228 -0.2486596866290186 0.21379097149839515 -0.6158894344285966
58848 72810.0 -0.7176203421658858 -0.24493809335159109 0.21059124478318308 -0.6169908447908069
58848 72820.0 -0.7188820548808954 -0.2412099007819066 0.2073858441723673 -0.6180756317570841
58848 72830.0 -0.7201243989762109 -0.23747520936751854 0.20417485602807683 -0.6191437661003446
58848 72840.0 -0.721347340979735 -0.23373411973107774 0.2009583668629855 -0.6201952190421706
58848 72850.0 -0.7225508479421145 -0.22998673266761957 0.1977364633379782 -0.6212299622535865
58848 72860.0 -0.7237348874376288 -0.22623314914184994 0.1945092322598183 -0.6222479678558221
58848 72870.0 -0.7248994275650635 -0.22247347028542291 0.19127676057880674 -0.6232492084210633
58848 72880.0 -0.7260444369485696 -0.21870779739421867 0.18803913538644165 -0.6242336569731911
58848 72890.0 -0.7271698847385085 -0.21493623192561137 0.18479644391306932 -0.625201286988509
58848 72900.0 -0.7282757406122843 -0.21115887549573834 0.18154877352553647 -0.6261520723964568
58848 72910.0 -0.7293619747751601 -0.2073758298767599 0.17829621172483423 -0.6270859875803135
58848 72920.0 -0.73042855796106 -0.20358719699411973 0.17503884614374252 -0.6280030073778877
58848 72930.0 -0.7314754614333592 -0.19979307892379586 0.17177676454446691 -0.6289031070821951
58848 72940.0 -0.7325026569856571 -0.19599357788955382 0.16851005481627662 -0.6297862624421238
58848 72950.0 -0.7335101169425378 -0.192188796260189 0.16523880497313373 -0.6306524496630889
58848 72960.0 -0.7344978141603149 -0.18837883654677176 0.16196310315132434 -0.6315016454076724
58848 72970.0 -0.7354657220277644 -0.18456380139988265 0.15868303760708197 -0.6323338267962528
58848 72980.0 -0.7364138144668394 -0.18074379360684922 0.15539869671421142 -0.6331489714076212
58848 72990.0 -0.7373420659333757 -0.17691891608897453 0.15211016896170615 -0.6339470572795849
58848 73000.0 -0.7382504514177766 -0.1730892718987661 0.1488175429513656 -0.6347280629095602
58848 73010.0 -0.73913894644569 -0.1692549642171575 0.1455209073954065 -0.6354919672551508
58848 73020.0 -0.7400075270786654 -0.16541609635073032 0.14222035111407458 -0.6362387497347152
58848 73030.0 -0.7408561699148002 -0.16157277172892864 0.13891596303324924 -0.6369683902279211
58848 73040.0 -0.7416848520893695 -0.15772509390127487 0.13560783218205025 -0.6376808690762873
58848 73050.0 -0.7424935512754424 -0.15387316653457717 0.13229604769043635 -0.638376167083714
58848 73060.0 -0.7432822456844839 -0.15001709341013902 0.12898069878680637 -0.6390542655169992
58848 73070.0 -0.7440509140669412 -0.14615697842096087 0.12566187479559335 -0.6397151461063437
58848 73080.0 -0.7447995357128168 -0.14229292556894182 0.12233966513485821 -0.640358791045844
58848 73090.0 -0.7455280904522265 -0.1384250389620787 0.11901415931388207 -0.6409851829939706
58848 73100.0 -0.7462365586559419 -0.1345534228116586 0.11568544693075228 -0.6415943050740368
58848 73110.0 -0.7469249212359209 -0.13067818142945387 0.11235361766995063 -0.6421861408746523
58848 73120.0 -0.7475931596458207 -0.12679941922490914 0.109018761299935 -0.6427606744501657
58848 73130.0 -0.7482412558814979 -0.12291724070233086 0.10568096767072291 -0.6433178903210944
58848 73140.0 -0.7488691924814933 -0.11903175045806877 0.10234032671146821 -0.6438577734745415
58848 73150.0 -0.7494769525275031 -0.11514305317770071 0.09899692842804085 -0.6443803093645999
58848 73160.0 -0.7500645196448337 -0.11125125363320958 0.0956508629005993 -0.6448854839127447
58848 73170.0 -0.7506318780028438 -0.10735645668016273 0.09230222028116593 -0.6453732835082122
58848 73180.0 -0.7511790123153707 -0.10345876725488444 0.08895109079119566 -0.645843695008367
58848 73190.0 -0.7517059078411409 -0.09955829037163154 0.08559756471914778 -0.6462967057390556
58848 73200.0 -0.7522125503841699 -0.09565513111976093 0.08224173241805063 -0.6467323034949483
58848 73210.0 -0.7526989262941419 -0.09174939466090123 0.07888368430306972 -0.6471504765398676
58848 73220.0 -0.7531650224667796 -0.0878411862261165 0.07552351084906946 -0.647551213607105
58848 73230.0 -0.753610826344196 -0.08393061111307398 0.07216130258817781 -0.6479345038997241
58848 73240.0 -0.7540363259152333 -0.08001777468320406 0.0687971501073447 -0.6483003370908514
58848 73250.0 -0.7544415097157866 -0.07610278235886468 0.06543114404590378 -0.6486487033239551
58848 73260.0 -0.7548263668291122 -0.0721857396204978 0.062063375093127884 -0.6489795932131102
58848 73270.0 -0.7551908868861229 -0.06826675200379065 0.058693933985788274 -0.649292997843251
58848 73280.0 -0.7555350600656658 -0.06434592509682914 0.055322911505707166 -0.6495889087704129
58848 73290.0 -0.7558588770947879 -0.060423364537256136 0.051950398477314495 -0.6498673180219577
58848 73300.0 -0.7561623292489862 -0.056499176009422336 0.048576485765198435 -0.6501282180967902
58848 73310.0 -0.7564454083524418 -0.05257346524154168 0.04520126427165951 -0.6503716019655591
58848 73320.0 -0.7567081067782407 -0.048646338002839996 0.04182482493425923 -0.6505974630708474
58848 73330.0 -0.7569504174485796 -0.04471790010070804 0.038447258723372284 -0.6508057953273482
58848 73340.0 -0.7571723338349562 -0.040788257377847914 0.03506865663973312 -0.6509965931220291
58848 73350.0 -0.7573738499583447 -0.036857515709424304 0.03168910971198662 -0.6511698513142834
58848 73360.0 -0.7575549603893583 -0.03292578100020904 0.02830870899423314 -0.6513255652360683
58848 73370.0 -0.7577156602483934 -0.028993159181730514 0.02492754556357758 -0.6514637306920316
58848 73380.0 -0.7578559452057629 -0.025059756209416893 0.02154571051767324 -0.6515843439596234
58848 73390.0 -0.7579758114818124 -0.02112567805974404 0.01816329497226969 -0.6516874017891972
58848 73400.0 -0.758075255847021 -0.017191030727377626 0.014780390058755585 -0.6517729014040973
58848 73410.0 -0.7581542756220896 -0.01325592022231994 0.011397086921705607 -0.6518408405007339
58848 73420.0 -0.7582128686780127 -0.009320452567051067 0.00801347671642251 -0.6518912172486445
58848 73430.0 -0.7582510334361353 -0.0053847337936750155 0.004629650606483449 -0.6519240302905439
58848 73440.0 -0.758268768868196 -0.0014488699410602536 0.001245699761281472 -0.6519392787423602
58848 73450.0 -0.7582660744963547 0.0024870329480145806 -0.002138284646428509 -0.6519369621932591
58848 73460.0 -0.7582429503932048 0.006422868829720447 -0.005522211442988476 -0.6519170807056547
58848 73470.0 -0.758199397181772 0.010358531662032324 -0.008905989456291452 -0.6518796348152077
58848 73480.0 -0.7581354160354973 0.014293915407588948 -0.012289527518240246 -0.6518246255308114
58848 73490.0 -0.758051008678205 0.018228914036547052 -0.015672734467201428 -0.6517520543345643
58848 73500.0 -0.7579461773840568 0.022163421529440817 -0.01905551915046383 -0.6516619231817296
58848 73510.0 -0.7578209249774904 0.02609733188003557 -0.02243779042669207 -0.6515542345006837
58848 73520.0 -0.757675254833143 0.030030539098186305 -0.025819457168384224 -0.6514289911928499
58848 73530.0 -0.7575091708757609 0.033962937212692286 -0.029200428264326162 -0.6512861966326202
58848 73540.0 -0.7573226775800933 0.03789442027415118 -0.03258061262204542 -0.651125854667265
58848 73550.0 -0.7571157799707722 0.04182488235781604 -0.0359599191702676 -0.6509479696168289
58848 73560.0 -0.7568884836221769 0.04575421756644643 -0.03933825686136765 -0.6507525462740144
58848 73570.0 -0.756640794658283 0.049682320033164334 -0.04271553467382533 -0.6505395899040529
58848 73580.0 -0.7563727197524993 0.05360908392430372 -0.04609166161467516 -0.6503091062445631
58848 73590.0 -0.7560842661274856 0.057534403442264834 -0.04946654672196052 -0.6500611015053956
58848 73600.0 -0.7557754415549602 0.06145817282836179 -0.052840099067181866 -0.6497955823684665
58848 73610.0 -0.7554462543554892 0.06538028636567482 -0.05621222775774907 -0.6495125559875767
58848 73620.0 -0.7550967133982625 0.06930063838189587 -0.059582841939427894 -0.6492120299882198
58848 73630.0 -0.7547268281008556 0.07321912325217825 -0.06295185079879029 -0.6488940124673759
58848 73640.0 -0.754336608428975 0.07713563540198004 -0.06631916356565866 -0.6485585119932938
58848 73650.0 -0.7539260648961904 0.08105006930991084 -0.06968468951555394 -0.6482055376052606
58848 73660.0 -0.7534952085636506 0.08496231951057256 -0.07304833797213756 -0.6478350988133573
58848 73670.0 -0.7530440510397863 0.0888722805974033 -0.07641001830965678 -0.6474472055982032
58848 73680.0 -0.752572604479997 0.09277984722551472 -0.07976963995538419 -0.6470418684106868
58848 73690.0 -0.7520808815863235 0.09668491411453303 -0.08312711239206026 -0.646619098171684
58848 73700.0 -0.7515688956071049 0.10058737605143274 -0.08648234516032971 -0.6461789062717644
58848 73710.0 -0.751036660336624 0.10448712789337422 -0.08983524786118123 -0.645721304570884
58848 73720.0 -0.7504841901147328 0.10838406457053366 -0.0931857301583805 -0.6452463053980655
58848 73730.0 -0.7499114998264677 0.11227808108893683 -0.09653370178090673 -0.6447539215510667
58848 73740.0 -0.7493186049016481 0.11616907253328497 -0.0998790725253821 -0.6442441662960353
58848 73750.0 -0.7487055213144612 0.12005693406978445 -0.10322175225850479 -0.6437170533671513
58848 73760.0 -0.7480722655830311 0.12394156094896837 -0.10656165091947492 -0.6431725969662576
58848 73770.0 -0.7474188547689732 0.1278228485085215 -0.10989867852242317 -0.6426108117624767
58848 73780.0 -0.7467453064769357 0.1317006921760977 -0.11323274515883332 -0.6420317128918157
58848 73790.0 -0.7460516388541246 0.13557498747213975 -0.11656376099996657 -0.6414353159567586
58848 73800.0 -0.7453378705898147 0.13944563001269178 -0.11989163629927964 -0.6408216370258462
58848 73810.0 -0.7446040209148466 0.1433125155122145 -0.12321628139484513 -0.6401906926332422
58848 73820.0 -0.7438501096011079 0.14717553978639197 -0.1265376067117648 -0.639542499778289
58848 73830.0 -0.7430761569610007 0.15103459875494124 -0.12985552276458542 -0.6388770759250486
58848 73840.0 -0.7422821838468951 0.15488958844441444 -0.13316994015970726 -0.6381944390018328
58848 73850.0 -0.7414682116505661 0.15874040499100206 -0.13648076959779515 -0.6374946074007196
58848 73860.0 -0.7406342623026178 0.1625869446433291 -0.1397879218761819 -0.6367775999770584
58848 73870.0 -0.7397803582718931 0.16642910376525288 -0.14309130789127406 -0.636043436048961
58848 73880.0 -0.7389065225648677 0.1702667788386527 -0.14639083864095043 -0.6352921353967821
58848 73890.0 -0.7380127787250297 0.17409986646622158 -0.14968642522696196 -0.6345237182625857
58848 73900.0 -0.7370991508322469 0.17792826337424936 -0.15297797885732511 -0.6337382053496001
58848 73910.0 -0.7361656635021167 0.18175186641540778 -0.15626541084871604 -0.6329356178216597
58848 73920.0 -0.7352123418853029 0.1855705725715271 -0.15954863262885788 -0.6321159773026354
58848 73930.0 -0.7342392116668588 0.1893842789563738 -0.1628275557389092 -0.6312793058758512
58848 73940.0 -0.7332462990655348 0.19319288281842079 -0.16610209183584543 -0.6304256260834902
58848 73950.0 -0.7322336308330719 0.19699628154361784 -0.1693721526948409 -0.6295549609259858
58848 73960.0 -0.7312012342534812 0.20079437265815375 -0.17263765021164382 -0.6286673338614043
58848 73970.0 -0.7301491371423083 0.20458705383122003 -0.17589849640495234 -0.6277627688048097
58848 73980.0 -0.7290773678458845 0.20837422287776527 -0.17915460341878248 -0.6268412901276231
58848 73990.0 -0.7279859552405628 0.21215577776125066 -0.18240588352483766 -0.6259029226569625
58848 74000.0 -0.7268749287319395 0.21593161659639787 -0.1856522491248709 -0.6249476916749761
58848 74010.0 -0.7257443182540628 0.21970163765193365 -0.1888936127530447 -0.6239756229181609
58848 74020.0 -0.7245941542686253 0.22346573935333233 -0.192129887078289 -0.6229867425766684
58848 74030.0 -0.7234244677641445 0.22722382028555058 -0.19536098490665238 -0.6219810772935997
58848 74040.0 -0.7222352902551262 0.23097577919576204 -0.19858681918365317 -0.6209586541642875
58848 74050.0 -0.7210266537812173 0.23472151499608276 -0.20180730299662294 -0.619919500735566
58848 74060.0 -0.7197985909063414 0.23846092676629757 -0.2050223495770503 -0.6188636450050284
58848 74070.0 -0.7185511347178208 0.24219391375657615 -0.20823187230291612 -0.6177911154202739
58848 74080.0 -0.7172843188254874 0.24592037539019077 -0.21143578470103055 -0.6167019408781389
58848 74090.0 -0.7159981773607748 0.24964021126622268 -0.21463400044935937 -0.615596150723921
58848 74100.0 -0.7146927449757996 0.2533533211622705 -0.21782643337935303 -0.6144737747505864
58848 74110.0 -0.713368056842428 0.25705960503714725 -0.2210129974782651 -0.6133348431979685
58848 74120.0 -0.712024148651328 0.26075896303357904 -0.22419360689147264 -0.6121793867519519
58848 74130.0 -0.7106610566110075 0.26445129548089236 -0.2273681759247871 -0.6110074365436473
58848 74140.0 -0.7092788174468392 0.268136502897702 -0.23053661904676478 -0.6098190241485509
58848 74150.0 -0.7078774684000707 0.27181448599458924 -0.23369885089100947 -0.6086141815856955
58848 74160.0 -0.7064570472268216 0.27548514567677923 -0.23685478625847495 -0.6073929413167857
58848 74170.0 -0.7050175921970657 0.27914838304680833 -0.24000434011975755 -0.6061553362453257
58848 74180.0 -0.7035591420936007 0.2828040994071915 -0.24314742761739003 -0.6049013997157306
58848 74190.0 -0.7020817362110019 0.28645219626307805 -0.24628396406812497 -0.60363116551243
58848 74200.0 -0.700585414354565 0.29009257532490934 -0.24941386496521908 -0.6023446678589557
58848 74210.0 -0.6990702168392334 0.2937251385110632 -0.25253704598070786 -0.6010419414170212
58848 74220.0 -0.6975361844885102 0.2973497879504993 -0.2556534229676791 -0.5997230212855874
58848 74230.0 -0.6959833586333614 0.3009664259853942 -0.258762911962539 -0.5983879429999166
58848 74240.0 -0.6944117811110995 0.3045749551737742 -0.26186542918727534 -0.5970367425306152
58848 74250.0 -0.6928214942642577 0.30817527829213875 -0.2649608910517135 -0.5956694562826653
58848 74260.0 -0.691212540939449 0.31176729833808176 -0.26804921415577015 -0.5942861210944423
58848 74270.0 -0.6895849644862116 0.3153509185329036 -0.2711303152916984 -0.5928867742367242
58848 74280.0 -0.687938808755841 0.31892604232422006 -0.27420411144633156 -0.5914714534116857
58848 74290.0 -0.6862741181002083 0.32249257338856213 -0.27727051980331824 -0.5900401967518839
58848 74300.0 -0.6845909373705654 0.3260504156339728 -0.28032945774535456 -0.5885930428192298
58848 74310.0 -0.6828893119163371 0.32959947320259425 -0.28338084285640924 -0.58713003060395
58848 74320.0 -0.6811692875838977 0.3331396504732527 -0.28642459292394545 -0.5856511995235357
58848 74330.0 -0.6794309107153383 0.3366708520640324 -0.289460625941134 -0.5841565894216816
58848 74340.0 -0.6776742281472161 0.34019298283484783 -0.2924888601090651 -0.5826462405672106
58848 74350.0 -0.6758992872092924 0.34370594789000425 -0.29550921383894935 -0.5811201936529914
58848 74360.0 -0.6741061357232594 0.34720965258075764 -0.29852160575431913 -0.5795784897948395
58848 74370.0 -0.6722948220014501 0.3507040025078618 -0.3015259546932186 -0.5780211705304117
58848 74380.0 -0.6704653948455368 0.35418890352411414 -0.3045221797103918 -0.5764482778180848
58848 74390.0 -0.668617903545217 0.3576642617368902 -0.30751020007946284 -0.5748598540358275
58848 74400.0 -0.6667523978768845 0.3611299835106753 -0.31048993529511154 -0.5732559419800561
58848 74410.0 -0.6648689281022889 0.36458597546958565 -0.31346130507524167 -0.571636584864484
58848 74420.0 -0.6629675449671811 0.3680321444998855 -0.3164242293631448 -0.5700018263189549
58848 74430.0 -0.6610482996999467 0.37146839775249446 -0.3193786283296559 -0.5683517103882697
58848 74440.0 -0.6591112440102245 0.3748946426454909 -0.3223244223753068 -0.5666862815309975
58848 74450.0 -0.6571564300875147 0.37831078686660435 -0.3252615321324669 -0.56500558461828
